11 o/1742_HEM_Lanosterol.pdb_6366.pdb o/1742_HEM_Lanosterol.pdb_6231.pdb o/1742_HEM_Lanosterol.pdb_5827.pdb o/1742_HEM_Lanosterol.pdb_6735.pdb o/1742_HEM_Lanosterol.pdb_5130.pdb o/1742_HEM_Lanosterol.pdb_4397.pdb o/1742_HEM_Lanosterol.pdb_5555.pdb o/1742_HEM_Lanosterol.pdb_4346.pdb o/1742_HEM_Lanosterol.pdb_7870.pdb o/1742_HEM_Lanosterol.pdb_5086.pdb o/1742_HEM_Lanosterol.pdb_4344.pdb 
10 o/1742_HEM_Lanosterol.pdb_9732.pdb o/1742_HEM_Lanosterol.pdb_8195.pdb o/1742_HEM_Lanosterol.pdb_8804.pdb o/1742_HEM_Lanosterol.pdb_7062.pdb o/1742_HEM_Lanosterol.pdb_8009.pdb o/1742_HEM_Lanosterol.pdb_4326.pdb o/1742_HEM_Lanosterol.pdb_479.pdb o/1742_HEM_Lanosterol.pdb_3923.pdb o/1742_HEM_Lanosterol.pdb_9843.pdb o/1742_HEM_Lanosterol.pdb_2480.pdb 
14 o/1742_HEM_Lanosterol.pdb_7664.pdb o/1742_HEM_Lanosterol.pdb_9265.pdb o/1742_HEM_Lanosterol.pdb_7830.pdb o/1742_HEM_Lanosterol.pdb_3769.pdb o/1742_HEM_Lanosterol.pdb_560.pdb o/1742_HEM_Lanosterol.pdb_4879.pdb o/1742_HEM_Lanosterol.pdb_8038.pdb o/1742_HEM_Lanosterol.pdb_2524.pdb o/1742_HEM_Lanosterol.pdb_7679.pdb o/1742_HEM_Lanosterol.pdb_9131.pdb o/1742_HEM_Lanosterol.pdb_511.pdb o/1742_HEM_Lanosterol.pdb_8178.pdb o/1742_HEM_Lanosterol.pdb_4153.pdb o/1742_HEM_Lanosterol.pdb_2491.pdb 
14 o/1742_HEM_Lanosterol.pdb_5886.pdb o/1742_HEM_Lanosterol.pdb_6482.pdb o/1742_HEM_Lanosterol.pdb_6043.pdb o/1742_HEM_Lanosterol.pdb_616.pdb o/1742_HEM_Lanosterol.pdb_5645.pdb o/1742_HEM_Lanosterol.pdb_7999.pdb o/1742_HEM_Lanosterol.pdb_4886.pdb o/1742_HEM_Lanosterol.pdb_6080.pdb o/1742_HEM_Lanosterol.pdb_373.pdb o/1742_HEM_Lanosterol.pdb_8969.pdb o/1742_HEM_Lanosterol.pdb_65.pdb o/1742_HEM_Lanosterol.pdb_9812.pdb o/1742_HEM_Lanosterol.pdb_8175.pdb o/1742_HEM_Lanosterol.pdb_2199.pdb 
12 o/1742_HEM_Lanosterol.pdb_960.pdb o/1742_HEM_Lanosterol.pdb_5054.pdb o/1742_HEM_Lanosterol.pdb_741.pdb o/1742_HEM_Lanosterol.pdb_4956.pdb o/1742_HEM_Lanosterol.pdb_8384.pdb o/1742_HEM_Lanosterol.pdb_5943.pdb o/1742_HEM_Lanosterol.pdb_4719.pdb o/1742_HEM_Lanosterol.pdb_2551.pdb o/1742_HEM_Lanosterol.pdb_7105.pdb o/1742_HEM_Lanosterol.pdb_2912.pdb o/1742_HEM_Lanosterol.pdb_5552.pdb o/1742_HEM_Lanosterol.pdb_2466.pdb 
11 o/1742_HEM_Lanosterol.pdb_8865.pdb o/1742_HEM_Lanosterol.pdb_555.pdb o/1742_HEM_Lanosterol.pdb_9926.pdb o/1742_HEM_Lanosterol.pdb_5845.pdb o/1742_HEM_Lanosterol.pdb_8260.pdb o/1742_HEM_Lanosterol.pdb_5083.pdb o/1742_HEM_Lanosterol.pdb_5407.pdb o/1742_HEM_Lanosterol.pdb_9466.pdb o/1742_HEM_Lanosterol.pdb_7509.pdb o/1742_HEM_Lanosterol.pdb_7191.pdb o/1742_HEM_Lanosterol.pdb_1956.pdb 
16 o/1742_HEM_Lanosterol.pdb_8381.pdb o/1742_HEM_Lanosterol.pdb_7129.pdb o/1742_HEM_Lanosterol.pdb_8598.pdb o/1742_HEM_Lanosterol.pdb_8982.pdb o/1742_HEM_Lanosterol.pdb_5565.pdb o/1742_HEM_Lanosterol.pdb_6596.pdb o/1742_HEM_Lanosterol.pdb_5210.pdb o/1742_HEM_Lanosterol.pdb_5107.pdb o/1742_HEM_Lanosterol.pdb_9944.pdb o/1742_HEM_Lanosterol.pdb_8179.pdb o/1742_HEM_Lanosterol.pdb_6371.pdb o/1742_HEM_Lanosterol.pdb_928.pdb o/1742_HEM_Lanosterol.pdb_4090.pdb o/1742_HEM_Lanosterol.pdb_9442.pdb o/1742_HEM_Lanosterol.pdb_7778.pdb o/1742_HEM_Lanosterol.pdb_3661.pdb 
11 o/1742_HEM_Lanosterol.pdb_9345.pdb o/1742_HEM_Lanosterol.pdb_2973.pdb o/1742_HEM_Lanosterol.pdb_5209.pdb o/1742_HEM_Lanosterol.pdb_9578.pdb o/1742_HEM_Lanosterol.pdb_6330.pdb o/1742_HEM_Lanosterol.pdb_942.pdb o/1742_HEM_Lanosterol.pdb_1927.pdb o/1742_HEM_Lanosterol.pdb_8967.pdb o/1742_HEM_Lanosterol.pdb_3137.pdb o/1742_HEM_Lanosterol.pdb_6251.pdb o/1742_HEM_Lanosterol.pdb_1912.pdb 
10 o/1742_HEM_Lanosterol.pdb_9488.pdb o/1742_HEM_Lanosterol.pdb_4447.pdb o/1742_HEM_Lanosterol.pdb_3525.pdb o/1742_HEM_Lanosterol.pdb_8031.pdb o/1742_HEM_Lanosterol.pdb_8712.pdb o/1742_HEM_Lanosterol.pdb_4286.pdb o/1742_HEM_Lanosterol.pdb_5519.pdb o/1742_HEM_Lanosterol.pdb_5034.pdb o/1742_HEM_Lanosterol.pdb_3732.pdb o/1742_HEM_Lanosterol.pdb_3085.pdb 
11 o/1742_HEM_Lanosterol.pdb_7098.pdb o/1742_HEM_Lanosterol.pdb_5094.pdb o/1742_HEM_Lanosterol.pdb_7945.pdb o/1742_HEM_Lanosterol.pdb_4440.pdb o/1742_HEM_Lanosterol.pdb_3985.pdb o/1742_HEM_Lanosterol.pdb_5036.pdb o/1742_HEM_Lanosterol.pdb_3549.pdb o/1742_HEM_Lanosterol.pdb_7407.pdb o/1742_HEM_Lanosterol.pdb_2934.pdb o/1742_HEM_Lanosterol.pdb_3144.pdb o/1742_HEM_Lanosterol.pdb_2642.pdb 
10 o/1742_HEM_Lanosterol.pdb_7263.pdb o/1742_HEM_Lanosterol.pdb_9460.pdb o/1742_HEM_Lanosterol.pdb_6143.pdb o/1742_HEM_Lanosterol.pdb_4685.pdb o/1742_HEM_Lanosterol.pdb_3678.pdb o/1742_HEM_Lanosterol.pdb_5979.pdb o/1742_HEM_Lanosterol.pdb_3902.pdb o/1742_HEM_Lanosterol.pdb_2050.pdb o/1742_HEM_Lanosterol.pdb_8024.pdb o/1742_HEM_Lanosterol.pdb_1771.pdb 
15 o/1742_HEM_Lanosterol.pdb_3803.pdb o/1742_HEM_Lanosterol.pdb_3044.pdb o/1742_HEM_Lanosterol.pdb_42.pdb o/1742_HEM_Lanosterol.pdb_6386.pdb o/1742_HEM_Lanosterol.pdb_2582.pdb o/1742_HEM_Lanosterol.pdb_9099.pdb o/1742_HEM_Lanosterol.pdb_507.pdb o/1742_HEM_Lanosterol.pdb_3423.pdb o/1742_HEM_Lanosterol.pdb_5641.pdb o/1742_HEM_Lanosterol.pdb_2986.pdb o/1742_HEM_Lanosterol.pdb_5820.pdb o/1742_HEM_Lanosterol.pdb_6214.pdb o/1742_HEM_Lanosterol.pdb_2322.pdb o/1742_HEM_Lanosterol.pdb_3378.pdb o/1742_HEM_Lanosterol.pdb_1765.pdb 
13 o/1742_HEM_Lanosterol.pdb_4209.pdb o/1742_HEM_Lanosterol.pdb_242.pdb o/1742_HEM_Lanosterol.pdb_5508.pdb o/1742_HEM_Lanosterol.pdb_8593.pdb o/1742_HEM_Lanosterol.pdb_6665.pdb o/1742_HEM_Lanosterol.pdb_6106.pdb o/1742_HEM_Lanosterol.pdb_2183.pdb o/1742_HEM_Lanosterol.pdb_3969.pdb o/1742_HEM_Lanosterol.pdb_5283.pdb o/1742_HEM_Lanosterol.pdb_443.pdb o/1742_HEM_Lanosterol.pdb_3959.pdb o/1742_HEM_Lanosterol.pdb_6580.pdb o/1742_HEM_Lanosterol.pdb_1948.pdb 
12 o/1742_HEM_Lanosterol.pdb_8329.pdb o/1742_HEM_Lanosterol.pdb_651.pdb o/1742_HEM_Lanosterol.pdb_3767.pdb o/1742_HEM_Lanosterol.pdb_6748.pdb o/1742_HEM_Lanosterol.pdb_5925.pdb o/1742_HEM_Lanosterol.pdb_5907.pdb o/1742_HEM_Lanosterol.pdb_6560.pdb o/1742_HEM_Lanosterol.pdb_515.pdb o/1742_HEM_Lanosterol.pdb_2215.pdb o/1742_HEM_Lanosterol.pdb_4701.pdb o/1742_HEM_Lanosterol.pdb_7756.pdb o/1742_HEM_Lanosterol.pdb_1692.pdb 
12 o/1742_HEM_Lanosterol.pdb_6259.pdb o/1742_HEM_Lanosterol.pdb_4844.pdb o/1742_HEM_Lanosterol.pdb_3542.pdb o/1742_HEM_Lanosterol.pdb_9567.pdb o/1742_HEM_Lanosterol.pdb_4795.pdb o/1742_HEM_Lanosterol.pdb_4239.pdb o/1742_HEM_Lanosterol.pdb_4156.pdb o/1742_HEM_Lanosterol.pdb_6446.pdb o/1742_HEM_Lanosterol.pdb_8167.pdb o/1742_HEM_Lanosterol.pdb_274.pdb o/1742_HEM_Lanosterol.pdb_539.pdb o/1742_HEM_Lanosterol.pdb_2484.pdb 
10 o/1742_HEM_Lanosterol.pdb_8939.pdb o/1742_HEM_Lanosterol.pdb_8008.pdb o/1742_HEM_Lanosterol.pdb_4392.pdb o/1742_HEM_Lanosterol.pdb_273.pdb o/1742_HEM_Lanosterol.pdb_7511.pdb o/1742_HEM_Lanosterol.pdb_2483.pdb o/1742_HEM_Lanosterol.pdb_8300.pdb o/1742_HEM_Lanosterol.pdb_7941.pdb o/1742_HEM_Lanosterol.pdb_3829.pdb o/1742_HEM_Lanosterol.pdb_1615.pdb 
10 o/1742_HEM_Lanosterol.pdb_6012.pdb o/1742_HEM_Lanosterol.pdb_5240.pdb o/1742_HEM_Lanosterol.pdb_5178.pdb o/1742_HEM_Lanosterol.pdb_2247.pdb o/1742_HEM_Lanosterol.pdb_7637.pdb o/1742_HEM_Lanosterol.pdb_2439.pdb o/1742_HEM_Lanosterol.pdb_5290.pdb o/1742_HEM_Lanosterol.pdb_485.pdb o/1742_HEM_Lanosterol.pdb_1678.pdb o/1742_HEM_Lanosterol.pdb_161.pdb 
11 o/1742_HEM_Lanosterol.pdb_8908.pdb o/1742_HEM_Lanosterol.pdb_8192.pdb o/1742_HEM_Lanosterol.pdb_5658.pdb o/1742_HEM_Lanosterol.pdb_4540.pdb o/1742_HEM_Lanosterol.pdb_8086.pdb o/1742_HEM_Lanosterol.pdb_7983.pdb o/1742_HEM_Lanosterol.pdb_8863.pdb o/1742_HEM_Lanosterol.pdb_7716.pdb o/1742_HEM_Lanosterol.pdb_4120.pdb o/1742_HEM_Lanosterol.pdb_5689.pdb o/1742_HEM_Lanosterol.pdb_217.pdb 
10 o/1742_HEM_Lanosterol.pdb_9610.pdb o/1742_HEM_Lanosterol.pdb_5707.pdb o/1742_HEM_Lanosterol.pdb_6891.pdb o/1742_HEM_Lanosterol.pdb_2605.pdb o/1742_HEM_Lanosterol.pdb_6197.pdb o/1742_HEM_Lanosterol.pdb_4599.pdb o/1742_HEM_Lanosterol.pdb_8190.pdb o/1742_HEM_Lanosterol.pdb_5939.pdb o/1742_HEM_Lanosterol.pdb_5694.pdb o/1742_HEM_Lanosterol.pdb_2039.pdb 
10 o/1742_HEM_Lanosterol.pdb_9057.pdb o/1742_HEM_Lanosterol.pdb_6274.pdb o/1742_HEM_Lanosterol.pdb_9623.pdb o/1742_HEM_Lanosterol.pdb_5860.pdb o/1742_HEM_Lanosterol.pdb_9906.pdb o/1742_HEM_Lanosterol.pdb_5774.pdb o/1742_HEM_Lanosterol.pdb_8465.pdb o/1742_HEM_Lanosterol.pdb_4421.pdb o/1742_HEM_Lanosterol.pdb_5029.pdb o/1742_HEM_Lanosterol.pdb_4192.pdb 
13 o/1742_HEM_Lanosterol.pdb_7950.pdb o/1742_HEM_Lanosterol.pdb_6597.pdb o/1742_HEM_Lanosterol.pdb_5058.pdb o/1742_HEM_Lanosterol.pdb_8898.pdb o/1742_HEM_Lanosterol.pdb_8836.pdb o/1742_HEM_Lanosterol.pdb_5085.pdb o/1742_HEM_Lanosterol.pdb_8252.pdb o/1742_HEM_Lanosterol.pdb_2265.pdb o/1742_HEM_Lanosterol.pdb_2223.pdb o/1742_HEM_Lanosterol.pdb_7491.pdb o/1742_HEM_Lanosterol.pdb_8995.pdb o/1742_HEM_Lanosterol.pdb_4598.pdb o/1742_HEM_Lanosterol.pdb_1527.pdb 
11 o/1742_HEM_Lanosterol.pdb_9077.pdb o/1742_HEM_Lanosterol.pdb_3668.pdb o/1742_HEM_Lanosterol.pdb_7182.pdb o/1742_HEM_Lanosterol.pdb_5511.pdb o/1742_HEM_Lanosterol.pdb_2485.pdb o/1742_HEM_Lanosterol.pdb_5425.pdb o/1742_HEM_Lanosterol.pdb_7802.pdb o/1742_HEM_Lanosterol.pdb_3813.pdb o/1742_HEM_Lanosterol.pdb_9569.pdb o/1742_HEM_Lanosterol.pdb_8444.pdb o/1742_HEM_Lanosterol.pdb_1888.pdb 
10 o/1742_HEM_Lanosterol.pdb_9955.pdb o/1742_HEM_Lanosterol.pdb_970.pdb o/1742_HEM_Lanosterol.pdb_8817.pdb o/1742_HEM_Lanosterol.pdb_9716.pdb o/1742_HEM_Lanosterol.pdb_3906.pdb o/1742_HEM_Lanosterol.pdb_7718.pdb o/1742_HEM_Lanosterol.pdb_5581.pdb o/1742_HEM_Lanosterol.pdb_9556.pdb o/1742_HEM_Lanosterol.pdb_9738.pdb o/1742_HEM_Lanosterol.pdb_3847.pdb 
10 o/1742_HEM_Lanosterol.pdb_9089.pdb o/1742_HEM_Lanosterol.pdb_8482.pdb o/1742_HEM_Lanosterol.pdb_7337.pdb o/1742_HEM_Lanosterol.pdb_3079.pdb o/1742_HEM_Lanosterol.pdb_8293.pdb o/1742_HEM_Lanosterol.pdb_2240.pdb o/1742_HEM_Lanosterol.pdb_3949.pdb o/1742_HEM_Lanosterol.pdb_9526.pdb o/1742_HEM_Lanosterol.pdb_2584.pdb o/1742_HEM_Lanosterol.pdb_1510.pdb 
11 o/1742_HEM_Lanosterol.pdb_4529.pdb o/1742_HEM_Lanosterol.pdb_8747.pdb o/1742_HEM_Lanosterol.pdb_7425.pdb o/1742_HEM_Lanosterol.pdb_6642.pdb o/1742_HEM_Lanosterol.pdb_6751.pdb o/1742_HEM_Lanosterol.pdb_4607.pdb o/1742_HEM_Lanosterol.pdb_9751.pdb o/1742_HEM_Lanosterol.pdb_6345.pdb o/1742_HEM_Lanosterol.pdb_4873.pdb o/1742_HEM_Lanosterol.pdb_3338.pdb o/1742_HEM_Lanosterol.pdb_1616.pdb 
10 o/1742_HEM_Lanosterol.pdb_7530.pdb o/1742_HEM_Lanosterol.pdb_4336.pdb o/1742_HEM_Lanosterol.pdb_4423.pdb o/1742_HEM_Lanosterol.pdb_8938.pdb o/1742_HEM_Lanosterol.pdb_7696.pdb o/1742_HEM_Lanosterol.pdb_3260.pdb o/1742_HEM_Lanosterol.pdb_9462.pdb o/1742_HEM_Lanosterol.pdb_8707.pdb o/1742_HEM_Lanosterol.pdb_788.pdb o/1742_HEM_Lanosterol.pdb_1485.pdb 
13 o/1742_HEM_Lanosterol.pdb_9404.pdb o/1742_HEM_Lanosterol.pdb_7224.pdb o/1742_HEM_Lanosterol.pdb_6469.pdb o/1742_HEM_Lanosterol.pdb_9430.pdb o/1742_HEM_Lanosterol.pdb_5535.pdb o/1742_HEM_Lanosterol.pdb_8016.pdb o/1742_HEM_Lanosterol.pdb_7100.pdb o/1742_HEM_Lanosterol.pdb_9794.pdb o/1742_HEM_Lanosterol.pdb_5297.pdb o/1742_HEM_Lanosterol.pdb_6569.pdb o/1742_HEM_Lanosterol.pdb_9194.pdb o/1742_HEM_Lanosterol.pdb_9608.pdb o/1742_HEM_Lanosterol.pdb_2552.pdb 
12 o/1742_HEM_Lanosterol.pdb_9058.pdb o/1742_HEM_Lanosterol.pdb_852.pdb o/1742_HEM_Lanosterol.pdb_3299.pdb o/1742_HEM_Lanosterol.pdb_2879.pdb o/1742_HEM_Lanosterol.pdb_2449.pdb o/1742_HEM_Lanosterol.pdb_4933.pdb o/1742_HEM_Lanosterol.pdb_4750.pdb o/1742_HEM_Lanosterol.pdb_5481.pdb o/1742_HEM_Lanosterol.pdb_8040.pdb o/1742_HEM_Lanosterol.pdb_5352.pdb o/1742_HEM_Lanosterol.pdb_4547.pdb o/1742_HEM_Lanosterol.pdb_1477.pdb 
10 o/1742_HEM_Lanosterol.pdb_5302.pdb o/1742_HEM_Lanosterol.pdb_391.pdb o/1742_HEM_Lanosterol.pdb_3690.pdb o/1742_HEM_Lanosterol.pdb_2903.pdb o/1742_HEM_Lanosterol.pdb_7306.pdb o/1742_HEM_Lanosterol.pdb_3041.pdb o/1742_HEM_Lanosterol.pdb_1719.pdb o/1742_HEM_Lanosterol.pdb_7243.pdb o/1742_HEM_Lanosterol.pdb_8410.pdb o/1742_HEM_Lanosterol.pdb_1605.pdb 
17 o/1742_HEM_Lanosterol.pdb_985.pdb o/1742_HEM_Lanosterol.pdb_9153.pdb o/1742_HEM_Lanosterol.pdb_7784.pdb o/1742_HEM_Lanosterol.pdb_3994.pdb o/1742_HEM_Lanosterol.pdb_8729.pdb o/1742_HEM_Lanosterol.pdb_3370.pdb o/1742_HEM_Lanosterol.pdb_4413.pdb o/1742_HEM_Lanosterol.pdb_2288.pdb o/1742_HEM_Lanosterol.pdb_7161.pdb o/1742_HEM_Lanosterol.pdb_1936.pdb o/1742_HEM_Lanosterol.pdb_5652.pdb o/1742_HEM_Lanosterol.pdb_1684.pdb o/1742_HEM_Lanosterol.pdb_8254.pdb o/1742_HEM_Lanosterol.pdb_9908.pdb o/1742_HEM_Lanosterol.pdb_3298.pdb o/1742_HEM_Lanosterol.pdb_1944.pdb o/1742_HEM_Lanosterol.pdb_1462.pdb 
16 o/1742_HEM_Lanosterol.pdb_7601.pdb o/1742_HEM_Lanosterol.pdb_6902.pdb o/1742_HEM_Lanosterol.pdb_6707.pdb o/1742_HEM_Lanosterol.pdb_2361.pdb o/1742_HEM_Lanosterol.pdb_2110.pdb o/1742_HEM_Lanosterol.pdb_6661.pdb o/1742_HEM_Lanosterol.pdb_6554.pdb o/1742_HEM_Lanosterol.pdb_5341.pdb o/1742_HEM_Lanosterol.pdb_7172.pdb o/1742_HEM_Lanosterol.pdb_2895.pdb o/1742_HEM_Lanosterol.pdb_7686.pdb o/1742_HEM_Lanosterol.pdb_581.pdb o/1742_HEM_Lanosterol.pdb_2947.pdb o/1742_HEM_Lanosterol.pdb_2781.pdb o/1742_HEM_Lanosterol.pdb_4471.pdb o/1742_HEM_Lanosterol.pdb_1445.pdb 
14 o/1742_HEM_Lanosterol.pdb_3900.pdb o/1742_HEM_Lanosterol.pdb_3780.pdb o/1742_HEM_Lanosterol.pdb_3194.pdb o/1742_HEM_Lanosterol.pdb_4237.pdb o/1742_HEM_Lanosterol.pdb_6226.pdb o/1742_HEM_Lanosterol.pdb_5736.pdb o/1742_HEM_Lanosterol.pdb_3881.pdb o/1742_HEM_Lanosterol.pdb_4954.pdb o/1742_HEM_Lanosterol.pdb_9678.pdb o/1742_HEM_Lanosterol.pdb_849.pdb o/1742_HEM_Lanosterol.pdb_3069.pdb o/1742_HEM_Lanosterol.pdb_2793.pdb o/1742_HEM_Lanosterol.pdb_6663.pdb o/1742_HEM_Lanosterol.pdb_2317.pdb 
10 o/1742_HEM_Lanosterol.pdb_8869.pdb o/1742_HEM_Lanosterol.pdb_7828.pdb o/1742_HEM_Lanosterol.pdb_7753.pdb o/1742_HEM_Lanosterol.pdb_678.pdb o/1742_HEM_Lanosterol.pdb_9508.pdb o/1742_HEM_Lanosterol.pdb_4330.pdb o/1742_HEM_Lanosterol.pdb_7728.pdb o/1742_HEM_Lanosterol.pdb_4162.pdb o/1742_HEM_Lanosterol.pdb_8730.pdb o/1742_HEM_Lanosterol.pdb_2329.pdb 
10 o/1742_HEM_Lanosterol.pdb_8365.pdb o/1742_HEM_Lanosterol.pdb_3679.pdb o/1742_HEM_Lanosterol.pdb_3422.pdb o/1742_HEM_Lanosterol.pdb_606.pdb o/1742_HEM_Lanosterol.pdb_668.pdb o/1742_HEM_Lanosterol.pdb_3553.pdb o/1742_HEM_Lanosterol.pdb_9641.pdb o/1742_HEM_Lanosterol.pdb_7.pdb o/1742_HEM_Lanosterol.pdb_7408.pdb o/1742_HEM_Lanosterol.pdb_2938.pdb 
11 o/1742_HEM_Lanosterol.pdb_4686.pdb o/1742_HEM_Lanosterol.pdb_3531.pdb o/1742_HEM_Lanosterol.pdb_7194.pdb o/1742_HEM_Lanosterol.pdb_3506.pdb o/1742_HEM_Lanosterol.pdb_9035.pdb o/1742_HEM_Lanosterol.pdb_6336.pdb o/1742_HEM_Lanosterol.pdb_7342.pdb o/1742_HEM_Lanosterol.pdb_4329.pdb o/1742_HEM_Lanosterol.pdb_4135.pdb o/1742_HEM_Lanosterol.pdb_2628.pdb o/1742_HEM_Lanosterol.pdb_2114.pdb 
10 o/1742_HEM_Lanosterol.pdb_9708.pdb o/1742_HEM_Lanosterol.pdb_7909.pdb o/1742_HEM_Lanosterol.pdb_7327.pdb o/1742_HEM_Lanosterol.pdb_6314.pdb o/1742_HEM_Lanosterol.pdb_4747.pdb o/1742_HEM_Lanosterol.pdb_9671.pdb o/1742_HEM_Lanosterol.pdb_6169.pdb o/1742_HEM_Lanosterol.pdb_3779.pdb o/1742_HEM_Lanosterol.pdb_6536.pdb o/1742_HEM_Lanosterol.pdb_3743.pdb 
10 o/1742_HEM_Lanosterol.pdb_5238.pdb o/1742_HEM_Lanosterol.pdb_8775.pdb o/1742_HEM_Lanosterol.pdb_9961.pdb o/1742_HEM_Lanosterol.pdb_3756.pdb o/1742_HEM_Lanosterol.pdb_8570.pdb o/1742_HEM_Lanosterol.pdb_9601.pdb o/1742_HEM_Lanosterol.pdb_6830.pdb o/1742_HEM_Lanosterol.pdb_3348.pdb o/1742_HEM_Lanosterol.pdb_829.pdb o/1742_HEM_Lanosterol.pdb_3245.pdb 
10 o/1742_HEM_Lanosterol.pdb_8124.pdb o/1742_HEM_Lanosterol.pdb_9310.pdb o/1742_HEM_Lanosterol.pdb_8171.pdb o/1742_HEM_Lanosterol.pdb_6500.pdb o/1742_HEM_Lanosterol.pdb_8168.pdb o/1742_HEM_Lanosterol.pdb_7594.pdb o/1742_HEM_Lanosterol.pdb_6263.pdb o/1742_HEM_Lanosterol.pdb_9940.pdb o/1742_HEM_Lanosterol.pdb_8575.pdb o/1742_HEM_Lanosterol.pdb_5147.pdb 
12 o/1742_HEM_Lanosterol.pdb_9877.pdb o/1742_HEM_Lanosterol.pdb_9258.pdb o/1742_HEM_Lanosterol.pdb_7240.pdb o/1742_HEM_Lanosterol.pdb_5523.pdb o/1742_HEM_Lanosterol.pdb_1891.pdb o/1742_HEM_Lanosterol.pdb_1651.pdb o/1742_HEM_Lanosterol.pdb_3822.pdb o/1742_HEM_Lanosterol.pdb_1819.pdb o/1742_HEM_Lanosterol.pdb_5794.pdb o/1742_HEM_Lanosterol.pdb_445.pdb o/1742_HEM_Lanosterol.pdb_9879.pdb o/1742_HEM_Lanosterol.pdb_1358.pdb 
12 o/1742_HEM_Lanosterol.pdb_9757.pdb o/1742_HEM_Lanosterol.pdb_9818.pdb o/1742_HEM_Lanosterol.pdb_95.pdb o/1742_HEM_Lanosterol.pdb_6944.pdb o/1742_HEM_Lanosterol.pdb_9425.pdb o/1742_HEM_Lanosterol.pdb_9724.pdb o/1742_HEM_Lanosterol.pdb_3380.pdb o/1742_HEM_Lanosterol.pdb_4080.pdb o/1742_HEM_Lanosterol.pdb_7577.pdb o/1742_HEM_Lanosterol.pdb_9626.pdb o/1742_HEM_Lanosterol.pdb_1914.pdb o/1742_HEM_Lanosterol.pdb_1803.pdb 
10 o/1742_HEM_Lanosterol.pdb_6570.pdb o/1742_HEM_Lanosterol.pdb_518.pdb o/1742_HEM_Lanosterol.pdb_1561.pdb o/1742_HEM_Lanosterol.pdb_6880.pdb o/1742_HEM_Lanosterol.pdb_3796.pdb o/1742_HEM_Lanosterol.pdb_253.pdb o/1742_HEM_Lanosterol.pdb_2438.pdb o/1742_HEM_Lanosterol.pdb_2169.pdb o/1742_HEM_Lanosterol.pdb_974.pdb o/1742_HEM_Lanosterol.pdb_1350.pdb 
10 o/1742_HEM_Lanosterol.pdb_9177.pdb o/1742_HEM_Lanosterol.pdb_8153.pdb o/1742_HEM_Lanosterol.pdb_3301.pdb o/1742_HEM_Lanosterol.pdb_7517.pdb o/1742_HEM_Lanosterol.pdb_2179.pdb o/1742_HEM_Lanosterol.pdb_5792.pdb o/1742_HEM_Lanosterol.pdb_8258.pdb o/1742_HEM_Lanosterol.pdb_2898.pdb o/1742_HEM_Lanosterol.pdb_2260.pdb o/1742_HEM_Lanosterol.pdb_1621.pdb 
12 o/1742_HEM_Lanosterol.pdb_4464.pdb o/1742_HEM_Lanosterol.pdb_6211.pdb o/1742_HEM_Lanosterol.pdb_5974.pdb o/1742_HEM_Lanosterol.pdb_8344.pdb o/1742_HEM_Lanosterol.pdb_5988.pdb o/1742_HEM_Lanosterol.pdb_8226.pdb o/1742_HEM_Lanosterol.pdb_4679.pdb o/1742_HEM_Lanosterol.pdb_9562.pdb o/1742_HEM_Lanosterol.pdb_930.pdb o/1742_HEM_Lanosterol.pdb_5066.pdb o/1742_HEM_Lanosterol.pdb_9416.pdb o/1742_HEM_Lanosterol.pdb_4241.pdb 
12 o/1742_HEM_Lanosterol.pdb_6703.pdb o/1742_HEM_Lanosterol.pdb_7356.pdb o/1742_HEM_Lanosterol.pdb_5212.pdb o/1742_HEM_Lanosterol.pdb_7038.pdb o/1742_HEM_Lanosterol.pdb_6781.pdb o/1742_HEM_Lanosterol.pdb_3168.pdb o/1742_HEM_Lanosterol.pdb_3367.pdb o/1742_HEM_Lanosterol.pdb_2303.pdb o/1742_HEM_Lanosterol.pdb_2459.pdb o/1742_HEM_Lanosterol.pdb_9336.pdb o/1742_HEM_Lanosterol.pdb_7807.pdb o/1742_HEM_Lanosterol.pdb_1426.pdb 
10 o/1742_HEM_Lanosterol.pdb_8340.pdb o/1742_HEM_Lanosterol.pdb_4799.pdb o/1742_HEM_Lanosterol.pdb_7014.pdb o/1742_HEM_Lanosterol.pdb_8218.pdb o/1742_HEM_Lanosterol.pdb_3872.pdb o/1742_HEM_Lanosterol.pdb_618.pdb o/1742_HEM_Lanosterol.pdb_201.pdb o/1742_HEM_Lanosterol.pdb_8798.pdb o/1742_HEM_Lanosterol.pdb_2093.pdb o/1742_HEM_Lanosterol.pdb_1449.pdb 
15 o/1742_HEM_Lanosterol.pdb_2451.pdb o/1742_HEM_Lanosterol.pdb_4666.pdb o/1742_HEM_Lanosterol.pdb_136.pdb o/1742_HEM_Lanosterol.pdb_7462.pdb o/1742_HEM_Lanosterol.pdb_4894.pdb o/1742_HEM_Lanosterol.pdb_4430.pdb o/1742_HEM_Lanosterol.pdb_7643.pdb o/1742_HEM_Lanosterol.pdb_3476.pdb o/1742_HEM_Lanosterol.pdb_6199.pdb o/1742_HEM_Lanosterol.pdb_2746.pdb o/1742_HEM_Lanosterol.pdb_9586.pdb o/1742_HEM_Lanosterol.pdb_6691.pdb o/1742_HEM_Lanosterol.pdb_2837.pdb o/1742_HEM_Lanosterol.pdb_7065.pdb o/1742_HEM_Lanosterol.pdb_1327.pdb 
16 o/1742_HEM_Lanosterol.pdb_5466.pdb o/1742_HEM_Lanosterol.pdb_3659.pdb o/1742_HEM_Lanosterol.pdb_464.pdb o/1742_HEM_Lanosterol.pdb_3488.pdb o/1742_HEM_Lanosterol.pdb_3199.pdb o/1742_HEM_Lanosterol.pdb_7854.pdb o/1742_HEM_Lanosterol.pdb_6765.pdb o/1742_HEM_Lanosterol.pdb_3177.pdb o/1742_HEM_Lanosterol.pdb_9138.pdb o/1742_HEM_Lanosterol.pdb_3983.pdb o/1742_HEM_Lanosterol.pdb_2541.pdb o/1742_HEM_Lanosterol.pdb_1592.pdb o/1742_HEM_Lanosterol.pdb_2094.pdb o/1742_HEM_Lanosterol.pdb_2139.pdb o/1742_HEM_Lanosterol.pdb_8035.pdb o/1742_HEM_Lanosterol.pdb_1277.pdb 
11 o/1742_HEM_Lanosterol.pdb_7434.pdb o/1742_HEM_Lanosterol.pdb_8224.pdb o/1742_HEM_Lanosterol.pdb_3090.pdb o/1742_HEM_Lanosterol.pdb_7564.pdb o/1742_HEM_Lanosterol.pdb_936.pdb o/1742_HEM_Lanosterol.pdb_8828.pdb o/1742_HEM_Lanosterol.pdb_3502.pdb o/1742_HEM_Lanosterol.pdb_9147.pdb o/1742_HEM_Lanosterol.pdb_6792.pdb o/1742_HEM_Lanosterol.pdb_3037.pdb o/1742_HEM_Lanosterol.pdb_2678.pdb 
18 o/1742_HEM_Lanosterol.pdb_9982.pdb o/1742_HEM_Lanosterol.pdb_4897.pdb o/1742_HEM_Lanosterol.pdb_4095.pdb o/1742_HEM_Lanosterol.pdb_8979.pdb o/1742_HEM_Lanosterol.pdb_6375.pdb o/1742_HEM_Lanosterol.pdb_223.pdb o/1742_HEM_Lanosterol.pdb_6520.pdb o/1742_HEM_Lanosterol.pdb_6304.pdb o/1742_HEM_Lanosterol.pdb_4052.pdb o/1742_HEM_Lanosterol.pdb_7149.pdb o/1742_HEM_Lanosterol.pdb_2513.pdb o/1742_HEM_Lanosterol.pdb_7707.pdb o/1742_HEM_Lanosterol.pdb_9360.pdb o/1742_HEM_Lanosterol.pdb_9422.pdb o/1742_HEM_Lanosterol.pdb_6329.pdb o/1742_HEM_Lanosterol.pdb_5942.pdb o/1742_HEM_Lanosterol.pdb_9433.pdb o/1742_HEM_Lanosterol.pdb_1915.pdb 
11 o/1742_HEM_Lanosterol.pdb_8449.pdb o/1742_HEM_Lanosterol.pdb_8065.pdb o/1742_HEM_Lanosterol.pdb_5653.pdb o/1742_HEM_Lanosterol.pdb_7292.pdb o/1742_HEM_Lanosterol.pdb_1489.pdb o/1742_HEM_Lanosterol.pdb_8211.pdb o/1742_HEM_Lanosterol.pdb_5321.pdb o/1742_HEM_Lanosterol.pdb_6122.pdb o/1742_HEM_Lanosterol.pdb_6907.pdb o/1742_HEM_Lanosterol.pdb_5857.pdb o/1742_HEM_Lanosterol.pdb_1269.pdb 
15 o/1742_HEM_Lanosterol.pdb_6551.pdb o/1742_HEM_Lanosterol.pdb_5933.pdb o/1742_HEM_Lanosterol.pdb_5762.pdb o/1742_HEM_Lanosterol.pdb_4206.pdb o/1742_HEM_Lanosterol.pdb_4145.pdb o/1742_HEM_Lanosterol.pdb_9737.pdb o/1742_HEM_Lanosterol.pdb_1757.pdb o/1742_HEM_Lanosterol.pdb_9598.pdb o/1742_HEM_Lanosterol.pdb_1543.pdb o/1742_HEM_Lanosterol.pdb_9590.pdb o/1742_HEM_Lanosterol.pdb_7330.pdb o/1742_HEM_Lanosterol.pdb_6027.pdb o/1742_HEM_Lanosterol.pdb_355.pdb o/1742_HEM_Lanosterol.pdb_1701.pdb o/1742_HEM_Lanosterol.pdb_1464.pdb 
15 o/1742_HEM_Lanosterol.pdb_4680.pdb o/1742_HEM_Lanosterol.pdb_4714.pdb o/1742_HEM_Lanosterol.pdb_7917.pdb o/1742_HEM_Lanosterol.pdb_6266.pdb o/1742_HEM_Lanosterol.pdb_1822.pdb o/1742_HEM_Lanosterol.pdb_8492.pdb o/1742_HEM_Lanosterol.pdb_4932.pdb o/1742_HEM_Lanosterol.pdb_9998.pdb o/1742_HEM_Lanosterol.pdb_4667.pdb o/1742_HEM_Lanosterol.pdb_9507.pdb o/1742_HEM_Lanosterol.pdb_8731.pdb o/1742_HEM_Lanosterol.pdb_2577.pdb o/1742_HEM_Lanosterol.pdb_8505.pdb o/1742_HEM_Lanosterol.pdb_197.pdb o/1742_HEM_Lanosterol.pdb_1257.pdb 
14 o/1742_HEM_Lanosterol.pdb_6544.pdb o/1742_HEM_Lanosterol.pdb_3349.pdb o/1742_HEM_Lanosterol.pdb_69.pdb o/1742_HEM_Lanosterol.pdb_6008.pdb o/1742_HEM_Lanosterol.pdb_5163.pdb o/1742_HEM_Lanosterol.pdb_210.pdb o/1742_HEM_Lanosterol.pdb_5968.pdb o/1742_HEM_Lanosterol.pdb_2989.pdb o/1742_HEM_Lanosterol.pdb_5526.pdb o/1742_HEM_Lanosterol.pdb_4202.pdb o/1742_HEM_Lanosterol.pdb_1528.pdb o/1742_HEM_Lanosterol.pdb_5459.pdb o/1742_HEM_Lanosterol.pdb_9184.pdb o/1742_HEM_Lanosterol.pdb_1215.pdb 
12 o/1742_HEM_Lanosterol.pdb_2854.pdb o/1742_HEM_Lanosterol.pdb_2852.pdb o/1742_HEM_Lanosterol.pdb_8962.pdb o/1742_HEM_Lanosterol.pdb_8184.pdb o/1742_HEM_Lanosterol.pdb_6514.pdb o/1742_HEM_Lanosterol.pdb_4772.pdb o/1742_HEM_Lanosterol.pdb_3808.pdb o/1742_HEM_Lanosterol.pdb_2666.pdb o/1742_HEM_Lanosterol.pdb_2437.pdb o/1742_HEM_Lanosterol.pdb_2074.pdb o/1742_HEM_Lanosterol.pdb_4997.pdb o/1742_HEM_Lanosterol.pdb_170.pdb 
11 o/1742_HEM_Lanosterol.pdb_8201.pdb o/1742_HEM_Lanosterol.pdb_8704.pdb o/1742_HEM_Lanosterol.pdb_7374.pdb o/1742_HEM_Lanosterol.pdb_5746.pdb o/1742_HEM_Lanosterol.pdb_4474.pdb o/1742_HEM_Lanosterol.pdb_8229.pdb o/1742_HEM_Lanosterol.pdb_8888.pdb o/1742_HEM_Lanosterol.pdb_3414.pdb o/1742_HEM_Lanosterol.pdb_1373.pdb o/1742_HEM_Lanosterol.pdb_5681.pdb o/1742_HEM_Lanosterol.pdb_1204.pdb 
11 o/1742_HEM_Lanosterol.pdb_7867.pdb o/1742_HEM_Lanosterol.pdb_8111.pdb o/1742_HEM_Lanosterol.pdb_6718.pdb o/1742_HEM_Lanosterol.pdb_983.pdb o/1742_HEM_Lanosterol.pdb_7731.pdb o/1742_HEM_Lanosterol.pdb_5477.pdb o/1742_HEM_Lanosterol.pdb_4060.pdb o/1742_HEM_Lanosterol.pdb_6586.pdb o/1742_HEM_Lanosterol.pdb_3594.pdb o/1742_HEM_Lanosterol.pdb_999.pdb o/1742_HEM_Lanosterol.pdb_1606.pdb 
11 o/1742_HEM_Lanosterol.pdb_6258.pdb o/1742_HEM_Lanosterol.pdb_510.pdb o/1742_HEM_Lanosterol.pdb_5055.pdb o/1742_HEM_Lanosterol.pdb_9229.pdb o/1742_HEM_Lanosterol.pdb_6761.pdb o/1742_HEM_Lanosterol.pdb_7056.pdb o/1742_HEM_Lanosterol.pdb_8100.pdb o/1742_HEM_Lanosterol.pdb_6967.pdb o/1742_HEM_Lanosterol.pdb_1260.pdb o/1742_HEM_Lanosterol.pdb_8108.pdb o/1742_HEM_Lanosterol.pdb_1196.pdb 
19 o/1742_HEM_Lanosterol.pdb_7236.pdb o/1742_HEM_Lanosterol.pdb_9331.pdb o/1742_HEM_Lanosterol.pdb_5386.pdb o/1742_HEM_Lanosterol.pdb_2468.pdb o/1742_HEM_Lanosterol.pdb_893.pdb o/1742_HEM_Lanosterol.pdb_5007.pdb o/1742_HEM_Lanosterol.pdb_1798.pdb o/1742_HEM_Lanosterol.pdb_7258.pdb o/1742_HEM_Lanosterol.pdb_9842.pdb o/1742_HEM_Lanosterol.pdb_7958.pdb o/1742_HEM_Lanosterol.pdb_6187.pdb o/1742_HEM_Lanosterol.pdb_2545.pdb o/1742_HEM_Lanosterol.pdb_5351.pdb o/1742_HEM_Lanosterol.pdb_4921.pdb o/1742_HEM_Lanosterol.pdb_2123.pdb o/1742_HEM_Lanosterol.pdb_9107.pdb o/1742_HEM_Lanosterol.pdb_7578.pdb o/1742_HEM_Lanosterol.pdb_4388.pdb o/1742_HEM_Lanosterol.pdb_1789.pdb 
10 o/1742_HEM_Lanosterol.pdb_5714.pdb o/1742_HEM_Lanosterol.pdb_9826.pdb o/1742_HEM_Lanosterol.pdb_5821.pdb o/1742_HEM_Lanosterol.pdb_3009.pdb o/1742_HEM_Lanosterol.pdb_5116.pdb o/1742_HEM_Lanosterol.pdb_3288.pdb o/1742_HEM_Lanosterol.pdb_1974.pdb o/1742_HEM_Lanosterol.pdb_3955.pdb o/1742_HEM_Lanosterol.pdb_363.pdb o/1742_HEM_Lanosterol.pdb_1962.pdb 
11 o/1742_HEM_Lanosterol.pdb_6634.pdb o/1742_HEM_Lanosterol.pdb_2884.pdb o/1742_HEM_Lanosterol.pdb_2522.pdb o/1742_HEM_Lanosterol.pdb_8572.pdb o/1742_HEM_Lanosterol.pdb_1660.pdb o/1742_HEM_Lanosterol.pdb_9055.pdb o/1742_HEM_Lanosterol.pdb_1811.pdb o/1742_HEM_Lanosterol.pdb_1213.pdb o/1742_HEM_Lanosterol.pdb_9357.pdb o/1742_HEM_Lanosterol.pdb_9435.pdb o/1742_HEM_Lanosterol.pdb_119.pdb 
12 o/1742_HEM_Lanosterol.pdb_5905.pdb o/1742_HEM_Lanosterol.pdb_5269.pdb o/1742_HEM_Lanosterol.pdb_2634.pdb o/1742_HEM_Lanosterol.pdb_8723.pdb o/1742_HEM_Lanosterol.pdb_8576.pdb o/1742_HEM_Lanosterol.pdb_6733.pdb o/1742_HEM_Lanosterol.pdb_5344.pdb o/1742_HEM_Lanosterol.pdb_8398.pdb o/1742_HEM_Lanosterol.pdb_4535.pdb o/1742_HEM_Lanosterol.pdb_2194.pdb o/1742_HEM_Lanosterol.pdb_865.pdb o/1742_HEM_Lanosterol.pdb_203.pdb 
19 o/1742_HEM_Lanosterol.pdb_9964.pdb o/1742_HEM_Lanosterol.pdb_8137.pdb o/1742_HEM_Lanosterol.pdb_9553.pdb o/1742_HEM_Lanosterol.pdb_3202.pdb o/1742_HEM_Lanosterol.pdb_228.pdb o/1742_HEM_Lanosterol.pdb_8480.pdb o/1742_HEM_Lanosterol.pdb_786.pdb o/1742_HEM_Lanosterol.pdb_4477.pdb o/1742_HEM_Lanosterol.pdb_3580.pdb o/1742_HEM_Lanosterol.pdb_9587.pdb o/1742_HEM_Lanosterol.pdb_2833.pdb o/1742_HEM_Lanosterol.pdb_7487.pdb o/1742_HEM_Lanosterol.pdb_5789.pdb o/1742_HEM_Lanosterol.pdb_7249.pdb o/1742_HEM_Lanosterol.pdb_1637.pdb o/1742_HEM_Lanosterol.pdb_5867.pdb o/1742_HEM_Lanosterol.pdb_2599.pdb o/1742_HEM_Lanosterol.pdb_6629.pdb o/1742_HEM_Lanosterol.pdb_1188.pdb 
11 o/1742_HEM_Lanosterol.pdb_9962.pdb o/1742_HEM_Lanosterol.pdb_4543.pdb o/1742_HEM_Lanosterol.pdb_3474.pdb o/1742_HEM_Lanosterol.pdb_52.pdb o/1742_HEM_Lanosterol.pdb_6233.pdb o/1742_HEM_Lanosterol.pdb_1872.pdb o/1742_HEM_Lanosterol.pdb_9512.pdb o/1742_HEM_Lanosterol.pdb_3390.pdb o/1742_HEM_Lanosterol.pdb_3804.pdb o/1742_HEM_Lanosterol.pdb_9085.pdb o/1742_HEM_Lanosterol.pdb_1706.pdb 
28 o/1742_HEM_Lanosterol.pdb_2430.pdb o/1742_HEM_Lanosterol.pdb_9167.pdb o/1742_HEM_Lanosterol.pdb_8827.pdb o/1742_HEM_Lanosterol.pdb_580.pdb o/1742_HEM_Lanosterol.pdb_2224.pdb o/1742_HEM_Lanosterol.pdb_808.pdb o/1742_HEM_Lanosterol.pdb_2943.pdb o/1742_HEM_Lanosterol.pdb_8599.pdb o/1742_HEM_Lanosterol.pdb_2401.pdb o/1742_HEM_Lanosterol.pdb_4369.pdb o/1742_HEM_Lanosterol.pdb_2737.pdb o/1742_HEM_Lanosterol.pdb_9591.pdb o/1742_HEM_Lanosterol.pdb_9581.pdb o/1742_HEM_Lanosterol.pdb_1786.pdb o/1742_HEM_Lanosterol.pdb_8125.pdb o/1742_HEM_Lanosterol.pdb_3793.pdb o/1742_HEM_Lanosterol.pdb_7514.pdb o/1742_HEM_Lanosterol.pdb_3599.pdb o/1742_HEM_Lanosterol.pdb_5676.pdb o/1742_HEM_Lanosterol.pdb_5006.pdb o/1742_HEM_Lanosterol.pdb_2559.pdb o/1742_HEM_Lanosterol.pdb_5551.pdb o/1742_HEM_Lanosterol.pdb_4116.pdb o/1742_HEM_Lanosterol.pdb_9437.pdb o/1742_HEM_Lanosterol.pdb_7096.pdb o/1742_HEM_Lanosterol.pdb_3231.pdb o/1742_HEM_Lanosterol.pdb_3312.pdb o/1742_HEM_Lanosterol.pdb_1381.pdb 
11 o/1742_HEM_Lanosterol.pdb_7334.pdb o/1742_HEM_Lanosterol.pdb_7130.pdb o/1742_HEM_Lanosterol.pdb_5102.pdb o/1742_HEM_Lanosterol.pdb_7053.pdb o/1742_HEM_Lanosterol.pdb_4945.pdb o/1742_HEM_Lanosterol.pdb_8310.pdb o/1742_HEM_Lanosterol.pdb_4132.pdb o/1742_HEM_Lanosterol.pdb_3885.pdb o/1742_HEM_Lanosterol.pdb_7815.pdb o/1742_HEM_Lanosterol.pdb_5326.pdb o/1742_HEM_Lanosterol.pdb_3070.pdb 
16 o/1742_HEM_Lanosterol.pdb_5104.pdb o/1742_HEM_Lanosterol.pdb_2578.pdb o/1742_HEM_Lanosterol.pdb_9728.pdb o/1742_HEM_Lanosterol.pdb_2418.pdb o/1742_HEM_Lanosterol.pdb_8164.pdb o/1742_HEM_Lanosterol.pdb_7467.pdb o/1742_HEM_Lanosterol.pdb_9923.pdb o/1742_HEM_Lanosterol.pdb_7423.pdb o/1742_HEM_Lanosterol.pdb_7971.pdb o/1742_HEM_Lanosterol.pdb_4697.pdb o/1742_HEM_Lanosterol.pdb_6754.pdb o/1742_HEM_Lanosterol.pdb_5680.pdb o/1742_HEM_Lanosterol.pdb_4908.pdb o/1742_HEM_Lanosterol.pdb_3369.pdb o/1742_HEM_Lanosterol.pdb_4539.pdb o/1742_HEM_Lanosterol.pdb_1690.pdb 
25 o/1742_HEM_Lanosterol.pdb_8522.pdb o/1742_HEM_Lanosterol.pdb_6222.pdb o/1742_HEM_Lanosterol.pdb_3272.pdb o/1742_HEM_Lanosterol.pdb_6461.pdb o/1742_HEM_Lanosterol.pdb_2687.pdb o/1742_HEM_Lanosterol.pdb_7842.pdb o/1742_HEM_Lanosterol.pdb_9619.pdb o/1742_HEM_Lanosterol.pdb_4508.pdb o/1742_HEM_Lanosterol.pdb_1640.pdb o/1742_HEM_Lanosterol.pdb_6611.pdb o/1742_HEM_Lanosterol.pdb_8090.pdb o/1742_HEM_Lanosterol.pdb_8773.pdb o/1742_HEM_Lanosterol.pdb_4416.pdb o/1742_HEM_Lanosterol.pdb_1618.pdb o/1742_HEM_Lanosterol.pdb_447.pdb o/1742_HEM_Lanosterol.pdb_3925.pdb o/1742_HEM_Lanosterol.pdb_8233.pdb o/1742_HEM_Lanosterol.pdb_3727.pdb o/1742_HEM_Lanosterol.pdb_1740.pdb o/1742_HEM_Lanosterol.pdb_9187.pdb o/1742_HEM_Lanosterol.pdb_1562.pdb o/1742_HEM_Lanosterol.pdb_8866.pdb o/1742_HEM_Lanosterol.pdb_9604.pdb o/1742_HEM_Lanosterol.pdb_9049.pdb o/1742_HEM_Lanosterol.pdb_1164.pdb 
10 o/1742_HEM_Lanosterol.pdb_6817.pdb o/1742_HEM_Lanosterol.pdb_8102.pdb o/1742_HEM_Lanosterol.pdb_6323.pdb o/1742_HEM_Lanosterol.pdb_4291.pdb o/1742_HEM_Lanosterol.pdb_9366.pdb o/1742_HEM_Lanosterol.pdb_7353.pdb o/1742_HEM_Lanosterol.pdb_3672.pdb o/1742_HEM_Lanosterol.pdb_3333.pdb o/1742_HEM_Lanosterol.pdb_4976.pdb o/1742_HEM_Lanosterol.pdb_1505.pdb 
11 o/1742_HEM_Lanosterol.pdb_9487.pdb o/1742_HEM_Lanosterol.pdb_8610.pdb o/1742_HEM_Lanosterol.pdb_8362.pdb o/1742_HEM_Lanosterol.pdb_6970.pdb o/1742_HEM_Lanosterol.pdb_7755.pdb o/1742_HEM_Lanosterol.pdb_7630.pdb o/1742_HEM_Lanosterol.pdb_4059.pdb o/1742_HEM_Lanosterol.pdb_596.pdb o/1742_HEM_Lanosterol.pdb_2515.pdb o/1742_HEM_Lanosterol.pdb_4282.pdb o/1742_HEM_Lanosterol.pdb_1147.pdb 
16 o/1742_HEM_Lanosterol.pdb_9886.pdb o/1742_HEM_Lanosterol.pdb_8666.pdb o/1742_HEM_Lanosterol.pdb_4633.pdb o/1742_HEM_Lanosterol.pdb_9311.pdb o/1742_HEM_Lanosterol.pdb_2629.pdb o/1742_HEM_Lanosterol.pdb_1672.pdb o/1742_HEM_Lanosterol.pdb_1394.pdb o/1742_HEM_Lanosterol.pdb_5802.pdb o/1742_HEM_Lanosterol.pdb_7351.pdb o/1742_HEM_Lanosterol.pdb_5226.pdb o/1742_HEM_Lanosterol.pdb_8221.pdb o/1742_HEM_Lanosterol.pdb_1877.pdb o/1742_HEM_Lanosterol.pdb_9287.pdb o/1742_HEM_Lanosterol.pdb_5361.pdb o/1742_HEM_Lanosterol.pdb_8093.pdb o/1742_HEM_Lanosterol.pdb_1205.pdb 
14 o/1742_HEM_Lanosterol.pdb_6627.pdb o/1742_HEM_Lanosterol.pdb_8435.pdb o/1742_HEM_Lanosterol.pdb_8346.pdb o/1742_HEM_Lanosterol.pdb_5277.pdb o/1742_HEM_Lanosterol.pdb_3309.pdb o/1742_HEM_Lanosterol.pdb_4593.pdb o/1742_HEM_Lanosterol.pdb_4023.pdb o/1742_HEM_Lanosterol.pdb_9322.pdb o/1742_HEM_Lanosterol.pdb_2182.pdb o/1742_HEM_Lanosterol.pdb_1853.pdb o/1742_HEM_Lanosterol.pdb_4315.pdb o/1742_HEM_Lanosterol.pdb_7068.pdb o/1742_HEM_Lanosterol.pdb_5873.pdb o/1742_HEM_Lanosterol.pdb_129.pdb 
12 o/1742_HEM_Lanosterol.pdb_6237.pdb o/1742_HEM_Lanosterol.pdb_3737.pdb o/1742_HEM_Lanosterol.pdb_9492.pdb o/1742_HEM_Lanosterol.pdb_7064.pdb o/1742_HEM_Lanosterol.pdb_3397.pdb o/1742_HEM_Lanosterol.pdb_2824.pdb o/1742_HEM_Lanosterol.pdb_9535.pdb o/1742_HEM_Lanosterol.pdb_7641.pdb o/1742_HEM_Lanosterol.pdb_7072.pdb o/1742_HEM_Lanosterol.pdb_7355.pdb o/1742_HEM_Lanosterol.pdb_6909.pdb o/1742_HEM_Lanosterol.pdb_2502.pdb 
16 o/1742_HEM_Lanosterol.pdb_858.pdb o/1742_HEM_Lanosterol.pdb_8041.pdb o/1742_HEM_Lanosterol.pdb_3257.pdb o/1742_HEM_Lanosterol.pdb_6113.pdb o/1742_HEM_Lanosterol.pdb_3042.pdb o/1742_HEM_Lanosterol.pdb_821.pdb o/1742_HEM_Lanosterol.pdb_3998.pdb o/1742_HEM_Lanosterol.pdb_9411.pdb o/1742_HEM_Lanosterol.pdb_3336.pdb o/1742_HEM_Lanosterol.pdb_901.pdb o/1742_HEM_Lanosterol.pdb_4247.pdb o/1742_HEM_Lanosterol.pdb_764.pdb o/1742_HEM_Lanosterol.pdb_3897.pdb o/1742_HEM_Lanosterol.pdb_4864.pdb o/1742_HEM_Lanosterol.pdb_9183.pdb o/1742_HEM_Lanosterol.pdb_2778.pdb 
14 o/1742_HEM_Lanosterol.pdb_4793.pdb o/1742_HEM_Lanosterol.pdb_3828.pdb o/1742_HEM_Lanosterol.pdb_8428.pdb o/1742_HEM_Lanosterol.pdb_6137.pdb o/1742_HEM_Lanosterol.pdb_3098.pdb o/1742_HEM_Lanosterol.pdb_6861.pdb o/1742_HEM_Lanosterol.pdb_7989.pdb o/1742_HEM_Lanosterol.pdb_3050.pdb o/1742_HEM_Lanosterol.pdb_5650.pdb o/1742_HEM_Lanosterol.pdb_2352.pdb o/1742_HEM_Lanosterol.pdb_5603.pdb o/1742_HEM_Lanosterol.pdb_4820.pdb o/1742_HEM_Lanosterol.pdb_2901.pdb o/1742_HEM_Lanosterol.pdb_1773.pdb 
10 o/1742_HEM_Lanosterol.pdb_4189.pdb o/1742_HEM_Lanosterol.pdb_7406.pdb o/1742_HEM_Lanosterol.pdb_4470.pdb o/1742_HEM_Lanosterol.pdb_2340.pdb o/1742_HEM_Lanosterol.pdb_4812.pdb o/1742_HEM_Lanosterol.pdb_2249.pdb o/1742_HEM_Lanosterol.pdb_6353.pdb o/1742_HEM_Lanosterol.pdb_417.pdb o/1742_HEM_Lanosterol.pdb_3640.pdb o/1742_HEM_Lanosterol.pdb_1139.pdb 
10 o/1742_HEM_Lanosterol.pdb_826.pdb o/1742_HEM_Lanosterol.pdb_2558.pdb o/1742_HEM_Lanosterol.pdb_9888.pdb o/1742_HEM_Lanosterol.pdb_8587.pdb o/1742_HEM_Lanosterol.pdb_4019.pdb o/1742_HEM_Lanosterol.pdb_9034.pdb o/1742_HEM_Lanosterol.pdb_3870.pdb o/1742_HEM_Lanosterol.pdb_2276.pdb o/1742_HEM_Lanosterol.pdb_8534.pdb o/1742_HEM_Lanosterol.pdb_1214.pdb 
15 o/1742_HEM_Lanosterol.pdb_8851.pdb o/1742_HEM_Lanosterol.pdb_7006.pdb o/1742_HEM_Lanosterol.pdb_8536.pdb o/1742_HEM_Lanosterol.pdb_347.pdb o/1742_HEM_Lanosterol.pdb_4613.pdb o/1742_HEM_Lanosterol.pdb_287.pdb o/1742_HEM_Lanosterol.pdb_4159.pdb o/1742_HEM_Lanosterol.pdb_2530.pdb o/1742_HEM_Lanosterol.pdb_9221.pdb o/1742_HEM_Lanosterol.pdb_7503.pdb o/1742_HEM_Lanosterol.pdb_6264.pdb o/1742_HEM_Lanosterol.pdb_8088.pdb o/1742_HEM_Lanosterol.pdb_530.pdb o/1742_HEM_Lanosterol.pdb_172.pdb o/1742_HEM_Lanosterol.pdb_1602.pdb 
15 o/1742_HEM_Lanosterol.pdb_8607.pdb o/1742_HEM_Lanosterol.pdb_7539.pdb o/1742_HEM_Lanosterol.pdb_6571.pdb o/1742_HEM_Lanosterol.pdb_5536.pdb o/1742_HEM_Lanosterol.pdb_1846.pdb o/1742_HEM_Lanosterol.pdb_3944.pdb o/1742_HEM_Lanosterol.pdb_9602.pdb o/1742_HEM_Lanosterol.pdb_695.pdb o/1742_HEM_Lanosterol.pdb_4197.pdb o/1742_HEM_Lanosterol.pdb_8227.pdb o/1742_HEM_Lanosterol.pdb_349.pdb o/1742_HEM_Lanosterol.pdb_9859.pdb o/1742_HEM_Lanosterol.pdb_3670.pdb o/1742_HEM_Lanosterol.pdb_9889.pdb o/1742_HEM_Lanosterol.pdb_1150.pdb 
13 o/1742_HEM_Lanosterol.pdb_2743.pdb o/1742_HEM_Lanosterol.pdb_6983.pdb o/1742_HEM_Lanosterol.pdb_3083.pdb o/1742_HEM_Lanosterol.pdb_627.pdb o/1742_HEM_Lanosterol.pdb_2015.pdb o/1742_HEM_Lanosterol.pdb_463.pdb o/1742_HEM_Lanosterol.pdb_3127.pdb o/1742_HEM_Lanosterol.pdb_3590.pdb o/1742_HEM_Lanosterol.pdb_5913.pdb o/1742_HEM_Lanosterol.pdb_1378.pdb o/1742_HEM_Lanosterol.pdb_7586.pdb o/1742_HEM_Lanosterol.pdb_9548.pdb o/1742_HEM_Lanosterol.pdb_1305.pdb 
11 o/1742_HEM_Lanosterol.pdb_7736.pdb o/1742_HEM_Lanosterol.pdb_5758.pdb o/1742_HEM_Lanosterol.pdb_9635.pdb o/1742_HEM_Lanosterol.pdb_4848.pdb o/1742_HEM_Lanosterol.pdb_950.pdb o/1742_HEM_Lanosterol.pdb_7940.pdb o/1742_HEM_Lanosterol.pdb_436.pdb o/1742_HEM_Lanosterol.pdb_3666.pdb o/1742_HEM_Lanosterol.pdb_2326.pdb o/1742_HEM_Lanosterol.pdb_548.pdb o/1742_HEM_Lanosterol.pdb_1134.pdb 
18 o/1742_HEM_Lanosterol.pdb_9333.pdb o/1742_HEM_Lanosterol.pdb_3091.pdb o/1742_HEM_Lanosterol.pdb_6014.pdb o/1742_HEM_Lanosterol.pdb_306.pdb o/1742_HEM_Lanosterol.pdb_9525.pdb o/1742_HEM_Lanosterol.pdb_9352.pdb o/1742_HEM_Lanosterol.pdb_2307.pdb o/1742_HEM_Lanosterol.pdb_8761.pdb o/1742_HEM_Lanosterol.pdb_4020.pdb o/1742_HEM_Lanosterol.pdb_2780.pdb o/1742_HEM_Lanosterol.pdb_1431.pdb o/1742_HEM_Lanosterol.pdb_6480.pdb o/1742_HEM_Lanosterol.pdb_5981.pdb o/1742_HEM_Lanosterol.pdb_7461.pdb o/1742_HEM_Lanosterol.pdb_4584.pdb o/1742_HEM_Lanosterol.pdb_2151.pdb o/1742_HEM_Lanosterol.pdb_557.pdb o/1742_HEM_Lanosterol.pdb_1292.pdb 
13 o/1742_HEM_Lanosterol.pdb_6398.pdb o/1742_HEM_Lanosterol.pdb_369.pdb o/1742_HEM_Lanosterol.pdb_7340.pdb o/1742_HEM_Lanosterol.pdb_9542.pdb o/1742_HEM_Lanosterol.pdb_8569.pdb o/1742_HEM_Lanosterol.pdb_5205.pdb o/1742_HEM_Lanosterol.pdb_6743.pdb o/1742_HEM_Lanosterol.pdb_2643.pdb o/1742_HEM_Lanosterol.pdb_9214.pdb o/1742_HEM_Lanosterol.pdb_7304.pdb o/1742_HEM_Lanosterol.pdb_5140.pdb o/1742_HEM_Lanosterol.pdb_7120.pdb o/1742_HEM_Lanosterol.pdb_1530.pdb 
13 o/1742_HEM_Lanosterol.pdb_6379.pdb o/1742_HEM_Lanosterol.pdb_547.pdb o/1742_HEM_Lanosterol.pdb_5531.pdb o/1742_HEM_Lanosterol.pdb_7305.pdb o/1742_HEM_Lanosterol.pdb_5911.pdb o/1742_HEM_Lanosterol.pdb_8438.pdb o/1742_HEM_Lanosterol.pdb_3351.pdb o/1742_HEM_Lanosterol.pdb_7269.pdb o/1742_HEM_Lanosterol.pdb_9611.pdb o/1742_HEM_Lanosterol.pdb_6820.pdb o/1742_HEM_Lanosterol.pdb_5406.pdb o/1742_HEM_Lanosterol.pdb_8808.pdb o/1742_HEM_Lanosterol.pdb_230.pdb 
10 o/1742_HEM_Lanosterol.pdb_7649.pdb o/1742_HEM_Lanosterol.pdb_8353.pdb o/1742_HEM_Lanosterol.pdb_2971.pdb o/1742_HEM_Lanosterol.pdb_4737.pdb o/1742_HEM_Lanosterol.pdb_5201.pdb o/1742_HEM_Lanosterol.pdb_4234.pdb o/1742_HEM_Lanosterol.pdb_2761.pdb o/1742_HEM_Lanosterol.pdb_286.pdb o/1742_HEM_Lanosterol.pdb_8276.pdb o/1742_HEM_Lanosterol.pdb_111.pdb 
10 o/1742_HEM_Lanosterol.pdb_7808.pdb o/1742_HEM_Lanosterol.pdb_3895.pdb o/1742_HEM_Lanosterol.pdb_8138.pdb o/1742_HEM_Lanosterol.pdb_3772.pdb o/1742_HEM_Lanosterol.pdb_7153.pdb o/1742_HEM_Lanosterol.pdb_6758.pdb o/1742_HEM_Lanosterol.pdb_5840.pdb o/1742_HEM_Lanosterol.pdb_4246.pdb o/1742_HEM_Lanosterol.pdb_8702.pdb o/1742_HEM_Lanosterol.pdb_2071.pdb 
19 o/1742_HEM_Lanosterol.pdb_6540.pdb o/1742_HEM_Lanosterol.pdb_6038.pdb o/1742_HEM_Lanosterol.pdb_5637.pdb o/1742_HEM_Lanosterol.pdb_8601.pdb o/1742_HEM_Lanosterol.pdb_4581.pdb o/1742_HEM_Lanosterol.pdb_4525.pdb o/1742_HEM_Lanosterol.pdb_3867.pdb o/1742_HEM_Lanosterol.pdb_7173.pdb o/1742_HEM_Lanosterol.pdb_9264.pdb o/1742_HEM_Lanosterol.pdb_2889.pdb o/1742_HEM_Lanosterol.pdb_288.pdb o/1742_HEM_Lanosterol.pdb_8473.pdb o/1742_HEM_Lanosterol.pdb_3621.pdb o/1742_HEM_Lanosterol.pdb_2368.pdb o/1742_HEM_Lanosterol.pdb_6026.pdb o/1742_HEM_Lanosterol.pdb_6175.pdb o/1742_HEM_Lanosterol.pdb_5657.pdb o/1742_HEM_Lanosterol.pdb_9191.pdb o/1742_HEM_Lanosterol.pdb_1104.pdb 
10 o/1742_HEM_Lanosterol.pdb_7529.pdb o/1742_HEM_Lanosterol.pdb_1366.pdb o/1742_HEM_Lanosterol.pdb_4852.pdb o/1742_HEM_Lanosterol.pdb_773.pdb o/1742_HEM_Lanosterol.pdb_2699.pdb o/1742_HEM_Lanosterol.pdb_689.pdb o/1742_HEM_Lanosterol.pdb_6015.pdb o/1742_HEM_Lanosterol.pdb_779.pdb o/1742_HEM_Lanosterol.pdb_1760.pdb o/1742_HEM_Lanosterol.pdb_1174.pdb 
11 o/1742_HEM_Lanosterol.pdb_564.pdb o/1742_HEM_Lanosterol.pdb_4072.pdb o/1742_HEM_Lanosterol.pdb_4067.pdb o/1742_HEM_Lanosterol.pdb_2630.pdb o/1742_HEM_Lanosterol.pdb_2244.pdb o/1742_HEM_Lanosterol.pdb_3402.pdb o/1742_HEM_Lanosterol.pdb_2304.pdb o/1742_HEM_Lanosterol.pdb_9583.pdb o/1742_HEM_Lanosterol.pdb_1311.pdb o/1742_HEM_Lanosterol.pdb_5722.pdb o/1742_HEM_Lanosterol.pdb_1103.pdb 
16 o/1742_HEM_Lanosterol.pdb_3912.pdb o/1742_HEM_Lanosterol.pdb_2380.pdb o/1742_HEM_Lanosterol.pdb_1860.pdb o/1742_HEM_Lanosterol.pdb_5775.pdb o/1742_HEM_Lanosterol.pdb_2724.pdb o/1742_HEM_Lanosterol.pdb_2221.pdb o/1742_HEM_Lanosterol.pdb_333.pdb o/1742_HEM_Lanosterol.pdb_1409.pdb o/1742_HEM_Lanosterol.pdb_9855.pdb o/1742_HEM_Lanosterol.pdb_2747.pdb o/1742_HEM_Lanosterol.pdb_2650.pdb o/1742_HEM_Lanosterol.pdb_2770.pdb o/1742_HEM_Lanosterol.pdb_8406.pdb o/1742_HEM_Lanosterol.pdb_8495.pdb o/1742_HEM_Lanosterol.pdb_8378.pdb o/1742_HEM_Lanosterol.pdb_1101.pdb 
11 o/1742_HEM_Lanosterol.pdb_5732.pdb o/1742_HEM_Lanosterol.pdb_5285.pdb o/1742_HEM_Lanosterol.pdb_812.pdb o/1742_HEM_Lanosterol.pdb_4803.pdb o/1742_HEM_Lanosterol.pdb_8976.pdb o/1742_HEM_Lanosterol.pdb_7035.pdb o/1742_HEM_Lanosterol.pdb_8130.pdb o/1742_HEM_Lanosterol.pdb_9954.pdb o/1742_HEM_Lanosterol.pdb_6350.pdb o/1742_HEM_Lanosterol.pdb_3728.pdb o/1742_HEM_Lanosterol.pdb_1186.pdb 
12 o/1742_HEM_Lanosterol.pdb_4378.pdb o/1742_HEM_Lanosterol.pdb_6985.pdb o/1742_HEM_Lanosterol.pdb_3578.pdb o/1742_HEM_Lanosterol.pdb_6193.pdb o/1742_HEM_Lanosterol.pdb_9754.pdb o/1742_HEM_Lanosterol.pdb_7786.pdb o/1742_HEM_Lanosterol.pdb_6997.pdb o/1742_HEM_Lanosterol.pdb_6745.pdb o/1742_HEM_Lanosterol.pdb_4816.pdb o/1742_HEM_Lanosterol.pdb_8987.pdb o/1742_HEM_Lanosterol.pdb_4899.pdb o/1742_HEM_Lanosterol.pdb_110.pdb 
13 o/1742_HEM_Lanosterol.pdb_8213.pdb o/1742_HEM_Lanosterol.pdb_8461.pdb o/1742_HEM_Lanosterol.pdb_7233.pdb o/1742_HEM_Lanosterol.pdb_9426.pdb o/1742_HEM_Lanosterol.pdb_6957.pdb o/1742_HEM_Lanosterol.pdb_3915.pdb o/1742_HEM_Lanosterol.pdb_2888.pdb o/1742_HEM_Lanosterol.pdb_8136.pdb o/1742_HEM_Lanosterol.pdb_4038.pdb o/1742_HEM_Lanosterol.pdb_7776.pdb o/1742_HEM_Lanosterol.pdb_2804.pdb o/1742_HEM_Lanosterol.pdb_2436.pdb o/1742_HEM_Lanosterol.pdb_1607.pdb 
11 o/1742_HEM_Lanosterol.pdb_7733.pdb o/1742_HEM_Lanosterol.pdb_7554.pdb o/1742_HEM_Lanosterol.pdb_4605.pdb o/1742_HEM_Lanosterol.pdb_6783.pdb o/1742_HEM_Lanosterol.pdb_4381.pdb o/1742_HEM_Lanosterol.pdb_3892.pdb o/1742_HEM_Lanosterol.pdb_9595.pdb o/1742_HEM_Lanosterol.pdb_428.pdb o/1742_HEM_Lanosterol.pdb_3654.pdb o/1742_HEM_Lanosterol.pdb_6893.pdb o/1742_HEM_Lanosterol.pdb_1166.pdb 
14 o/1742_HEM_Lanosterol.pdb_6721.pdb o/1742_HEM_Lanosterol.pdb_47.pdb o/1742_HEM_Lanosterol.pdb_4263.pdb o/1742_HEM_Lanosterol.pdb_809.pdb o/1742_HEM_Lanosterol.pdb_4632.pdb o/1742_HEM_Lanosterol.pdb_9100.pdb o/1742_HEM_Lanosterol.pdb_3117.pdb o/1742_HEM_Lanosterol.pdb_8043.pdb o/1742_HEM_Lanosterol.pdb_2548.pdb o/1742_HEM_Lanosterol.pdb_2180.pdb o/1742_HEM_Lanosterol.pdb_1517.pdb o/1742_HEM_Lanosterol.pdb_1163.pdb o/1742_HEM_Lanosterol.pdb_4726.pdb o/1742_HEM_Lanosterol.pdb_1090.pdb 
10 o/1742_HEM_Lanosterol.pdb_9505.pdb o/1742_HEM_Lanosterol.pdb_5363.pdb o/1742_HEM_Lanosterol.pdb_9573.pdb o/1742_HEM_Lanosterol.pdb_2784.pdb o/1742_HEM_Lanosterol.pdb_8112.pdb o/1742_HEM_Lanosterol.pdb_7472.pdb o/1742_HEM_Lanosterol.pdb_214.pdb o/1742_HEM_Lanosterol.pdb_9692.pdb o/1742_HEM_Lanosterol.pdb_2594.pdb o/1742_HEM_Lanosterol.pdb_1176.pdb 
10 o/1742_HEM_Lanosterol.pdb_8891.pdb o/1742_HEM_Lanosterol.pdb_6705.pdb o/1742_HEM_Lanosterol.pdb_8735.pdb o/1742_HEM_Lanosterol.pdb_2016.pdb o/1742_HEM_Lanosterol.pdb_7218.pdb o/1742_HEM_Lanosterol.pdb_6104.pdb o/1742_HEM_Lanosterol.pdb_7875.pdb o/1742_HEM_Lanosterol.pdb_6724.pdb o/1742_HEM_Lanosterol.pdb_2382.pdb o/1742_HEM_Lanosterol.pdb_1984.pdb 
10 o/1742_HEM_Lanosterol.pdb_8687.pdb o/1742_HEM_Lanosterol.pdb_7279.pdb o/1742_HEM_Lanosterol.pdb_6839.pdb o/1742_HEM_Lanosterol.pdb_8427.pdb o/1742_HEM_Lanosterol.pdb_5878.pdb o/1742_HEM_Lanosterol.pdb_4748.pdb o/1742_HEM_Lanosterol.pdb_472.pdb o/1742_HEM_Lanosterol.pdb_9015.pdb o/1742_HEM_Lanosterol.pdb_4863.pdb o/1742_HEM_Lanosterol.pdb_276.pdb 
14 o/1742_HEM_Lanosterol.pdb_9438.pdb o/1742_HEM_Lanosterol.pdb_6479.pdb o/1742_HEM_Lanosterol.pdb_6004.pdb o/1742_HEM_Lanosterol.pdb_2620.pdb o/1742_HEM_Lanosterol.pdb_8737.pdb o/1742_HEM_Lanosterol.pdb_1243.pdb o/1742_HEM_Lanosterol.pdb_2782.pdb o/1742_HEM_Lanosterol.pdb_2841.pdb o/1742_HEM_Lanosterol.pdb_9242.pdb o/1742_HEM_Lanosterol.pdb_1325.pdb o/1742_HEM_Lanosterol.pdb_4201.pdb o/1742_HEM_Lanosterol.pdb_3978.pdb o/1742_HEM_Lanosterol.pdb_35.pdb o/1742_HEM_Lanosterol.pdb_1229.pdb 
11 o/1742_HEM_Lanosterol.pdb_2158.pdb o/1742_HEM_Lanosterol.pdb_2029.pdb o/1742_HEM_Lanosterol.pdb_5623.pdb o/1742_HEM_Lanosterol.pdb_4178.pdb o/1742_HEM_Lanosterol.pdb_187.pdb o/1742_HEM_Lanosterol.pdb_2498.pdb o/1742_HEM_Lanosterol.pdb_2061.pdb o/1742_HEM_Lanosterol.pdb_1964.pdb o/1742_HEM_Lanosterol.pdb_8165.pdb o/1742_HEM_Lanosterol.pdb_6378.pdb o/1742_HEM_Lanosterol.pdb_1081.pdb 
10 o/1742_HEM_Lanosterol.pdb_8850.pdb o/1742_HEM_Lanosterol.pdb_810.pdb o/1742_HEM_Lanosterol.pdb_6656.pdb o/1742_HEM_Lanosterol.pdb_5460.pdb o/1742_HEM_Lanosterol.pdb_406.pdb o/1742_HEM_Lanosterol.pdb_2906.pdb o/1742_HEM_Lanosterol.pdb_8430.pdb o/1742_HEM_Lanosterol.pdb_661.pdb o/1742_HEM_Lanosterol.pdb_2309.pdb o/1742_HEM_Lanosterol.pdb_1286.pdb 
10 o/1742_HEM_Lanosterol.pdb_4310.pdb o/1742_HEM_Lanosterol.pdb_9406.pdb o/1742_HEM_Lanosterol.pdb_9763.pdb o/1742_HEM_Lanosterol.pdb_5559.pdb o/1742_HEM_Lanosterol.pdb_3698.pdb o/1742_HEM_Lanosterol.pdb_1644.pdb o/1742_HEM_Lanosterol.pdb_8917.pdb o/1742_HEM_Lanosterol.pdb_2744.pdb o/1742_HEM_Lanosterol.pdb_4723.pdb o/1742_HEM_Lanosterol.pdb_1198.pdb 
11 o/1742_HEM_Lanosterol.pdb_5743.pdb o/1742_HEM_Lanosterol.pdb_4044.pdb o/1742_HEM_Lanosterol.pdb_1890.pdb o/1742_HEM_Lanosterol.pdb_4796.pdb o/1742_HEM_Lanosterol.pdb_6344.pdb o/1742_HEM_Lanosterol.pdb_4603.pdb o/1742_HEM_Lanosterol.pdb_154.pdb o/1742_HEM_Lanosterol.pdb_9645.pdb o/1742_HEM_Lanosterol.pdb_3991.pdb o/1742_HEM_Lanosterol.pdb_4264.pdb o/1742_HEM_Lanosterol.pdb_1483.pdb 
26 o/1742_HEM_Lanosterol.pdb_9891.pdb o/1742_HEM_Lanosterol.pdb_7519.pdb o/1742_HEM_Lanosterol.pdb_4888.pdb o/1742_HEM_Lanosterol.pdb_5810.pdb o/1742_HEM_Lanosterol.pdb_3846.pdb o/1742_HEM_Lanosterol.pdb_8783.pdb o/1742_HEM_Lanosterol.pdb_49.pdb o/1742_HEM_Lanosterol.pdb_4151.pdb o/1742_HEM_Lanosterol.pdb_4650.pdb o/1742_HEM_Lanosterol.pdb_2547.pdb o/1742_HEM_Lanosterol.pdb_927.pdb o/1742_HEM_Lanosterol.pdb_177.pdb o/1742_HEM_Lanosterol.pdb_1376.pdb o/1742_HEM_Lanosterol.pdb_2736.pdb o/1742_HEM_Lanosterol.pdb_2120.pdb o/1742_HEM_Lanosterol.pdb_5700.pdb o/1742_HEM_Lanosterol.pdb_5065.pdb o/1742_HEM_Lanosterol.pdb_9550.pdb o/1742_HEM_Lanosterol.pdb_6289.pdb o/1742_HEM_Lanosterol.pdb_5457.pdb o/1742_HEM_Lanosterol.pdb_454.pdb o/1742_HEM_Lanosterol.pdb_4244.pdb o/1742_HEM_Lanosterol.pdb_3957.pdb o/1742_HEM_Lanosterol.pdb_8060.pdb o/1742_HEM_Lanosterol.pdb_3976.pdb o/1742_HEM_Lanosterol.pdb_1293.pdb 
17 o/1742_HEM_Lanosterol.pdb_8012.pdb o/1742_HEM_Lanosterol.pdb_3645.pdb o/1742_HEM_Lanosterol.pdb_2472.pdb o/1742_HEM_Lanosterol.pdb_8786.pdb o/1742_HEM_Lanosterol.pdb_5539.pdb o/1742_HEM_Lanosterol.pdb_4756.pdb o/1742_HEM_Lanosterol.pdb_569.pdb o/1742_HEM_Lanosterol.pdb_4011.pdb o/1742_HEM_Lanosterol.pdb_4782.pdb o/1742_HEM_Lanosterol.pdb_1417.pdb o/1742_HEM_Lanosterol.pdb_4927.pdb o/1742_HEM_Lanosterol.pdb_6657.pdb o/1742_HEM_Lanosterol.pdb_2008.pdb o/1742_HEM_Lanosterol.pdb_4284.pdb o/1742_HEM_Lanosterol.pdb_717.pdb o/1742_HEM_Lanosterol.pdb_6992.pdb o/1742_HEM_Lanosterol.pdb_128.pdb 
10 o/1742_HEM_Lanosterol.pdb_9365.pdb o/1742_HEM_Lanosterol.pdb_8646.pdb o/1742_HEM_Lanosterol.pdb_40.pdb o/1742_HEM_Lanosterol.pdb_60.pdb o/1742_HEM_Lanosterol.pdb_9046.pdb o/1742_HEM_Lanosterol.pdb_2490.pdb o/1742_HEM_Lanosterol.pdb_4280.pdb o/1742_HEM_Lanosterol.pdb_2225.pdb o/1742_HEM_Lanosterol.pdb_5172.pdb o/1742_HEM_Lanosterol.pdb_1077.pdb 
10 o/1742_HEM_Lanosterol.pdb_5161.pdb o/1742_HEM_Lanosterol.pdb_9048.pdb o/1742_HEM_Lanosterol.pdb_4705.pdb o/1742_HEM_Lanosterol.pdb_4640.pdb o/1742_HEM_Lanosterol.pdb_6018.pdb o/1742_HEM_Lanosterol.pdb_3032.pdb o/1742_HEM_Lanosterol.pdb_3523.pdb o/1742_HEM_Lanosterol.pdb_7745.pdb o/1742_HEM_Lanosterol.pdb_2213.pdb o/1742_HEM_Lanosterol.pdb_1369.pdb 
10 o/1742_HEM_Lanosterol.pdb_7378.pdb o/1742_HEM_Lanosterol.pdb_4648.pdb o/1742_HEM_Lanosterol.pdb_8390.pdb o/1742_HEM_Lanosterol.pdb_8513.pdb o/1742_HEM_Lanosterol.pdb_5688.pdb o/1742_HEM_Lanosterol.pdb_3113.pdb o/1742_HEM_Lanosterol.pdb_3932.pdb o/1742_HEM_Lanosterol.pdb_8115.pdb o/1742_HEM_Lanosterol.pdb_686.pdb o/1742_HEM_Lanosterol.pdb_1837.pdb 
10 o/1742_HEM_Lanosterol.pdb_6325.pdb o/1742_HEM_Lanosterol.pdb_6555.pdb o/1742_HEM_Lanosterol.pdb_5812.pdb o/1742_HEM_Lanosterol.pdb_8315.pdb o/1742_HEM_Lanosterol.pdb_4180.pdb o/1742_HEM_Lanosterol.pdb_6916.pdb o/1742_HEM_Lanosterol.pdb_2825.pdb o/1742_HEM_Lanosterol.pdb_5291.pdb o/1742_HEM_Lanosterol.pdb_158.pdb o/1742_HEM_Lanosterol.pdb_1333.pdb 
11 o/1742_HEM_Lanosterol.pdb_8524.pdb o/1742_HEM_Lanosterol.pdb_4978.pdb o/1742_HEM_Lanosterol.pdb_3601.pdb o/1742_HEM_Lanosterol.pdb_7724.pdb o/1742_HEM_Lanosterol.pdb_4119.pdb o/1742_HEM_Lanosterol.pdb_2287.pdb o/1742_HEM_Lanosterol.pdb_7032.pdb o/1742_HEM_Lanosterol.pdb_4495.pdb o/1742_HEM_Lanosterol.pdb_3158.pdb o/1742_HEM_Lanosterol.pdb_5546.pdb o/1742_HEM_Lanosterol.pdb_1516.pdb 
10 o/1742_HEM_Lanosterol.pdb_5985.pdb o/1742_HEM_Lanosterol.pdb_9963.pdb o/1742_HEM_Lanosterol.pdb_4951.pdb o/1742_HEM_Lanosterol.pdb_4506.pdb o/1742_HEM_Lanosterol.pdb_3662.pdb o/1742_HEM_Lanosterol.pdb_3237.pdb o/1742_HEM_Lanosterol.pdb_8977.pdb o/1742_HEM_Lanosterol.pdb_5371.pdb o/1742_HEM_Lanosterol.pdb_8722.pdb o/1742_HEM_Lanosterol.pdb_2096.pdb 
10 o/1742_HEM_Lanosterol.pdb_9359.pdb o/1742_HEM_Lanosterol.pdb_5611.pdb o/1742_HEM_Lanosterol.pdb_842.pdb o/1742_HEM_Lanosterol.pdb_484.pdb o/1742_HEM_Lanosterol.pdb_474.pdb o/1742_HEM_Lanosterol.pdb_5578.pdb o/1742_HEM_Lanosterol.pdb_4944.pdb o/1742_HEM_Lanosterol.pdb_4243.pdb o/1742_HEM_Lanosterol.pdb_5513.pdb o/1742_HEM_Lanosterol.pdb_2627.pdb 
24 o/1742_HEM_Lanosterol.pdb_7582.pdb o/1742_HEM_Lanosterol.pdb_6519.pdb o/1742_HEM_Lanosterol.pdb_9246.pdb o/1742_HEM_Lanosterol.pdb_6472.pdb o/1742_HEM_Lanosterol.pdb_4898.pdb o/1742_HEM_Lanosterol.pdb_8681.pdb o/1742_HEM_Lanosterol.pdb_6417.pdb o/1742_HEM_Lanosterol.pdb_7322.pdb o/1742_HEM_Lanosterol.pdb_387.pdb o/1742_HEM_Lanosterol.pdb_8490.pdb o/1742_HEM_Lanosterol.pdb_3019.pdb o/1742_HEM_Lanosterol.pdb_8358.pdb o/1742_HEM_Lanosterol.pdb_7660.pdb o/1742_HEM_Lanosterol.pdb_4742.pdb o/1742_HEM_Lanosterol.pdb_9478.pdb o/1742_HEM_Lanosterol.pdb_9091.pdb o/1742_HEM_Lanosterol.pdb_9178.pdb o/1742_HEM_Lanosterol.pdb_8118.pdb o/1742_HEM_Lanosterol.pdb_2872.pdb o/1742_HEM_Lanosterol.pdb_9643.pdb o/1742_HEM_Lanosterol.pdb_432.pdb o/1742_HEM_Lanosterol.pdb_4804.pdb o/1742_HEM_Lanosterol.pdb_4225.pdb o/1742_HEM_Lanosterol.pdb_1613.pdb 
10 o/1742_HEM_Lanosterol.pdb_9753.pdb o/1742_HEM_Lanosterol.pdb_5288.pdb o/1742_HEM_Lanosterol.pdb_8600.pdb o/1742_HEM_Lanosterol.pdb_4016.pdb o/1742_HEM_Lanosterol.pdb_2828.pdb o/1742_HEM_Lanosterol.pdb_1742.pdb o/1742_HEM_Lanosterol.pdb_9782.pdb o/1742_HEM_Lanosterol.pdb_796.pdb o/1742_HEM_Lanosterol.pdb_8436.pdb o/1742_HEM_Lanosterol.pdb_1135.pdb 
15 o/1742_HEM_Lanosterol.pdb_3899.pdb o/1742_HEM_Lanosterol.pdb_8222.pdb o/1742_HEM_Lanosterol.pdb_8110.pdb o/1742_HEM_Lanosterol.pdb_272.pdb o/1742_HEM_Lanosterol.pdb_8493.pdb o/1742_HEM_Lanosterol.pdb_6089.pdb o/1742_HEM_Lanosterol.pdb_9244.pdb o/1742_HEM_Lanosterol.pdb_1946.pdb o/1742_HEM_Lanosterol.pdb_9159.pdb o/1742_HEM_Lanosterol.pdb_7798.pdb o/1742_HEM_Lanosterol.pdb_1098.pdb o/1742_HEM_Lanosterol.pdb_5961.pdb o/1742_HEM_Lanosterol.pdb_2341.pdb o/1742_HEM_Lanosterol.pdb_7659.pdb o/1742_HEM_Lanosterol.pdb_1067.pdb 
10 o/1742_HEM_Lanosterol.pdb_720.pdb o/1742_HEM_Lanosterol.pdb_5298.pdb o/1742_HEM_Lanosterol.pdb_7361.pdb o/1742_HEM_Lanosterol.pdb_637.pdb o/1742_HEM_Lanosterol.pdb_5730.pdb o/1742_HEM_Lanosterol.pdb_4971.pdb o/1742_HEM_Lanosterol.pdb_4036.pdb o/1742_HEM_Lanosterol.pdb_5683.pdb o/1742_HEM_Lanosterol.pdb_968.pdb o/1742_HEM_Lanosterol.pdb_3795.pdb 
19 o/1742_HEM_Lanosterol.pdb_8620.pdb o/1742_HEM_Lanosterol.pdb_3681.pdb o/1742_HEM_Lanosterol.pdb_3493.pdb o/1742_HEM_Lanosterol.pdb_9134.pdb o/1742_HEM_Lanosterol.pdb_7458.pdb o/1742_HEM_Lanosterol.pdb_3149.pdb o/1742_HEM_Lanosterol.pdb_7752.pdb o/1742_HEM_Lanosterol.pdb_7465.pdb o/1742_HEM_Lanosterol.pdb_3220.pdb o/1742_HEM_Lanosterol.pdb_9407.pdb o/1742_HEM_Lanosterol.pdb_3031.pdb o/1742_HEM_Lanosterol.pdb_9646.pdb o/1742_HEM_Lanosterol.pdb_5705.pdb o/1742_HEM_Lanosterol.pdb_5912.pdb o/1742_HEM_Lanosterol.pdb_1804.pdb o/1742_HEM_Lanosterol.pdb_2801.pdb o/1742_HEM_Lanosterol.pdb_7986.pdb o/1742_HEM_Lanosterol.pdb_9893.pdb o/1742_HEM_Lanosterol.pdb_1726.pdb 
10 o/1742_HEM_Lanosterol.pdb_1840.pdb o/1742_HEM_Lanosterol.pdb_4994.pdb o/1742_HEM_Lanosterol.pdb_1642.pdb o/1742_HEM_Lanosterol.pdb_2281.pdb o/1742_HEM_Lanosterol.pdb_3785.pdb o/1742_HEM_Lanosterol.pdb_1584.pdb o/1742_HEM_Lanosterol.pdb_1506.pdb o/1742_HEM_Lanosterol.pdb_9885.pdb o/1742_HEM_Lanosterol.pdb_6852.pdb o/1742_HEM_Lanosterol.pdb_1057.pdb 
12 o/1742_HEM_Lanosterol.pdb_2486.pdb o/1742_HEM_Lanosterol.pdb_3014.pdb o/1742_HEM_Lanosterol.pdb_285.pdb o/1742_HEM_Lanosterol.pdb_8792.pdb o/1742_HEM_Lanosterol.pdb_6538.pdb o/1742_HEM_Lanosterol.pdb_5191.pdb o/1742_HEM_Lanosterol.pdb_8901.pdb o/1742_HEM_Lanosterol.pdb_5779.pdb o/1742_HEM_Lanosterol.pdb_1630.pdb o/1742_HEM_Lanosterol.pdb_8339.pdb o/1742_HEM_Lanosterol.pdb_8321.pdb o/1742_HEM_Lanosterol.pdb_1054.pdb 
19 o/1742_HEM_Lanosterol.pdb_6771.pdb o/1742_HEM_Lanosterol.pdb_8554.pdb o/1742_HEM_Lanosterol.pdb_7788.pdb o/1742_HEM_Lanosterol.pdb_8884.pdb o/1742_HEM_Lanosterol.pdb_6239.pdb o/1742_HEM_Lanosterol.pdb_6151.pdb o/1742_HEM_Lanosterol.pdb_3163.pdb o/1742_HEM_Lanosterol.pdb_7442.pdb o/1742_HEM_Lanosterol.pdb_2268.pdb o/1742_HEM_Lanosterol.pdb_8886.pdb o/1742_HEM_Lanosterol.pdb_1699.pdb o/1742_HEM_Lanosterol.pdb_5216.pdb o/1742_HEM_Lanosterol.pdb_2048.pdb o/1742_HEM_Lanosterol.pdb_7404.pdb o/1742_HEM_Lanosterol.pdb_5868.pdb o/1742_HEM_Lanosterol.pdb_5419.pdb o/1742_HEM_Lanosterol.pdb_227.pdb o/1742_HEM_Lanosterol.pdb_5090.pdb o/1742_HEM_Lanosterol.pdb_1659.pdb 
26 o/1742_HEM_Lanosterol.pdb_7235.pdb o/1742_HEM_Lanosterol.pdb_5280.pdb o/1742_HEM_Lanosterol.pdb_9374.pdb o/1742_HEM_Lanosterol.pdb_8005.pdb o/1742_HEM_Lanosterol.pdb_3356.pdb o/1742_HEM_Lanosterol.pdb_7409.pdb o/1742_HEM_Lanosterol.pdb_4912.pdb o/1742_HEM_Lanosterol.pdb_3845.pdb o/1742_HEM_Lanosterol.pdb_7980.pdb o/1742_HEM_Lanosterol.pdb_8674.pdb o/1742_HEM_Lanosterol.pdb_1892.pdb o/1742_HEM_Lanosterol.pdb_7668.pdb o/1742_HEM_Lanosterol.pdb_5537.pdb o/1742_HEM_Lanosterol.pdb_7936.pdb o/1742_HEM_Lanosterol.pdb_6492.pdb o/1742_HEM_Lanosterol.pdb_8562.pdb o/1742_HEM_Lanosterol.pdb_8653.pdb o/1742_HEM_Lanosterol.pdb_343.pdb o/1742_HEM_Lanosterol.pdb_6244.pdb o/1742_HEM_Lanosterol.pdb_3345.pdb o/1742_HEM_Lanosterol.pdb_1473.pdb o/1742_HEM_Lanosterol.pdb_9864.pdb o/1742_HEM_Lanosterol.pdb_9355.pdb o/1742_HEM_Lanosterol.pdb_9294.pdb o/1742_HEM_Lanosterol.pdb_532.pdb o/1742_HEM_Lanosterol.pdb_1447.pdb 
12 o/1742_HEM_Lanosterol.pdb_9490.pdb o/1742_HEM_Lanosterol.pdb_6987.pdb o/1742_HEM_Lanosterol.pdb_902.pdb o/1742_HEM_Lanosterol.pdb_5013.pdb o/1742_HEM_Lanosterol.pdb_6823.pdb o/1742_HEM_Lanosterol.pdb_19.pdb o/1742_HEM_Lanosterol.pdb_6441.pdb o/1742_HEM_Lanosterol.pdb_121.pdb o/1742_HEM_Lanosterol.pdb_7298.pdb o/1742_HEM_Lanosterol.pdb_1125.pdb o/1742_HEM_Lanosterol.pdb_9990.pdb o/1742_HEM_Lanosterol.pdb_1123.pdb 
11 o/1742_HEM_Lanosterol.pdb_8989.pdb o/1742_HEM_Lanosterol.pdb_7090.pdb o/1742_HEM_Lanosterol.pdb_4166.pdb o/1742_HEM_Lanosterol.pdb_7671.pdb o/1742_HEM_Lanosterol.pdb_2921.pdb o/1742_HEM_Lanosterol.pdb_6807.pdb o/1742_HEM_Lanosterol.pdb_5608.pdb o/1742_HEM_Lanosterol.pdb_1294.pdb o/1742_HEM_Lanosterol.pdb_1781.pdb o/1742_HEM_Lanosterol.pdb_2519.pdb o/1742_HEM_Lanosterol.pdb_1100.pdb 
10 o/1742_HEM_Lanosterol.pdb_6465.pdb o/1742_HEM_Lanosterol.pdb_3340.pdb o/1742_HEM_Lanosterol.pdb_6221.pdb o/1742_HEM_Lanosterol.pdb_2816.pdb o/1742_HEM_Lanosterol.pdb_9948.pdb o/1742_HEM_Lanosterol.pdb_2640.pdb o/1742_HEM_Lanosterol.pdb_5735.pdb o/1742_HEM_Lanosterol.pdb_2020.pdb o/1742_HEM_Lanosterol.pdb_8385.pdb o/1742_HEM_Lanosterol.pdb_147.pdb 
12 o/1742_HEM_Lanosterol.pdb_9902.pdb o/1742_HEM_Lanosterol.pdb_9742.pdb o/1742_HEM_Lanosterol.pdb_7212.pdb o/1742_HEM_Lanosterol.pdb_6676.pdb o/1742_HEM_Lanosterol.pdb_4564.pdb o/1742_HEM_Lanosterol.pdb_9807.pdb o/1742_HEM_Lanosterol.pdb_9522.pdb o/1742_HEM_Lanosterol.pdb_6869.pdb o/1742_HEM_Lanosterol.pdb_2904.pdb o/1742_HEM_Lanosterol.pdb_523.pdb o/1742_HEM_Lanosterol.pdb_6531.pdb o/1742_HEM_Lanosterol.pdb_1042.pdb 
18 o/1742_HEM_Lanosterol.pdb_7865.pdb o/1742_HEM_Lanosterol.pdb_9064.pdb o/1742_HEM_Lanosterol.pdb_491.pdb o/1742_HEM_Lanosterol.pdb_4578.pdb o/1742_HEM_Lanosterol.pdb_2464.pdb o/1742_HEM_Lanosterol.pdb_8509.pdb o/1742_HEM_Lanosterol.pdb_9733.pdb o/1742_HEM_Lanosterol.pdb_7576.pdb o/1742_HEM_Lanosterol.pdb_3268.pdb o/1742_HEM_Lanosterol.pdb_4826.pdb o/1742_HEM_Lanosterol.pdb_1112.pdb o/1742_HEM_Lanosterol.pdb_7702.pdb o/1742_HEM_Lanosterol.pdb_5389.pdb o/1742_HEM_Lanosterol.pdb_3631.pdb o/1742_HEM_Lanosterol.pdb_8750.pdb o/1742_HEM_Lanosterol.pdb_742.pdb o/1742_HEM_Lanosterol.pdb_4259.pdb o/1742_HEM_Lanosterol.pdb_1040.pdb 
11 o/1742_HEM_Lanosterol.pdb_9016.pdb o/1742_HEM_Lanosterol.pdb_9342.pdb o/1742_HEM_Lanosterol.pdb_7682.pdb o/1742_HEM_Lanosterol.pdb_6651.pdb o/1742_HEM_Lanosterol.pdb_6837.pdb o/1742_HEM_Lanosterol.pdb_4429.pdb o/1742_HEM_Lanosterol.pdb_8835.pdb o/1742_HEM_Lanosterol.pdb_6191.pdb o/1742_HEM_Lanosterol.pdb_3805.pdb o/1742_HEM_Lanosterol.pdb_8838.pdb o/1742_HEM_Lanosterol.pdb_1078.pdb 
12 o/1742_HEM_Lanosterol.pdb_4653.pdb o/1742_HEM_Lanosterol.pdb_4160.pdb o/1742_HEM_Lanosterol.pdb_4105.pdb o/1742_HEM_Lanosterol.pdb_2670.pdb o/1742_HEM_Lanosterol.pdb_573.pdb o/1742_HEM_Lanosterol.pdb_5516.pdb o/1742_HEM_Lanosterol.pdb_1547.pdb o/1742_HEM_Lanosterol.pdb_8609.pdb o/1742_HEM_Lanosterol.pdb_4176.pdb o/1742_HEM_Lanosterol.pdb_134.pdb o/1742_HEM_Lanosterol.pdb_3101.pdb o/1742_HEM_Lanosterol.pdb_1158.pdb 
13 o/1742_HEM_Lanosterol.pdb_9786.pdb o/1742_HEM_Lanosterol.pdb_4700.pdb o/1742_HEM_Lanosterol.pdb_3522.pdb o/1742_HEM_Lanosterol.pdb_4414.pdb o/1742_HEM_Lanosterol.pdb_9401.pdb o/1742_HEM_Lanosterol.pdb_3341.pdb o/1742_HEM_Lanosterol.pdb_8456.pdb o/1742_HEM_Lanosterol.pdb_6984.pdb o/1742_HEM_Lanosterol.pdb_3276.pdb o/1742_HEM_Lanosterol.pdb_8343.pdb o/1742_HEM_Lanosterol.pdb_607.pdb o/1742_HEM_Lanosterol.pdb_5610.pdb o/1742_HEM_Lanosterol.pdb_2314.pdb 
11 o/1742_HEM_Lanosterol.pdb_7725.pdb o/1742_HEM_Lanosterol.pdb_3974.pdb o/1742_HEM_Lanosterol.pdb_8061.pdb o/1742_HEM_Lanosterol.pdb_5972.pdb o/1742_HEM_Lanosterol.pdb_7323.pdb o/1742_HEM_Lanosterol.pdb_7827.pdb o/1742_HEM_Lanosterol.pdb_5921.pdb o/1742_HEM_Lanosterol.pdb_904.pdb o/1742_HEM_Lanosterol.pdb_4924.pdb o/1742_HEM_Lanosterol.pdb_8812.pdb o/1742_HEM_Lanosterol.pdb_3310.pdb 
10 o/1742_HEM_Lanosterol.pdb_7749.pdb o/1742_HEM_Lanosterol.pdb_6842.pdb o/1742_HEM_Lanosterol.pdb_6388.pdb o/1742_HEM_Lanosterol.pdb_9652.pdb o/1742_HEM_Lanosterol.pdb_4002.pdb o/1742_HEM_Lanosterol.pdb_5901.pdb o/1742_HEM_Lanosterol.pdb_3723.pdb o/1742_HEM_Lanosterol.pdb_180.pdb o/1742_HEM_Lanosterol.pdb_2325.pdb o/1742_HEM_Lanosterol.pdb_1525.pdb 
10 o/1742_HEM_Lanosterol.pdb_8345.pdb o/1742_HEM_Lanosterol.pdb_7158.pdb o/1742_HEM_Lanosterol.pdb_7106.pdb o/1742_HEM_Lanosterol.pdb_611.pdb o/1742_HEM_Lanosterol.pdb_5900.pdb o/1742_HEM_Lanosterol.pdb_3126.pdb o/1742_HEM_Lanosterol.pdb_2625.pdb o/1742_HEM_Lanosterol.pdb_8539.pdb o/1742_HEM_Lanosterol.pdb_4441.pdb o/1742_HEM_Lanosterol.pdb_1025.pdb 
10 o/1742_HEM_Lanosterol.pdb_8123.pdb o/1742_HEM_Lanosterol.pdb_6285.pdb o/1742_HEM_Lanosterol.pdb_6843.pdb o/1742_HEM_Lanosterol.pdb_2745.pdb o/1742_HEM_Lanosterol.pdb_6135.pdb o/1742_HEM_Lanosterol.pdb_3834.pdb o/1742_HEM_Lanosterol.pdb_2613.pdb o/1742_HEM_Lanosterol.pdb_9198.pdb o/1742_HEM_Lanosterol.pdb_6618.pdb o/1742_HEM_Lanosterol.pdb_2062.pdb 
13 o/1742_HEM_Lanosterol.pdb_7125.pdb o/1742_HEM_Lanosterol.pdb_8885.pdb o/1742_HEM_Lanosterol.pdb_3638.pdb o/1742_HEM_Lanosterol.pdb_9235.pdb o/1742_HEM_Lanosterol.pdb_874.pdb o/1742_HEM_Lanosterol.pdb_7261.pdb o/1742_HEM_Lanosterol.pdb_8212.pdb o/1742_HEM_Lanosterol.pdb_5384.pdb o/1742_HEM_Lanosterol.pdb_3602.pdb o/1742_HEM_Lanosterol.pdb_8354.pdb o/1742_HEM_Lanosterol.pdb_6938.pdb o/1742_HEM_Lanosterol.pdb_8463.pdb o/1742_HEM_Lanosterol.pdb_3342.pdb 
11 o/1742_HEM_Lanosterol.pdb_3962.pdb o/1742_HEM_Lanosterol.pdb_9168.pdb o/1742_HEM_Lanosterol.pdb_3427.pdb o/1742_HEM_Lanosterol.pdb_7396.pdb o/1742_HEM_Lanosterol.pdb_1390.pdb o/1742_HEM_Lanosterol.pdb_7008.pdb o/1742_HEM_Lanosterol.pdb_5301.pdb o/1742_HEM_Lanosterol.pdb_4212.pdb o/1742_HEM_Lanosterol.pdb_8425.pdb o/1742_HEM_Lanosterol.pdb_1475.pdb o/1742_HEM_Lanosterol.pdb_1117.pdb 
15 o/1742_HEM_Lanosterol.pdb_9702.pdb o/1742_HEM_Lanosterol.pdb_9549.pdb o/1742_HEM_Lanosterol.pdb_7367.pdb o/1742_HEM_Lanosterol.pdb_909.pdb o/1742_HEM_Lanosterol.pdb_7790.pdb o/1742_HEM_Lanosterol.pdb_3365.pdb o/1742_HEM_Lanosterol.pdb_7663.pdb o/1742_HEM_Lanosterol.pdb_7107.pdb o/1742_HEM_Lanosterol.pdb_9202.pdb o/1742_HEM_Lanosterol.pdb_2398.pdb o/1742_HEM_Lanosterol.pdb_8890.pdb o/1742_HEM_Lanosterol.pdb_5662.pdb o/1742_HEM_Lanosterol.pdb_4755.pdb o/1742_HEM_Lanosterol.pdb_3663.pdb o/1742_HEM_Lanosterol.pdb_1418.pdb 
15 o/1742_HEM_Lanosterol.pdb_6727.pdb o/1742_HEM_Lanosterol.pdb_8318.pdb o/1742_HEM_Lanosterol.pdb_6287.pdb o/1742_HEM_Lanosterol.pdb_4936.pdb o/1742_HEM_Lanosterol.pdb_3271.pdb o/1742_HEM_Lanosterol.pdb_7959.pdb o/1742_HEM_Lanosterol.pdb_6558.pdb o/1742_HEM_Lanosterol.pdb_860.pdb o/1742_HEM_Lanosterol.pdb_379.pdb o/1742_HEM_Lanosterol.pdb_7303.pdb o/1742_HEM_Lanosterol.pdb_5313.pdb o/1742_HEM_Lanosterol.pdb_2651.pdb o/1742_HEM_Lanosterol.pdb_303.pdb o/1742_HEM_Lanosterol.pdb_6322.pdb o/1742_HEM_Lanosterol.pdb_1826.pdb 
10 o/1742_HEM_Lanosterol.pdb_6675.pdb o/1742_HEM_Lanosterol.pdb_3212.pdb o/1742_HEM_Lanosterol.pdb_4744.pdb o/1742_HEM_Lanosterol.pdb_3110.pdb o/1742_HEM_Lanosterol.pdb_9919.pdb o/1742_HEM_Lanosterol.pdb_258.pdb o/1742_HEM_Lanosterol.pdb_459.pdb o/1742_HEM_Lanosterol.pdb_3328.pdb o/1742_HEM_Lanosterol.pdb_9830.pdb o/1742_HEM_Lanosterol.pdb_1018.pdb 
10 o/1742_HEM_Lanosterol.pdb_2729.pdb o/1742_HEM_Lanosterol.pdb_2335.pdb o/1742_HEM_Lanosterol.pdb_5885.pdb o/1742_HEM_Lanosterol.pdb_3733.pdb o/1742_HEM_Lanosterol.pdb_5059.pdb o/1742_HEM_Lanosterol.pdb_1095.pdb o/1742_HEM_Lanosterol.pdb_1518.pdb o/1742_HEM_Lanosterol.pdb_9662.pdb o/1742_HEM_Lanosterol.pdb_3841.pdb o/1742_HEM_Lanosterol.pdb_1016.pdb 
13 o/1742_HEM_Lanosterol.pdb_9030.pdb o/1742_HEM_Lanosterol.pdb_5703.pdb o/1742_HEM_Lanosterol.pdb_5629.pdb o/1742_HEM_Lanosterol.pdb_3318.pdb o/1742_HEM_Lanosterol.pdb_9321.pdb o/1742_HEM_Lanosterol.pdb_8091.pdb o/1742_HEM_Lanosterol.pdb_7470.pdb o/1742_HEM_Lanosterol.pdb_74.pdb o/1742_HEM_Lanosterol.pdb_3684.pdb o/1742_HEM_Lanosterol.pdb_1548.pdb o/1742_HEM_Lanosterol.pdb_6863.pdb o/1742_HEM_Lanosterol.pdb_1898.pdb o/1742_HEM_Lanosterol.pdb_1015.pdb 
10 o/1742_HEM_Lanosterol.pdb_693.pdb o/1742_HEM_Lanosterol.pdb_5556.pdb o/1742_HEM_Lanosterol.pdb_5716.pdb o/1742_HEM_Lanosterol.pdb_4645.pdb o/1742_HEM_Lanosterol.pdb_3952.pdb o/1742_HEM_Lanosterol.pdb_9369.pdb o/1742_HEM_Lanosterol.pdb_710.pdb o/1742_HEM_Lanosterol.pdb_6952.pdb o/1742_HEM_Lanosterol.pdb_7800.pdb o/1742_HEM_Lanosterol.pdb_3039.pdb 
11 o/1742_HEM_Lanosterol.pdb_8651.pdb o/1742_HEM_Lanosterol.pdb_4658.pdb o/1742_HEM_Lanosterol.pdb_731.pdb o/1742_HEM_Lanosterol.pdb_9261.pdb o/1742_HEM_Lanosterol.pdb_1270.pdb o/1742_HEM_Lanosterol.pdb_7219.pdb o/1742_HEM_Lanosterol.pdb_5756.pdb o/1742_HEM_Lanosterol.pdb_3330.pdb o/1742_HEM_Lanosterol.pdb_6594.pdb o/1742_HEM_Lanosterol.pdb_1779.pdb o/1742_HEM_Lanosterol.pdb_1082.pdb 
19 o/1742_HEM_Lanosterol.pdb_6793.pdb o/1742_HEM_Lanosterol.pdb_237.pdb o/1742_HEM_Lanosterol.pdb_8701.pdb o/1742_HEM_Lanosterol.pdb_7662.pdb o/1742_HEM_Lanosterol.pdb_1938.pdb o/1742_HEM_Lanosterol.pdb_7475.pdb o/1742_HEM_Lanosterol.pdb_1073.pdb o/1742_HEM_Lanosterol.pdb_8237.pdb o/1742_HEM_Lanosterol.pdb_2849.pdb o/1742_HEM_Lanosterol.pdb_240.pdb o/1742_HEM_Lanosterol.pdb_3582.pdb o/1742_HEM_Lanosterol.pdb_7364.pdb o/1742_HEM_Lanosterol.pdb_869.pdb o/1742_HEM_Lanosterol.pdb_2311.pdb o/1742_HEM_Lanosterol.pdb_8483.pdb o/1742_HEM_Lanosterol.pdb_4843.pdb o/1742_HEM_Lanosterol.pdb_4970.pdb o/1742_HEM_Lanosterol.pdb_4144.pdb o/1742_HEM_Lanosterol.pdb_1012.pdb 
11 o/1742_HEM_Lanosterol.pdb_7933.pdb o/1742_HEM_Lanosterol.pdb_6599.pdb o/1742_HEM_Lanosterol.pdb_6615.pdb o/1742_HEM_Lanosterol.pdb_722.pdb o/1742_HEM_Lanosterol.pdb_3575.pdb o/1742_HEM_Lanosterol.pdb_7996.pdb o/1742_HEM_Lanosterol.pdb_6899.pdb o/1742_HEM_Lanosterol.pdb_3412.pdb o/1742_HEM_Lanosterol.pdb_8434.pdb o/1742_HEM_Lanosterol.pdb_8186.pdb o/1742_HEM_Lanosterol.pdb_1321.pdb 
12 o/1742_HEM_Lanosterol.pdb_9344.pdb o/1742_HEM_Lanosterol.pdb_9144.pdb o/1742_HEM_Lanosterol.pdb_5855.pdb o/1742_HEM_Lanosterol.pdb_7907.pdb o/1742_HEM_Lanosterol.pdb_934.pdb o/1742_HEM_Lanosterol.pdb_5039.pdb o/1742_HEM_Lanosterol.pdb_6583.pdb o/1742_HEM_Lanosterol.pdb_623.pdb o/1742_HEM_Lanosterol.pdb_4949.pdb o/1742_HEM_Lanosterol.pdb_3311.pdb o/1742_HEM_Lanosterol.pdb_885.pdb o/1742_HEM_Lanosterol.pdb_2109.pdb 
10 o/1742_HEM_Lanosterol.pdb_798.pdb o/1742_HEM_Lanosterol.pdb_6247.pdb o/1742_HEM_Lanosterol.pdb_638.pdb o/1742_HEM_Lanosterol.pdb_5253.pdb o/1742_HEM_Lanosterol.pdb_7264.pdb o/1742_HEM_Lanosterol.pdb_3633.pdb o/1742_HEM_Lanosterol.pdb_8146.pdb o/1742_HEM_Lanosterol.pdb_2753.pdb o/1742_HEM_Lanosterol.pdb_8204.pdb o/1742_HEM_Lanosterol.pdb_1967.pdb 
10 o/1742_HEM_Lanosterol.pdb_8030.pdb o/1742_HEM_Lanosterol.pdb_688.pdb o/1742_HEM_Lanosterol.pdb_8644.pdb o/1742_HEM_Lanosterol.pdb_4308.pdb o/1742_HEM_Lanosterol.pdb_9592.pdb o/1742_HEM_Lanosterol.pdb_957.pdb o/1742_HEM_Lanosterol.pdb_5206.pdb o/1742_HEM_Lanosterol.pdb_7895.pdb o/1742_HEM_Lanosterol.pdb_7446.pdb o/1742_HEM_Lanosterol.pdb_3694.pdb 
26 o/1742_HEM_Lanosterol.pdb_5967.pdb o/1742_HEM_Lanosterol.pdb_2445.pdb o/1742_HEM_Lanosterol.pdb_4521.pdb o/1742_HEM_Lanosterol.pdb_1683.pdb o/1742_HEM_Lanosterol.pdb_8388.pdb o/1742_HEM_Lanosterol.pdb_4027.pdb o/1742_HEM_Lanosterol.pdb_3487.pdb o/1742_HEM_Lanosterol.pdb_5234.pdb o/1742_HEM_Lanosterol.pdb_2027.pdb o/1742_HEM_Lanosterol.pdb_9675.pdb o/1742_HEM_Lanosterol.pdb_1180.pdb o/1742_HEM_Lanosterol.pdb_7633.pdb o/1742_HEM_Lanosterol.pdb_2639.pdb o/1742_HEM_Lanosterol.pdb_984.pdb o/1742_HEM_Lanosterol.pdb_1307.pdb o/1742_HEM_Lanosterol.pdb_3637.pdb o/1742_HEM_Lanosterol.pdb_1258.pdb o/1742_HEM_Lanosterol.pdb_5350.pdb o/1742_HEM_Lanosterol.pdb_7015.pdb o/1742_HEM_Lanosterol.pdb_4157.pdb o/1742_HEM_Lanosterol.pdb_1973.pdb o/1742_HEM_Lanosterol.pdb_2127.pdb o/1742_HEM_Lanosterol.pdb_1181.pdb o/1742_HEM_Lanosterol.pdb_480.pdb o/1742_HEM_Lanosterol.pdb_3358.pdb o/1742_HEM_Lanosterol.pdb_112.pdb 
10 o/1742_HEM_Lanosterol.pdb_9307.pdb o/1742_HEM_Lanosterol.pdb_5920.pdb o/1742_HEM_Lanosterol.pdb_9911.pdb o/1742_HEM_Lanosterol.pdb_963.pdb o/1742_HEM_Lanosterol.pdb_7389.pdb o/1742_HEM_Lanosterol.pdb_3392.pdb o/1742_HEM_Lanosterol.pdb_3057.pdb o/1742_HEM_Lanosterol.pdb_7267.pdb o/1742_HEM_Lanosterol.pdb_7666.pdb o/1742_HEM_Lanosterol.pdb_1216.pdb 
16 o/1742_HEM_Lanosterol.pdb_2324.pdb o/1742_HEM_Lanosterol.pdb_641.pdb o/1742_HEM_Lanosterol.pdb_3710.pdb o/1742_HEM_Lanosterol.pdb_1635.pdb o/1742_HEM_Lanosterol.pdb_713.pdb o/1742_HEM_Lanosterol.pdb_3227.pdb o/1742_HEM_Lanosterol.pdb_3054.pdb o/1742_HEM_Lanosterol.pdb_5505.pdb o/1742_HEM_Lanosterol.pdb_6283.pdb o/1742_HEM_Lanosterol.pdb_12.pdb o/1742_HEM_Lanosterol.pdb_898.pdb o/1742_HEM_Lanosterol.pdb_6356.pdb o/1742_HEM_Lanosterol.pdb_6313.pdb o/1742_HEM_Lanosterol.pdb_8257.pdb o/1742_HEM_Lanosterol.pdb_8457.pdb o/1742_HEM_Lanosterol.pdb_1152.pdb 
11 o/1742_HEM_Lanosterol.pdb_7247.pdb o/1742_HEM_Lanosterol.pdb_8579.pdb o/1742_HEM_Lanosterol.pdb_4484.pdb o/1742_HEM_Lanosterol.pdb_9726.pdb o/1742_HEM_Lanosterol.pdb_3830.pdb o/1742_HEM_Lanosterol.pdb_7935.pdb o/1742_HEM_Lanosterol.pdb_1856.pdb o/1742_HEM_Lanosterol.pdb_6230.pdb o/1742_HEM_Lanosterol.pdb_7088.pdb o/1742_HEM_Lanosterol.pdb_3406.pdb o/1742_HEM_Lanosterol.pdb_1708.pdb 
15 o/1742_HEM_Lanosterol.pdb_7619.pdb o/1742_HEM_Lanosterol.pdb_6606.pdb o/1742_HEM_Lanosterol.pdb_4087.pdb o/1742_HEM_Lanosterol.pdb_5709.pdb o/1742_HEM_Lanosterol.pdb_4009.pdb o/1742_HEM_Lanosterol.pdb_8403.pdb o/1742_HEM_Lanosterol.pdb_4643.pdb o/1742_HEM_Lanosterol.pdb_8566.pdb o/1742_HEM_Lanosterol.pdb_3701.pdb o/1742_HEM_Lanosterol.pdb_4674.pdb o/1742_HEM_Lanosterol.pdb_892.pdb o/1742_HEM_Lanosterol.pdb_2719.pdb o/1742_HEM_Lanosterol.pdb_6844.pdb o/1742_HEM_Lanosterol.pdb_7955.pdb o/1742_HEM_Lanosterol.pdb_2299.pdb 
10 o/1742_HEM_Lanosterol.pdb_800.pdb o/1742_HEM_Lanosterol.pdb_5076.pdb o/1742_HEM_Lanosterol.pdb_3109.pdb o/1742_HEM_Lanosterol.pdb_9251.pdb o/1742_HEM_Lanosterol.pdb_2997.pdb o/1742_HEM_Lanosterol.pdb_6818.pdb o/1742_HEM_Lanosterol.pdb_6805.pdb o/1742_HEM_Lanosterol.pdb_2564.pdb o/1742_HEM_Lanosterol.pdb_5119.pdb o/1742_HEM_Lanosterol.pdb_2258.pdb 
17 o/1742_HEM_Lanosterol.pdb_3319.pdb o/1742_HEM_Lanosterol.pdb_5999.pdb o/1742_HEM_Lanosterol.pdb_4324.pdb o/1742_HEM_Lanosterol.pdb_261.pdb o/1742_HEM_Lanosterol.pdb_7416.pdb o/1742_HEM_Lanosterol.pdb_6017.pdb o/1742_HEM_Lanosterol.pdb_3762.pdb o/1742_HEM_Lanosterol.pdb_9795.pdb o/1742_HEM_Lanosterol.pdb_5317.pdb o/1742_HEM_Lanosterol.pdb_7070.pdb o/1742_HEM_Lanosterol.pdb_4983.pdb o/1742_HEM_Lanosterol.pdb_7905.pdb o/1742_HEM_Lanosterol.pdb_438.pdb o/1742_HEM_Lanosterol.pdb_9259.pdb o/1742_HEM_Lanosterol.pdb_8377.pdb o/1742_HEM_Lanosterol.pdb_1149.pdb o/1742_HEM_Lanosterol.pdb_1.pdb 
11 o/1742_HEM_Lanosterol.pdb_8106.pdb o/1742_HEM_Lanosterol.pdb_6966.pdb o/1742_HEM_Lanosterol.pdb_8173.pdb o/1742_HEM_Lanosterol.pdb_2358.pdb o/1742_HEM_Lanosterol.pdb_490.pdb o/1742_HEM_Lanosterol.pdb_7205.pdb o/1742_HEM_Lanosterol.pdb_3023.pdb o/1742_HEM_Lanosterol.pdb_9408.pdb o/1742_HEM_Lanosterol.pdb_7069.pdb o/1742_HEM_Lanosterol.pdb_5175.pdb o/1742_HEM_Lanosterol.pdb_179.pdb 
