10 o/627561_HEM_Fluconazole.pdb_7169.pdb o/627561_HEM_Fluconazole.pdb_2169.pdb o/627561_HEM_Fluconazole.pdb_7689.pdb o/627561_HEM_Fluconazole.pdb_6820.pdb o/627561_HEM_Fluconazole.pdb_5015.pdb o/627561_HEM_Fluconazole.pdb_4089.pdb o/627561_HEM_Fluconazole.pdb_7388.pdb o/627561_HEM_Fluconazole.pdb_5014.pdb o/627561_HEM_Fluconazole.pdb_203.pdb o/627561_HEM_Fluconazole.pdb_1810.pdb 
11 o/627561_HEM_Fluconazole.pdb_901.pdb o/627561_HEM_Fluconazole.pdb_8788.pdb o/627561_HEM_Fluconazole.pdb_9587.pdb o/627561_HEM_Fluconazole.pdb_9911.pdb o/627561_HEM_Fluconazole.pdb_8515.pdb o/627561_HEM_Fluconazole.pdb_7235.pdb o/627561_HEM_Fluconazole.pdb_3228.pdb o/627561_HEM_Fluconazole.pdb_5854.pdb o/627561_HEM_Fluconazole.pdb_8681.pdb o/627561_HEM_Fluconazole.pdb_2375.pdb o/627561_HEM_Fluconazole.pdb_1931.pdb 
11 o/627561_HEM_Fluconazole.pdb_5102.pdb o/627561_HEM_Fluconazole.pdb_9442.pdb o/627561_HEM_Fluconazole.pdb_9018.pdb o/627561_HEM_Fluconazole.pdb_1815.pdb o/627561_HEM_Fluconazole.pdb_8988.pdb o/627561_HEM_Fluconazole.pdb_5688.pdb o/627561_HEM_Fluconazole.pdb_9865.pdb o/627561_HEM_Fluconazole.pdb_2889.pdb o/627561_HEM_Fluconazole.pdb_8828.pdb o/627561_HEM_Fluconazole.pdb_2756.pdb o/627561_HEM_Fluconazole.pdb_1426.pdb 
11 o/627561_HEM_Fluconazole.pdb_7090.pdb o/627561_HEM_Fluconazole.pdb_3204.pdb o/627561_HEM_Fluconazole.pdb_9105.pdb o/627561_HEM_Fluconazole.pdb_9891.pdb o/627561_HEM_Fluconazole.pdb_6465.pdb o/627561_HEM_Fluconazole.pdb_5076.pdb o/627561_HEM_Fluconazole.pdb_6694.pdb o/627561_HEM_Fluconazole.pdb_4961.pdb o/627561_HEM_Fluconazole.pdb_8342.pdb o/627561_HEM_Fluconazole.pdb_80.pdb o/627561_HEM_Fluconazole.pdb_1207.pdb 
10 o/627561_HEM_Fluconazole.pdb_7756.pdb o/627561_HEM_Fluconazole.pdb_7354.pdb o/627561_HEM_Fluconazole.pdb_567.pdb o/627561_HEM_Fluconazole.pdb_8907.pdb o/627561_HEM_Fluconazole.pdb_9572.pdb o/627561_HEM_Fluconazole.pdb_5712.pdb o/627561_HEM_Fluconazole.pdb_3863.pdb o/627561_HEM_Fluconazole.pdb_9183.pdb o/627561_HEM_Fluconazole.pdb_3550.pdb o/627561_HEM_Fluconazole.pdb_3093.pdb 
10 o/627561_HEM_Fluconazole.pdb_4325.pdb o/627561_HEM_Fluconazole.pdb_9446.pdb o/627561_HEM_Fluconazole.pdb_7013.pdb o/627561_HEM_Fluconazole.pdb_9957.pdb o/627561_HEM_Fluconazole.pdb_2729.pdb o/627561_HEM_Fluconazole.pdb_90.pdb o/627561_HEM_Fluconazole.pdb_5166.pdb o/627561_HEM_Fluconazole.pdb_5332.pdb o/627561_HEM_Fluconazole.pdb_5367.pdb o/627561_HEM_Fluconazole.pdb_212.pdb 
10 o/627561_HEM_Fluconazole.pdb_8545.pdb o/627561_HEM_Fluconazole.pdb_5693.pdb o/627561_HEM_Fluconazole.pdb_1989.pdb o/627561_HEM_Fluconazole.pdb_7856.pdb o/627561_HEM_Fluconazole.pdb_6926.pdb o/627561_HEM_Fluconazole.pdb_1496.pdb o/627561_HEM_Fluconazole.pdb_8734.pdb o/627561_HEM_Fluconazole.pdb_4665.pdb o/627561_HEM_Fluconazole.pdb_4013.pdb o/627561_HEM_Fluconazole.pdb_1194.pdb 
11 o/627561_HEM_Fluconazole.pdb_8636.pdb o/627561_HEM_Fluconazole.pdb_5482.pdb o/627561_HEM_Fluconazole.pdb_7727.pdb o/627561_HEM_Fluconazole.pdb_3312.pdb o/627561_HEM_Fluconazole.pdb_8127.pdb o/627561_HEM_Fluconazole.pdb_7332.pdb o/627561_HEM_Fluconazole.pdb_7198.pdb o/627561_HEM_Fluconazole.pdb_2977.pdb o/627561_HEM_Fluconazole.pdb_3487.pdb o/627561_HEM_Fluconazole.pdb_6146.pdb o/627561_HEM_Fluconazole.pdb_1382.pdb 
10 o/627561_HEM_Fluconazole.pdb_672.pdb o/627561_HEM_Fluconazole.pdb_5297.pdb o/627561_HEM_Fluconazole.pdb_927.pdb o/627561_HEM_Fluconazole.pdb_7534.pdb o/627561_HEM_Fluconazole.pdb_4499.pdb o/627561_HEM_Fluconazole.pdb_4981.pdb o/627561_HEM_Fluconazole.pdb_4777.pdb o/627561_HEM_Fluconazole.pdb_9818.pdb o/627561_HEM_Fluconazole.pdb_7184.pdb o/627561_HEM_Fluconazole.pdb_1311.pdb 
10 o/627561_HEM_Fluconazole.pdb_7389.pdb o/627561_HEM_Fluconazole.pdb_7196.pdb o/627561_HEM_Fluconazole.pdb_5616.pdb o/627561_HEM_Fluconazole.pdb_7134.pdb o/627561_HEM_Fluconazole.pdb_3806.pdb o/627561_HEM_Fluconazole.pdb_8770.pdb o/627561_HEM_Fluconazole.pdb_3754.pdb o/627561_HEM_Fluconazole.pdb_9629.pdb o/627561_HEM_Fluconazole.pdb_4204.pdb o/627561_HEM_Fluconazole.pdb_3154.pdb 
