10 o/271374_HEM_Lanosterol.pdb_4190.pdb o/271374_HEM_Lanosterol.pdb_6667.pdb o/271374_HEM_Lanosterol.pdb_5130.pdb o/271374_HEM_Lanosterol.pdb_3314.pdb o/271374_HEM_Lanosterol.pdb_7495.pdb o/271374_HEM_Lanosterol.pdb_6356.pdb o/271374_HEM_Lanosterol.pdb_1999.pdb o/271374_HEM_Lanosterol.pdb_5978.pdb o/271374_HEM_Lanosterol.pdb_3738.pdb o/271374_HEM_Lanosterol.pdb_1702.pdb 
11 o/271374_HEM_Lanosterol.pdb_7470.pdb o/271374_HEM_Lanosterol.pdb_5803.pdb o/271374_HEM_Lanosterol.pdb_9650.pdb o/271374_HEM_Lanosterol.pdb_9924.pdb o/271374_HEM_Lanosterol.pdb_7480.pdb o/271374_HEM_Lanosterol.pdb_3759.pdb o/271374_HEM_Lanosterol.pdb_9845.pdb o/271374_HEM_Lanosterol.pdb_9719.pdb o/271374_HEM_Lanosterol.pdb_3343.pdb o/271374_HEM_Lanosterol.pdb_8518.pdb o/271374_HEM_Lanosterol.pdb_3002.pdb 
10 o/271374_HEM_Lanosterol.pdb_9830.pdb o/271374_HEM_Lanosterol.pdb_7819.pdb o/271374_HEM_Lanosterol.pdb_4321.pdb o/271374_HEM_Lanosterol.pdb_7192.pdb o/271374_HEM_Lanosterol.pdb_676.pdb o/271374_HEM_Lanosterol.pdb_2242.pdb o/271374_HEM_Lanosterol.pdb_2205.pdb o/271374_HEM_Lanosterol.pdb_7952.pdb o/271374_HEM_Lanosterol.pdb_4235.pdb o/271374_HEM_Lanosterol.pdb_1806.pdb 
12 o/271374_HEM_Lanosterol.pdb_9608.pdb o/271374_HEM_Lanosterol.pdb_8191.pdb o/271374_HEM_Lanosterol.pdb_7123.pdb o/271374_HEM_Lanosterol.pdb_7876.pdb o/271374_HEM_Lanosterol.pdb_2949.pdb o/271374_HEM_Lanosterol.pdb_4136.pdb o/271374_HEM_Lanosterol.pdb_7566.pdb o/271374_HEM_Lanosterol.pdb_4290.pdb o/271374_HEM_Lanosterol.pdb_7809.pdb o/271374_HEM_Lanosterol.pdb_9406.pdb o/271374_HEM_Lanosterol.pdb_248.pdb o/271374_HEM_Lanosterol.pdb_2082.pdb 
11 o/271374_HEM_Lanosterol.pdb_875.pdb o/271374_HEM_Lanosterol.pdb_6139.pdb o/271374_HEM_Lanosterol.pdb_8235.pdb o/271374_HEM_Lanosterol.pdb_5050.pdb o/271374_HEM_Lanosterol.pdb_9594.pdb o/271374_HEM_Lanosterol.pdb_6561.pdb o/271374_HEM_Lanosterol.pdb_5177.pdb o/271374_HEM_Lanosterol.pdb_2838.pdb o/271374_HEM_Lanosterol.pdb_6828.pdb o/271374_HEM_Lanosterol.pdb_3651.pdb o/271374_HEM_Lanosterol.pdb_1503.pdb 
15 o/271374_HEM_Lanosterol.pdb_9818.pdb o/271374_HEM_Lanosterol.pdb_6276.pdb o/271374_HEM_Lanosterol.pdb_4236.pdb o/271374_HEM_Lanosterol.pdb_8377.pdb o/271374_HEM_Lanosterol.pdb_4833.pdb o/271374_HEM_Lanosterol.pdb_281.pdb o/271374_HEM_Lanosterol.pdb_2703.pdb o/271374_HEM_Lanosterol.pdb_1603.pdb o/271374_HEM_Lanosterol.pdb_6003.pdb o/271374_HEM_Lanosterol.pdb_1482.pdb o/271374_HEM_Lanosterol.pdb_5777.pdb o/271374_HEM_Lanosterol.pdb_3234.pdb o/271374_HEM_Lanosterol.pdb_6371.pdb o/271374_HEM_Lanosterol.pdb_4098.pdb o/271374_HEM_Lanosterol.pdb_1201.pdb 
10 o/271374_HEM_Lanosterol.pdb_6543.pdb o/271374_HEM_Lanosterol.pdb_6648.pdb o/271374_HEM_Lanosterol.pdb_4785.pdb o/271374_HEM_Lanosterol.pdb_3195.pdb o/271374_HEM_Lanosterol.pdb_2772.pdb o/271374_HEM_Lanosterol.pdb_6361.pdb o/271374_HEM_Lanosterol.pdb_2639.pdb o/271374_HEM_Lanosterol.pdb_52.pdb o/271374_HEM_Lanosterol.pdb_8851.pdb o/271374_HEM_Lanosterol.pdb_2454.pdb 
14 o/271374_HEM_Lanosterol.pdb_8433.pdb o/271374_HEM_Lanosterol.pdb_9134.pdb o/271374_HEM_Lanosterol.pdb_7420.pdb o/271374_HEM_Lanosterol.pdb_6160.pdb o/271374_HEM_Lanosterol.pdb_2487.pdb o/271374_HEM_Lanosterol.pdb_9495.pdb o/271374_HEM_Lanosterol.pdb_8339.pdb o/271374_HEM_Lanosterol.pdb_5464.pdb o/271374_HEM_Lanosterol.pdb_4841.pdb o/271374_HEM_Lanosterol.pdb_4529.pdb o/271374_HEM_Lanosterol.pdb_1781.pdb o/271374_HEM_Lanosterol.pdb_7149.pdb o/271374_HEM_Lanosterol.pdb_8881.pdb o/271374_HEM_Lanosterol.pdb_1252.pdb 
11 o/271374_HEM_Lanosterol.pdb_9194.pdb o/271374_HEM_Lanosterol.pdb_2048.pdb o/271374_HEM_Lanosterol.pdb_5656.pdb o/271374_HEM_Lanosterol.pdb_2708.pdb o/271374_HEM_Lanosterol.pdb_9315.pdb o/271374_HEM_Lanosterol.pdb_2025.pdb o/271374_HEM_Lanosterol.pdb_8987.pdb o/271374_HEM_Lanosterol.pdb_3355.pdb o/271374_HEM_Lanosterol.pdb_9935.pdb o/271374_HEM_Lanosterol.pdb_6241.pdb o/271374_HEM_Lanosterol.pdb_1338.pdb 
10 o/271374_HEM_Lanosterol.pdb_6359.pdb o/271374_HEM_Lanosterol.pdb_6246.pdb o/271374_HEM_Lanosterol.pdb_7853.pdb o/271374_HEM_Lanosterol.pdb_6087.pdb o/271374_HEM_Lanosterol.pdb_3393.pdb o/271374_HEM_Lanosterol.pdb_623.pdb o/271374_HEM_Lanosterol.pdb_1966.pdb o/271374_HEM_Lanosterol.pdb_2718.pdb o/271374_HEM_Lanosterol.pdb_3132.pdb o/271374_HEM_Lanosterol.pdb_1315.pdb 
11 o/271374_HEM_Lanosterol.pdb_6705.pdb o/271374_HEM_Lanosterol.pdb_9521.pdb o/271374_HEM_Lanosterol.pdb_8569.pdb o/271374_HEM_Lanosterol.pdb_3241.pdb o/271374_HEM_Lanosterol.pdb_6893.pdb o/271374_HEM_Lanosterol.pdb_3187.pdb o/271374_HEM_Lanosterol.pdb_4989.pdb o/271374_HEM_Lanosterol.pdb_2486.pdb o/271374_HEM_Lanosterol.pdb_7116.pdb o/271374_HEM_Lanosterol.pdb_3204.pdb o/271374_HEM_Lanosterol.pdb_2355.pdb 
14 o/271374_HEM_Lanosterol.pdb_91.pdb o/271374_HEM_Lanosterol.pdb_980.pdb o/271374_HEM_Lanosterol.pdb_9880.pdb o/271374_HEM_Lanosterol.pdb_7320.pdb o/271374_HEM_Lanosterol.pdb_6936.pdb o/271374_HEM_Lanosterol.pdb_9025.pdb o/271374_HEM_Lanosterol.pdb_3873.pdb o/271374_HEM_Lanosterol.pdb_9716.pdb o/271374_HEM_Lanosterol.pdb_3419.pdb o/271374_HEM_Lanosterol.pdb_7632.pdb o/271374_HEM_Lanosterol.pdb_2222.pdb o/271374_HEM_Lanosterol.pdb_203.pdb o/271374_HEM_Lanosterol.pdb_3399.pdb o/271374_HEM_Lanosterol.pdb_1677.pdb 
10 o/271374_HEM_Lanosterol.pdb_4392.pdb o/271374_HEM_Lanosterol.pdb_9187.pdb o/271374_HEM_Lanosterol.pdb_2896.pdb o/271374_HEM_Lanosterol.pdb_8988.pdb o/271374_HEM_Lanosterol.pdb_2152.pdb o/271374_HEM_Lanosterol.pdb_7556.pdb o/271374_HEM_Lanosterol.pdb_724.pdb o/271374_HEM_Lanosterol.pdb_2814.pdb o/271374_HEM_Lanosterol.pdb_2559.pdb o/271374_HEM_Lanosterol.pdb_1602.pdb 
10 o/271374_HEM_Lanosterol.pdb_9032.pdb o/271374_HEM_Lanosterol.pdb_8210.pdb o/271374_HEM_Lanosterol.pdb_9626.pdb o/271374_HEM_Lanosterol.pdb_3100.pdb o/271374_HEM_Lanosterol.pdb_6312.pdb o/271374_HEM_Lanosterol.pdb_7874.pdb o/271374_HEM_Lanosterol.pdb_4504.pdb o/271374_HEM_Lanosterol.pdb_268.pdb o/271374_HEM_Lanosterol.pdb_9934.pdb o/271374_HEM_Lanosterol.pdb_2661.pdb 
13 o/271374_HEM_Lanosterol.pdb_9024.pdb o/271374_HEM_Lanosterol.pdb_4227.pdb o/271374_HEM_Lanosterol.pdb_8915.pdb o/271374_HEM_Lanosterol.pdb_7614.pdb o/271374_HEM_Lanosterol.pdb_6842.pdb o/271374_HEM_Lanosterol.pdb_9371.pdb o/271374_HEM_Lanosterol.pdb_8920.pdb o/271374_HEM_Lanosterol.pdb_3414.pdb o/271374_HEM_Lanosterol.pdb_8014.pdb o/271374_HEM_Lanosterol.pdb_6995.pdb o/271374_HEM_Lanosterol.pdb_6604.pdb o/271374_HEM_Lanosterol.pdb_6267.pdb o/271374_HEM_Lanosterol.pdb_1094.pdb 
10 o/271374_HEM_Lanosterol.pdb_7237.pdb o/271374_HEM_Lanosterol.pdb_6410.pdb o/271374_HEM_Lanosterol.pdb_2700.pdb o/271374_HEM_Lanosterol.pdb_6390.pdb o/271374_HEM_Lanosterol.pdb_8839.pdb o/271374_HEM_Lanosterol.pdb_8962.pdb o/271374_HEM_Lanosterol.pdb_3751.pdb o/271374_HEM_Lanosterol.pdb_5800.pdb o/271374_HEM_Lanosterol.pdb_3947.pdb o/271374_HEM_Lanosterol.pdb_227.pdb 
14 o/271374_HEM_Lanosterol.pdb_5828.pdb o/271374_HEM_Lanosterol.pdb_2485.pdb o/271374_HEM_Lanosterol.pdb_9544.pdb o/271374_HEM_Lanosterol.pdb_6300.pdb o/271374_HEM_Lanosterol.pdb_214.pdb o/271374_HEM_Lanosterol.pdb_9737.pdb o/271374_HEM_Lanosterol.pdb_5045.pdb o/271374_HEM_Lanosterol.pdb_2658.pdb o/271374_HEM_Lanosterol.pdb_1208.pdb o/271374_HEM_Lanosterol.pdb_2939.pdb o/271374_HEM_Lanosterol.pdb_9606.pdb o/271374_HEM_Lanosterol.pdb_9379.pdb o/271374_HEM_Lanosterol.pdb_6655.pdb o/271374_HEM_Lanosterol.pdb_1190.pdb 
11 o/271374_HEM_Lanosterol.pdb_9706.pdb o/271374_HEM_Lanosterol.pdb_9477.pdb o/271374_HEM_Lanosterol.pdb_9806.pdb o/271374_HEM_Lanosterol.pdb_6187.pdb o/271374_HEM_Lanosterol.pdb_8063.pdb o/271374_HEM_Lanosterol.pdb_7959.pdb o/271374_HEM_Lanosterol.pdb_5305.pdb o/271374_HEM_Lanosterol.pdb_8213.pdb o/271374_HEM_Lanosterol.pdb_4594.pdb o/271374_HEM_Lanosterol.pdb_4737.pdb o/271374_HEM_Lanosterol.pdb_2864.pdb 
