10 o/38441_HEM_Ketoconazole.pdb_8109.pdb o/38441_HEM_Ketoconazole.pdb_6376.pdb o/38441_HEM_Ketoconazole.pdb_9257.pdb o/38441_HEM_Ketoconazole.pdb_6165.pdb o/38441_HEM_Ketoconazole.pdb_7922.pdb o/38441_HEM_Ketoconazole.pdb_6434.pdb o/38441_HEM_Ketoconazole.pdb_8975.pdb o/38441_HEM_Ketoconazole.pdb_5907.pdb o/38441_HEM_Ketoconazole.pdb_764.pdb o/38441_HEM_Ketoconazole.pdb_4628.pdb 
11 o/38441_HEM_Ketoconazole.pdb_9672.pdb o/38441_HEM_Ketoconazole.pdb_7316.pdb o/38441_HEM_Ketoconazole.pdb_9209.pdb o/38441_HEM_Ketoconazole.pdb_4430.pdb o/38441_HEM_Ketoconazole.pdb_5959.pdb o/38441_HEM_Ketoconazole.pdb_5380.pdb o/38441_HEM_Ketoconazole.pdb_377.pdb o/38441_HEM_Ketoconazole.pdb_3474.pdb o/38441_HEM_Ketoconazole.pdb_6461.pdb o/38441_HEM_Ketoconazole.pdb_9897.pdb o/38441_HEM_Ketoconazole.pdb_3222.pdb 
11 o/38441_HEM_Ketoconazole.pdb_7486.pdb o/38441_HEM_Ketoconazole.pdb_6788.pdb o/38441_HEM_Ketoconazole.pdb_6188.pdb o/38441_HEM_Ketoconazole.pdb_8010.pdb o/38441_HEM_Ketoconazole.pdb_6472.pdb o/38441_HEM_Ketoconazole.pdb_5438.pdb o/38441_HEM_Ketoconazole.pdb_679.pdb o/38441_HEM_Ketoconazole.pdb_2925.pdb o/38441_HEM_Ketoconazole.pdb_7500.pdb o/38441_HEM_Ketoconazole.pdb_449.pdb o/38441_HEM_Ketoconazole.pdb_2350.pdb 
13 o/38441_HEM_Ketoconazole.pdb_6815.pdb o/38441_HEM_Ketoconazole.pdb_6209.pdb o/38441_HEM_Ketoconazole.pdb_7231.pdb o/38441_HEM_Ketoconazole.pdb_5050.pdb o/38441_HEM_Ketoconazole.pdb_3354.pdb o/38441_HEM_Ketoconazole.pdb_4639.pdb o/38441_HEM_Ketoconazole.pdb_842.pdb o/38441_HEM_Ketoconazole.pdb_2341.pdb o/38441_HEM_Ketoconazole.pdb_7989.pdb o/38441_HEM_Ketoconazole.pdb_4819.pdb o/38441_HEM_Ketoconazole.pdb_9956.pdb o/38441_HEM_Ketoconazole.pdb_5246.pdb o/38441_HEM_Ketoconazole.pdb_2334.pdb 
12 o/38441_HEM_Ketoconazole.pdb_7533.pdb o/38441_HEM_Ketoconazole.pdb_7239.pdb o/38441_HEM_Ketoconazole.pdb_9013.pdb o/38441_HEM_Ketoconazole.pdb_7060.pdb o/38441_HEM_Ketoconazole.pdb_6988.pdb o/38441_HEM_Ketoconazole.pdb_8765.pdb o/38441_HEM_Ketoconazole.pdb_8068.pdb o/38441_HEM_Ketoconazole.pdb_3991.pdb o/38441_HEM_Ketoconazole.pdb_2538.pdb o/38441_HEM_Ketoconazole.pdb_3609.pdb o/38441_HEM_Ketoconazole.pdb_4612.pdb o/38441_HEM_Ketoconazole.pdb_2440.pdb 
14 o/38441_HEM_Ketoconazole.pdb_9817.pdb o/38441_HEM_Ketoconazole.pdb_4196.pdb o/38441_HEM_Ketoconazole.pdb_8625.pdb o/38441_HEM_Ketoconazole.pdb_987.pdb o/38441_HEM_Ketoconazole.pdb_411.pdb o/38441_HEM_Ketoconazole.pdb_8125.pdb o/38441_HEM_Ketoconazole.pdb_4058.pdb o/38441_HEM_Ketoconazole.pdb_8931.pdb o/38441_HEM_Ketoconazole.pdb_7986.pdb o/38441_HEM_Ketoconazole.pdb_5749.pdb o/38441_HEM_Ketoconazole.pdb_8969.pdb o/38441_HEM_Ketoconazole.pdb_8885.pdb o/38441_HEM_Ketoconazole.pdb_4002.pdb o/38441_HEM_Ketoconazole.pdb_3402.pdb 
13 o/38441_HEM_Ketoconazole.pdb_645.pdb o/38441_HEM_Ketoconazole.pdb_607.pdb o/38441_HEM_Ketoconazole.pdb_420.pdb o/38441_HEM_Ketoconazole.pdb_8768.pdb o/38441_HEM_Ketoconazole.pdb_8567.pdb o/38441_HEM_Ketoconazole.pdb_7423.pdb o/38441_HEM_Ketoconazole.pdb_5501.pdb o/38441_HEM_Ketoconazole.pdb_6483.pdb o/38441_HEM_Ketoconazole.pdb_2365.pdb o/38441_HEM_Ketoconazole.pdb_4372.pdb o/38441_HEM_Ketoconazole.pdb_7604.pdb o/38441_HEM_Ketoconazole.pdb_8295.pdb o/38441_HEM_Ketoconazole.pdb_2015.pdb 
13 o/38441_HEM_Ketoconazole.pdb_9924.pdb o/38441_HEM_Ketoconazole.pdb_4285.pdb o/38441_HEM_Ketoconazole.pdb_9871.pdb o/38441_HEM_Ketoconazole.pdb_6143.pdb o/38441_HEM_Ketoconazole.pdb_5378.pdb o/38441_HEM_Ketoconazole.pdb_4149.pdb o/38441_HEM_Ketoconazole.pdb_3325.pdb o/38441_HEM_Ketoconazole.pdb_9844.pdb o/38441_HEM_Ketoconazole.pdb_9179.pdb o/38441_HEM_Ketoconazole.pdb_8832.pdb o/38441_HEM_Ketoconazole.pdb_611.pdb o/38441_HEM_Ketoconazole.pdb_7040.pdb o/38441_HEM_Ketoconazole.pdb_1921.pdb 
14 o/38441_HEM_Ketoconazole.pdb_9571.pdb o/38441_HEM_Ketoconazole.pdb_8319.pdb o/38441_HEM_Ketoconazole.pdb_5767.pdb o/38441_HEM_Ketoconazole.pdb_9192.pdb o/38441_HEM_Ketoconazole.pdb_7808.pdb o/38441_HEM_Ketoconazole.pdb_8004.pdb o/38441_HEM_Ketoconazole.pdb_7781.pdb o/38441_HEM_Ketoconazole.pdb_2381.pdb o/38441_HEM_Ketoconazole.pdb_7670.pdb o/38441_HEM_Ketoconazole.pdb_4273.pdb o/38441_HEM_Ketoconazole.pdb_40.pdb o/38441_HEM_Ketoconazole.pdb_6727.pdb o/38441_HEM_Ketoconazole.pdb_383.pdb o/38441_HEM_Ketoconazole.pdb_1793.pdb 
10 o/38441_HEM_Ketoconazole.pdb_9189.pdb o/38441_HEM_Ketoconazole.pdb_621.pdb o/38441_HEM_Ketoconazole.pdb_5140.pdb o/38441_HEM_Ketoconazole.pdb_9157.pdb o/38441_HEM_Ketoconazole.pdb_8581.pdb o/38441_HEM_Ketoconazole.pdb_6725.pdb o/38441_HEM_Ketoconazole.pdb_4563.pdb o/38441_HEM_Ketoconazole.pdb_9550.pdb o/38441_HEM_Ketoconazole.pdb_6049.pdb o/38441_HEM_Ketoconazole.pdb_1854.pdb 
10 o/38441_HEM_Ketoconazole.pdb_9094.pdb o/38441_HEM_Ketoconazole.pdb_4084.pdb o/38441_HEM_Ketoconazole.pdb_550.pdb o/38441_HEM_Ketoconazole.pdb_3819.pdb o/38441_HEM_Ketoconazole.pdb_5437.pdb o/38441_HEM_Ketoconazole.pdb_6210.pdb o/38441_HEM_Ketoconazole.pdb_2599.pdb o/38441_HEM_Ketoconazole.pdb_7349.pdb o/38441_HEM_Ketoconazole.pdb_3932.pdb o/38441_HEM_Ketoconazole.pdb_1769.pdb 
11 o/38441_HEM_Ketoconazole.pdb_9752.pdb o/38441_HEM_Ketoconazole.pdb_5923.pdb o/38441_HEM_Ketoconazole.pdb_5857.pdb o/38441_HEM_Ketoconazole.pdb_8630.pdb o/38441_HEM_Ketoconazole.pdb_4446.pdb o/38441_HEM_Ketoconazole.pdb_8435.pdb o/38441_HEM_Ketoconazole.pdb_838.pdb o/38441_HEM_Ketoconazole.pdb_7013.pdb o/38441_HEM_Ketoconazole.pdb_6532.pdb o/38441_HEM_Ketoconazole.pdb_9890.pdb o/38441_HEM_Ketoconazole.pdb_1792.pdb 
12 o/38441_HEM_Ketoconazole.pdb_6231.pdb o/38441_HEM_Ketoconazole.pdb_9230.pdb o/38441_HEM_Ketoconazole.pdb_1964.pdb o/38441_HEM_Ketoconazole.pdb_5422.pdb o/38441_HEM_Ketoconazole.pdb_2983.pdb o/38441_HEM_Ketoconazole.pdb_2814.pdb o/38441_HEM_Ketoconazole.pdb_4685.pdb o/38441_HEM_Ketoconazole.pdb_3447.pdb o/38441_HEM_Ketoconazole.pdb_7755.pdb o/38441_HEM_Ketoconazole.pdb_6873.pdb o/38441_HEM_Ketoconazole.pdb_201.pdb o/38441_HEM_Ketoconazole.pdb_1722.pdb 
13 o/38441_HEM_Ketoconazole.pdb_7952.pdb o/38441_HEM_Ketoconazole.pdb_8177.pdb o/38441_HEM_Ketoconazole.pdb_7771.pdb o/38441_HEM_Ketoconazole.pdb_925.pdb o/38441_HEM_Ketoconazole.pdb_9040.pdb o/38441_HEM_Ketoconazole.pdb_6550.pdb o/38441_HEM_Ketoconazole.pdb_5440.pdb o/38441_HEM_Ketoconazole.pdb_9821.pdb o/38441_HEM_Ketoconazole.pdb_6823.pdb o/38441_HEM_Ketoconazole.pdb_4065.pdb o/38441_HEM_Ketoconazole.pdb_9991.pdb o/38441_HEM_Ketoconazole.pdb_6384.pdb o/38441_HEM_Ketoconazole.pdb_2038.pdb 
10 o/38441_HEM_Ketoconazole.pdb_3723.pdb o/38441_HEM_Ketoconazole.pdb_7959.pdb o/38441_HEM_Ketoconazole.pdb_7471.pdb o/38441_HEM_Ketoconazole.pdb_4556.pdb o/38441_HEM_Ketoconazole.pdb_9012.pdb o/38441_HEM_Ketoconazole.pdb_2648.pdb o/38441_HEM_Ketoconazole.pdb_7098.pdb o/38441_HEM_Ketoconazole.pdb_3619.pdb o/38441_HEM_Ketoconazole.pdb_4826.pdb o/38441_HEM_Ketoconazole.pdb_168.pdb 
17 o/38441_HEM_Ketoconazole.pdb_6189.pdb o/38441_HEM_Ketoconazole.pdb_4574.pdb o/38441_HEM_Ketoconazole.pdb_4094.pdb o/38441_HEM_Ketoconazole.pdb_7517.pdb o/38441_HEM_Ketoconazole.pdb_4759.pdb o/38441_HEM_Ketoconazole.pdb_9537.pdb o/38441_HEM_Ketoconazole.pdb_5583.pdb o/38441_HEM_Ketoconazole.pdb_8354.pdb o/38441_HEM_Ketoconazole.pdb_5463.pdb o/38441_HEM_Ketoconazole.pdb_8974.pdb o/38441_HEM_Ketoconazole.pdb_3306.pdb o/38441_HEM_Ketoconazole.pdb_291.pdb o/38441_HEM_Ketoconazole.pdb_5099.pdb o/38441_HEM_Ketoconazole.pdb_3278.pdb o/38441_HEM_Ketoconazole.pdb_9387.pdb o/38441_HEM_Ketoconazole.pdb_6425.pdb o/38441_HEM_Ketoconazole.pdb_1670.pdb 
12 o/38441_HEM_Ketoconazole.pdb_8048.pdb o/38441_HEM_Ketoconazole.pdb_7659.pdb o/38441_HEM_Ketoconazole.pdb_6631.pdb o/38441_HEM_Ketoconazole.pdb_8271.pdb o/38441_HEM_Ketoconazole.pdb_537.pdb o/38441_HEM_Ketoconazole.pdb_444.pdb o/38441_HEM_Ketoconazole.pdb_5360.pdb o/38441_HEM_Ketoconazole.pdb_6154.pdb o/38441_HEM_Ketoconazole.pdb_5650.pdb o/38441_HEM_Ketoconazole.pdb_7877.pdb o/38441_HEM_Ketoconazole.pdb_6348.pdb o/38441_HEM_Ketoconazole.pdb_166.pdb 
13 o/38441_HEM_Ketoconazole.pdb_6888.pdb o/38441_HEM_Ketoconazole.pdb_9913.pdb o/38441_HEM_Ketoconazole.pdb_7701.pdb o/38441_HEM_Ketoconazole.pdb_7529.pdb o/38441_HEM_Ketoconazole.pdb_6821.pdb o/38441_HEM_Ketoconazole.pdb_5634.pdb o/38441_HEM_Ketoconazole.pdb_543.pdb o/38441_HEM_Ketoconazole.pdb_4076.pdb o/38441_HEM_Ketoconazole.pdb_8706.pdb o/38441_HEM_Ketoconazole.pdb_7036.pdb o/38441_HEM_Ketoconazole.pdb_4357.pdb o/38441_HEM_Ketoconazole.pdb_2880.pdb o/38441_HEM_Ketoconazole.pdb_1868.pdb 
10 o/38441_HEM_Ketoconazole.pdb_6116.pdb o/38441_HEM_Ketoconazole.pdb_3646.pdb o/38441_HEM_Ketoconazole.pdb_4989.pdb o/38441_HEM_Ketoconazole.pdb_6987.pdb o/38441_HEM_Ketoconazole.pdb_4492.pdb o/38441_HEM_Ketoconazole.pdb_3841.pdb o/38441_HEM_Ketoconazole.pdb_5775.pdb o/38441_HEM_Ketoconazole.pdb_9081.pdb o/38441_HEM_Ketoconazole.pdb_3725.pdb o/38441_HEM_Ketoconazole.pdb_2578.pdb 
12 o/38441_HEM_Ketoconazole.pdb_680.pdb o/38441_HEM_Ketoconazole.pdb_9356.pdb o/38441_HEM_Ketoconazole.pdb_6383.pdb o/38441_HEM_Ketoconazole.pdb_6147.pdb o/38441_HEM_Ketoconazole.pdb_9852.pdb o/38441_HEM_Ketoconazole.pdb_6020.pdb o/38441_HEM_Ketoconazole.pdb_5636.pdb o/38441_HEM_Ketoconazole.pdb_6998.pdb o/38441_HEM_Ketoconazole.pdb_9025.pdb o/38441_HEM_Ketoconazole.pdb_8181.pdb o/38441_HEM_Ketoconazole.pdb_8076.pdb o/38441_HEM_Ketoconazole.pdb_1528.pdb 
11 o/38441_HEM_Ketoconazole.pdb_9231.pdb o/38441_HEM_Ketoconazole.pdb_6477.pdb o/38441_HEM_Ketoconazole.pdb_9714.pdb o/38441_HEM_Ketoconazole.pdb_4839.pdb o/38441_HEM_Ketoconazole.pdb_5798.pdb o/38441_HEM_Ketoconazole.pdb_4616.pdb o/38441_HEM_Ketoconazole.pdb_191.pdb o/38441_HEM_Ketoconazole.pdb_9562.pdb o/38441_HEM_Ketoconazole.pdb_9101.pdb o/38441_HEM_Ketoconazole.pdb_2579.pdb o/38441_HEM_Ketoconazole.pdb_1479.pdb 
10 o/38441_HEM_Ketoconazole.pdb_8382.pdb o/38441_HEM_Ketoconazole.pdb_4332.pdb o/38441_HEM_Ketoconazole.pdb_5563.pdb o/38441_HEM_Ketoconazole.pdb_1890.pdb o/38441_HEM_Ketoconazole.pdb_998.pdb o/38441_HEM_Ketoconazole.pdb_5082.pdb o/38441_HEM_Ketoconazole.pdb_7630.pdb o/38441_HEM_Ketoconazole.pdb_4653.pdb o/38441_HEM_Ketoconazole.pdb_282.pdb o/38441_HEM_Ketoconazole.pdb_1477.pdb 
12 o/38441_HEM_Ketoconazole.pdb_8601.pdb o/38441_HEM_Ketoconazole.pdb_5731.pdb o/38441_HEM_Ketoconazole.pdb_4165.pdb o/38441_HEM_Ketoconazole.pdb_6542.pdb o/38441_HEM_Ketoconazole.pdb_4843.pdb o/38441_HEM_Ketoconazole.pdb_2456.pdb o/38441_HEM_Ketoconazole.pdb_6051.pdb o/38441_HEM_Ketoconazole.pdb_2219.pdb o/38441_HEM_Ketoconazole.pdb_9528.pdb o/38441_HEM_Ketoconazole.pdb_2073.pdb o/38441_HEM_Ketoconazole.pdb_4152.pdb o/38441_HEM_Ketoconazole.pdb_1468.pdb 
18 o/38441_HEM_Ketoconazole.pdb_9339.pdb o/38441_HEM_Ketoconazole.pdb_8411.pdb o/38441_HEM_Ketoconazole.pdb_538.pdb o/38441_HEM_Ketoconazole.pdb_8654.pdb o/38441_HEM_Ketoconazole.pdb_5515.pdb o/38441_HEM_Ketoconazole.pdb_3793.pdb o/38441_HEM_Ketoconazole.pdb_5341.pdb o/38441_HEM_Ketoconazole.pdb_2752.pdb o/38441_HEM_Ketoconazole.pdb_3273.pdb o/38441_HEM_Ketoconazole.pdb_1556.pdb o/38441_HEM_Ketoconazole.pdb_5068.pdb o/38441_HEM_Ketoconazole.pdb_3415.pdb o/38441_HEM_Ketoconazole.pdb_3302.pdb o/38441_HEM_Ketoconazole.pdb_8509.pdb o/38441_HEM_Ketoconazole.pdb_5621.pdb o/38441_HEM_Ketoconazole.pdb_650.pdb o/38441_HEM_Ketoconazole.pdb_3981.pdb o/38441_HEM_Ketoconazole.pdb_1448.pdb 
10 o/38441_HEM_Ketoconazole.pdb_6976.pdb o/38441_HEM_Ketoconazole.pdb_5782.pdb o/38441_HEM_Ketoconazole.pdb_2319.pdb o/38441_HEM_Ketoconazole.pdb_2459.pdb o/38441_HEM_Ketoconazole.pdb_3364.pdb o/38441_HEM_Ketoconazole.pdb_2856.pdb o/38441_HEM_Ketoconazole.pdb_9921.pdb o/38441_HEM_Ketoconazole.pdb_2200.pdb o/38441_HEM_Ketoconazole.pdb_3461.pdb o/38441_HEM_Ketoconazole.pdb_2094.pdb 
12 o/38441_HEM_Ketoconazole.pdb_9996.pdb o/38441_HEM_Ketoconazole.pdb_6748.pdb o/38441_HEM_Ketoconazole.pdb_7242.pdb o/38441_HEM_Ketoconazole.pdb_8064.pdb o/38441_HEM_Ketoconazole.pdb_4552.pdb o/38441_HEM_Ketoconazole.pdb_6286.pdb o/38441_HEM_Ketoconazole.pdb_3526.pdb o/38441_HEM_Ketoconazole.pdb_2947.pdb o/38441_HEM_Ketoconazole.pdb_2017.pdb o/38441_HEM_Ketoconazole.pdb_6921.pdb o/38441_HEM_Ketoconazole.pdb_4436.pdb o/38441_HEM_Ketoconazole.pdb_1429.pdb 
11 o/38441_HEM_Ketoconazole.pdb_9392.pdb o/38441_HEM_Ketoconazole.pdb_8637.pdb o/38441_HEM_Ketoconazole.pdb_9383.pdb o/38441_HEM_Ketoconazole.pdb_5594.pdb o/38441_HEM_Ketoconazole.pdb_2960.pdb o/38441_HEM_Ketoconazole.pdb_4534.pdb o/38441_HEM_Ketoconazole.pdb_1836.pdb o/38441_HEM_Ketoconazole.pdb_9665.pdb o/38441_HEM_Ketoconazole.pdb_9403.pdb o/38441_HEM_Ketoconazole.pdb_6916.pdb o/38441_HEM_Ketoconazole.pdb_1428.pdb 
11 o/38441_HEM_Ketoconazole.pdb_9806.pdb o/38441_HEM_Ketoconazole.pdb_9883.pdb o/38441_HEM_Ketoconazole.pdb_9080.pdb o/38441_HEM_Ketoconazole.pdb_8901.pdb o/38441_HEM_Ketoconazole.pdb_3446.pdb o/38441_HEM_Ketoconazole.pdb_4800.pdb o/38441_HEM_Ketoconazole.pdb_2373.pdb o/38441_HEM_Ketoconazole.pdb_5502.pdb o/38441_HEM_Ketoconazole.pdb_3497.pdb o/38441_HEM_Ketoconazole.pdb_4820.pdb o/38441_HEM_Ketoconazole.pdb_15.pdb 
11 o/38441_HEM_Ketoconazole.pdb_9308.pdb o/38441_HEM_Ketoconazole.pdb_3224.pdb o/38441_HEM_Ketoconazole.pdb_9595.pdb o/38441_HEM_Ketoconazole.pdb_8734.pdb o/38441_HEM_Ketoconazole.pdb_8559.pdb o/38441_HEM_Ketoconazole.pdb_3181.pdb o/38441_HEM_Ketoconazole.pdb_3177.pdb o/38441_HEM_Ketoconazole.pdb_9033.pdb o/38441_HEM_Ketoconazole.pdb_6258.pdb o/38441_HEM_Ketoconazole.pdb_8500.pdb o/38441_HEM_Ketoconazole.pdb_2986.pdb 
10 o/38441_HEM_Ketoconazole.pdb_9027.pdb o/38441_HEM_Ketoconazole.pdb_7900.pdb o/38441_HEM_Ketoconazole.pdb_9579.pdb o/38441_HEM_Ketoconazole.pdb_9068.pdb o/38441_HEM_Ketoconazole.pdb_5834.pdb o/38441_HEM_Ketoconazole.pdb_441.pdb o/38441_HEM_Ketoconazole.pdb_8552.pdb o/38441_HEM_Ketoconazole.pdb_2815.pdb o/38441_HEM_Ketoconazole.pdb_8179.pdb o/38441_HEM_Ketoconazole.pdb_1955.pdb 
10 o/38441_HEM_Ketoconazole.pdb_7180.pdb o/38441_HEM_Ketoconazole.pdb_7088.pdb o/38441_HEM_Ketoconazole.pdb_5417.pdb o/38441_HEM_Ketoconazole.pdb_3909.pdb o/38441_HEM_Ketoconazole.pdb_7129.pdb o/38441_HEM_Ketoconazole.pdb_6056.pdb o/38441_HEM_Ketoconazole.pdb_9822.pdb o/38441_HEM_Ketoconazole.pdb_4437.pdb o/38441_HEM_Ketoconazole.pdb_3564.pdb o/38441_HEM_Ketoconazole.pdb_1823.pdb 
11 o/38441_HEM_Ketoconazole.pdb_9860.pdb o/38441_HEM_Ketoconazole.pdb_8095.pdb o/38441_HEM_Ketoconazole.pdb_4551.pdb o/38441_HEM_Ketoconazole.pdb_1555.pdb o/38441_HEM_Ketoconazole.pdb_8769.pdb o/38441_HEM_Ketoconazole.pdb_7665.pdb o/38441_HEM_Ketoconazole.pdb_6413.pdb o/38441_HEM_Ketoconazole.pdb_6007.pdb o/38441_HEM_Ketoconazole.pdb_3587.pdb o/38441_HEM_Ketoconazole.pdb_4863.pdb o/38441_HEM_Ketoconazole.pdb_137.pdb 
11 o/38441_HEM_Ketoconazole.pdb_8425.pdb o/38441_HEM_Ketoconazole.pdb_4727.pdb o/38441_HEM_Ketoconazole.pdb_1924.pdb o/38441_HEM_Ketoconazole.pdb_86.pdb o/38441_HEM_Ketoconazole.pdb_8331.pdb o/38441_HEM_Ketoconazole.pdb_5896.pdb o/38441_HEM_Ketoconazole.pdb_7362.pdb o/38441_HEM_Ketoconazole.pdb_4074.pdb o/38441_HEM_Ketoconazole.pdb_3795.pdb o/38441_HEM_Ketoconazole.pdb_3017.pdb o/38441_HEM_Ketoconazole.pdb_1364.pdb 
14 o/38441_HEM_Ketoconazole.pdb_6528.pdb o/38441_HEM_Ketoconazole.pdb_3994.pdb o/38441_HEM_Ketoconazole.pdb_9210.pdb o/38441_HEM_Ketoconazole.pdb_6047.pdb o/38441_HEM_Ketoconazole.pdb_4999.pdb o/38441_HEM_Ketoconazole.pdb_7341.pdb o/38441_HEM_Ketoconazole.pdb_7245.pdb o/38441_HEM_Ketoconazole.pdb_7174.pdb o/38441_HEM_Ketoconazole.pdb_9647.pdb o/38441_HEM_Ketoconazole.pdb_4158.pdb o/38441_HEM_Ketoconazole.pdb_4840.pdb o/38441_HEM_Ketoconazole.pdb_2836.pdb o/38441_HEM_Ketoconazole.pdb_5144.pdb o/38441_HEM_Ketoconazole.pdb_2145.pdb 
17 o/38441_HEM_Ketoconazole.pdb_8694.pdb o/38441_HEM_Ketoconazole.pdb_763.pdb o/38441_HEM_Ketoconazole.pdb_7582.pdb o/38441_HEM_Ketoconazole.pdb_8070.pdb o/38441_HEM_Ketoconazole.pdb_7645.pdb o/38441_HEM_Ketoconazole.pdb_7403.pdb o/38441_HEM_Ketoconazole.pdb_2022.pdb o/38441_HEM_Ketoconazole.pdb_6999.pdb o/38441_HEM_Ketoconazole.pdb_5712.pdb o/38441_HEM_Ketoconazole.pdb_3000.pdb o/38441_HEM_Ketoconazole.pdb_1821.pdb o/38441_HEM_Ketoconazole.pdb_8620.pdb o/38441_HEM_Ketoconazole.pdb_8198.pdb o/38441_HEM_Ketoconazole.pdb_4663.pdb o/38441_HEM_Ketoconazole.pdb_3792.pdb o/38441_HEM_Ketoconazole.pdb_2167.pdb o/38441_HEM_Ketoconazole.pdb_1648.pdb 
13 o/38441_HEM_Ketoconazole.pdb_7813.pdb o/38441_HEM_Ketoconazole.pdb_8449.pdb o/38441_HEM_Ketoconazole.pdb_7690.pdb o/38441_HEM_Ketoconazole.pdb_6469.pdb o/38441_HEM_Ketoconazole.pdb_617.pdb o/38441_HEM_Ketoconazole.pdb_4724.pdb o/38441_HEM_Ketoconazole.pdb_9772.pdb o/38441_HEM_Ketoconazole.pdb_8035.pdb o/38441_HEM_Ketoconazole.pdb_6212.pdb o/38441_HEM_Ketoconazole.pdb_9533.pdb o/38441_HEM_Ketoconazole.pdb_8173.pdb o/38441_HEM_Ketoconazole.pdb_9592.pdb o/38441_HEM_Ketoconazole.pdb_2790.pdb 
14 o/38441_HEM_Ketoconazole.pdb_9149.pdb o/38441_HEM_Ketoconazole.pdb_821.pdb o/38441_HEM_Ketoconazole.pdb_8067.pdb o/38441_HEM_Ketoconazole.pdb_4080.pdb o/38441_HEM_Ketoconazole.pdb_614.pdb o/38441_HEM_Ketoconazole.pdb_6026.pdb o/38441_HEM_Ketoconazole.pdb_4138.pdb o/38441_HEM_Ketoconazole.pdb_937.pdb o/38441_HEM_Ketoconazole.pdb_344.pdb o/38441_HEM_Ketoconazole.pdb_9213.pdb o/38441_HEM_Ketoconazole.pdb_6117.pdb o/38441_HEM_Ketoconazole.pdb_7853.pdb o/38441_HEM_Ketoconazole.pdb_7895.pdb o/38441_HEM_Ketoconazole.pdb_3102.pdb 
14 o/38441_HEM_Ketoconazole.pdb_3441.pdb o/38441_HEM_Ketoconazole.pdb_4775.pdb o/38441_HEM_Ketoconazole.pdb_2034.pdb o/38441_HEM_Ketoconazole.pdb_3127.pdb o/38441_HEM_Ketoconazole.pdb_2871.pdb o/38441_HEM_Ketoconazole.pdb_1993.pdb o/38441_HEM_Ketoconazole.pdb_6782.pdb o/38441_HEM_Ketoconazole.pdb_8515.pdb o/38441_HEM_Ketoconazole.pdb_1525.pdb o/38441_HEM_Ketoconazole.pdb_9476.pdb o/38441_HEM_Ketoconazole.pdb_2208.pdb o/38441_HEM_Ketoconazole.pdb_2787.pdb o/38441_HEM_Ketoconazole.pdb_1779.pdb o/38441_HEM_Ketoconazole.pdb_150.pdb 
14 o/38441_HEM_Ketoconazole.pdb_3912.pdb o/38441_HEM_Ketoconazole.pdb_6786.pdb o/38441_HEM_Ketoconazole.pdb_5890.pdb o/38441_HEM_Ketoconazole.pdb_2996.pdb o/38441_HEM_Ketoconazole.pdb_3957.pdb o/38441_HEM_Ketoconazole.pdb_1947.pdb o/38441_HEM_Ketoconazole.pdb_4370.pdb o/38441_HEM_Ketoconazole.pdb_2772.pdb o/38441_HEM_Ketoconazole.pdb_1856.pdb o/38441_HEM_Ketoconazole.pdb_7034.pdb o/38441_HEM_Ketoconazole.pdb_5567.pdb o/38441_HEM_Ketoconazole.pdb_5537.pdb o/38441_HEM_Ketoconazole.pdb_4582.pdb o/38441_HEM_Ketoconazole.pdb_1322.pdb 
12 o/38441_HEM_Ketoconazole.pdb_4496.pdb o/38441_HEM_Ketoconazole.pdb_4175.pdb o/38441_HEM_Ketoconazole.pdb_9551.pdb o/38441_HEM_Ketoconazole.pdb_3482.pdb o/38441_HEM_Ketoconazole.pdb_5960.pdb o/38441_HEM_Ketoconazole.pdb_3430.pdb o/38441_HEM_Ketoconazole.pdb_8844.pdb o/38441_HEM_Ketoconazole.pdb_4814.pdb o/38441_HEM_Ketoconazole.pdb_6009.pdb o/38441_HEM_Ketoconazole.pdb_3686.pdb o/38441_HEM_Ketoconazole.pdb_8154.pdb o/38441_HEM_Ketoconazole.pdb_2650.pdb 
11 o/38441_HEM_Ketoconazole.pdb_5766.pdb o/38441_HEM_Ketoconazole.pdb_8239.pdb o/38441_HEM_Ketoconazole.pdb_3330.pdb o/38441_HEM_Ketoconazole.pdb_7556.pdb o/38441_HEM_Ketoconazole.pdb_7557.pdb o/38441_HEM_Ketoconazole.pdb_2839.pdb o/38441_HEM_Ketoconazole.pdb_5027.pdb o/38441_HEM_Ketoconazole.pdb_730.pdb o/38441_HEM_Ketoconazole.pdb_6353.pdb o/38441_HEM_Ketoconazole.pdb_5597.pdb o/38441_HEM_Ketoconazole.pdb_1520.pdb 
12 o/38441_HEM_Ketoconazole.pdb_68.pdb o/38441_HEM_Ketoconazole.pdb_6420.pdb o/38441_HEM_Ketoconazole.pdb_2842.pdb o/38441_HEM_Ketoconazole.pdb_9412.pdb o/38441_HEM_Ketoconazole.pdb_2182.pdb o/38441_HEM_Ketoconazole.pdb_2129.pdb o/38441_HEM_Ketoconazole.pdb_8759.pdb o/38441_HEM_Ketoconazole.pdb_7551.pdb o/38441_HEM_Ketoconazole.pdb_5598.pdb o/38441_HEM_Ketoconazole.pdb_3347.pdb o/38441_HEM_Ketoconazole.pdb_6501.pdb o/38441_HEM_Ketoconazole.pdb_1622.pdb 
10 o/38441_HEM_Ketoconazole.pdb_4375.pdb o/38441_HEM_Ketoconazole.pdb_1903.pdb o/38441_HEM_Ketoconazole.pdb_7988.pdb o/38441_HEM_Ketoconazole.pdb_5288.pdb o/38441_HEM_Ketoconazole.pdb_7697.pdb o/38441_HEM_Ketoconazole.pdb_3854.pdb o/38441_HEM_Ketoconazole.pdb_7930.pdb o/38441_HEM_Ketoconazole.pdb_4781.pdb o/38441_HEM_Ketoconazole.pdb_4485.pdb o/38441_HEM_Ketoconazole.pdb_153.pdb 
10 o/38441_HEM_Ketoconazole.pdb_7313.pdb o/38441_HEM_Ketoconazole.pdb_4469.pdb o/38441_HEM_Ketoconazole.pdb_4589.pdb o/38441_HEM_Ketoconazole.pdb_197.pdb o/38441_HEM_Ketoconazole.pdb_2080.pdb o/38441_HEM_Ketoconazole.pdb_917.pdb o/38441_HEM_Ketoconazole.pdb_5738.pdb o/38441_HEM_Ketoconazole.pdb_462.pdb o/38441_HEM_Ketoconazole.pdb_3697.pdb o/38441_HEM_Ketoconazole.pdb_1505.pdb 
13 o/38441_HEM_Ketoconazole.pdb_6995.pdb o/38441_HEM_Ketoconazole.pdb_5338.pdb o/38441_HEM_Ketoconazole.pdb_3483.pdb o/38441_HEM_Ketoconazole.pdb_9417.pdb o/38441_HEM_Ketoconazole.pdb_7886.pdb o/38441_HEM_Ketoconazole.pdb_4416.pdb o/38441_HEM_Ketoconazole.pdb_2002.pdb o/38441_HEM_Ketoconazole.pdb_9611.pdb o/38441_HEM_Ketoconazole.pdb_7260.pdb o/38441_HEM_Ketoconazole.pdb_6703.pdb o/38441_HEM_Ketoconazole.pdb_6388.pdb o/38441_HEM_Ketoconazole.pdb_1604.pdb o/38441_HEM_Ketoconazole.pdb_1452.pdb 
19 o/38441_HEM_Ketoconazole.pdb_7928.pdb o/38441_HEM_Ketoconazole.pdb_4394.pdb o/38441_HEM_Ketoconazole.pdb_8186.pdb o/38441_HEM_Ketoconazole.pdb_6073.pdb o/38441_HEM_Ketoconazole.pdb_3675.pdb o/38441_HEM_Ketoconazole.pdb_8081.pdb o/38441_HEM_Ketoconazole.pdb_7337.pdb o/38441_HEM_Ketoconazole.pdb_5670.pdb o/38441_HEM_Ketoconazole.pdb_5853.pdb o/38441_HEM_Ketoconazole.pdb_565.pdb o/38441_HEM_Ketoconazole.pdb_7050.pdb o/38441_HEM_Ketoconazole.pdb_4251.pdb o/38441_HEM_Ketoconazole.pdb_9297.pdb o/38441_HEM_Ketoconazole.pdb_8674.pdb o/38441_HEM_Ketoconazole.pdb_5256.pdb o/38441_HEM_Ketoconazole.pdb_7091.pdb o/38441_HEM_Ketoconazole.pdb_5244.pdb o/38441_HEM_Ketoconazole.pdb_2326.pdb o/38441_HEM_Ketoconazole.pdb_1522.pdb 
14 o/38441_HEM_Ketoconazole.pdb_3312.pdb o/38441_HEM_Ketoconazole.pdb_634.pdb o/38441_HEM_Ketoconazole.pdb_2611.pdb o/38441_HEM_Ketoconazole.pdb_9354.pdb o/38441_HEM_Ketoconazole.pdb_7627.pdb o/38441_HEM_Ketoconazole.pdb_2490.pdb o/38441_HEM_Ketoconazole.pdb_5795.pdb o/38441_HEM_Ketoconazole.pdb_599.pdb o/38441_HEM_Ketoconazole.pdb_2741.pdb o/38441_HEM_Ketoconazole.pdb_9541.pdb o/38441_HEM_Ketoconazole.pdb_2131.pdb o/38441_HEM_Ketoconazole.pdb_7688.pdb o/38441_HEM_Ketoconazole.pdb_9237.pdb o/38441_HEM_Ketoconazole.pdb_1726.pdb 
10 o/38441_HEM_Ketoconazole.pdb_9402.pdb o/38441_HEM_Ketoconazole.pdb_3876.pdb o/38441_HEM_Ketoconazole.pdb_9453.pdb o/38441_HEM_Ketoconazole.pdb_3832.pdb o/38441_HEM_Ketoconazole.pdb_5785.pdb o/38441_HEM_Ketoconazole.pdb_3817.pdb o/38441_HEM_Ketoconazole.pdb_2698.pdb o/38441_HEM_Ketoconazole.pdb_851.pdb o/38441_HEM_Ketoconazole.pdb_9051.pdb o/38441_HEM_Ketoconazole.pdb_1959.pdb 
10 o/38441_HEM_Ketoconazole.pdb_3348.pdb o/38441_HEM_Ketoconazole.pdb_7058.pdb o/38441_HEM_Ketoconazole.pdb_1942.pdb o/38441_HEM_Ketoconazole.pdb_9549.pdb o/38441_HEM_Ketoconazole.pdb_7421.pdb o/38441_HEM_Ketoconazole.pdb_4413.pdb o/38441_HEM_Ketoconazole.pdb_1486.pdb o/38441_HEM_Ketoconazole.pdb_3667.pdb o/38441_HEM_Ketoconazole.pdb_7219.pdb o/38441_HEM_Ketoconazole.pdb_1289.pdb 
13 o/38441_HEM_Ketoconazole.pdb_7830.pdb o/38441_HEM_Ketoconazole.pdb_734.pdb o/38441_HEM_Ketoconazole.pdb_3434.pdb o/38441_HEM_Ketoconazole.pdb_7121.pdb o/38441_HEM_Ketoconazole.pdb_2297.pdb o/38441_HEM_Ketoconazole.pdb_7157.pdb o/38441_HEM_Ketoconazole.pdb_1939.pdb o/38441_HEM_Ketoconazole.pdb_5952.pdb o/38441_HEM_Ketoconazole.pdb_3032.pdb o/38441_HEM_Ketoconazole.pdb_4937.pdb o/38441_HEM_Ketoconazole.pdb_5291.pdb o/38441_HEM_Ketoconazole.pdb_2313.pdb o/38441_HEM_Ketoconazole.pdb_1603.pdb 
12 o/38441_HEM_Ketoconazole.pdb_7291.pdb o/38441_HEM_Ketoconazole.pdb_1883.pdb o/38441_HEM_Ketoconazole.pdb_8651.pdb o/38441_HEM_Ketoconazole.pdb_9731.pdb o/38441_HEM_Ketoconazole.pdb_7797.pdb o/38441_HEM_Ketoconazole.pdb_9518.pdb o/38441_HEM_Ketoconazole.pdb_3084.pdb o/38441_HEM_Ketoconazole.pdb_9875.pdb o/38441_HEM_Ketoconazole.pdb_3443.pdb o/38441_HEM_Ketoconazole.pdb_1754.pdb o/38441_HEM_Ketoconazole.pdb_7723.pdb o/38441_HEM_Ketoconazole.pdb_1281.pdb 
10 o/38441_HEM_Ketoconazole.pdb_9538.pdb o/38441_HEM_Ketoconazole.pdb_9228.pdb o/38441_HEM_Ketoconazole.pdb_6229.pdb o/38441_HEM_Ketoconazole.pdb_8227.pdb o/38441_HEM_Ketoconazole.pdb_5207.pdb o/38441_HEM_Ketoconazole.pdb_9963.pdb o/38441_HEM_Ketoconazole.pdb_8703.pdb o/38441_HEM_Ketoconazole.pdb_4477.pdb o/38441_HEM_Ketoconazole.pdb_5257.pdb o/38441_HEM_Ketoconazole.pdb_1963.pdb 
10 o/38441_HEM_Ketoconazole.pdb_9445.pdb o/38441_HEM_Ketoconazole.pdb_7558.pdb o/38441_HEM_Ketoconazole.pdb_3662.pdb o/38441_HEM_Ketoconazole.pdb_295.pdb o/38441_HEM_Ketoconazole.pdb_5105.pdb o/38441_HEM_Ketoconazole.pdb_4645.pdb o/38441_HEM_Ketoconazole.pdb_3092.pdb o/38441_HEM_Ketoconazole.pdb_6762.pdb o/38441_HEM_Ketoconazole.pdb_1567.pdb o/38441_HEM_Ketoconazole.pdb_1517.pdb 
10 o/38441_HEM_Ketoconazole.pdb_9945.pdb o/38441_HEM_Ketoconazole.pdb_5119.pdb o/38441_HEM_Ketoconazole.pdb_6217.pdb o/38441_HEM_Ketoconazole.pdb_510.pdb o/38441_HEM_Ketoconazole.pdb_7636.pdb o/38441_HEM_Ketoconazole.pdb_2740.pdb o/38441_HEM_Ketoconazole.pdb_9446.pdb o/38441_HEM_Ketoconazole.pdb_4651.pdb o/38441_HEM_Ketoconazole.pdb_3803.pdb o/38441_HEM_Ketoconazole.pdb_2082.pdb 
25 o/38441_HEM_Ketoconazole.pdb_4338.pdb o/38441_HEM_Ketoconazole.pdb_4141.pdb o/38441_HEM_Ketoconazole.pdb_3287.pdb o/38441_HEM_Ketoconazole.pdb_4045.pdb o/38441_HEM_Ketoconazole.pdb_374.pdb o/38441_HEM_Ketoconazole.pdb_3737.pdb o/38441_HEM_Ketoconazole.pdb_3578.pdb o/38441_HEM_Ketoconazole.pdb_3235.pdb o/38441_HEM_Ketoconazole.pdb_6475.pdb o/38441_HEM_Ketoconazole.pdb_5803.pdb o/38441_HEM_Ketoconazole.pdb_5419.pdb o/38441_HEM_Ketoconazole.pdb_7004.pdb o/38441_HEM_Ketoconazole.pdb_2419.pdb o/38441_HEM_Ketoconazole.pdb_8274.pdb o/38441_HEM_Ketoconazole.pdb_5946.pdb o/38441_HEM_Ketoconazole.pdb_9975.pdb o/38441_HEM_Ketoconazole.pdb_7134.pdb o/38441_HEM_Ketoconazole.pdb_6909.pdb o/38441_HEM_Ketoconazole.pdb_4893.pdb o/38441_HEM_Ketoconazole.pdb_2704.pdb o/38441_HEM_Ketoconazole.pdb_2060.pdb o/38441_HEM_Ketoconazole.pdb_6597.pdb o/38441_HEM_Ketoconazole.pdb_4337.pdb o/38441_HEM_Ketoconazole.pdb_7876.pdb o/38441_HEM_Ketoconazole.pdb_1800.pdb 
11 o/38441_HEM_Ketoconazole.pdb_7324.pdb o/38441_HEM_Ketoconazole.pdb_4480.pdb o/38441_HEM_Ketoconazole.pdb_1473.pdb o/38441_HEM_Ketoconazole.pdb_1260.pdb o/38441_HEM_Ketoconazole.pdb_4652.pdb o/38441_HEM_Ketoconazole.pdb_6234.pdb o/38441_HEM_Ketoconazole.pdb_542.pdb o/38441_HEM_Ketoconazole.pdb_7365.pdb o/38441_HEM_Ketoconazole.pdb_5640.pdb o/38441_HEM_Ketoconazole.pdb_3097.pdb o/38441_HEM_Ketoconazole.pdb_1247.pdb 
15 o/38441_HEM_Ketoconazole.pdb_5993.pdb o/38441_HEM_Ketoconazole.pdb_470.pdb o/38441_HEM_Ketoconazole.pdb_8505.pdb o/38441_HEM_Ketoconazole.pdb_3226.pdb o/38441_HEM_Ketoconazole.pdb_4348.pdb o/38441_HEM_Ketoconazole.pdb_9451.pdb o/38441_HEM_Ketoconazole.pdb_1816.pdb o/38441_HEM_Ketoconazole.pdb_608.pdb o/38441_HEM_Ketoconazole.pdb_7865.pdb o/38441_HEM_Ketoconazole.pdb_3961.pdb o/38441_HEM_Ketoconazole.pdb_8826.pdb o/38441_HEM_Ketoconazole.pdb_7411.pdb o/38441_HEM_Ketoconazole.pdb_1644.pdb o/38441_HEM_Ketoconazole.pdb_1336.pdb o/38441_HEM_Ketoconazole.pdb_1240.pdb 
10 o/38441_HEM_Ketoconazole.pdb_6755.pdb o/38441_HEM_Ketoconazole.pdb_6813.pdb o/38441_HEM_Ketoconazole.pdb_5691.pdb o/38441_HEM_Ketoconazole.pdb_9155.pdb o/38441_HEM_Ketoconazole.pdb_8429.pdb o/38441_HEM_Ketoconazole.pdb_8302.pdb o/38441_HEM_Ketoconazole.pdb_6974.pdb o/38441_HEM_Ketoconazole.pdb_6779.pdb o/38441_HEM_Ketoconazole.pdb_3431.pdb o/38441_HEM_Ketoconazole.pdb_2618.pdb 
15 o/38441_HEM_Ketoconazole.pdb_7047.pdb o/38441_HEM_Ketoconazole.pdb_8030.pdb o/38441_HEM_Ketoconazole.pdb_7292.pdb o/38441_HEM_Ketoconazole.pdb_3924.pdb o/38441_HEM_Ketoconazole.pdb_8492.pdb o/38441_HEM_Ketoconazole.pdb_271.pdb o/38441_HEM_Ketoconazole.pdb_8731.pdb o/38441_HEM_Ketoconazole.pdb_577.pdb o/38441_HEM_Ketoconazole.pdb_7753.pdb o/38441_HEM_Ketoconazole.pdb_6794.pdb o/38441_HEM_Ketoconazole.pdb_5982.pdb o/38441_HEM_Ketoconazole.pdb_4618.pdb o/38441_HEM_Ketoconazole.pdb_4611.pdb o/38441_HEM_Ketoconazole.pdb_8467.pdb o/38441_HEM_Ketoconazole.pdb_1703.pdb 
10 o/38441_HEM_Ketoconazole.pdb_6122.pdb o/38441_HEM_Ketoconazole.pdb_8554.pdb o/38441_HEM_Ketoconazole.pdb_6480.pdb o/38441_HEM_Ketoconazole.pdb_9482.pdb o/38441_HEM_Ketoconazole.pdb_601.pdb o/38441_HEM_Ketoconazole.pdb_3830.pdb o/38441_HEM_Ketoconazole.pdb_3193.pdb o/38441_HEM_Ketoconazole.pdb_6095.pdb o/38441_HEM_Ketoconazole.pdb_4197.pdb o/38441_HEM_Ketoconazole.pdb_2270.pdb 
10 o/38441_HEM_Ketoconazole.pdb_9750.pdb o/38441_HEM_Ketoconazole.pdb_5094.pdb o/38441_HEM_Ketoconazole.pdb_5412.pdb o/38441_HEM_Ketoconazole.pdb_7021.pdb o/38441_HEM_Ketoconazole.pdb_6442.pdb o/38441_HEM_Ketoconazole.pdb_4869.pdb o/38441_HEM_Ketoconazole.pdb_2827.pdb o/38441_HEM_Ketoconazole.pdb_8513.pdb o/38441_HEM_Ketoconazole.pdb_528.pdb o/38441_HEM_Ketoconazole.pdb_1814.pdb 
13 o/38441_HEM_Ketoconazole.pdb_9771.pdb o/38441_HEM_Ketoconazole.pdb_7501.pdb o/38441_HEM_Ketoconazole.pdb_4216.pdb o/38441_HEM_Ketoconazole.pdb_9794.pdb o/38441_HEM_Ketoconazole.pdb_5894.pdb o/38441_HEM_Ketoconazole.pdb_6699.pdb o/38441_HEM_Ketoconazole.pdb_6925.pdb o/38441_HEM_Ketoconazole.pdb_310.pdb o/38441_HEM_Ketoconazole.pdb_2314.pdb o/38441_HEM_Ketoconazole.pdb_6024.pdb o/38441_HEM_Ketoconazole.pdb_1592.pdb o/38441_HEM_Ketoconazole.pdb_9683.pdb o/38441_HEM_Ketoconazole.pdb_1200.pdb 
10 o/38441_HEM_Ketoconazole.pdb_8638.pdb o/38441_HEM_Ketoconazole.pdb_4729.pdb o/38441_HEM_Ketoconazole.pdb_355.pdb o/38441_HEM_Ketoconazole.pdb_1529.pdb o/38441_HEM_Ketoconazole.pdb_9712.pdb o/38441_HEM_Ketoconazole.pdb_7923.pdb o/38441_HEM_Ketoconazole.pdb_7054.pdb o/38441_HEM_Ketoconazole.pdb_4153.pdb o/38441_HEM_Ketoconazole.pdb_5996.pdb o/38441_HEM_Ketoconazole.pdb_120.pdb 
17 o/38441_HEM_Ketoconazole.pdb_8159.pdb o/38441_HEM_Ketoconazole.pdb_6632.pdb o/38441_HEM_Ketoconazole.pdb_353.pdb o/38441_HEM_Ketoconazole.pdb_963.pdb o/38441_HEM_Ketoconazole.pdb_7377.pdb o/38441_HEM_Ketoconazole.pdb_331.pdb o/38441_HEM_Ketoconazole.pdb_9568.pdb o/38441_HEM_Ketoconazole.pdb_9667.pdb o/38441_HEM_Ketoconazole.pdb_2075.pdb o/38441_HEM_Ketoconazole.pdb_8913.pdb o/38441_HEM_Ketoconazole.pdb_6392.pdb o/38441_HEM_Ketoconazole.pdb_7791.pdb o/38441_HEM_Ketoconazole.pdb_4502.pdb o/38441_HEM_Ketoconazole.pdb_2423.pdb o/38441_HEM_Ketoconazole.pdb_9057.pdb o/38441_HEM_Ketoconazole.pdb_3982.pdb o/38441_HEM_Ketoconazole.pdb_1198.pdb 
15 o/38441_HEM_Ketoconazole.pdb_7912.pdb o/38441_HEM_Ketoconazole.pdb_2491.pdb o/38441_HEM_Ketoconazole.pdb_6320.pdb o/38441_HEM_Ketoconazole.pdb_1786.pdb o/38441_HEM_Ketoconazole.pdb_1612.pdb o/38441_HEM_Ketoconazole.pdb_836.pdb o/38441_HEM_Ketoconazole.pdb_2245.pdb o/38441_HEM_Ketoconazole.pdb_9623.pdb o/38441_HEM_Ketoconazole.pdb_6669.pdb o/38441_HEM_Ketoconazole.pdb_2554.pdb o/38441_HEM_Ketoconazole.pdb_6952.pdb o/38441_HEM_Ketoconazole.pdb_159.pdb o/38441_HEM_Ketoconazole.pdb_1222.pdb o/38441_HEM_Ketoconazole.pdb_1411.pdb o/38441_HEM_Ketoconazole.pdb_1197.pdb 
12 o/38441_HEM_Ketoconazole.pdb_7782.pdb o/38441_HEM_Ketoconazole.pdb_3416.pdb o/38441_HEM_Ketoconazole.pdb_8471.pdb o/38441_HEM_Ketoconazole.pdb_9134.pdb o/38441_HEM_Ketoconazole.pdb_2970.pdb o/38441_HEM_Ketoconazole.pdb_9616.pdb o/38441_HEM_Ketoconazole.pdb_6074.pdb o/38441_HEM_Ketoconazole.pdb_4501.pdb o/38441_HEM_Ketoconazole.pdb_3616.pdb o/38441_HEM_Ketoconazole.pdb_6934.pdb o/38441_HEM_Ketoconazole.pdb_1661.pdb o/38441_HEM_Ketoconazole.pdb_12.pdb 
16 o/38441_HEM_Ketoconazole.pdb_9838.pdb o/38441_HEM_Ketoconazole.pdb_879.pdb o/38441_HEM_Ketoconazole.pdb_2573.pdb o/38441_HEM_Ketoconazole.pdb_2320.pdb o/38441_HEM_Ketoconazole.pdb_8469.pdb o/38441_HEM_Ketoconazole.pdb_7322.pdb o/38441_HEM_Ketoconazole.pdb_5605.pdb o/38441_HEM_Ketoconazole.pdb_9738.pdb o/38441_HEM_Ketoconazole.pdb_3501.pdb o/38441_HEM_Ketoconazole.pdb_9694.pdb o/38441_HEM_Ketoconazole.pdb_3775.pdb o/38441_HEM_Ketoconazole.pdb_7459.pdb o/38441_HEM_Ketoconazole.pdb_5545.pdb o/38441_HEM_Ketoconazole.pdb_996.pdb o/38441_HEM_Ketoconazole.pdb_5841.pdb o/38441_HEM_Ketoconazole.pdb_1530.pdb 
15 o/38441_HEM_Ketoconazole.pdb_7044.pdb o/38441_HEM_Ketoconazole.pdb_7793.pdb o/38441_HEM_Ketoconazole.pdb_4922.pdb o/38441_HEM_Ketoconazole.pdb_4657.pdb o/38441_HEM_Ketoconazole.pdb_4334.pdb o/38441_HEM_Ketoconazole.pdb_8044.pdb o/38441_HEM_Ketoconazole.pdb_2855.pdb o/38441_HEM_Ketoconazole.pdb_9645.pdb o/38441_HEM_Ketoconazole.pdb_2233.pdb o/38441_HEM_Ketoconazole.pdb_2120.pdb o/38441_HEM_Ketoconazole.pdb_1790.pdb o/38441_HEM_Ketoconazole.pdb_1359.pdb o/38441_HEM_Ketoconazole.pdb_4124.pdb o/38441_HEM_Ketoconazole.pdb_3290.pdb o/38441_HEM_Ketoconazole.pdb_1189.pdb 
12 o/38441_HEM_Ketoconazole.pdb_7065.pdb o/38441_HEM_Ketoconazole.pdb_6603.pdb o/38441_HEM_Ketoconazole.pdb_7756.pdb o/38441_HEM_Ketoconazole.pdb_7436.pdb o/38441_HEM_Ketoconazole.pdb_4280.pdb o/38441_HEM_Ketoconazole.pdb_3065.pdb o/38441_HEM_Ketoconazole.pdb_8459.pdb o/38441_HEM_Ketoconazole.pdb_3837.pdb o/38441_HEM_Ketoconazole.pdb_2431.pdb o/38441_HEM_Ketoconazole.pdb_6456.pdb o/38441_HEM_Ketoconazole.pdb_7832.pdb o/38441_HEM_Ketoconazole.pdb_1182.pdb 
12 o/38441_HEM_Ketoconazole.pdb_784.pdb o/38441_HEM_Ketoconazole.pdb_3399.pdb o/38441_HEM_Ketoconazole.pdb_6712.pdb o/38441_HEM_Ketoconazole.pdb_2329.pdb o/38441_HEM_Ketoconazole.pdb_8547.pdb o/38441_HEM_Ketoconazole.pdb_3154.pdb o/38441_HEM_Ketoconazole.pdb_8418.pdb o/38441_HEM_Ketoconazole.pdb_5796.pdb o/38441_HEM_Ketoconazole.pdb_5025.pdb o/38441_HEM_Ketoconazole.pdb_7929.pdb o/38441_HEM_Ketoconazole.pdb_3612.pdb o/38441_HEM_Ketoconazole.pdb_2184.pdb 
11 o/38441_HEM_Ketoconazole.pdb_3877.pdb o/38441_HEM_Ketoconazole.pdb_8191.pdb o/38441_HEM_Ketoconazole.pdb_4865.pdb o/38441_HEM_Ketoconazole.pdb_2640.pdb o/38441_HEM_Ketoconazole.pdb_7574.pdb o/38441_HEM_Ketoconazole.pdb_6162.pdb o/38441_HEM_Ketoconazole.pdb_9440.pdb o/38441_HEM_Ketoconazole.pdb_5867.pdb o/38441_HEM_Ketoconazole.pdb_2715.pdb o/38441_HEM_Ketoconazole.pdb_5180.pdb o/38441_HEM_Ketoconazole.pdb_1163.pdb 
11 o/38441_HEM_Ketoconazole.pdb_451.pdb o/38441_HEM_Ketoconazole.pdb_7477.pdb o/38441_HEM_Ketoconazole.pdb_3708.pdb o/38441_HEM_Ketoconazole.pdb_5162.pdb o/38441_HEM_Ketoconazole.pdb_492.pdb o/38441_HEM_Ketoconazole.pdb_186.pdb o/38441_HEM_Ketoconazole.pdb_8917.pdb o/38441_HEM_Ketoconazole.pdb_290.pdb o/38441_HEM_Ketoconazole.pdb_7225.pdb o/38441_HEM_Ketoconazole.pdb_3214.pdb o/38441_HEM_Ketoconazole.pdb_116.pdb 
10 o/38441_HEM_Ketoconazole.pdb_9436.pdb o/38441_HEM_Ketoconazole.pdb_6765.pdb o/38441_HEM_Ketoconazole.pdb_7115.pdb o/38441_HEM_Ketoconazole.pdb_6331.pdb o/38441_HEM_Ketoconazole.pdb_5274.pdb o/38441_HEM_Ketoconazole.pdb_2601.pdb o/38441_HEM_Ketoconazole.pdb_79.pdb o/38441_HEM_Ketoconazole.pdb_3690.pdb o/38441_HEM_Ketoconazole.pdb_5008.pdb o/38441_HEM_Ketoconazole.pdb_1459.pdb 
11 o/38441_HEM_Ketoconazole.pdb_8669.pdb o/38441_HEM_Ketoconazole.pdb_2675.pdb o/38441_HEM_Ketoconazole.pdb_4909.pdb o/38441_HEM_Ketoconazole.pdb_4792.pdb o/38441_HEM_Ketoconazole.pdb_2620.pdb o/38441_HEM_Ketoconazole.pdb_782.pdb o/38441_HEM_Ketoconazole.pdb_562.pdb o/38441_HEM_Ketoconazole.pdb_1170.pdb o/38441_HEM_Ketoconazole.pdb_7662.pdb o/38441_HEM_Ketoconazole.pdb_9141.pdb o/38441_HEM_Ketoconazole.pdb_1157.pdb 
17 o/38441_HEM_Ketoconazole.pdb_7751.pdb o/38441_HEM_Ketoconazole.pdb_6518.pdb o/38441_HEM_Ketoconazole.pdb_6938.pdb o/38441_HEM_Ketoconazole.pdb_41.pdb o/38441_HEM_Ketoconazole.pdb_2244.pdb o/38441_HEM_Ketoconazole.pdb_924.pdb o/38441_HEM_Ketoconazole.pdb_901.pdb o/38441_HEM_Ketoconazole.pdb_7441.pdb o/38441_HEM_Ketoconazole.pdb_6526.pdb o/38441_HEM_Ketoconazole.pdb_4130.pdb o/38441_HEM_Ketoconazole.pdb_9001.pdb o/38441_HEM_Ketoconazole.pdb_740.pdb o/38441_HEM_Ketoconazole.pdb_9700.pdb o/38441_HEM_Ketoconazole.pdb_466.pdb o/38441_HEM_Ketoconazole.pdb_3732.pdb o/38441_HEM_Ketoconazole.pdb_9184.pdb o/38441_HEM_Ketoconazole.pdb_1156.pdb 
17 o/38441_HEM_Ketoconazole.pdb_7196.pdb o/38441_HEM_Ketoconazole.pdb_737.pdb o/38441_HEM_Ketoconazole.pdb_6355.pdb o/38441_HEM_Ketoconazole.pdb_9539.pdb o/38441_HEM_Ketoconazole.pdb_8043.pdb o/38441_HEM_Ketoconazole.pdb_9253.pdb o/38441_HEM_Ketoconazole.pdb_9903.pdb o/38441_HEM_Ketoconazole.pdb_8895.pdb o/38441_HEM_Ketoconazole.pdb_694.pdb o/38441_HEM_Ketoconazole.pdb_9766.pdb o/38441_HEM_Ketoconazole.pdb_972.pdb o/38441_HEM_Ketoconazole.pdb_4522.pdb o/38441_HEM_Ketoconazole.pdb_3080.pdb o/38441_HEM_Ketoconazole.pdb_2372.pdb o/38441_HEM_Ketoconazole.pdb_5646.pdb o/38441_HEM_Ketoconazole.pdb_6305.pdb o/38441_HEM_Ketoconazole.pdb_1895.pdb 
19 o/38441_HEM_Ketoconazole.pdb_8152.pdb o/38441_HEM_Ketoconazole.pdb_4773.pdb o/38441_HEM_Ketoconazole.pdb_2994.pdb o/38441_HEM_Ketoconazole.pdb_2464.pdb o/38441_HEM_Ketoconazole.pdb_2841.pdb o/38441_HEM_Ketoconazole.pdb_7371.pdb o/38441_HEM_Ketoconazole.pdb_7817.pdb o/38441_HEM_Ketoconazole.pdb_6239.pdb o/38441_HEM_Ketoconazole.pdb_6087.pdb o/38441_HEM_Ketoconazole.pdb_2632.pdb o/38441_HEM_Ketoconazole.pdb_9905.pdb o/38441_HEM_Ketoconazole.pdb_8788.pdb o/38441_HEM_Ketoconazole.pdb_2600.pdb o/38441_HEM_Ketoconazole.pdb_378.pdb o/38441_HEM_Ketoconazole.pdb_3356.pdb o/38441_HEM_Ketoconazole.pdb_5939.pdb o/38441_HEM_Ketoconazole.pdb_3130.pdb o/38441_HEM_Ketoconazole.pdb_6155.pdb o/38441_HEM_Ketoconazole.pdb_1139.pdb 
10 o/38441_HEM_Ketoconazole.pdb_9504.pdb o/38441_HEM_Ketoconazole.pdb_6695.pdb o/38441_HEM_Ketoconazole.pdb_6391.pdb o/38441_HEM_Ketoconazole.pdb_2079.pdb o/38441_HEM_Ketoconazole.pdb_874.pdb o/38441_HEM_Ketoconazole.pdb_6591.pdb o/38441_HEM_Ketoconazole.pdb_1778.pdb o/38441_HEM_Ketoconazole.pdb_8776.pdb o/38441_HEM_Ketoconazole.pdb_8929.pdb o/38441_HEM_Ketoconazole.pdb_1138.pdb 
15 o/38441_HEM_Ketoconazole.pdb_9284.pdb o/38441_HEM_Ketoconazole.pdb_3733.pdb o/38441_HEM_Ketoconazole.pdb_3444.pdb o/38441_HEM_Ketoconazole.pdb_810.pdb o/38441_HEM_Ketoconazole.pdb_5581.pdb o/38441_HEM_Ketoconazole.pdb_741.pdb o/38441_HEM_Ketoconazole.pdb_5284.pdb o/38441_HEM_Ketoconazole.pdb_1248.pdb o/38441_HEM_Ketoconazole.pdb_7792.pdb o/38441_HEM_Ketoconazole.pdb_9552.pdb o/38441_HEM_Ketoconazole.pdb_5600.pdb o/38441_HEM_Ketoconazole.pdb_4864.pdb o/38441_HEM_Ketoconazole.pdb_1276.pdb o/38441_HEM_Ketoconazole.pdb_1304.pdb o/38441_HEM_Ketoconazole.pdb_1196.pdb 
12 o/38441_HEM_Ketoconazole.pdb_812.pdb o/38441_HEM_Ketoconazole.pdb_5016.pdb o/38441_HEM_Ketoconazole.pdb_8332.pdb o/38441_HEM_Ketoconazole.pdb_6069.pdb o/38441_HEM_Ketoconazole.pdb_6172.pdb o/38441_HEM_Ketoconazole.pdb_3341.pdb o/38441_HEM_Ketoconazole.pdb_9093.pdb o/38441_HEM_Ketoconazole.pdb_5042.pdb o/38441_HEM_Ketoconazole.pdb_4856.pdb o/38441_HEM_Ketoconazole.pdb_7150.pdb o/38441_HEM_Ketoconazole.pdb_8628.pdb o/38441_HEM_Ketoconazole.pdb_2404.pdb 
12 o/38441_HEM_Ketoconazole.pdb_3850.pdb o/38441_HEM_Ketoconazole.pdb_3327.pdb o/38441_HEM_Ketoconazole.pdb_2725.pdb o/38441_HEM_Ketoconazole.pdb_5943.pdb o/38441_HEM_Ketoconazole.pdb_9332.pdb o/38441_HEM_Ketoconazole.pdb_4643.pdb o/38441_HEM_Ketoconazole.pdb_9929.pdb o/38441_HEM_Ketoconazole.pdb_5234.pdb o/38441_HEM_Ketoconazole.pdb_343.pdb o/38441_HEM_Ketoconazole.pdb_9028.pdb o/38441_HEM_Ketoconazole.pdb_8903.pdb o/38441_HEM_Ketoconazole.pdb_1532.pdb 
14 o/38441_HEM_Ketoconazole.pdb_6389.pdb o/38441_HEM_Ketoconazole.pdb_3317.pdb o/38441_HEM_Ketoconazole.pdb_6594.pdb o/38441_HEM_Ketoconazole.pdb_5949.pdb o/38441_HEM_Ketoconazole.pdb_8189.pdb o/38441_HEM_Ketoconazole.pdb_3299.pdb o/38441_HEM_Ketoconazole.pdb_194.pdb o/38441_HEM_Ketoconazole.pdb_7089.pdb o/38441_HEM_Ketoconazole.pdb_2506.pdb o/38441_HEM_Ketoconazole.pdb_3759.pdb o/38441_HEM_Ketoconazole.pdb_6036.pdb o/38441_HEM_Ketoconazole.pdb_1704.pdb o/38441_HEM_Ketoconazole.pdb_6262.pdb o/38441_HEM_Ketoconazole.pdb_1102.pdb 
10 o/38441_HEM_Ketoconazole.pdb_9543.pdb o/38441_HEM_Ketoconazole.pdb_6453.pdb o/38441_HEM_Ketoconazole.pdb_8692.pdb o/38441_HEM_Ketoconazole.pdb_8003.pdb o/38441_HEM_Ketoconazole.pdb_4684.pdb o/38441_HEM_Ketoconazole.pdb_6744.pdb o/38441_HEM_Ketoconazole.pdb_55.pdb o/38441_HEM_Ketoconazole.pdb_6178.pdb o/38441_HEM_Ketoconazole.pdb_3945.pdb o/38441_HEM_Ketoconazole.pdb_3204.pdb 
13 o/38441_HEM_Ketoconazole.pdb_2889.pdb o/38441_HEM_Ketoconazole.pdb_269.pdb o/38441_HEM_Ketoconazole.pdb_1562.pdb o/38441_HEM_Ketoconazole.pdb_3095.pdb o/38441_HEM_Ketoconazole.pdb_4900.pdb o/38441_HEM_Ketoconazole.pdb_2450.pdb o/38441_HEM_Ketoconazole.pdb_3279.pdb o/38441_HEM_Ketoconazole.pdb_1674.pdb o/38441_HEM_Ketoconazole.pdb_7708.pdb o/38441_HEM_Ketoconazole.pdb_1849.pdb o/38441_HEM_Ketoconazole.pdb_9304.pdb o/38441_HEM_Ketoconazole.pdb_7492.pdb o/38441_HEM_Ketoconazole.pdb_1093.pdb 
11 o/38441_HEM_Ketoconazole.pdb_9985.pdb o/38441_HEM_Ketoconazole.pdb_8971.pdb o/38441_HEM_Ketoconazole.pdb_4455.pdb o/38441_HEM_Ketoconazole.pdb_2040.pdb o/38441_HEM_Ketoconazole.pdb_9435.pdb o/38441_HEM_Ketoconazole.pdb_3728.pdb o/38441_HEM_Ketoconazole.pdb_7562.pdb o/38441_HEM_Ketoconazole.pdb_1861.pdb o/38441_HEM_Ketoconazole.pdb_9270.pdb o/38441_HEM_Ketoconazole.pdb_7946.pdb o/38441_HEM_Ketoconazole.pdb_1092.pdb 
12 o/38441_HEM_Ketoconazole.pdb_6856.pdb o/38441_HEM_Ketoconazole.pdb_9208.pdb o/38441_HEM_Ketoconazole.pdb_3303.pdb o/38441_HEM_Ketoconazole.pdb_2940.pdb o/38441_HEM_Ketoconazole.pdb_2630.pdb o/38441_HEM_Ketoconazole.pdb_9926.pdb o/38441_HEM_Ketoconazole.pdb_447.pdb o/38441_HEM_Ketoconazole.pdb_4789.pdb o/38441_HEM_Ketoconazole.pdb_7448.pdb o/38441_HEM_Ketoconazole.pdb_2662.pdb o/38441_HEM_Ketoconazole.pdb_3321.pdb o/38441_HEM_Ketoconazole.pdb_1090.pdb 
11 o/38441_HEM_Ketoconazole.pdb_9509.pdb o/38441_HEM_Ketoconazole.pdb_7728.pdb o/38441_HEM_Ketoconazole.pdb_4053.pdb o/38441_HEM_Ketoconazole.pdb_8612.pdb o/38441_HEM_Ketoconazole.pdb_3049.pdb o/38441_HEM_Ketoconazole.pdb_5073.pdb o/38441_HEM_Ketoconazole.pdb_6791.pdb o/38441_HEM_Ketoconazole.pdb_1678.pdb o/38441_HEM_Ketoconazole.pdb_133.pdb o/38441_HEM_Ketoconazole.pdb_475.pdb o/38441_HEM_Ketoconazole.pdb_1084.pdb 
14 o/38441_HEM_Ketoconazole.pdb_284.pdb o/38441_HEM_Ketoconazole.pdb_5609.pdb o/38441_HEM_Ketoconazole.pdb_4289.pdb o/38441_HEM_Ketoconazole.pdb_3786.pdb o/38441_HEM_Ketoconazole.pdb_8700.pdb o/38441_HEM_Ketoconazole.pdb_427.pdb o/38441_HEM_Ketoconazole.pdb_5020.pdb o/38441_HEM_Ketoconazole.pdb_356.pdb o/38441_HEM_Ketoconazole.pdb_7626.pdb o/38441_HEM_Ketoconazole.pdb_5441.pdb o/38441_HEM_Ketoconazole.pdb_4678.pdb o/38441_HEM_Ketoconazole.pdb_6992.pdb o/38441_HEM_Ketoconazole.pdb_1931.pdb o/38441_HEM_Ketoconazole.pdb_1142.pdb 
10 o/38441_HEM_Ketoconazole.pdb_7956.pdb o/38441_HEM_Ketoconazole.pdb_2657.pdb o/38441_HEM_Ketoconazole.pdb_2301.pdb o/38441_HEM_Ketoconazole.pdb_6439.pdb o/38441_HEM_Ketoconazole.pdb_1734.pdb o/38441_HEM_Ketoconazole.pdb_6227.pdb o/38441_HEM_Ketoconazole.pdb_5406.pdb o/38441_HEM_Ketoconazole.pdb_4120.pdb o/38441_HEM_Ketoconazole.pdb_2382.pdb o/38441_HEM_Ketoconazole.pdb_1497.pdb 
13 o/38441_HEM_Ketoconazole.pdb_9737.pdb o/38441_HEM_Ketoconazole.pdb_8037.pdb o/38441_HEM_Ketoconazole.pdb_6017.pdb o/38441_HEM_Ketoconazole.pdb_5055.pdb o/38441_HEM_Ketoconazole.pdb_7763.pdb o/38441_HEM_Ketoconazole.pdb_7141.pdb o/38441_HEM_Ketoconazole.pdb_8657.pdb o/38441_HEM_Ketoconazole.pdb_2791.pdb o/38441_HEM_Ketoconazole.pdb_7798.pdb o/38441_HEM_Ketoconazole.pdb_5542.pdb o/38441_HEM_Ketoconazole.pdb_5097.pdb o/38441_HEM_Ketoconazole.pdb_8987.pdb o/38441_HEM_Ketoconazole.pdb_1743.pdb 
23 o/38441_HEM_Ketoconazole.pdb_4210.pdb o/38441_HEM_Ketoconazole.pdb_9693.pdb o/38441_HEM_Ketoconazole.pdb_3458.pdb o/38441_HEM_Ketoconazole.pdb_5079.pdb o/38441_HEM_Ketoconazole.pdb_4432.pdb o/38441_HEM_Ketoconazole.pdb_5472.pdb o/38441_HEM_Ketoconazole.pdb_4128.pdb o/38441_HEM_Ketoconazole.pdb_727.pdb o/38441_HEM_Ketoconazole.pdb_2923.pdb o/38441_HEM_Ketoconazole.pdb_9741.pdb o/38441_HEM_Ketoconazole.pdb_3942.pdb o/38441_HEM_Ketoconazole.pdb_2525.pdb o/38441_HEM_Ketoconazole.pdb_2386.pdb o/38441_HEM_Ketoconazole.pdb_5116.pdb o/38441_HEM_Ketoconazole.pdb_3684.pdb o/38441_HEM_Ketoconazole.pdb_1928.pdb o/38441_HEM_Ketoconazole.pdb_4700.pdb o/38441_HEM_Ketoconazole.pdb_5786.pdb o/38441_HEM_Ketoconazole.pdb_3487.pdb o/38441_HEM_Ketoconazole.pdb_2686.pdb o/38441_HEM_Ketoconazole.pdb_3262.pdb o/38441_HEM_Ketoconazole.pdb_8214.pdb o/38441_HEM_Ketoconazole.pdb_1081.pdb 
12 o/38441_HEM_Ketoconazole.pdb_6618.pdb o/38441_HEM_Ketoconazole.pdb_7132.pdb o/38441_HEM_Ketoconazole.pdb_3258.pdb o/38441_HEM_Ketoconazole.pdb_9316.pdb o/38441_HEM_Ketoconazole.pdb_8900.pdb o/38441_HEM_Ketoconazole.pdb_5821.pdb o/38441_HEM_Ketoconazole.pdb_7622.pdb o/38441_HEM_Ketoconazole.pdb_2898.pdb o/38441_HEM_Ketoconazole.pdb_5956.pdb o/38441_HEM_Ketoconazole.pdb_3610.pdb o/38441_HEM_Ketoconazole.pdb_2870.pdb o/38441_HEM_Ketoconazole.pdb_1614.pdb 
10 o/38441_HEM_Ketoconazole.pdb_5671.pdb o/38441_HEM_Ketoconazole.pdb_5586.pdb o/38441_HEM_Ketoconazole.pdb_6494.pdb o/38441_HEM_Ketoconazole.pdb_8056.pdb o/38441_HEM_Ketoconazole.pdb_3709.pdb o/38441_HEM_Ketoconazole.pdb_780.pdb o/38441_HEM_Ketoconazole.pdb_7718.pdb o/38441_HEM_Ketoconazole.pdb_6397.pdb o/38441_HEM_Ketoconazole.pdb_2818.pdb o/38441_HEM_Ketoconazole.pdb_1663.pdb 
26 o/38441_HEM_Ketoconazole.pdb_968.pdb o/38441_HEM_Ketoconazole.pdb_8466.pdb o/38441_HEM_Ketoconazole.pdb_5622.pdb o/38441_HEM_Ketoconazole.pdb_6103.pdb o/38441_HEM_Ketoconazole.pdb_3741.pdb o/38441_HEM_Ketoconazole.pdb_9727.pdb o/38441_HEM_Ketoconazole.pdb_8062.pdb o/38441_HEM_Ketoconazole.pdb_3625.pdb o/38441_HEM_Ketoconazole.pdb_9212.pdb o/38441_HEM_Ketoconazole.pdb_9305.pdb o/38441_HEM_Ketoconazole.pdb_2412.pdb o/38441_HEM_Ketoconazole.pdb_8042.pdb o/38441_HEM_Ketoconazole.pdb_966.pdb o/38441_HEM_Ketoconazole.pdb_6545.pdb o/38441_HEM_Ketoconazole.pdb_5641.pdb o/38441_HEM_Ketoconazole.pdb_4834.pdb o/38441_HEM_Ketoconazole.pdb_2433.pdb o/38441_HEM_Ketoconazole.pdb_6596.pdb o/38441_HEM_Ketoconazole.pdb_4238.pdb o/38441_HEM_Ketoconazole.pdb_2146.pdb o/38441_HEM_Ketoconazole.pdb_7067.pdb o/38441_HEM_Ketoconazole.pdb_4415.pdb o/38441_HEM_Ketoconazole.pdb_3595.pdb o/38441_HEM_Ketoconazole.pdb_140.pdb o/38441_HEM_Ketoconazole.pdb_604.pdb o/38441_HEM_Ketoconazole.pdb_1078.pdb 
13 o/38441_HEM_Ketoconazole.pdb_9887.pdb o/38441_HEM_Ketoconazole.pdb_9809.pdb o/38441_HEM_Ketoconazole.pdb_673.pdb o/38441_HEM_Ketoconazole.pdb_4310.pdb o/38441_HEM_Ketoconazole.pdb_8871.pdb o/38441_HEM_Ketoconazole.pdb_3288.pdb o/38441_HEM_Ketoconazole.pdb_6341.pdb o/38441_HEM_Ketoconazole.pdb_2241.pdb o/38441_HEM_Ketoconazole.pdb_6784.pdb o/38441_HEM_Ketoconazole.pdb_3918.pdb o/38441_HEM_Ketoconazole.pdb_304.pdb o/38441_HEM_Ketoconazole.pdb_7938.pdb o/38441_HEM_Ketoconazole.pdb_1110.pdb 
10 o/38441_HEM_Ketoconazole.pdb_5477.pdb o/38441_HEM_Ketoconazole.pdb_4057.pdb o/38441_HEM_Ketoconazole.pdb_993.pdb o/38441_HEM_Ketoconazole.pdb_5872.pdb o/38441_HEM_Ketoconazole.pdb_9313.pdb o/38441_HEM_Ketoconazole.pdb_3528.pdb o/38441_HEM_Ketoconazole.pdb_2336.pdb o/38441_HEM_Ketoconazole.pdb_2128.pdb o/38441_HEM_Ketoconazole.pdb_412.pdb o/38441_HEM_Ketoconazole.pdb_1850.pdb 
14 o/38441_HEM_Ketoconazole.pdb_3835.pdb o/38441_HEM_Ketoconazole.pdb_5203.pdb o/38441_HEM_Ketoconazole.pdb_4932.pdb o/38441_HEM_Ketoconazole.pdb_8591.pdb o/38441_HEM_Ketoconazole.pdb_3761.pdb o/38441_HEM_Ketoconazole.pdb_3012.pdb o/38441_HEM_Ketoconazole.pdb_7052.pdb o/38441_HEM_Ketoconazole.pdb_2006.pdb o/38441_HEM_Ketoconazole.pdb_9467.pdb o/38441_HEM_Ketoconazole.pdb_5320.pdb o/38441_HEM_Ketoconazole.pdb_5194.pdb o/38441_HEM_Ketoconazole.pdb_705.pdb o/38441_HEM_Ketoconazole.pdb_4457.pdb o/38441_HEM_Ketoconazole.pdb_1074.pdb 
12 o/38441_HEM_Ketoconazole.pdb_9463.pdb o/38441_HEM_Ketoconazole.pdb_3311.pdb o/38441_HEM_Ketoconazole.pdb_2420.pdb o/38441_HEM_Ketoconazole.pdb_4086.pdb o/38441_HEM_Ketoconazole.pdb_3285.pdb o/38441_HEM_Ketoconazole.pdb_2448.pdb o/38441_HEM_Ketoconazole.pdb_8421.pdb o/38441_HEM_Ketoconazole.pdb_3571.pdb o/38441_HEM_Ketoconazole.pdb_2325.pdb o/38441_HEM_Ketoconazole.pdb_5000.pdb o/38441_HEM_Ketoconazole.pdb_3463.pdb o/38441_HEM_Ketoconazole.pdb_110.pdb 
13 o/38441_HEM_Ketoconazole.pdb_6037.pdb o/38441_HEM_Ketoconazole.pdb_9408.pdb o/38441_HEM_Ketoconazole.pdb_5519.pdb o/38441_HEM_Ketoconazole.pdb_8086.pdb o/38441_HEM_Ketoconazole.pdb_6684.pdb o/38441_HEM_Ketoconazole.pdb_9724.pdb o/38441_HEM_Ketoconazole.pdb_8297.pdb o/38441_HEM_Ketoconazole.pdb_5061.pdb o/38441_HEM_Ketoconazole.pdb_6422.pdb o/38441_HEM_Ketoconazole.pdb_1808.pdb o/38441_HEM_Ketoconazole.pdb_8094.pdb o/38441_HEM_Ketoconazole.pdb_3435.pdb o/38441_HEM_Ketoconazole.pdb_158.pdb 
11 o/38441_HEM_Ketoconazole.pdb_7027.pdb o/38441_HEM_Ketoconazole.pdb_8164.pdb o/38441_HEM_Ketoconazole.pdb_5672.pdb o/38441_HEM_Ketoconazole.pdb_5696.pdb o/38441_HEM_Ketoconazole.pdb_4016.pdb o/38441_HEM_Ketoconazole.pdb_6655.pdb o/38441_HEM_Ketoconazole.pdb_4212.pdb o/38441_HEM_Ketoconazole.pdb_6265.pdb o/38441_HEM_Ketoconazole.pdb_6273.pdb o/38441_HEM_Ketoconazole.pdb_5168.pdb o/38441_HEM_Ketoconazole.pdb_3230.pdb 
14 o/38441_HEM_Ketoconazole.pdb_8820.pdb o/38441_HEM_Ketoconazole.pdb_9804.pdb o/38441_HEM_Ketoconazole.pdb_586.pdb o/38441_HEM_Ketoconazole.pdb_8883.pdb o/38441_HEM_Ketoconazole.pdb_5595.pdb o/38441_HEM_Ketoconazole.pdb_7528.pdb o/38441_HEM_Ketoconazole.pdb_3369.pdb o/38441_HEM_Ketoconazole.pdb_1169.pdb o/38441_HEM_Ketoconazole.pdb_7081.pdb o/38441_HEM_Ketoconazole.pdb_6126.pdb o/38441_HEM_Ketoconazole.pdb_4636.pdb o/38441_HEM_Ketoconazole.pdb_1500.pdb o/38441_HEM_Ketoconazole.pdb_9222.pdb o/38441_HEM_Ketoconazole.pdb_1064.pdb 
11 o/38441_HEM_Ketoconazole.pdb_6814.pdb o/38441_HEM_Ketoconazole.pdb_5727.pdb o/38441_HEM_Ketoconazole.pdb_4545.pdb o/38441_HEM_Ketoconazole.pdb_9554.pdb o/38441_HEM_Ketoconazole.pdb_4638.pdb o/38441_HEM_Ketoconazole.pdb_2796.pdb o/38441_HEM_Ketoconazole.pdb_9563.pdb o/38441_HEM_Ketoconazole.pdb_6405.pdb o/38441_HEM_Ketoconazole.pdb_9505.pdb o/38441_HEM_Ketoconazole.pdb_256.pdb o/38441_HEM_Ketoconazole.pdb_1063.pdb 
13 o/38441_HEM_Ketoconazole.pdb_767.pdb o/38441_HEM_Ketoconazole.pdb_7633.pdb o/38441_HEM_Ketoconazole.pdb_2164.pdb o/38441_HEM_Ketoconazole.pdb_803.pdb o/38441_HEM_Ketoconazole.pdb_1805.pdb o/38441_HEM_Ketoconazole.pdb_7395.pdb o/38441_HEM_Ketoconazole.pdb_8481.pdb o/38441_HEM_Ketoconazole.pdb_6539.pdb o/38441_HEM_Ketoconazole.pdb_1515.pdb o/38441_HEM_Ketoconazole.pdb_1937.pdb o/38441_HEM_Ketoconazole.pdb_2333.pdb o/38441_HEM_Ketoconazole.pdb_6898.pdb o/38441_HEM_Ketoconazole.pdb_1061.pdb 
12 o/38441_HEM_Ketoconazole.pdb_9150.pdb o/38441_HEM_Ketoconazole.pdb_6277.pdb o/38441_HEM_Ketoconazole.pdb_8786.pdb o/38441_HEM_Ketoconazole.pdb_2056.pdb o/38441_HEM_Ketoconazole.pdb_2775.pdb o/38441_HEM_Ketoconazole.pdb_2353.pdb o/38441_HEM_Ketoconazole.pdb_7875.pdb o/38441_HEM_Ketoconazole.pdb_7905.pdb o/38441_HEM_Ketoconazole.pdb_6967.pdb o/38441_HEM_Ketoconazole.pdb_5616.pdb o/38441_HEM_Ketoconazole.pdb_428.pdb o/38441_HEM_Ketoconazole.pdb_106.pdb 
15 o/38441_HEM_Ketoconazole.pdb_6674.pdb o/38441_HEM_Ketoconazole.pdb_5479.pdb o/38441_HEM_Ketoconazole.pdb_9919.pdb o/38441_HEM_Ketoconazole.pdb_7752.pdb o/38441_HEM_Ketoconazole.pdb_4393.pdb o/38441_HEM_Ketoconazole.pdb_8558.pdb o/38441_HEM_Ketoconazole.pdb_5324.pdb o/38441_HEM_Ketoconazole.pdb_3523.pdb o/38441_HEM_Ketoconazole.pdb_281.pdb o/38441_HEM_Ketoconazole.pdb_2092.pdb o/38441_HEM_Ketoconazole.pdb_8707.pdb o/38441_HEM_Ketoconazole.pdb_7541.pdb o/38441_HEM_Ketoconazole.pdb_5285.pdb o/38441_HEM_Ketoconazole.pdb_9997.pdb o/38441_HEM_Ketoconazole.pdb_1054.pdb 
14 o/38441_HEM_Ketoconazole.pdb_5198.pdb o/38441_HEM_Ketoconazole.pdb_2567.pdb o/38441_HEM_Ketoconazole.pdb_2847.pdb o/38441_HEM_Ketoconazole.pdb_8069.pdb o/38441_HEM_Ketoconazole.pdb_2162.pdb o/38441_HEM_Ketoconazole.pdb_3046.pdb o/38441_HEM_Ketoconazole.pdb_1536.pdb o/38441_HEM_Ketoconazole.pdb_6351.pdb o/38441_HEM_Ketoconazole.pdb_5610.pdb o/38441_HEM_Ketoconazole.pdb_5887.pdb o/38441_HEM_Ketoconazole.pdb_2296.pdb o/38441_HEM_Ketoconazole.pdb_437.pdb o/38441_HEM_Ketoconazole.pdb_1773.pdb o/38441_HEM_Ketoconazole.pdb_112.pdb 
10 o/38441_HEM_Ketoconazole.pdb_9454.pdb o/38441_HEM_Ketoconazole.pdb_6570.pdb o/38441_HEM_Ketoconazole.pdb_7580.pdb o/38441_HEM_Ketoconazole.pdb_7082.pdb o/38441_HEM_Ketoconazole.pdb_2894.pdb o/38441_HEM_Ketoconazole.pdb_3643.pdb o/38441_HEM_Ketoconazole.pdb_2595.pdb o/38441_HEM_Ketoconazole.pdb_2503.pdb o/38441_HEM_Ketoconazole.pdb_3716.pdb o/38441_HEM_Ketoconazole.pdb_1111.pdb 
15 o/38441_HEM_Ketoconazole.pdb_7222.pdb o/38441_HEM_Ketoconazole.pdb_7769.pdb o/38441_HEM_Ketoconazole.pdb_622.pdb o/38441_HEM_Ketoconazole.pdb_766.pdb o/38441_HEM_Ketoconazole.pdb_7366.pdb o/38441_HEM_Ketoconazole.pdb_7776.pdb o/38441_HEM_Ketoconazole.pdb_3656.pdb o/38441_HEM_Ketoconazole.pdb_6842.pdb o/38441_HEM_Ketoconazole.pdb_3023.pdb o/38441_HEM_Ketoconazole.pdb_6867.pdb o/38441_HEM_Ketoconazole.pdb_4667.pdb o/38441_HEM_Ketoconazole.pdb_7393.pdb o/38441_HEM_Ketoconazole.pdb_3710.pdb o/38441_HEM_Ketoconazole.pdb_6269.pdb o/38441_HEM_Ketoconazole.pdb_1708.pdb 
13 o/38441_HEM_Ketoconazole.pdb_9968.pdb o/38441_HEM_Ketoconazole.pdb_9045.pdb o/38441_HEM_Ketoconazole.pdb_8812.pdb o/38441_HEM_Ketoconazole.pdb_7200.pdb o/38441_HEM_Ketoconazole.pdb_835.pdb o/38441_HEM_Ketoconazole.pdb_6304.pdb o/38441_HEM_Ketoconazole.pdb_5006.pdb o/38441_HEM_Ketoconazole.pdb_1350.pdb o/38441_HEM_Ketoconazole.pdb_976.pdb o/38441_HEM_Ketoconazole.pdb_6807.pdb o/38441_HEM_Ketoconazole.pdb_5098.pdb o/38441_HEM_Ketoconazole.pdb_5074.pdb o/38441_HEM_Ketoconazole.pdb_1234.pdb 
11 o/38441_HEM_Ketoconazole.pdb_4806.pdb o/38441_HEM_Ketoconazole.pdb_4510.pdb o/38441_HEM_Ketoconazole.pdb_6488.pdb o/38441_HEM_Ketoconazole.pdb_4140.pdb o/38441_HEM_Ketoconazole.pdb_9364.pdb o/38441_HEM_Ketoconazole.pdb_6158.pdb o/38441_HEM_Ketoconazole.pdb_5266.pdb o/38441_HEM_Ketoconazole.pdb_8379.pdb o/38441_HEM_Ketoconazole.pdb_8247.pdb o/38441_HEM_Ketoconazole.pdb_5047.pdb o/38441_HEM_Ketoconazole.pdb_1124.pdb 
13 o/38441_HEM_Ketoconazole.pdb_5642.pdb o/38441_HEM_Ketoconazole.pdb_2375.pdb o/38441_HEM_Ketoconazole.pdb_8682.pdb o/38441_HEM_Ketoconazole.pdb_4527.pdb o/38441_HEM_Ketoconazole.pdb_4343.pdb o/38441_HEM_Ketoconazole.pdb_988.pdb o/38441_HEM_Ketoconazole.pdb_2054.pdb o/38441_HEM_Ketoconazole.pdb_4467.pdb o/38441_HEM_Ketoconazole.pdb_184.pdb o/38441_HEM_Ketoconazole.pdb_4316.pdb o/38441_HEM_Ketoconazole.pdb_3196.pdb o/38441_HEM_Ketoconazole.pdb_1482.pdb o/38441_HEM_Ketoconazole.pdb_1129.pdb 
10 o/38441_HEM_Ketoconazole.pdb_4309.pdb o/38441_HEM_Ketoconazole.pdb_491.pdb o/38441_HEM_Ketoconazole.pdb_4242.pdb o/38441_HEM_Ketoconazole.pdb_8857.pdb o/38441_HEM_Ketoconazole.pdb_2651.pdb o/38441_HEM_Ketoconazole.pdb_9851.pdb o/38441_HEM_Ketoconazole.pdb_6088.pdb o/38441_HEM_Ketoconazole.pdb_8476.pdb o/38441_HEM_Ketoconazole.pdb_4143.pdb o/38441_HEM_Ketoconazole.pdb_1043.pdb 
21 o/38441_HEM_Ketoconazole.pdb_4454.pdb o/38441_HEM_Ketoconazole.pdb_7511.pdb o/38441_HEM_Ketoconazole.pdb_436.pdb o/38441_HEM_Ketoconazole.pdb_8830.pdb o/38441_HEM_Ketoconazole.pdb_5349.pdb o/38441_HEM_Ketoconazole.pdb_294.pdb o/38441_HEM_Ketoconazole.pdb_1245.pdb o/38441_HEM_Ketoconazole.pdb_9884.pdb o/38441_HEM_Ketoconazole.pdb_5920.pdb o/38441_HEM_Ketoconazole.pdb_7506.pdb o/38441_HEM_Ketoconazole.pdb_3426.pdb o/38441_HEM_Ketoconazole.pdb_984.pdb o/38441_HEM_Ketoconazole.pdb_3309.pdb o/38441_HEM_Ketoconazole.pdb_1882.pdb o/38441_HEM_Ketoconazole.pdb_8748.pdb o/38441_HEM_Ketoconazole.pdb_5465.pdb o/38441_HEM_Ketoconazole.pdb_9420.pdb o/38441_HEM_Ketoconazole.pdb_3125.pdb o/38441_HEM_Ketoconazole.pdb_241.pdb o/38441_HEM_Ketoconazole.pdb_2137.pdb o/38441_HEM_Ketoconazole.pdb_1042.pdb 
18 o/38441_HEM_Ketoconazole.pdb_9729.pdb o/38441_HEM_Ketoconazole.pdb_7232.pdb o/38441_HEM_Ketoconazole.pdb_8390.pdb o/38441_HEM_Ketoconazole.pdb_7643.pdb o/38441_HEM_Ketoconazole.pdb_404.pdb o/38441_HEM_Ketoconazole.pdb_8608.pdb o/38441_HEM_Ketoconazole.pdb_736.pdb o/38441_HEM_Ketoconazole.pdb_2409.pdb o/38441_HEM_Ketoconazole.pdb_7993.pdb o/38441_HEM_Ketoconazole.pdb_3260.pdb o/38441_HEM_Ketoconazole.pdb_5350.pdb o/38441_HEM_Ketoconazole.pdb_3121.pdb o/38441_HEM_Ketoconazole.pdb_6199.pdb o/38441_HEM_Ketoconazole.pdb_4365.pdb o/38441_HEM_Ketoconazole.pdb_2798.pdb o/38441_HEM_Ketoconazole.pdb_8880.pdb o/38441_HEM_Ketoconazole.pdb_981.pdb o/38441_HEM_Ketoconazole.pdb_223.pdb 
10 o/38441_HEM_Ketoconazole.pdb_6202.pdb o/38441_HEM_Ketoconazole.pdb_3228.pdb o/38441_HEM_Ketoconazole.pdb_777.pdb o/38441_HEM_Ketoconazole.pdb_6682.pdb o/38441_HEM_Ketoconazole.pdb_5469.pdb o/38441_HEM_Ketoconazole.pdb_5393.pdb o/38441_HEM_Ketoconazole.pdb_3644.pdb o/38441_HEM_Ketoconazole.pdb_2981.pdb o/38441_HEM_Ketoconazole.pdb_457.pdb o/38441_HEM_Ketoconazole.pdb_2907.pdb 
11 o/38441_HEM_Ketoconazole.pdb_6052.pdb o/38441_HEM_Ketoconazole.pdb_7631.pdb o/38441_HEM_Ketoconazole.pdb_3459.pdb o/38441_HEM_Ketoconazole.pdb_2116.pdb o/38441_HEM_Ketoconazole.pdb_4001.pdb o/38441_HEM_Ketoconazole.pdb_5793.pdb o/38441_HEM_Ketoconazole.pdb_3241.pdb o/38441_HEM_Ketoconazole.pdb_5639.pdb o/38441_HEM_Ketoconazole.pdb_3975.pdb o/38441_HEM_Ketoconazole.pdb_2949.pdb o/38441_HEM_Ketoconazole.pdb_1348.pdb 
10 o/38441_HEM_Ketoconazole.pdb_936.pdb o/38441_HEM_Ketoconazole.pdb_7461.pdb o/38441_HEM_Ketoconazole.pdb_64.pdb o/38441_HEM_Ketoconazole.pdb_8134.pdb o/38441_HEM_Ketoconazole.pdb_4101.pdb o/38441_HEM_Ketoconazole.pdb_4797.pdb o/38441_HEM_Ketoconazole.pdb_9018.pdb o/38441_HEM_Ketoconazole.pdb_346.pdb o/38441_HEM_Ketoconazole.pdb_8051.pdb o/38441_HEM_Ketoconazole.pdb_2912.pdb 
20 o/38441_HEM_Ketoconazole.pdb_6845.pdb o/38441_HEM_Ketoconazole.pdb_5792.pdb o/38441_HEM_Ketoconazole.pdb_8212.pdb o/38441_HEM_Ketoconazole.pdb_1700.pdb o/38441_HEM_Ketoconazole.pdb_2338.pdb o/38441_HEM_Ketoconazole.pdb_1403.pdb o/38441_HEM_Ketoconazole.pdb_9710.pdb o/38441_HEM_Ketoconazole.pdb_7261.pdb o/38441_HEM_Ketoconazole.pdb_5344.pdb o/38441_HEM_Ketoconazole.pdb_4842.pdb o/38441_HEM_Ketoconazole.pdb_8233.pdb o/38441_HEM_Ketoconazole.pdb_2776.pdb o/38441_HEM_Ketoconazole.pdb_8715.pdb o/38441_HEM_Ketoconazole.pdb_8665.pdb o/38441_HEM_Ketoconazole.pdb_6267.pdb o/38441_HEM_Ketoconazole.pdb_5807.pdb o/38441_HEM_Ketoconazole.pdb_6108.pdb o/38441_HEM_Ketoconazole.pdb_4951.pdb o/38441_HEM_Ketoconazole.pdb_4626.pdb o/38441_HEM_Ketoconazole.pdb_1058.pdb 
10 o/38441_HEM_Ketoconazole.pdb_9792.pdb o/38441_HEM_Ketoconazole.pdb_7773.pdb o/38441_HEM_Ketoconazole.pdb_7269.pdb o/38441_HEM_Ketoconazole.pdb_5309.pdb o/38441_HEM_Ketoconazole.pdb_8932.pdb o/38441_HEM_Ketoconazole.pdb_7829.pdb o/38441_HEM_Ketoconazole.pdb_5388.pdb o/38441_HEM_Ketoconazole.pdb_6359.pdb o/38441_HEM_Ketoconazole.pdb_3462.pdb o/38441_HEM_Ketoconazole.pdb_1752.pdb 
10 o/38441_HEM_Ketoconazole.pdb_9930.pdb o/38441_HEM_Ketoconazole.pdb_6679.pdb o/38441_HEM_Ketoconazole.pdb_9321.pdb o/38441_HEM_Ketoconazole.pdb_4543.pdb o/38441_HEM_Ketoconazole.pdb_9720.pdb o/38441_HEM_Ketoconazole.pdb_9499.pdb o/38441_HEM_Ketoconazole.pdb_3602.pdb o/38441_HEM_Ketoconazole.pdb_7691.pdb o/38441_HEM_Ketoconazole.pdb_5733.pdb o/38441_HEM_Ketoconazole.pdb_1660.pdb 
13 o/38441_HEM_Ketoconazole.pdb_7700.pdb o/38441_HEM_Ketoconazole.pdb_4189.pdb o/38441_HEM_Ketoconazole.pdb_8264.pdb o/38441_HEM_Ketoconazole.pdb_6131.pdb o/38441_HEM_Ketoconazole.pdb_2770.pdb o/38441_HEM_Ketoconazole.pdb_2473.pdb o/38441_HEM_Ketoconazole.pdb_9621.pdb o/38441_HEM_Ketoconazole.pdb_552.pdb o/38441_HEM_Ketoconazole.pdb_333.pdb o/38441_HEM_Ketoconazole.pdb_2486.pdb o/38441_HEM_Ketoconazole.pdb_2669.pdb o/38441_HEM_Ketoconazole.pdb_5762.pdb o/38441_HEM_Ketoconazole.pdb_1044.pdb 
14 o/38441_HEM_Ketoconazole.pdb_3541.pdb o/38441_HEM_Ketoconazole.pdb_7812.pdb o/38441_HEM_Ketoconazole.pdb_2991.pdb o/38441_HEM_Ketoconazole.pdb_2619.pdb o/38441_HEM_Ketoconazole.pdb_6324.pdb o/38441_HEM_Ketoconazole.pdb_5593.pdb o/38441_HEM_Ketoconazole.pdb_2823.pdb o/38441_HEM_Ketoconazole.pdb_2520.pdb o/38441_HEM_Ketoconazole.pdb_7892.pdb o/38441_HEM_Ketoconazole.pdb_7796.pdb o/38441_HEM_Ketoconazole.pdb_2799.pdb o/38441_HEM_Ketoconazole.pdb_265.pdb o/38441_HEM_Ketoconazole.pdb_2400.pdb o/38441_HEM_Ketoconazole.pdb_103.pdb 
10 o/38441_HEM_Ketoconazole.pdb_8229.pdb o/38441_HEM_Ketoconazole.pdb_9999.pdb o/38441_HEM_Ketoconazole.pdb_9203.pdb o/38441_HEM_Ketoconazole.pdb_4041.pdb o/38441_HEM_Ketoconazole.pdb_7440.pdb o/38441_HEM_Ketoconazole.pdb_9096.pdb o/38441_HEM_Ketoconazole.pdb_7602.pdb o/38441_HEM_Ketoconazole.pdb_2443.pdb o/38441_HEM_Ketoconazole.pdb_6075.pdb o/38441_HEM_Ketoconazole.pdb_1454.pdb 
13 o/38441_HEM_Ketoconazole.pdb_9681.pdb o/38441_HEM_Ketoconazole.pdb_9266.pdb o/38441_HEM_Ketoconazole.pdb_2721.pdb o/38441_HEM_Ketoconazole.pdb_2424.pdb o/38441_HEM_Ketoconazole.pdb_9818.pdb o/38441_HEM_Ketoconazole.pdb_2303.pdb o/38441_HEM_Ketoconazole.pdb_7197.pdb o/38441_HEM_Ketoconazole.pdb_5.pdb o/38441_HEM_Ketoconazole.pdb_2783.pdb o/38441_HEM_Ketoconazole.pdb_3726.pdb o/38441_HEM_Ketoconazole.pdb_2225.pdb o/38441_HEM_Ketoconazole.pdb_672.pdb o/38441_HEM_Ketoconazole.pdb_1855.pdb 
10 o/38441_HEM_Ketoconazole.pdb_7666.pdb o/38441_HEM_Ketoconazole.pdb_593.pdb o/38441_HEM_Ketoconazole.pdb_4106.pdb o/38441_HEM_Ketoconazole.pdb_2130.pdb o/38441_HEM_Ketoconazole.pdb_5220.pdb o/38441_HEM_Ketoconazole.pdb_1664.pdb o/38441_HEM_Ketoconazole.pdb_5468.pdb o/38441_HEM_Ketoconazole.pdb_5117.pdb o/38441_HEM_Ketoconazole.pdb_8445.pdb o/38441_HEM_Ketoconazole.pdb_1041.pdb 
12 o/38441_HEM_Ketoconazole.pdb_3074.pdb o/38441_HEM_Ketoconazole.pdb_211.pdb o/38441_HEM_Ketoconazole.pdb_1141.pdb o/38441_HEM_Ketoconazole.pdb_7571.pdb o/38441_HEM_Ketoconazole.pdb_3396.pdb o/38441_HEM_Ketoconazole.pdb_8489.pdb o/38441_HEM_Ketoconazole.pdb_7527.pdb o/38441_HEM_Ketoconazole.pdb_3088.pdb o/38441_HEM_Ketoconazole.pdb_387.pdb o/38441_HEM_Ketoconazole.pdb_592.pdb o/38441_HEM_Ketoconazole.pdb_2978.pdb o/38441_HEM_Ketoconazole.pdb_1073.pdb 
11 o/38441_HEM_Ketoconazole.pdb_651.pdb o/38441_HEM_Ketoconazole.pdb_685.pdb o/38441_HEM_Ketoconazole.pdb_4712.pdb o/38441_HEM_Ketoconazole.pdb_674.pdb o/38441_HEM_Ketoconazole.pdb_4531.pdb o/38441_HEM_Ketoconazole.pdb_4361.pdb o/38441_HEM_Ketoconazole.pdb_334.pdb o/38441_HEM_Ketoconazole.pdb_42.pdb o/38441_HEM_Ketoconazole.pdb_2213.pdb o/38441_HEM_Ketoconazole.pdb_1755.pdb o/38441_HEM_Ketoconazole.pdb_102.pdb 
11 o/38441_HEM_Ketoconazole.pdb_8996.pdb o/38441_HEM_Ketoconazole.pdb_7308.pdb o/38441_HEM_Ketoconazole.pdb_6438.pdb o/38441_HEM_Ketoconazole.pdb_6915.pdb o/38441_HEM_Ketoconazole.pdb_5303.pdb o/38441_HEM_Ketoconazole.pdb_9928.pdb o/38441_HEM_Ketoconazole.pdb_5932.pdb o/38441_HEM_Ketoconazole.pdb_848.pdb o/38441_HEM_Ketoconazole.pdb_7974.pdb o/38441_HEM_Ketoconazole.pdb_6907.pdb o/38441_HEM_Ketoconazole.pdb_4131.pdb 
11 o/38441_HEM_Ketoconazole.pdb_6580.pdb o/38441_HEM_Ketoconazole.pdb_5146.pdb o/38441_HEM_Ketoconazole.pdb_3846.pdb o/38441_HEM_Ketoconazole.pdb_6167.pdb o/38441_HEM_Ketoconazole.pdb_9406.pdb o/38441_HEM_Ketoconazole.pdb_2906.pdb o/38441_HEM_Ketoconazole.pdb_177.pdb o/38441_HEM_Ketoconazole.pdb_8795.pdb o/38441_HEM_Ketoconazole.pdb_7151.pdb o/38441_HEM_Ketoconazole.pdb_5630.pdb o/38441_HEM_Ketoconazole.pdb_1490.pdb 
10 o/38441_HEM_Ketoconazole.pdb_6339.pdb o/38441_HEM_Ketoconazole.pdb_9047.pdb o/38441_HEM_Ketoconazole.pdb_3892.pdb o/38441_HEM_Ketoconazole.pdb_7775.pdb o/38441_HEM_Ketoconazole.pdb_7125.pdb o/38441_HEM_Ketoconazole.pdb_1360.pdb o/38441_HEM_Ketoconazole.pdb_677.pdb o/38441_HEM_Ketoconazole.pdb_5789.pdb o/38441_HEM_Ketoconazole.pdb_2516.pdb o/38441_HEM_Ketoconazole.pdb_1342.pdb 
18 o/38441_HEM_Ketoconazole.pdb_3382.pdb o/38441_HEM_Ketoconazole.pdb_8745.pdb o/38441_HEM_Ketoconazole.pdb_2717.pdb o/38441_HEM_Ketoconazole.pdb_5353.pdb o/38441_HEM_Ketoconazole.pdb_2004.pdb o/38441_HEM_Ketoconazole.pdb_4548.pdb o/38441_HEM_Ketoconazole.pdb_9896.pdb o/38441_HEM_Ketoconazole.pdb_3769.pdb o/38441_HEM_Ketoconazole.pdb_7683.pdb o/38441_HEM_Ketoconazole.pdb_8702.pdb o/38441_HEM_Ketoconazole.pdb_1936.pdb o/38441_HEM_Ketoconazole.pdb_9267.pdb o/38441_HEM_Ketoconazole.pdb_8540.pdb o/38441_HEM_Ketoconazole.pdb_8761.pdb o/38441_HEM_Ketoconazole.pdb_3083.pdb o/38441_HEM_Ketoconazole.pdb_8927.pdb o/38441_HEM_Ketoconazole.pdb_8437.pdb o/38441_HEM_Ketoconazole.pdb_1004.pdb 
11 o/38441_HEM_Ketoconazole.pdb_4517.pdb o/38441_HEM_Ketoconazole.pdb_9329.pdb o/38441_HEM_Ketoconazole.pdb_7860.pdb o/38441_HEM_Ketoconazole.pdb_9496.pdb o/38441_HEM_Ketoconazole.pdb_4159.pdb o/38441_HEM_Ketoconazole.pdb_7182.pdb o/38441_HEM_Ketoconazole.pdb_276.pdb o/38441_HEM_Ketoconazole.pdb_1637.pdb o/38441_HEM_Ketoconazole.pdb_7510.pdb o/38441_HEM_Ketoconazole.pdb_1995.pdb o/38441_HEM_Ketoconazole.pdb_1383.pdb 
22 o/38441_HEM_Ketoconazole.pdb_8701.pdb o/38441_HEM_Ketoconazole.pdb_5071.pdb o/38441_HEM_Ketoconazole.pdb_7193.pdb o/38441_HEM_Ketoconazole.pdb_9920.pdb o/38441_HEM_Ketoconazole.pdb_4933.pdb o/38441_HEM_Ketoconazole.pdb_8842.pdb o/38441_HEM_Ketoconazole.pdb_7565.pdb o/38441_HEM_Ketoconazole.pdb_6985.pdb o/38441_HEM_Ketoconazole.pdb_5149.pdb o/38441_HEM_Ketoconazole.pdb_4756.pdb o/38441_HEM_Ketoconazole.pdb_6235.pdb o/38441_HEM_Ketoconazole.pdb_8991.pdb o/38441_HEM_Ketoconazole.pdb_788.pdb o/38441_HEM_Ketoconazole.pdb_5915.pdb o/38441_HEM_Ketoconazole.pdb_977.pdb o/38441_HEM_Ketoconazole.pdb_3151.pdb o/38441_HEM_Ketoconazole.pdb_2911.pdb o/38441_HEM_Ketoconazole.pdb_2766.pdb o/38441_HEM_Ketoconazole.pdb_4250.pdb o/38441_HEM_Ketoconazole.pdb_9754.pdb o/38441_HEM_Ketoconazole.pdb_9631.pdb o/38441_HEM_Ketoconazole.pdb_26.pdb 
11 o/38441_HEM_Ketoconazole.pdb_9542.pdb o/38441_HEM_Ketoconazole.pdb_7270.pdb o/38441_HEM_Ketoconazole.pdb_9734.pdb o/38441_HEM_Ketoconazole.pdb_7304.pdb o/38441_HEM_Ketoconazole.pdb_5446.pdb o/38441_HEM_Ketoconazole.pdb_5614.pdb o/38441_HEM_Ketoconazole.pdb_405.pdb o/38441_HEM_Ketoconazole.pdb_9049.pdb o/38441_HEM_Ketoconazole.pdb_5945.pdb o/38441_HEM_Ketoconazole.pdb_425.pdb o/38441_HEM_Ketoconazole.pdb_2180.pdb 
11 o/38441_HEM_Ketoconazole.pdb_512.pdb o/38441_HEM_Ketoconazole.pdb_4688.pdb o/38441_HEM_Ketoconazole.pdb_9977.pdb o/38441_HEM_Ketoconazole.pdb_6671.pdb o/38441_HEM_Ketoconazole.pdb_3904.pdb o/38441_HEM_Ketoconazole.pdb_2605.pdb o/38441_HEM_Ketoconazole.pdb_1761.pdb o/38441_HEM_Ketoconazole.pdb_2112.pdb o/38441_HEM_Ketoconazole.pdb_195.pdb o/38441_HEM_Ketoconazole.pdb_29.pdb o/38441_HEM_Ketoconazole.pdb_1104.pdb 
10 o/38441_HEM_Ketoconazole.pdb_3164.pdb o/38441_HEM_Ketoconazole.pdb_1537.pdb o/38441_HEM_Ketoconazole.pdb_4286.pdb o/38441_HEM_Ketoconazole.pdb_1472.pdb o/38441_HEM_Ketoconazole.pdb_9622.pdb o/38441_HEM_Ketoconazole.pdb_326.pdb o/38441_HEM_Ketoconazole.pdb_9050.pdb o/38441_HEM_Ketoconazole.pdb_3566.pdb o/38441_HEM_Ketoconazole.pdb_5176.pdb o/38441_HEM_Ketoconazole.pdb_1031.pdb 
11 o/38441_HEM_Ketoconazole.pdb_6810.pdb o/38441_HEM_Ketoconazole.pdb_8749.pdb o/38441_HEM_Ketoconazole.pdb_9164.pdb o/38441_HEM_Ketoconazole.pdb_3135.pdb o/38441_HEM_Ketoconazole.pdb_2969.pdb o/38441_HEM_Ketoconazole.pdb_4607.pdb o/38441_HEM_Ketoconazole.pdb_9349.pdb o/38441_HEM_Ketoconazole.pdb_2667.pdb o/38441_HEM_Ketoconazole.pdb_3860.pdb o/38441_HEM_Ketoconazole.pdb_8935.pdb o/38441_HEM_Ketoconazole.pdb_1243.pdb 
12 o/38441_HEM_Ketoconazole.pdb_5486.pdb o/38441_HEM_Ketoconazole.pdb_6357.pdb o/38441_HEM_Ketoconazole.pdb_5941.pdb o/38441_HEM_Ketoconazole.pdb_5100.pdb o/38441_HEM_Ketoconazole.pdb_1751.pdb o/38441_HEM_Ketoconazole.pdb_7848.pdb o/38441_HEM_Ketoconazole.pdb_5828.pdb o/38441_HEM_Ketoconazole.pdb_3208.pdb o/38441_HEM_Ketoconazole.pdb_3291.pdb o/38441_HEM_Ketoconazole.pdb_1506.pdb o/38441_HEM_Ketoconazole.pdb_2268.pdb o/38441_HEM_Ketoconazole.pdb_1153.pdb 
