10 o/345805_HEM_Ketoconazole.pdb_7863.pdb o/345805_HEM_Ketoconazole.pdb_4311.pdb o/345805_HEM_Ketoconazole.pdb_9569.pdb o/345805_HEM_Ketoconazole.pdb_9193.pdb o/345805_HEM_Ketoconazole.pdb_672.pdb o/345805_HEM_Ketoconazole.pdb_406.pdb o/345805_HEM_Ketoconazole.pdb_5452.pdb o/345805_HEM_Ketoconazole.pdb_4054.pdb o/345805_HEM_Ketoconazole.pdb_7067.pdb o/345805_HEM_Ketoconazole.pdb_3650.pdb 
11 o/345805_HEM_Ketoconazole.pdb_8918.pdb o/345805_HEM_Ketoconazole.pdb_5255.pdb o/345805_HEM_Ketoconazole.pdb_328.pdb o/345805_HEM_Ketoconazole.pdb_9321.pdb o/345805_HEM_Ketoconazole.pdb_3783.pdb o/345805_HEM_Ketoconazole.pdb_3166.pdb o/345805_HEM_Ketoconazole.pdb_7705.pdb o/345805_HEM_Ketoconazole.pdb_6984.pdb o/345805_HEM_Ketoconazole.pdb_4220.pdb o/345805_HEM_Ketoconazole.pdb_325.pdb o/345805_HEM_Ketoconazole.pdb_254.pdb 
12 o/345805_HEM_Ketoconazole.pdb_7300.pdb o/345805_HEM_Ketoconazole.pdb_8630.pdb o/345805_HEM_Ketoconazole.pdb_5871.pdb o/345805_HEM_Ketoconazole.pdb_4388.pdb o/345805_HEM_Ketoconazole.pdb_8475.pdb o/345805_HEM_Ketoconazole.pdb_9532.pdb o/345805_HEM_Ketoconazole.pdb_3715.pdb o/345805_HEM_Ketoconazole.pdb_374.pdb o/345805_HEM_Ketoconazole.pdb_3400.pdb o/345805_HEM_Ketoconazole.pdb_9459.pdb o/345805_HEM_Ketoconazole.pdb_3388.pdb o/345805_HEM_Ketoconazole.pdb_2299.pdb 
11 o/345805_HEM_Ketoconazole.pdb_7940.pdb o/345805_HEM_Ketoconazole.pdb_8833.pdb o/345805_HEM_Ketoconazole.pdb_7052.pdb o/345805_HEM_Ketoconazole.pdb_9788.pdb o/345805_HEM_Ketoconazole.pdb_9943.pdb o/345805_HEM_Ketoconazole.pdb_5617.pdb o/345805_HEM_Ketoconazole.pdb_8350.pdb o/345805_HEM_Ketoconazole.pdb_5819.pdb o/345805_HEM_Ketoconazole.pdb_3882.pdb o/345805_HEM_Ketoconazole.pdb_2810.pdb o/345805_HEM_Ketoconazole.pdb_2059.pdb 
14 o/345805_HEM_Ketoconazole.pdb_701.pdb o/345805_HEM_Ketoconazole.pdb_6918.pdb o/345805_HEM_Ketoconazole.pdb_6489.pdb o/345805_HEM_Ketoconazole.pdb_5678.pdb o/345805_HEM_Ketoconazole.pdb_5935.pdb o/345805_HEM_Ketoconazole.pdb_5888.pdb o/345805_HEM_Ketoconazole.pdb_450.pdb o/345805_HEM_Ketoconazole.pdb_4410.pdb o/345805_HEM_Ketoconazole.pdb_817.pdb o/345805_HEM_Ketoconazole.pdb_694.pdb o/345805_HEM_Ketoconazole.pdb_4060.pdb o/345805_HEM_Ketoconazole.pdb_5489.pdb o/345805_HEM_Ketoconazole.pdb_2124.pdb o/345805_HEM_Ketoconazole.pdb_1869.pdb 
11 o/345805_HEM_Ketoconazole.pdb_6453.pdb o/345805_HEM_Ketoconazole.pdb_5215.pdb o/345805_HEM_Ketoconazole.pdb_4773.pdb o/345805_HEM_Ketoconazole.pdb_6498.pdb o/345805_HEM_Ketoconazole.pdb_404.pdb o/345805_HEM_Ketoconazole.pdb_2085.pdb o/345805_HEM_Ketoconazole.pdb_273.pdb o/345805_HEM_Ketoconazole.pdb_5859.pdb o/345805_HEM_Ketoconazole.pdb_9861.pdb o/345805_HEM_Ketoconazole.pdb_2044.pdb o/345805_HEM_Ketoconazole.pdb_1828.pdb 
10 o/345805_HEM_Ketoconazole.pdb_6004.pdb o/345805_HEM_Ketoconazole.pdb_4400.pdb o/345805_HEM_Ketoconazole.pdb_8734.pdb o/345805_HEM_Ketoconazole.pdb_2699.pdb o/345805_HEM_Ketoconazole.pdb_3956.pdb o/345805_HEM_Ketoconazole.pdb_9543.pdb o/345805_HEM_Ketoconazole.pdb_7799.pdb o/345805_HEM_Ketoconazole.pdb_7595.pdb o/345805_HEM_Ketoconazole.pdb_3879.pdb o/345805_HEM_Ketoconazole.pdb_1819.pdb 
12 o/345805_HEM_Ketoconazole.pdb_3146.pdb o/345805_HEM_Ketoconazole.pdb_821.pdb o/345805_HEM_Ketoconazole.pdb_2891.pdb o/345805_HEM_Ketoconazole.pdb_9435.pdb o/345805_HEM_Ketoconazole.pdb_8420.pdb o/345805_HEM_Ketoconazole.pdb_8369.pdb o/345805_HEM_Ketoconazole.pdb_6832.pdb o/345805_HEM_Ketoconazole.pdb_4756.pdb o/345805_HEM_Ketoconazole.pdb_2150.pdb o/345805_HEM_Ketoconazole.pdb_6192.pdb o/345805_HEM_Ketoconazole.pdb_9727.pdb o/345805_HEM_Ketoconazole.pdb_1770.pdb 
10 o/345805_HEM_Ketoconazole.pdb_7144.pdb o/345805_HEM_Ketoconazole.pdb_6385.pdb o/345805_HEM_Ketoconazole.pdb_6863.pdb o/345805_HEM_Ketoconazole.pdb_3506.pdb o/345805_HEM_Ketoconazole.pdb_7494.pdb o/345805_HEM_Ketoconazole.pdb_3692.pdb o/345805_HEM_Ketoconazole.pdb_7765.pdb o/345805_HEM_Ketoconazole.pdb_9202.pdb o/345805_HEM_Ketoconazole.pdb_6056.pdb o/345805_HEM_Ketoconazole.pdb_2324.pdb 
10 o/345805_HEM_Ketoconazole.pdb_8725.pdb o/345805_HEM_Ketoconazole.pdb_6492.pdb o/345805_HEM_Ketoconazole.pdb_5511.pdb o/345805_HEM_Ketoconazole.pdb_4731.pdb o/345805_HEM_Ketoconazole.pdb_8599.pdb o/345805_HEM_Ketoconazole.pdb_8745.pdb o/345805_HEM_Ketoconazole.pdb_4911.pdb o/345805_HEM_Ketoconazole.pdb_4557.pdb o/345805_HEM_Ketoconazole.pdb_6272.pdb o/345805_HEM_Ketoconazole.pdb_2994.pdb 
10 o/345805_HEM_Ketoconazole.pdb_4803.pdb o/345805_HEM_Ketoconazole.pdb_4603.pdb o/345805_HEM_Ketoconazole.pdb_3905.pdb o/345805_HEM_Ketoconazole.pdb_7500.pdb o/345805_HEM_Ketoconazole.pdb_3480.pdb o/345805_HEM_Ketoconazole.pdb_3330.pdb o/345805_HEM_Ketoconazole.pdb_8753.pdb o/345805_HEM_Ketoconazole.pdb_4942.pdb o/345805_HEM_Ketoconazole.pdb_2820.pdb o/345805_HEM_Ketoconazole.pdb_188.pdb 
10 o/345805_HEM_Ketoconazole.pdb_5574.pdb o/345805_HEM_Ketoconazole.pdb_7063.pdb o/345805_HEM_Ketoconazole.pdb_4712.pdb o/345805_HEM_Ketoconazole.pdb_4241.pdb o/345805_HEM_Ketoconazole.pdb_3713.pdb o/345805_HEM_Ketoconazole.pdb_9645.pdb o/345805_HEM_Ketoconazole.pdb_6885.pdb o/345805_HEM_Ketoconazole.pdb_2327.pdb o/345805_HEM_Ketoconazole.pdb_9867.pdb o/345805_HEM_Ketoconazole.pdb_1637.pdb 
11 o/345805_HEM_Ketoconazole.pdb_9660.pdb o/345805_HEM_Ketoconazole.pdb_5265.pdb o/345805_HEM_Ketoconazole.pdb_5328.pdb o/345805_HEM_Ketoconazole.pdb_3067.pdb o/345805_HEM_Ketoconazole.pdb_6181.pdb o/345805_HEM_Ketoconazole.pdb_7776.pdb o/345805_HEM_Ketoconazole.pdb_5831.pdb o/345805_HEM_Ketoconazole.pdb_3450.pdb o/345805_HEM_Ketoconazole.pdb_8046.pdb o/345805_HEM_Ketoconazole.pdb_9895.pdb o/345805_HEM_Ketoconazole.pdb_1763.pdb 
10 o/345805_HEM_Ketoconazole.pdb_9138.pdb o/345805_HEM_Ketoconazole.pdb_663.pdb o/345805_HEM_Ketoconazole.pdb_9738.pdb o/345805_HEM_Ketoconazole.pdb_6578.pdb o/345805_HEM_Ketoconazole.pdb_4358.pdb o/345805_HEM_Ketoconazole.pdb_1597.pdb o/345805_HEM_Ketoconazole.pdb_88.pdb o/345805_HEM_Ketoconazole.pdb_8669.pdb o/345805_HEM_Ketoconazole.pdb_2562.pdb o/345805_HEM_Ketoconazole.pdb_1581.pdb 
10 o/345805_HEM_Ketoconazole.pdb_5562.pdb o/345805_HEM_Ketoconazole.pdb_4300.pdb o/345805_HEM_Ketoconazole.pdb_3214.pdb o/345805_HEM_Ketoconazole.pdb_7468.pdb o/345805_HEM_Ketoconazole.pdb_3018.pdb o/345805_HEM_Ketoconazole.pdb_7606.pdb o/345805_HEM_Ketoconazole.pdb_6583.pdb o/345805_HEM_Ketoconazole.pdb_2164.pdb o/345805_HEM_Ketoconazole.pdb_4446.pdb o/345805_HEM_Ketoconazole.pdb_156.pdb 
14 o/345805_HEM_Ketoconazole.pdb_9870.pdb o/345805_HEM_Ketoconazole.pdb_2678.pdb o/345805_HEM_Ketoconazole.pdb_8160.pdb o/345805_HEM_Ketoconazole.pdb_5237.pdb o/345805_HEM_Ketoconazole.pdb_386.pdb o/345805_HEM_Ketoconazole.pdb_9266.pdb o/345805_HEM_Ketoconazole.pdb_3173.pdb o/345805_HEM_Ketoconazole.pdb_5035.pdb o/345805_HEM_Ketoconazole.pdb_4364.pdb o/345805_HEM_Ketoconazole.pdb_5421.pdb o/345805_HEM_Ketoconazole.pdb_4088.pdb o/345805_HEM_Ketoconazole.pdb_9134.pdb o/345805_HEM_Ketoconazole.pdb_6795.pdb o/345805_HEM_Ketoconazole.pdb_2325.pdb 
10 o/345805_HEM_Ketoconazole.pdb_3835.pdb o/345805_HEM_Ketoconazole.pdb_3813.pdb o/345805_HEM_Ketoconazole.pdb_2566.pdb o/345805_HEM_Ketoconazole.pdb_9048.pdb o/345805_HEM_Ketoconazole.pdb_569.pdb o/345805_HEM_Ketoconazole.pdb_2815.pdb o/345805_HEM_Ketoconazole.pdb_9820.pdb o/345805_HEM_Ketoconazole.pdb_8944.pdb o/345805_HEM_Ketoconazole.pdb_4111.pdb o/345805_HEM_Ketoconazole.pdb_1502.pdb 
15 o/345805_HEM_Ketoconazole.pdb_783.pdb o/345805_HEM_Ketoconazole.pdb_3549.pdb o/345805_HEM_Ketoconazole.pdb_8132.pdb o/345805_HEM_Ketoconazole.pdb_8123.pdb o/345805_HEM_Ketoconazole.pdb_3468.pdb o/345805_HEM_Ketoconazole.pdb_2707.pdb o/345805_HEM_Ketoconazole.pdb_699.pdb o/345805_HEM_Ketoconazole.pdb_7029.pdb o/345805_HEM_Ketoconazole.pdb_4308.pdb o/345805_HEM_Ketoconazole.pdb_5403.pdb o/345805_HEM_Ketoconazole.pdb_1838.pdb o/345805_HEM_Ketoconazole.pdb_9509.pdb o/345805_HEM_Ketoconazole.pdb_9278.pdb o/345805_HEM_Ketoconazole.pdb_7404.pdb o/345805_HEM_Ketoconazole.pdb_1480.pdb 
14 o/345805_HEM_Ketoconazole.pdb_805.pdb o/345805_HEM_Ketoconazole.pdb_8403.pdb o/345805_HEM_Ketoconazole.pdb_7876.pdb o/345805_HEM_Ketoconazole.pdb_5615.pdb o/345805_HEM_Ketoconazole.pdb_4108.pdb o/345805_HEM_Ketoconazole.pdb_8336.pdb o/345805_HEM_Ketoconazole.pdb_7852.pdb o/345805_HEM_Ketoconazole.pdb_5665.pdb o/345805_HEM_Ketoconazole.pdb_2162.pdb o/345805_HEM_Ketoconazole.pdb_3958.pdb o/345805_HEM_Ketoconazole.pdb_2163.pdb o/345805_HEM_Ketoconazole.pdb_575.pdb o/345805_HEM_Ketoconazole.pdb_5484.pdb o/345805_HEM_Ketoconazole.pdb_152.pdb 
10 o/345805_HEM_Ketoconazole.pdb_9929.pdb o/345805_HEM_Ketoconazole.pdb_8278.pdb o/345805_HEM_Ketoconazole.pdb_731.pdb o/345805_HEM_Ketoconazole.pdb_7023.pdb o/345805_HEM_Ketoconazole.pdb_6823.pdb o/345805_HEM_Ketoconazole.pdb_5036.pdb o/345805_HEM_Ketoconazole.pdb_9612.pdb o/345805_HEM_Ketoconazole.pdb_2526.pdb o/345805_HEM_Ketoconazole.pdb_5027.pdb o/345805_HEM_Ketoconazole.pdb_1435.pdb 
10 o/345805_HEM_Ketoconazole.pdb_8742.pdb o/345805_HEM_Ketoconazole.pdb_6689.pdb o/345805_HEM_Ketoconazole.pdb_5646.pdb o/345805_HEM_Ketoconazole.pdb_6567.pdb o/345805_HEM_Ketoconazole.pdb_9239.pdb o/345805_HEM_Ketoconazole.pdb_2618.pdb o/345805_HEM_Ketoconazole.pdb_8314.pdb o/345805_HEM_Ketoconazole.pdb_6869.pdb o/345805_HEM_Ketoconazole.pdb_9177.pdb o/345805_HEM_Ketoconazole.pdb_1840.pdb 
11 o/345805_HEM_Ketoconazole.pdb_667.pdb o/345805_HEM_Ketoconazole.pdb_6374.pdb o/345805_HEM_Ketoconazole.pdb_4397.pdb o/345805_HEM_Ketoconazole.pdb_8982.pdb o/345805_HEM_Ketoconazole.pdb_8250.pdb o/345805_HEM_Ketoconazole.pdb_3971.pdb o/345805_HEM_Ketoconazole.pdb_6531.pdb o/345805_HEM_Ketoconazole.pdb_6054.pdb o/345805_HEM_Ketoconazole.pdb_7099.pdb o/345805_HEM_Ketoconazole.pdb_7291.pdb o/345805_HEM_Ketoconazole.pdb_318.pdb 
10 o/345805_HEM_Ketoconazole.pdb_7092.pdb o/345805_HEM_Ketoconazole.pdb_5076.pdb o/345805_HEM_Ketoconazole.pdb_4654.pdb o/345805_HEM_Ketoconazole.pdb_9502.pdb o/345805_HEM_Ketoconazole.pdb_9074.pdb o/345805_HEM_Ketoconazole.pdb_2913.pdb o/345805_HEM_Ketoconazole.pdb_3373.pdb o/345805_HEM_Ketoconazole.pdb_5755.pdb o/345805_HEM_Ketoconazole.pdb_9305.pdb o/345805_HEM_Ketoconazole.pdb_2129.pdb 
18 o/345805_HEM_Ketoconazole.pdb_5960.pdb o/345805_HEM_Ketoconazole.pdb_4955.pdb o/345805_HEM_Ketoconazole.pdb_8888.pdb o/345805_HEM_Ketoconazole.pdb_5986.pdb o/345805_HEM_Ketoconazole.pdb_3331.pdb o/345805_HEM_Ketoconazole.pdb_6304.pdb o/345805_HEM_Ketoconazole.pdb_5360.pdb o/345805_HEM_Ketoconazole.pdb_5537.pdb o/345805_HEM_Ketoconazole.pdb_308.pdb o/345805_HEM_Ketoconazole.pdb_7096.pdb o/345805_HEM_Ketoconazole.pdb_7531.pdb o/345805_HEM_Ketoconazole.pdb_4059.pdb o/345805_HEM_Ketoconazole.pdb_2836.pdb o/345805_HEM_Ketoconazole.pdb_8614.pdb o/345805_HEM_Ketoconazole.pdb_5790.pdb o/345805_HEM_Ketoconazole.pdb_4736.pdb o/345805_HEM_Ketoconazole.pdb_3772.pdb o/345805_HEM_Ketoconazole.pdb_1962.pdb 
11 o/345805_HEM_Ketoconazole.pdb_9289.pdb o/345805_HEM_Ketoconazole.pdb_5321.pdb o/345805_HEM_Ketoconazole.pdb_8192.pdb o/345805_HEM_Ketoconazole.pdb_9662.pdb o/345805_HEM_Ketoconazole.pdb_6561.pdb o/345805_HEM_Ketoconazole.pdb_5303.pdb o/345805_HEM_Ketoconazole.pdb_5239.pdb o/345805_HEM_Ketoconazole.pdb_6485.pdb o/345805_HEM_Ketoconazole.pdb_9630.pdb o/345805_HEM_Ketoconazole.pdb_4948.pdb o/345805_HEM_Ketoconazole.pdb_4634.pdb 
10 o/345805_HEM_Ketoconazole.pdb_4417.pdb o/345805_HEM_Ketoconazole.pdb_7924.pdb o/345805_HEM_Ketoconazole.pdb_1746.pdb o/345805_HEM_Ketoconazole.pdb_7611.pdb o/345805_HEM_Ketoconazole.pdb_5019.pdb o/345805_HEM_Ketoconazole.pdb_4932.pdb o/345805_HEM_Ketoconazole.pdb_3459.pdb o/345805_HEM_Ketoconazole.pdb_3238.pdb o/345805_HEM_Ketoconazole.pdb_9504.pdb o/345805_HEM_Ketoconazole.pdb_1563.pdb 
10 o/345805_HEM_Ketoconazole.pdb_4138.pdb o/345805_HEM_Ketoconazole.pdb_560.pdb o/345805_HEM_Ketoconazole.pdb_3754.pdb o/345805_HEM_Ketoconazole.pdb_1596.pdb o/345805_HEM_Ketoconazole.pdb_7387.pdb o/345805_HEM_Ketoconazole.pdb_6312.pdb o/345805_HEM_Ketoconazole.pdb_333.pdb o/345805_HEM_Ketoconazole.pdb_3266.pdb o/345805_HEM_Ketoconazole.pdb_3116.pdb o/345805_HEM_Ketoconazole.pdb_1350.pdb 
10 o/345805_HEM_Ketoconazole.pdb_8581.pdb o/345805_HEM_Ketoconazole.pdb_8574.pdb o/345805_HEM_Ketoconazole.pdb_7922.pdb o/345805_HEM_Ketoconazole.pdb_7315.pdb o/345805_HEM_Ketoconazole.pdb_6935.pdb o/345805_HEM_Ketoconazole.pdb_6439.pdb o/345805_HEM_Ketoconazole.pdb_3103.pdb o/345805_HEM_Ketoconazole.pdb_7232.pdb o/345805_HEM_Ketoconazole.pdb_5002.pdb o/345805_HEM_Ketoconazole.pdb_1346.pdb 
12 o/345805_HEM_Ketoconazole.pdb_9182.pdb o/345805_HEM_Ketoconazole.pdb_839.pdb o/345805_HEM_Ketoconazole.pdb_4891.pdb o/345805_HEM_Ketoconazole.pdb_8128.pdb o/345805_HEM_Ketoconazole.pdb_5330.pdb o/345805_HEM_Ketoconazole.pdb_2279.pdb o/345805_HEM_Ketoconazole.pdb_9893.pdb o/345805_HEM_Ketoconazole.pdb_5700.pdb o/345805_HEM_Ketoconazole.pdb_4923.pdb o/345805_HEM_Ketoconazole.pdb_3968.pdb o/345805_HEM_Ketoconazole.pdb_2985.pdb o/345805_HEM_Ketoconazole.pdb_1788.pdb 
18 o/345805_HEM_Ketoconazole.pdb_7820.pdb o/345805_HEM_Ketoconazole.pdb_7079.pdb o/345805_HEM_Ketoconazole.pdb_8610.pdb o/345805_HEM_Ketoconazole.pdb_5171.pdb o/345805_HEM_Ketoconazole.pdb_5570.pdb o/345805_HEM_Ketoconazole.pdb_4791.pdb o/345805_HEM_Ketoconazole.pdb_7710.pdb o/345805_HEM_Ketoconazole.pdb_7326.pdb o/345805_HEM_Ketoconazole.pdb_8570.pdb o/345805_HEM_Ketoconazole.pdb_7057.pdb o/345805_HEM_Ketoconazole.pdb_7594.pdb o/345805_HEM_Ketoconazole.pdb_81.pdb o/345805_HEM_Ketoconazole.pdb_6136.pdb o/345805_HEM_Ketoconazole.pdb_4316.pdb o/345805_HEM_Ketoconazole.pdb_1991.pdb o/345805_HEM_Ketoconazole.pdb_1829.pdb o/345805_HEM_Ketoconazole.pdb_4201.pdb o/345805_HEM_Ketoconazole.pdb_1338.pdb 
11 o/345805_HEM_Ketoconazole.pdb_8345.pdb o/345805_HEM_Ketoconazole.pdb_7860.pdb o/345805_HEM_Ketoconazole.pdb_8992.pdb o/345805_HEM_Ketoconazole.pdb_4145.pdb o/345805_HEM_Ketoconazole.pdb_8511.pdb o/345805_HEM_Ketoconazole.pdb_6213.pdb o/345805_HEM_Ketoconazole.pdb_4079.pdb o/345805_HEM_Ketoconazole.pdb_8819.pdb o/345805_HEM_Ketoconazole.pdb_367.pdb o/345805_HEM_Ketoconazole.pdb_9491.pdb o/345805_HEM_Ketoconazole.pdb_2576.pdb 
14 o/345805_HEM_Ketoconazole.pdb_5259.pdb o/345805_HEM_Ketoconazole.pdb_8660.pdb o/345805_HEM_Ketoconazole.pdb_7751.pdb o/345805_HEM_Ketoconazole.pdb_5482.pdb o/345805_HEM_Ketoconazole.pdb_3804.pdb o/345805_HEM_Ketoconazole.pdb_3578.pdb o/345805_HEM_Ketoconazole.pdb_3425.pdb o/345805_HEM_Ketoconazole.pdb_4834.pdb o/345805_HEM_Ketoconazole.pdb_7674.pdb o/345805_HEM_Ketoconazole.pdb_9264.pdb o/345805_HEM_Ketoconazole.pdb_7217.pdb o/345805_HEM_Ketoconazole.pdb_5161.pdb o/345805_HEM_Ketoconazole.pdb_4451.pdb o/345805_HEM_Ketoconazole.pdb_1532.pdb 
11 o/345805_HEM_Ketoconazole.pdb_8161.pdb o/345805_HEM_Ketoconazole.pdb_6915.pdb o/345805_HEM_Ketoconazole.pdb_3093.pdb o/345805_HEM_Ketoconazole.pdb_1636.pdb o/345805_HEM_Ketoconazole.pdb_9391.pdb o/345805_HEM_Ketoconazole.pdb_6436.pdb o/345805_HEM_Ketoconazole.pdb_3381.pdb o/345805_HEM_Ketoconazole.pdb_1342.pdb o/345805_HEM_Ketoconazole.pdb_5608.pdb o/345805_HEM_Ketoconazole.pdb_5377.pdb o/345805_HEM_Ketoconazole.pdb_1316.pdb 
14 o/345805_HEM_Ketoconazole.pdb_9370.pdb o/345805_HEM_Ketoconazole.pdb_7649.pdb o/345805_HEM_Ketoconazole.pdb_7275.pdb o/345805_HEM_Ketoconazole.pdb_559.pdb o/345805_HEM_Ketoconazole.pdb_4646.pdb o/345805_HEM_Ketoconazole.pdb_7260.pdb o/345805_HEM_Ketoconazole.pdb_5957.pdb o/345805_HEM_Ketoconazole.pdb_4696.pdb o/345805_HEM_Ketoconazole.pdb_5761.pdb o/345805_HEM_Ketoconazole.pdb_2093.pdb o/345805_HEM_Ketoconazole.pdb_7552.pdb o/345805_HEM_Ketoconazole.pdb_1865.pdb o/345805_HEM_Ketoconazole.pdb_6127.pdb o/345805_HEM_Ketoconazole.pdb_1432.pdb 
10 o/345805_HEM_Ketoconazole.pdb_8780.pdb o/345805_HEM_Ketoconazole.pdb_7900.pdb o/345805_HEM_Ketoconazole.pdb_7473.pdb o/345805_HEM_Ketoconazole.pdb_4903.pdb o/345805_HEM_Ketoconazole.pdb_6107.pdb o/345805_HEM_Ketoconazole.pdb_9668.pdb o/345805_HEM_Ketoconazole.pdb_2136.pdb o/345805_HEM_Ketoconazole.pdb_5049.pdb o/345805_HEM_Ketoconazole.pdb_6299.pdb o/345805_HEM_Ketoconazole.pdb_1744.pdb 
14 o/345805_HEM_Ketoconazole.pdb_9332.pdb o/345805_HEM_Ketoconazole.pdb_4660.pdb o/345805_HEM_Ketoconazole.pdb_7761.pdb o/345805_HEM_Ketoconazole.pdb_3424.pdb o/345805_HEM_Ketoconazole.pdb_4255.pdb o/345805_HEM_Ketoconazole.pdb_2577.pdb o/345805_HEM_Ketoconazole.pdb_6668.pdb o/345805_HEM_Ketoconazole.pdb_2209.pdb o/345805_HEM_Ketoconazole.pdb_9972.pdb o/345805_HEM_Ketoconazole.pdb_3213.pdb o/345805_HEM_Ketoconazole.pdb_2344.pdb o/345805_HEM_Ketoconazole.pdb_7059.pdb o/345805_HEM_Ketoconazole.pdb_3486.pdb o/345805_HEM_Ketoconazole.pdb_207.pdb 
10 o/345805_HEM_Ketoconazole.pdb_8882.pdb o/345805_HEM_Ketoconazole.pdb_6909.pdb o/345805_HEM_Ketoconazole.pdb_5620.pdb o/345805_HEM_Ketoconazole.pdb_9969.pdb o/345805_HEM_Ketoconazole.pdb_8987.pdb o/345805_HEM_Ketoconazole.pdb_4099.pdb o/345805_HEM_Ketoconazole.pdb_3178.pdb o/345805_HEM_Ketoconazole.pdb_675.pdb o/345805_HEM_Ketoconazole.pdb_4359.pdb o/345805_HEM_Ketoconazole.pdb_1653.pdb 
13 o/345805_HEM_Ketoconazole.pdb_2542.pdb o/345805_HEM_Ketoconazole.pdb_923.pdb o/345805_HEM_Ketoconazole.pdb_5021.pdb o/345805_HEM_Ketoconazole.pdb_9120.pdb o/345805_HEM_Ketoconazole.pdb_3886.pdb o/345805_HEM_Ketoconazole.pdb_3899.pdb o/345805_HEM_Ketoconazole.pdb_1732.pdb o/345805_HEM_Ketoconazole.pdb_8969.pdb o/345805_HEM_Ketoconazole.pdb_7002.pdb o/345805_HEM_Ketoconazole.pdb_3611.pdb o/345805_HEM_Ketoconazole.pdb_533.pdb o/345805_HEM_Ketoconazole.pdb_2696.pdb o/345805_HEM_Ketoconazole.pdb_1616.pdb 
13 o/345805_HEM_Ketoconazole.pdb_7022.pdb o/345805_HEM_Ketoconazole.pdb_5848.pdb o/345805_HEM_Ketoconazole.pdb_5172.pdb o/345805_HEM_Ketoconazole.pdb_2297.pdb o/345805_HEM_Ketoconazole.pdb_8081.pdb o/345805_HEM_Ketoconazole.pdb_3044.pdb o/345805_HEM_Ketoconazole.pdb_2607.pdb o/345805_HEM_Ketoconazole.pdb_2417.pdb o/345805_HEM_Ketoconazole.pdb_9489.pdb o/345805_HEM_Ketoconazole.pdb_7458.pdb o/345805_HEM_Ketoconazole.pdb_6642.pdb o/345805_HEM_Ketoconazole.pdb_4460.pdb o/345805_HEM_Ketoconazole.pdb_1284.pdb 
18 o/345805_HEM_Ketoconazole.pdb_7942.pdb o/345805_HEM_Ketoconazole.pdb_258.pdb o/345805_HEM_Ketoconazole.pdb_7514.pdb o/345805_HEM_Ketoconazole.pdb_5431.pdb o/345805_HEM_Ketoconazole.pdb_3750.pdb o/345805_HEM_Ketoconazole.pdb_2706.pdb o/345805_HEM_Ketoconazole.pdb_1460.pdb o/345805_HEM_Ketoconazole.pdb_6794.pdb o/345805_HEM_Ketoconazole.pdb_616.pdb o/345805_HEM_Ketoconazole.pdb_4872.pdb o/345805_HEM_Ketoconazole.pdb_5335.pdb o/345805_HEM_Ketoconazole.pdb_6469.pdb o/345805_HEM_Ketoconazole.pdb_2771.pdb o/345805_HEM_Ketoconazole.pdb_7944.pdb o/345805_HEM_Ketoconazole.pdb_5091.pdb o/345805_HEM_Ketoconazole.pdb_3584.pdb o/345805_HEM_Ketoconazole.pdb_7515.pdb o/345805_HEM_Ketoconazole.pdb_1270.pdb 
11 o/345805_HEM_Ketoconazole.pdb_8066.pdb o/345805_HEM_Ketoconazole.pdb_315.pdb o/345805_HEM_Ketoconazole.pdb_8589.pdb o/345805_HEM_Ketoconazole.pdb_3423.pdb o/345805_HEM_Ketoconazole.pdb_7230.pdb o/345805_HEM_Ketoconazole.pdb_2703.pdb o/345805_HEM_Ketoconazole.pdb_9181.pdb o/345805_HEM_Ketoconazole.pdb_4966.pdb o/345805_HEM_Ketoconazole.pdb_9610.pdb o/345805_HEM_Ketoconazole.pdb_1856.pdb o/345805_HEM_Ketoconazole.pdb_1579.pdb 
14 o/345805_HEM_Ketoconazole.pdb_4115.pdb o/345805_HEM_Ketoconazole.pdb_3891.pdb o/345805_HEM_Ketoconazole.pdb_2506.pdb o/345805_HEM_Ketoconazole.pdb_801.pdb o/345805_HEM_Ketoconazole.pdb_5728.pdb o/345805_HEM_Ketoconazole.pdb_4243.pdb o/345805_HEM_Ketoconazole.pdb_7226.pdb o/345805_HEM_Ketoconazole.pdb_9479.pdb o/345805_HEM_Ketoconazole.pdb_4812.pdb o/345805_HEM_Ketoconazole.pdb_2738.pdb o/345805_HEM_Ketoconazole.pdb_5390.pdb o/345805_HEM_Ketoconazole.pdb_3623.pdb o/345805_HEM_Ketoconazole.pdb_2671.pdb o/345805_HEM_Ketoconazole.pdb_2307.pdb 
11 o/345805_HEM_Ketoconazole.pdb_6853.pdb o/345805_HEM_Ketoconazole.pdb_9087.pdb o/345805_HEM_Ketoconazole.pdb_8242.pdb o/345805_HEM_Ketoconazole.pdb_5775.pdb o/345805_HEM_Ketoconazole.pdb_8340.pdb o/345805_HEM_Ketoconazole.pdb_4806.pdb o/345805_HEM_Ketoconazole.pdb_338.pdb o/345805_HEM_Ketoconazole.pdb_2263.pdb o/345805_HEM_Ketoconazole.pdb_9981.pdb o/345805_HEM_Ketoconazole.pdb_586.pdb o/345805_HEM_Ketoconazole.pdb_1507.pdb 
17 o/345805_HEM_Ketoconazole.pdb_9736.pdb o/345805_HEM_Ketoconazole.pdb_7236.pdb o/345805_HEM_Ketoconazole.pdb_4159.pdb o/345805_HEM_Ketoconazole.pdb_8458.pdb o/345805_HEM_Ketoconazole.pdb_3892.pdb o/345805_HEM_Ketoconazole.pdb_4275.pdb o/345805_HEM_Ketoconazole.pdb_2425.pdb o/345805_HEM_Ketoconazole.pdb_9728.pdb o/345805_HEM_Ketoconazole.pdb_9073.pdb o/345805_HEM_Ketoconazole.pdb_7124.pdb o/345805_HEM_Ketoconazole.pdb_4368.pdb o/345805_HEM_Ketoconazole.pdb_3617.pdb o/345805_HEM_Ketoconazole.pdb_8496.pdb o/345805_HEM_Ketoconazole.pdb_2056.pdb o/345805_HEM_Ketoconazole.pdb_2957.pdb o/345805_HEM_Ketoconazole.pdb_7181.pdb o/345805_HEM_Ketoconazole.pdb_2042.pdb 
11 o/345805_HEM_Ketoconazole.pdb_9793.pdb o/345805_HEM_Ketoconazole.pdb_7276.pdb o/345805_HEM_Ketoconazole.pdb_9208.pdb o/345805_HEM_Ketoconazole.pdb_5770.pdb o/345805_HEM_Ketoconazole.pdb_3409.pdb o/345805_HEM_Ketoconazole.pdb_2716.pdb o/345805_HEM_Ketoconazole.pdb_9848.pdb o/345805_HEM_Ketoconazole.pdb_4126.pdb o/345805_HEM_Ketoconazole.pdb_9498.pdb o/345805_HEM_Ketoconazole.pdb_2982.pdb o/345805_HEM_Ketoconazole.pdb_2074.pdb 
15 o/345805_HEM_Ketoconazole.pdb_643.pdb o/345805_HEM_Ketoconazole.pdb_5301.pdb o/345805_HEM_Ketoconazole.pdb_7056.pdb o/345805_HEM_Ketoconazole.pdb_6757.pdb o/345805_HEM_Ketoconazole.pdb_8335.pdb o/345805_HEM_Ketoconazole.pdb_8144.pdb o/345805_HEM_Ketoconazole.pdb_3420.pdb o/345805_HEM_Ketoconazole.pdb_6044.pdb o/345805_HEM_Ketoconazole.pdb_6026.pdb o/345805_HEM_Ketoconazole.pdb_9584.pdb o/345805_HEM_Ketoconazole.pdb_917.pdb o/345805_HEM_Ketoconazole.pdb_1583.pdb o/345805_HEM_Ketoconazole.pdb_8454.pdb o/345805_HEM_Ketoconazole.pdb_2035.pdb o/345805_HEM_Ketoconazole.pdb_1379.pdb 
18 o/345805_HEM_Ketoconazole.pdb_3542.pdb o/345805_HEM_Ketoconazole.pdb_7031.pdb o/345805_HEM_Ketoconazole.pdb_5273.pdb o/345805_HEM_Ketoconazole.pdb_7583.pdb o/345805_HEM_Ketoconazole.pdb_3996.pdb o/345805_HEM_Ketoconazole.pdb_8309.pdb o/345805_HEM_Ketoconazole.pdb_869.pdb o/345805_HEM_Ketoconazole.pdb_6867.pdb o/345805_HEM_Ketoconazole.pdb_3470.pdb o/345805_HEM_Ketoconazole.pdb_5975.pdb o/345805_HEM_Ketoconazole.pdb_1873.pdb o/345805_HEM_Ketoconazole.pdb_8625.pdb o/345805_HEM_Ketoconazole.pdb_8489.pdb o/345805_HEM_Ketoconazole.pdb_6325.pdb o/345805_HEM_Ketoconazole.pdb_7931.pdb o/345805_HEM_Ketoconazole.pdb_5037.pdb o/345805_HEM_Ketoconazole.pdb_442.pdb o/345805_HEM_Ketoconazole.pdb_1434.pdb 
15 o/345805_HEM_Ketoconazole.pdb_7534.pdb o/345805_HEM_Ketoconazole.pdb_7792.pdb o/345805_HEM_Ketoconazole.pdb_6360.pdb o/345805_HEM_Ketoconazole.pdb_3451.pdb o/345805_HEM_Ketoconazole.pdb_2448.pdb o/345805_HEM_Ketoconazole.pdb_5048.pdb o/345805_HEM_Ketoconazole.pdb_7390.pdb o/345805_HEM_Ketoconazole.pdb_4157.pdb o/345805_HEM_Ketoconazole.pdb_1818.pdb o/345805_HEM_Ketoconazole.pdb_7576.pdb o/345805_HEM_Ketoconazole.pdb_1484.pdb o/345805_HEM_Ketoconazole.pdb_3244.pdb o/345805_HEM_Ketoconazole.pdb_1543.pdb o/345805_HEM_Ketoconazole.pdb_6071.pdb o/345805_HEM_Ketoconazole.pdb_1227.pdb 
12 o/345805_HEM_Ketoconazole.pdb_9993.pdb o/345805_HEM_Ketoconazole.pdb_7951.pdb o/345805_HEM_Ketoconazole.pdb_6645.pdb o/345805_HEM_Ketoconazole.pdb_7316.pdb o/345805_HEM_Ketoconazole.pdb_5095.pdb o/345805_HEM_Ketoconazole.pdb_4688.pdb o/345805_HEM_Ketoconazole.pdb_5424.pdb o/345805_HEM_Ketoconazole.pdb_1601.pdb o/345805_HEM_Ketoconazole.pdb_7269.pdb o/345805_HEM_Ketoconazole.pdb_9148.pdb o/345805_HEM_Ketoconazole.pdb_730.pdb o/345805_HEM_Ketoconazole.pdb_1226.pdb 
10 o/345805_HEM_Ketoconazole.pdb_4572.pdb o/345805_HEM_Ketoconazole.pdb_6119.pdb o/345805_HEM_Ketoconazole.pdb_1628.pdb o/345805_HEM_Ketoconazole.pdb_7109.pdb o/345805_HEM_Ketoconazole.pdb_8596.pdb o/345805_HEM_Ketoconazole.pdb_3223.pdb o/345805_HEM_Ketoconazole.pdb_8194.pdb o/345805_HEM_Ketoconazole.pdb_1503.pdb o/345805_HEM_Ketoconazole.pdb_9960.pdb o/345805_HEM_Ketoconazole.pdb_1211.pdb 
13 o/345805_HEM_Ketoconazole.pdb_9497.pdb o/345805_HEM_Ketoconazole.pdb_9128.pdb o/345805_HEM_Ketoconazole.pdb_8675.pdb o/345805_HEM_Ketoconazole.pdb_6751.pdb o/345805_HEM_Ketoconazole.pdb_5816.pdb o/345805_HEM_Ketoconazole.pdb_6165.pdb o/345805_HEM_Ketoconazole.pdb_6474.pdb o/345805_HEM_Ketoconazole.pdb_3057.pdb o/345805_HEM_Ketoconazole.pdb_7712.pdb o/345805_HEM_Ketoconazole.pdb_9408.pdb o/345805_HEM_Ketoconazole.pdb_4156.pdb o/345805_HEM_Ketoconazole.pdb_9681.pdb o/345805_HEM_Ketoconazole.pdb_2661.pdb 
15 o/345805_HEM_Ketoconazole.pdb_6724.pdb o/345805_HEM_Ketoconazole.pdb_6814.pdb o/345805_HEM_Ketoconazole.pdb_9700.pdb o/345805_HEM_Ketoconazole.pdb_3716.pdb o/345805_HEM_Ketoconazole.pdb_9624.pdb o/345805_HEM_Ketoconazole.pdb_9462.pdb o/345805_HEM_Ketoconazole.pdb_2796.pdb o/345805_HEM_Ketoconazole.pdb_6152.pdb o/345805_HEM_Ketoconazole.pdb_4128.pdb o/345805_HEM_Ketoconazole.pdb_2788.pdb o/345805_HEM_Ketoconazole.pdb_5894.pdb o/345805_HEM_Ketoconazole.pdb_4437.pdb o/345805_HEM_Ketoconazole.pdb_1617.pdb o/345805_HEM_Ketoconazole.pdb_5517.pdb o/345805_HEM_Ketoconazole.pdb_1209.pdb 
12 o/345805_HEM_Ketoconazole.pdb_8351.pdb o/345805_HEM_Ketoconazole.pdb_7818.pdb o/345805_HEM_Ketoconazole.pdb_6378.pdb o/345805_HEM_Ketoconazole.pdb_6702.pdb o/345805_HEM_Ketoconazole.pdb_8493.pdb o/345805_HEM_Ketoconazole.pdb_3550.pdb o/345805_HEM_Ketoconazole.pdb_3684.pdb o/345805_HEM_Ketoconazole.pdb_3293.pdb o/345805_HEM_Ketoconazole.pdb_5623.pdb o/345805_HEM_Ketoconazole.pdb_1834.pdb o/345805_HEM_Ketoconazole.pdb_9027.pdb o/345805_HEM_Ketoconazole.pdb_1194.pdb 
11 o/345805_HEM_Ketoconazole.pdb_5900.pdb o/345805_HEM_Ketoconazole.pdb_6494.pdb o/345805_HEM_Ketoconazole.pdb_4075.pdb o/345805_HEM_Ketoconazole.pdb_8864.pdb o/345805_HEM_Ketoconazole.pdb_314.pdb o/345805_HEM_Ketoconazole.pdb_1345.pdb o/345805_HEM_Ketoconazole.pdb_8935.pdb o/345805_HEM_Ketoconazole.pdb_7134.pdb o/345805_HEM_Ketoconazole.pdb_5815.pdb o/345805_HEM_Ketoconazole.pdb_7916.pdb o/345805_HEM_Ketoconazole.pdb_1192.pdb 
11 o/345805_HEM_Ketoconazole.pdb_2742.pdb o/345805_HEM_Ketoconazole.pdb_8374.pdb o/345805_HEM_Ketoconazole.pdb_4477.pdb o/345805_HEM_Ketoconazole.pdb_4418.pdb o/345805_HEM_Ketoconazole.pdb_1778.pdb o/345805_HEM_Ketoconazole.pdb_2282.pdb o/345805_HEM_Ketoconazole.pdb_215.pdb o/345805_HEM_Ketoconazole.pdb_8384.pdb o/345805_HEM_Ketoconazole.pdb_438.pdb o/345805_HEM_Ketoconazole.pdb_2528.pdb o/345805_HEM_Ketoconazole.pdb_1446.pdb 
16 o/345805_HEM_Ketoconazole.pdb_7575.pdb o/345805_HEM_Ketoconazole.pdb_4680.pdb o/345805_HEM_Ketoconazole.pdb_8812.pdb o/345805_HEM_Ketoconazole.pdb_5600.pdb o/345805_HEM_Ketoconazole.pdb_4294.pdb o/345805_HEM_Ketoconazole.pdb_1980.pdb o/345805_HEM_Ketoconazole.pdb_9992.pdb o/345805_HEM_Ketoconazole.pdb_7097.pdb o/345805_HEM_Ketoconazole.pdb_4056.pdb o/345805_HEM_Ketoconazole.pdb_2943.pdb o/345805_HEM_Ketoconazole.pdb_8003.pdb o/345805_HEM_Ketoconazole.pdb_1831.pdb o/345805_HEM_Ketoconazole.pdb_3172.pdb o/345805_HEM_Ketoconazole.pdb_4917.pdb o/345805_HEM_Ketoconazole.pdb_4509.pdb o/345805_HEM_Ketoconazole.pdb_1187.pdb 
12 o/345805_HEM_Ketoconazole.pdb_68.pdb o/345805_HEM_Ketoconazole.pdb_4365.pdb o/345805_HEM_Ketoconazole.pdb_1965.pdb o/345805_HEM_Ketoconazole.pdb_9036.pdb o/345805_HEM_Ketoconazole.pdb_6278.pdb o/345805_HEM_Ketoconazole.pdb_8393.pdb o/345805_HEM_Ketoconazole.pdb_4881.pdb o/345805_HEM_Ketoconazole.pdb_9563.pdb o/345805_HEM_Ketoconazole.pdb_4758.pdb o/345805_HEM_Ketoconazole.pdb_8898.pdb o/345805_HEM_Ketoconazole.pdb_5385.pdb o/345805_HEM_Ketoconazole.pdb_1898.pdb 
10 o/345805_HEM_Ketoconazole.pdb_7626.pdb o/345805_HEM_Ketoconazole.pdb_7030.pdb o/345805_HEM_Ketoconazole.pdb_7691.pdb o/345805_HEM_Ketoconazole.pdb_9791.pdb o/345805_HEM_Ketoconazole.pdb_324.pdb o/345805_HEM_Ketoconazole.pdb_3965.pdb o/345805_HEM_Ketoconazole.pdb_8298.pdb o/345805_HEM_Ketoconazole.pdb_9047.pdb o/345805_HEM_Ketoconazole.pdb_7766.pdb o/345805_HEM_Ketoconazole.pdb_2283.pdb 
10 o/345805_HEM_Ketoconazole.pdb_8011.pdb o/345805_HEM_Ketoconazole.pdb_761.pdb o/345805_HEM_Ketoconazole.pdb_4827.pdb o/345805_HEM_Ketoconazole.pdb_4325.pdb o/345805_HEM_Ketoconazole.pdb_9100.pdb o/345805_HEM_Ketoconazole.pdb_5633.pdb o/345805_HEM_Ketoconazole.pdb_5917.pdb o/345805_HEM_Ketoconazole.pdb_9868.pdb o/345805_HEM_Ketoconazole.pdb_3710.pdb o/345805_HEM_Ketoconazole.pdb_3631.pdb 
16 o/345805_HEM_Ketoconazole.pdb_9375.pdb o/345805_HEM_Ketoconazole.pdb_5361.pdb o/345805_HEM_Ketoconazole.pdb_4747.pdb o/345805_HEM_Ketoconazole.pdb_9345.pdb o/345805_HEM_Ketoconazole.pdb_6574.pdb o/345805_HEM_Ketoconazole.pdb_6307.pdb o/345805_HEM_Ketoconazole.pdb_9672.pdb o/345805_HEM_Ketoconazole.pdb_5180.pdb o/345805_HEM_Ketoconazole.pdb_2993.pdb o/345805_HEM_Ketoconazole.pdb_936.pdb o/345805_HEM_Ketoconazole.pdb_5771.pdb o/345805_HEM_Ketoconazole.pdb_6601.pdb o/345805_HEM_Ketoconazole.pdb_2360.pdb o/345805_HEM_Ketoconazole.pdb_483.pdb o/345805_HEM_Ketoconazole.pdb_9123.pdb o/345805_HEM_Ketoconazole.pdb_1175.pdb 
13 o/345805_HEM_Ketoconazole.pdb_2887.pdb o/345805_HEM_Ketoconazole.pdb_751.pdb o/345805_HEM_Ketoconazole.pdb_4909.pdb o/345805_HEM_Ketoconazole.pdb_3979.pdb o/345805_HEM_Ketoconazole.pdb_7060.pdb o/345805_HEM_Ketoconazole.pdb_496.pdb o/345805_HEM_Ketoconazole.pdb_7632.pdb o/345805_HEM_Ketoconazole.pdb_7375.pdb o/345805_HEM_Ketoconazole.pdb_8802.pdb o/345805_HEM_Ketoconazole.pdb_5610.pdb o/345805_HEM_Ketoconazole.pdb_5411.pdb o/345805_HEM_Ketoconazole.pdb_4164.pdb o/345805_HEM_Ketoconazole.pdb_1167.pdb 
17 o/345805_HEM_Ketoconazole.pdb_8528.pdb o/345805_HEM_Ketoconazole.pdb_6828.pdb o/345805_HEM_Ketoconazole.pdb_3738.pdb o/345805_HEM_Ketoconazole.pdb_5362.pdb o/345805_HEM_Ketoconazole.pdb_7959.pdb o/345805_HEM_Ketoconazole.pdb_2496.pdb o/345805_HEM_Ketoconazole.pdb_9770.pdb o/345805_HEM_Ketoconazole.pdb_9961.pdb o/345805_HEM_Ketoconazole.pdb_242.pdb o/345805_HEM_Ketoconazole.pdb_4671.pdb o/345805_HEM_Ketoconazole.pdb_2039.pdb o/345805_HEM_Ketoconazole.pdb_166.pdb o/345805_HEM_Ketoconazole.pdb_3129.pdb o/345805_HEM_Ketoconazole.pdb_8855.pdb o/345805_HEM_Ketoconazole.pdb_5400.pdb o/345805_HEM_Ketoconazole.pdb_8015.pdb o/345805_HEM_Ketoconazole.pdb_1394.pdb 
12 o/345805_HEM_Ketoconazole.pdb_8334.pdb o/345805_HEM_Ketoconazole.pdb_799.pdb o/345805_HEM_Ketoconazole.pdb_8739.pdb o/345805_HEM_Ketoconazole.pdb_4089.pdb o/345805_HEM_Ketoconazole.pdb_2789.pdb o/345805_HEM_Ketoconazole.pdb_9151.pdb o/345805_HEM_Ketoconazole.pdb_8404.pdb o/345805_HEM_Ketoconazole.pdb_4724.pdb o/345805_HEM_Ketoconazole.pdb_3998.pdb o/345805_HEM_Ketoconazole.pdb_6784.pdb o/345805_HEM_Ketoconazole.pdb_3558.pdb o/345805_HEM_Ketoconazole.pdb_1430.pdb 
10 o/345805_HEM_Ketoconazole.pdb_9945.pdb o/345805_HEM_Ketoconazole.pdb_8848.pdb o/345805_HEM_Ketoconazole.pdb_7638.pdb o/345805_HEM_Ketoconazole.pdb_7529.pdb o/345805_HEM_Ketoconazole.pdb_9108.pdb o/345805_HEM_Ketoconazole.pdb_8193.pdb o/345805_HEM_Ketoconazole.pdb_7465.pdb o/345805_HEM_Ketoconazole.pdb_6715.pdb o/345805_HEM_Ketoconazole.pdb_6400.pdb o/345805_HEM_Ketoconazole.pdb_1456.pdb 
12 o/345805_HEM_Ketoconazole.pdb_713.pdb o/345805_HEM_Ketoconazole.pdb_9035.pdb o/345805_HEM_Ketoconazole.pdb_8658.pdb o/345805_HEM_Ketoconazole.pdb_6879.pdb o/345805_HEM_Ketoconazole.pdb_5150.pdb o/345805_HEM_Ketoconazole.pdb_3551.pdb o/345805_HEM_Ketoconazole.pdb_7887.pdb o/345805_HEM_Ketoconazole.pdb_5650.pdb o/345805_HEM_Ketoconazole.pdb_7750.pdb o/345805_HEM_Ketoconazole.pdb_89.pdb o/345805_HEM_Ketoconazole.pdb_4398.pdb o/345805_HEM_Ketoconazole.pdb_2510.pdb 
14 o/345805_HEM_Ketoconazole.pdb_8974.pdb o/345805_HEM_Ketoconazole.pdb_6691.pdb o/345805_HEM_Ketoconazole.pdb_5744.pdb o/345805_HEM_Ketoconazole.pdb_6680.pdb o/345805_HEM_Ketoconazole.pdb_7241.pdb o/345805_HEM_Ketoconazole.pdb_4196.pdb o/345805_HEM_Ketoconazole.pdb_2406.pdb o/345805_HEM_Ketoconazole.pdb_8002.pdb o/345805_HEM_Ketoconazole.pdb_9989.pdb o/345805_HEM_Ketoconazole.pdb_6425.pdb o/345805_HEM_Ketoconazole.pdb_5365.pdb o/345805_HEM_Ketoconazole.pdb_2337.pdb o/345805_HEM_Ketoconazole.pdb_7618.pdb o/345805_HEM_Ketoconazole.pdb_1339.pdb 
22 o/345805_HEM_Ketoconazole.pdb_7235.pdb o/345805_HEM_Ketoconazole.pdb_6943.pdb o/345805_HEM_Ketoconazole.pdb_1500.pdb o/345805_HEM_Ketoconazole.pdb_8424.pdb o/345805_HEM_Ketoconazole.pdb_709.pdb o/345805_HEM_Ketoconazole.pdb_1992.pdb o/345805_HEM_Ketoconazole.pdb_4378.pdb o/345805_HEM_Ketoconazole.pdb_3191.pdb o/345805_HEM_Ketoconazole.pdb_7252.pdb o/345805_HEM_Ketoconazole.pdb_2021.pdb o/345805_HEM_Ketoconazole.pdb_9077.pdb o/345805_HEM_Ketoconazole.pdb_1695.pdb o/345805_HEM_Ketoconazole.pdb_3993.pdb o/345805_HEM_Ketoconazole.pdb_1635.pdb o/345805_HEM_Ketoconazole.pdb_4816.pdb o/345805_HEM_Ketoconazole.pdb_1368.pdb o/345805_HEM_Ketoconazole.pdb_955.pdb o/345805_HEM_Ketoconazole.pdb_4550.pdb o/345805_HEM_Ketoconazole.pdb_1981.pdb o/345805_HEM_Ketoconazole.pdb_9709.pdb o/345805_HEM_Ketoconazole.pdb_9442.pdb o/345805_HEM_Ketoconazole.pdb_1326.pdb 
21 o/345805_HEM_Ketoconazole.pdb_5127.pdb o/345805_HEM_Ketoconazole.pdb_5354.pdb o/345805_HEM_Ketoconazole.pdb_5534.pdb o/345805_HEM_Ketoconazole.pdb_3997.pdb o/345805_HEM_Ketoconazole.pdb_968.pdb o/345805_HEM_Ketoconazole.pdb_3487.pdb o/345805_HEM_Ketoconazole.pdb_5597.pdb o/345805_HEM_Ketoconazole.pdb_5921.pdb o/345805_HEM_Ketoconazole.pdb_2854.pdb o/345805_HEM_Ketoconazole.pdb_5374.pdb o/345805_HEM_Ketoconazole.pdb_8329.pdb o/345805_HEM_Ketoconazole.pdb_5800.pdb o/345805_HEM_Ketoconazole.pdb_2436.pdb o/345805_HEM_Ketoconazole.pdb_5757.pdb o/345805_HEM_Ketoconazole.pdb_1825.pdb o/345805_HEM_Ketoconazole.pdb_9186.pdb o/345805_HEM_Ketoconazole.pdb_8862.pdb o/345805_HEM_Ketoconazole.pdb_8659.pdb o/345805_HEM_Ketoconazole.pdb_7010.pdb o/345805_HEM_Ketoconazole.pdb_7601.pdb o/345805_HEM_Ketoconazole.pdb_1217.pdb 
13 o/345805_HEM_Ketoconazole.pdb_3820.pdb o/345805_HEM_Ketoconazole.pdb_2409.pdb o/345805_HEM_Ketoconazole.pdb_5598.pdb o/345805_HEM_Ketoconazole.pdb_8654.pdb o/345805_HEM_Ketoconazole.pdb_4718.pdb o/345805_HEM_Ketoconazole.pdb_748.pdb o/345805_HEM_Ketoconazole.pdb_2382.pdb o/345805_HEM_Ketoconazole.pdb_6811.pdb o/345805_HEM_Ketoconazole.pdb_7954.pdb o/345805_HEM_Ketoconazole.pdb_1558.pdb o/345805_HEM_Ketoconazole.pdb_8687.pdb o/345805_HEM_Ketoconazole.pdb_1555.pdb o/345805_HEM_Ketoconazole.pdb_1159.pdb 
11 o/345805_HEM_Ketoconazole.pdb_2126.pdb o/345805_HEM_Ketoconazole.pdb_464.pdb o/345805_HEM_Ketoconazole.pdb_9763.pdb o/345805_HEM_Ketoconazole.pdb_4534.pdb o/345805_HEM_Ketoconazole.pdb_8717.pdb o/345805_HEM_Ketoconazole.pdb_8364.pdb o/345805_HEM_Ketoconazole.pdb_4160.pdb o/345805_HEM_Ketoconazole.pdb_2455.pdb o/345805_HEM_Ketoconazole.pdb_2167.pdb o/345805_HEM_Ketoconazole.pdb_3599.pdb o/345805_HEM_Ketoconazole.pdb_1794.pdb 
10 o/345805_HEM_Ketoconazole.pdb_9026.pdb o/345805_HEM_Ketoconazole.pdb_6015.pdb o/345805_HEM_Ketoconazole.pdb_5363.pdb o/345805_HEM_Ketoconazole.pdb_8366.pdb o/345805_HEM_Ketoconazole.pdb_4318.pdb o/345805_HEM_Ketoconazole.pdb_7910.pdb o/345805_HEM_Ketoconazole.pdb_2250.pdb o/345805_HEM_Ketoconazole.pdb_9.pdb o/345805_HEM_Ketoconazole.pdb_6468.pdb o/345805_HEM_Ketoconazole.pdb_1147.pdb 
16 o/345805_HEM_Ketoconazole.pdb_9158.pdb o/345805_HEM_Ketoconazole.pdb_8209.pdb o/345805_HEM_Ketoconazole.pdb_6103.pdb o/345805_HEM_Ketoconazole.pdb_9274.pdb o/345805_HEM_Ketoconazole.pdb_3753.pdb o/345805_HEM_Ketoconazole.pdb_911.pdb o/345805_HEM_Ketoconazole.pdb_6462.pdb o/345805_HEM_Ketoconazole.pdb_2669.pdb o/345805_HEM_Ketoconazole.pdb_7290.pdb o/345805_HEM_Ketoconazole.pdb_650.pdb o/345805_HEM_Ketoconazole.pdb_7433.pdb o/345805_HEM_Ketoconazole.pdb_4310.pdb o/345805_HEM_Ketoconazole.pdb_2917.pdb o/345805_HEM_Ketoconazole.pdb_6940.pdb o/345805_HEM_Ketoconazole.pdb_4991.pdb o/345805_HEM_Ketoconazole.pdb_190.pdb 
11 o/345805_HEM_Ketoconazole.pdb_4123.pdb o/345805_HEM_Ketoconazole.pdb_3264.pdb o/345805_HEM_Ketoconazole.pdb_1550.pdb o/345805_HEM_Ketoconazole.pdb_4969.pdb o/345805_HEM_Ketoconazole.pdb_9901.pdb o/345805_HEM_Ketoconazole.pdb_7502.pdb o/345805_HEM_Ketoconazole.pdb_4871.pdb o/345805_HEM_Ketoconazole.pdb_686.pdb o/345805_HEM_Ketoconazole.pdb_2359.pdb o/345805_HEM_Ketoconazole.pdb_4973.pdb o/345805_HEM_Ketoconazole.pdb_1130.pdb 
11 o/345805_HEM_Ketoconazole.pdb_7917.pdb o/345805_HEM_Ketoconazole.pdb_7896.pdb o/345805_HEM_Ketoconazole.pdb_4875.pdb o/345805_HEM_Ketoconazole.pdb_4748.pdb o/345805_HEM_Ketoconazole.pdb_9220.pdb o/345805_HEM_Ketoconazole.pdb_4535.pdb o/345805_HEM_Ketoconazole.pdb_9325.pdb o/345805_HEM_Ketoconazole.pdb_6302.pdb o/345805_HEM_Ketoconazole.pdb_4685.pdb o/345805_HEM_Ketoconazole.pdb_5642.pdb o/345805_HEM_Ketoconazole.pdb_2692.pdb 
17 o/345805_HEM_Ketoconazole.pdb_5157.pdb o/345805_HEM_Ketoconazole.pdb_9837.pdb o/345805_HEM_Ketoconazole.pdb_4441.pdb o/345805_HEM_Ketoconazole.pdb_3042.pdb o/345805_HEM_Ketoconazole.pdb_6971.pdb o/345805_HEM_Ketoconazole.pdb_497.pdb o/345805_HEM_Ketoconazole.pdb_2725.pdb o/345805_HEM_Ketoconazole.pdb_9772.pdb o/345805_HEM_Ketoconazole.pdb_5822.pdb o/345805_HEM_Ketoconazole.pdb_3073.pdb o/345805_HEM_Ketoconazole.pdb_6801.pdb o/345805_HEM_Ketoconazole.pdb_9395.pdb o/345805_HEM_Ketoconazole.pdb_4616.pdb o/345805_HEM_Ketoconazole.pdb_539.pdb o/345805_HEM_Ketoconazole.pdb_2860.pdb o/345805_HEM_Ketoconazole.pdb_8813.pdb o/345805_HEM_Ketoconazole.pdb_202.pdb 
10 o/345805_HEM_Ketoconazole.pdb_7174.pdb o/345805_HEM_Ketoconazole.pdb_4265.pdb o/345805_HEM_Ketoconazole.pdb_2987.pdb o/345805_HEM_Ketoconazole.pdb_7553.pdb o/345805_HEM_Ketoconazole.pdb_5219.pdb o/345805_HEM_Ketoconazole.pdb_1513.pdb o/345805_HEM_Ketoconazole.pdb_6959.pdb o/345805_HEM_Ketoconazole.pdb_6029.pdb o/345805_HEM_Ketoconazole.pdb_7639.pdb o/345805_HEM_Ketoconazole.pdb_1111.pdb 
11 o/345805_HEM_Ketoconazole.pdb_7488.pdb o/345805_HEM_Ketoconazole.pdb_4716.pdb o/345805_HEM_Ketoconazole.pdb_7148.pdb o/345805_HEM_Ketoconazole.pdb_8429.pdb o/345805_HEM_Ketoconazole.pdb_3633.pdb o/345805_HEM_Ketoconazole.pdb_2925.pdb o/345805_HEM_Ketoconazole.pdb_9118.pdb o/345805_HEM_Ketoconazole.pdb_5694.pdb o/345805_HEM_Ketoconazole.pdb_9652.pdb o/345805_HEM_Ketoconazole.pdb_3604.pdb o/345805_HEM_Ketoconazole.pdb_1381.pdb 
11 o/345805_HEM_Ketoconazole.pdb_9418.pdb o/345805_HEM_Ketoconazole.pdb_8090.pdb o/345805_HEM_Ketoconazole.pdb_2795.pdb o/345805_HEM_Ketoconazole.pdb_209.pdb o/345805_HEM_Ketoconazole.pdb_8930.pdb o/345805_HEM_Ketoconazole.pdb_9676.pdb o/345805_HEM_Ketoconazole.pdb_1557.pdb o/345805_HEM_Ketoconazole.pdb_5993.pdb o/345805_HEM_Ketoconazole.pdb_4883.pdb o/345805_HEM_Ketoconazole.pdb_4884.pdb o/345805_HEM_Ketoconazole.pdb_1495.pdb 
16 o/345805_HEM_Ketoconazole.pdb_965.pdb o/345805_HEM_Ketoconazole.pdb_5932.pdb o/345805_HEM_Ketoconazole.pdb_8022.pdb o/345805_HEM_Ketoconazole.pdb_4161.pdb o/345805_HEM_Ketoconazole.pdb_3553.pdb o/345805_HEM_Ketoconazole.pdb_339.pdb o/345805_HEM_Ketoconazole.pdb_3734.pdb o/345805_HEM_Ketoconazole.pdb_1624.pdb o/345805_HEM_Ketoconazole.pdb_9778.pdb o/345805_HEM_Ketoconazole.pdb_7460.pdb o/345805_HEM_Ketoconazole.pdb_5913.pdb o/345805_HEM_Ketoconazole.pdb_5893.pdb o/345805_HEM_Ketoconazole.pdb_4394.pdb o/345805_HEM_Ketoconazole.pdb_2979.pdb o/345805_HEM_Ketoconazole.pdb_3784.pdb o/345805_HEM_Ketoconazole.pdb_135.pdb 
16 o/345805_HEM_Ketoconazole.pdb_7434.pdb o/345805_HEM_Ketoconazole.pdb_5780.pdb o/345805_HEM_Ketoconazole.pdb_973.pdb o/345805_HEM_Ketoconazole.pdb_8463.pdb o/345805_HEM_Ketoconazole.pdb_8967.pdb o/345805_HEM_Ketoconazole.pdb_3538.pdb o/345805_HEM_Ketoconazole.pdb_8307.pdb o/345805_HEM_Ketoconazole.pdb_63.pdb o/345805_HEM_Ketoconazole.pdb_7541.pdb o/345805_HEM_Ketoconazole.pdb_8583.pdb o/345805_HEM_Ketoconazole.pdb_7803.pdb o/345805_HEM_Ketoconazole.pdb_8024.pdb o/345805_HEM_Ketoconazole.pdb_3504.pdb o/345805_HEM_Ketoconazole.pdb_9204.pdb o/345805_HEM_Ketoconazole.pdb_8608.pdb o/345805_HEM_Ketoconazole.pdb_1106.pdb 
22 o/345805_HEM_Ketoconazole.pdb_4475.pdb o/345805_HEM_Ketoconazole.pdb_2470.pdb o/345805_HEM_Ketoconazole.pdb_2143.pdb o/345805_HEM_Ketoconazole.pdb_5974.pdb o/345805_HEM_Ketoconazole.pdb_306.pdb o/345805_HEM_Ketoconazole.pdb_5476.pdb o/345805_HEM_Ketoconazole.pdb_3947.pdb o/345805_HEM_Ketoconazole.pdb_3034.pdb o/345805_HEM_Ketoconazole.pdb_9260.pdb o/345805_HEM_Ketoconazole.pdb_5418.pdb o/345805_HEM_Ketoconazole.pdb_420.pdb o/345805_HEM_Ketoconazole.pdb_3659.pdb o/345805_HEM_Ketoconazole.pdb_9253.pdb o/345805_HEM_Ketoconazole.pdb_4438.pdb o/345805_HEM_Ketoconazole.pdb_3269.pdb o/345805_HEM_Ketoconazole.pdb_9600.pdb o/345805_HEM_Ketoconazole.pdb_6542.pdb o/345805_HEM_Ketoconazole.pdb_2023.pdb o/345805_HEM_Ketoconazole.pdb_727.pdb o/345805_HEM_Ketoconazole.pdb_4305.pdb o/345805_HEM_Ketoconazole.pdb_2681.pdb o/345805_HEM_Ketoconazole.pdb_1690.pdb 
12 o/345805_HEM_Ketoconazole.pdb_4684.pdb o/345805_HEM_Ketoconazole.pdb_4340.pdb o/345805_HEM_Ketoconazole.pdb_1748.pdb o/345805_HEM_Ketoconazole.pdb_3505.pdb o/345805_HEM_Ketoconazole.pdb_2303.pdb o/345805_HEM_Ketoconazole.pdb_1909.pdb o/345805_HEM_Ketoconazole.pdb_7349.pdb o/345805_HEM_Ketoconazole.pdb_4524.pdb o/345805_HEM_Ketoconazole.pdb_3100.pdb o/345805_HEM_Ketoconazole.pdb_636.pdb o/345805_HEM_Ketoconazole.pdb_7988.pdb o/345805_HEM_Ketoconazole.pdb_1158.pdb 
15 o/345805_HEM_Ketoconazole.pdb_8647.pdb o/345805_HEM_Ketoconazole.pdb_8923.pdb o/345805_HEM_Ketoconazole.pdb_5039.pdb o/345805_HEM_Ketoconazole.pdb_8290.pdb o/345805_HEM_Ketoconazole.pdb_2923.pdb o/345805_HEM_Ketoconazole.pdb_887.pdb o/345805_HEM_Ketoconazole.pdb_9393.pdb o/345805_HEM_Ketoconazole.pdb_5406.pdb o/345805_HEM_Ketoconazole.pdb_4619.pdb o/345805_HEM_Ketoconazole.pdb_9923.pdb o/345805_HEM_Ketoconazole.pdb_2352.pdb o/345805_HEM_Ketoconazole.pdb_6677.pdb o/345805_HEM_Ketoconazole.pdb_3814.pdb o/345805_HEM_Ketoconazole.pdb_8850.pdb o/345805_HEM_Ketoconazole.pdb_1102.pdb 
10 o/345805_HEM_Ketoconazole.pdb_5985.pdb o/345805_HEM_Ketoconazole.pdb_431.pdb o/345805_HEM_Ketoconazole.pdb_3296.pdb o/345805_HEM_Ketoconazole.pdb_3247.pdb o/345805_HEM_Ketoconazole.pdb_444.pdb o/345805_HEM_Ketoconazole.pdb_1883.pdb o/345805_HEM_Ketoconazole.pdb_3530.pdb o/345805_HEM_Ketoconazole.pdb_3222.pdb o/345805_HEM_Ketoconazole.pdb_2709.pdb o/345805_HEM_Ketoconazole.pdb_11.pdb 
10 o/345805_HEM_Ketoconazole.pdb_5664.pdb o/345805_HEM_Ketoconazole.pdb_6648.pdb o/345805_HEM_Ketoconazole.pdb_5624.pdb o/345805_HEM_Ketoconazole.pdb_9369.pdb o/345805_HEM_Ketoconazole.pdb_7098.pdb o/345805_HEM_Ketoconazole.pdb_3760.pdb o/345805_HEM_Ketoconazole.pdb_3372.pdb o/345805_HEM_Ketoconazole.pdb_2915.pdb o/345805_HEM_Ketoconazole.pdb_739.pdb o/345805_HEM_Ketoconazole.pdb_2232.pdb 
10 o/345805_HEM_Ketoconazole.pdb_6592.pdb o/345805_HEM_Ketoconazole.pdb_4333.pdb o/345805_HEM_Ketoconazole.pdb_3440.pdb o/345805_HEM_Ketoconazole.pdb_8272.pdb o/345805_HEM_Ketoconazole.pdb_5535.pdb o/345805_HEM_Ketoconazole.pdb_9269.pdb o/345805_HEM_Ketoconazole.pdb_140.pdb o/345805_HEM_Ketoconazole.pdb_8899.pdb o/345805_HEM_Ketoconazole.pdb_8800.pdb o/345805_HEM_Ketoconazole.pdb_1383.pdb 
11 o/345805_HEM_Ketoconazole.pdb_5494.pdb o/345805_HEM_Ketoconazole.pdb_449.pdb o/345805_HEM_Ketoconazole.pdb_4600.pdb o/345805_HEM_Ketoconazole.pdb_3533.pdb o/345805_HEM_Ketoconazole.pdb_9906.pdb o/345805_HEM_Ketoconazole.pdb_4947.pdb o/345805_HEM_Ketoconazole.pdb_9178.pdb o/345805_HEM_Ketoconazole.pdb_1433.pdb o/345805_HEM_Ketoconazole.pdb_6271.pdb o/345805_HEM_Ketoconazole.pdb_9070.pdb o/345805_HEM_Ketoconazole.pdb_1254.pdb 
10 o/345805_HEM_Ketoconazole.pdb_8512.pdb o/345805_HEM_Ketoconazole.pdb_8440.pdb o/345805_HEM_Ketoconazole.pdb_2763.pdb o/345805_HEM_Ketoconazole.pdb_9016.pdb o/345805_HEM_Ketoconazole.pdb_1156.pdb o/345805_HEM_Ketoconazole.pdb_4439.pdb o/345805_HEM_Ketoconazole.pdb_2892.pdb o/345805_HEM_Ketoconazole.pdb_1277.pdb o/345805_HEM_Ketoconazole.pdb_2451.pdb o/345805_HEM_Ketoconazole.pdb_1083.pdb 
10 o/345805_HEM_Ketoconazole.pdb_7752.pdb o/345805_HEM_Ketoconazole.pdb_7742.pdb o/345805_HEM_Ketoconazole.pdb_5939.pdb o/345805_HEM_Ketoconazole.pdb_4829.pdb o/345805_HEM_Ketoconazole.pdb_5922.pdb o/345805_HEM_Ketoconazole.pdb_4674.pdb o/345805_HEM_Ketoconazole.pdb_7757.pdb o/345805_HEM_Ketoconazole.pdb_7193.pdb o/345805_HEM_Ketoconazole.pdb_7791.pdb o/345805_HEM_Ketoconazole.pdb_4091.pdb 
10 o/345805_HEM_Ketoconazole.pdb_130.pdb o/345805_HEM_Ketoconazole.pdb_3168.pdb o/345805_HEM_Ketoconazole.pdb_1397.pdb o/345805_HEM_Ketoconazole.pdb_4449.pdb o/345805_HEM_Ketoconazole.pdb_3307.pdb o/345805_HEM_Ketoconazole.pdb_3447.pdb o/345805_HEM_Ketoconazole.pdb_3268.pdb o/345805_HEM_Ketoconazole.pdb_1638.pdb o/345805_HEM_Ketoconazole.pdb_4662.pdb o/345805_HEM_Ketoconazole.pdb_1076.pdb 
10 o/345805_HEM_Ketoconazole.pdb_9475.pdb o/345805_HEM_Ketoconazole.pdb_5439.pdb o/345805_HEM_Ketoconazole.pdb_4356.pdb o/345805_HEM_Ketoconazole.pdb_3748.pdb o/345805_HEM_Ketoconazole.pdb_6351.pdb o/345805_HEM_Ketoconazole.pdb_3239.pdb o/345805_HEM_Ketoconazole.pdb_7569.pdb o/345805_HEM_Ketoconazole.pdb_6922.pdb o/345805_HEM_Ketoconazole.pdb_1902.pdb o/345805_HEM_Ketoconazole.pdb_1686.pdb 
22 o/345805_HEM_Ketoconazole.pdb_8401.pdb o/345805_HEM_Ketoconazole.pdb_5696.pdb o/345805_HEM_Ketoconazole.pdb_2397.pdb o/345805_HEM_Ketoconazole.pdb_2369.pdb o/345805_HEM_Ketoconazole.pdb_9082.pdb o/345805_HEM_Ketoconazole.pdb_7402.pdb o/345805_HEM_Ketoconazole.pdb_1452.pdb o/345805_HEM_Ketoconazole.pdb_3531.pdb o/345805_HEM_Ketoconazole.pdb_6882.pdb o/345805_HEM_Ketoconazole.pdb_8801.pdb o/345805_HEM_Ketoconazole.pdb_2579.pdb o/345805_HEM_Ketoconazole.pdb_9329.pdb o/345805_HEM_Ketoconazole.pdb_7650.pdb o/345805_HEM_Ketoconazole.pdb_3457.pdb o/345805_HEM_Ketoconazole.pdb_1181.pdb o/345805_HEM_Ketoconazole.pdb_898.pdb o/345805_HEM_Ketoconazole.pdb_8421.pdb o/345805_HEM_Ketoconazole.pdb_9097.pdb o/345805_HEM_Ketoconazole.pdb_6171.pdb o/345805_HEM_Ketoconazole.pdb_1272.pdb o/345805_HEM_Ketoconazole.pdb_8464.pdb o/345805_HEM_Ketoconazole.pdb_1074.pdb 
18 o/345805_HEM_Ketoconazole.pdb_8736.pdb o/345805_HEM_Ketoconazole.pdb_6936.pdb o/345805_HEM_Ketoconazole.pdb_7956.pdb o/345805_HEM_Ketoconazole.pdb_9414.pdb o/345805_HEM_Ketoconazole.pdb_9782.pdb o/345805_HEM_Ketoconazole.pdb_5964.pdb o/345805_HEM_Ketoconazole.pdb_3474.pdb o/345805_HEM_Ketoconazole.pdb_4309.pdb o/345805_HEM_Ketoconazole.pdb_962.pdb o/345805_HEM_Ketoconazole.pdb_6604.pdb o/345805_HEM_Ketoconazole.pdb_6441.pdb o/345805_HEM_Ketoconazole.pdb_7987.pdb o/345805_HEM_Ketoconazole.pdb_4589.pdb o/345805_HEM_Ketoconazole.pdb_366.pdb o/345805_HEM_Ketoconazole.pdb_7586.pdb o/345805_HEM_Ketoconazole.pdb_6448.pdb o/345805_HEM_Ketoconazole.pdb_5863.pdb o/345805_HEM_Ketoconazole.pdb_3341.pdb 
11 o/345805_HEM_Ketoconazole.pdb_6525.pdb o/345805_HEM_Ketoconazole.pdb_878.pdb o/345805_HEM_Ketoconazole.pdb_6517.pdb o/345805_HEM_Ketoconazole.pdb_3839.pdb o/345805_HEM_Ketoconazole.pdb_6238.pdb o/345805_HEM_Ketoconazole.pdb_2886.pdb o/345805_HEM_Ketoconazole.pdb_7438.pdb o/345805_HEM_Ketoconazole.pdb_627.pdb o/345805_HEM_Ketoconazole.pdb_2202.pdb o/345805_HEM_Ketoconazole.pdb_6116.pdb o/345805_HEM_Ketoconazole.pdb_109.pdb 
11 o/345805_HEM_Ketoconazole.pdb_8133.pdb o/345805_HEM_Ketoconazole.pdb_6976.pdb o/345805_HEM_Ketoconazole.pdb_681.pdb o/345805_HEM_Ketoconazole.pdb_5858.pdb o/345805_HEM_Ketoconazole.pdb_6427.pdb o/345805_HEM_Ketoconazole.pdb_2794.pdb o/345805_HEM_Ketoconazole.pdb_1947.pdb o/345805_HEM_Ketoconazole.pdb_8292.pdb o/345805_HEM_Ketoconazole.pdb_6759.pdb o/345805_HEM_Ketoconazole.pdb_9617.pdb o/345805_HEM_Ketoconazole.pdb_125.pdb 
12 o/345805_HEM_Ketoconazole.pdb_7456.pdb o/345805_HEM_Ketoconazole.pdb_7138.pdb o/345805_HEM_Ketoconazole.pdb_6409.pdb o/345805_HEM_Ketoconazole.pdb_5976.pdb o/345805_HEM_Ketoconazole.pdb_4304.pdb o/345805_HEM_Ketoconazole.pdb_9004.pdb o/345805_HEM_Ketoconazole.pdb_5268.pdb o/345805_HEM_Ketoconazole.pdb_2225.pdb o/345805_HEM_Ketoconazole.pdb_1510.pdb o/345805_HEM_Ketoconazole.pdb_5320.pdb o/345805_HEM_Ketoconazole.pdb_8190.pdb o/345805_HEM_Ketoconazole.pdb_1065.pdb 
14 o/345805_HEM_Ketoconazole.pdb_3764.pdb o/345805_HEM_Ketoconazole.pdb_685.pdb o/345805_HEM_Ketoconazole.pdb_2322.pdb o/345805_HEM_Ketoconazole.pdb_7759.pdb o/345805_HEM_Ketoconazole.pdb_2220.pdb o/345805_HEM_Ketoconazole.pdb_7836.pdb o/345805_HEM_Ketoconazole.pdb_4847.pdb o/345805_HEM_Ketoconazole.pdb_9650.pdb o/345805_HEM_Ketoconazole.pdb_2383.pdb o/345805_HEM_Ketoconazole.pdb_1714.pdb o/345805_HEM_Ketoconazole.pdb_9664.pdb o/345805_HEM_Ketoconazole.pdb_6966.pdb o/345805_HEM_Ketoconazole.pdb_9704.pdb o/345805_HEM_Ketoconazole.pdb_1058.pdb 
12 o/345805_HEM_Ketoconazole.pdb_7294.pdb o/345805_HEM_Ketoconazole.pdb_9777.pdb o/345805_HEM_Ketoconazole.pdb_8606.pdb o/345805_HEM_Ketoconazole.pdb_5389.pdb o/345805_HEM_Ketoconazole.pdb_8722.pdb o/345805_HEM_Ketoconazole.pdb_5030.pdb o/345805_HEM_Ketoconazole.pdb_26.pdb o/345805_HEM_Ketoconazole.pdb_1781.pdb o/345805_HEM_Ketoconazole.pdb_9190.pdb o/345805_HEM_Ketoconazole.pdb_6505.pdb o/345805_HEM_Ketoconazole.pdb_2762.pdb o/345805_HEM_Ketoconazole.pdb_1752.pdb 
21 o/345805_HEM_Ketoconazole.pdb_9921.pdb o/345805_HEM_Ketoconazole.pdb_2726.pdb o/345805_HEM_Ketoconazole.pdb_3205.pdb o/345805_HEM_Ketoconazole.pdb_4532.pdb o/345805_HEM_Ketoconazole.pdb_3721.pdb o/345805_HEM_Ketoconazole.pdb_1768.pdb o/345805_HEM_Ketoconazole.pdb_889.pdb o/345805_HEM_Ketoconazole.pdb_9688.pdb o/345805_HEM_Ketoconazole.pdb_2809.pdb o/345805_HEM_Ketoconazole.pdb_6649.pdb o/345805_HEM_Ketoconazole.pdb_8099.pdb o/345805_HEM_Ketoconazole.pdb_6428.pdb o/345805_HEM_Ketoconazole.pdb_1750.pdb o/345805_HEM_Ketoconazole.pdb_4401.pdb o/345805_HEM_Ketoconazole.pdb_6089.pdb o/345805_HEM_Ketoconazole.pdb_750.pdb o/345805_HEM_Ketoconazole.pdb_2935.pdb o/345805_HEM_Ketoconazole.pdb_6760.pdb o/345805_HEM_Ketoconazole.pdb_3845.pdb o/345805_HEM_Ketoconazole.pdb_6947.pdb o/345805_HEM_Ketoconazole.pdb_1523.pdb 
17 o/345805_HEM_Ketoconazole.pdb_9824.pdb o/345805_HEM_Ketoconazole.pdb_4976.pdb o/345805_HEM_Ketoconazole.pdb_2630.pdb o/345805_HEM_Ketoconazole.pdb_2512.pdb o/345805_HEM_Ketoconazole.pdb_1400.pdb o/345805_HEM_Ketoconazole.pdb_8770.pdb o/345805_HEM_Ketoconazole.pdb_8432.pdb o/345805_HEM_Ketoconazole.pdb_2440.pdb o/345805_HEM_Ketoconazole.pdb_1173.pdb o/345805_HEM_Ketoconazole.pdb_5949.pdb o/345805_HEM_Ketoconazole.pdb_6476.pdb o/345805_HEM_Ketoconazole.pdb_4023.pdb o/345805_HEM_Ketoconazole.pdb_3536.pdb o/345805_HEM_Ketoconazole.pdb_342.pdb o/345805_HEM_Ketoconazole.pdb_8473.pdb o/345805_HEM_Ketoconazole.pdb_3918.pdb o/345805_HEM_Ketoconazole.pdb_1050.pdb 
11 o/345805_HEM_Ketoconazole.pdb_9863.pdb o/345805_HEM_Ketoconazole.pdb_7482.pdb o/345805_HEM_Ketoconazole.pdb_5912.pdb o/345805_HEM_Ketoconazole.pdb_5299.pdb o/345805_HEM_Ketoconazole.pdb_5499.pdb o/345805_HEM_Ketoconazole.pdb_4878.pdb o/345805_HEM_Ketoconazole.pdb_6465.pdb o/345805_HEM_Ketoconazole.pdb_9746.pdb o/345805_HEM_Ketoconazole.pdb_6995.pdb o/345805_HEM_Ketoconazole.pdb_726.pdb o/345805_HEM_Ketoconazole.pdb_2586.pdb 
11 o/345805_HEM_Ketoconazole.pdb_7430.pdb o/345805_HEM_Ketoconazole.pdb_9358.pdb o/345805_HEM_Ketoconazole.pdb_9971.pdb o/345805_HEM_Ketoconazole.pdb_8448.pdb o/345805_HEM_Ketoconazole.pdb_3431.pdb o/345805_HEM_Ketoconazole.pdb_7311.pdb o/345805_HEM_Ketoconazole.pdb_6945.pdb o/345805_HEM_Ketoconazole.pdb_6732.pdb o/345805_HEM_Ketoconazole.pdb_6707.pdb o/345805_HEM_Ketoconazole.pdb_7994.pdb o/345805_HEM_Ketoconazole.pdb_3158.pdb 
15 o/345805_HEM_Ketoconazole.pdb_4053.pdb o/345805_HEM_Ketoconazole.pdb_8990.pdb o/345805_HEM_Ketoconazole.pdb_7696.pdb o/345805_HEM_Ketoconazole.pdb_6579.pdb o/345805_HEM_Ketoconazole.pdb_3900.pdb o/345805_HEM_Ketoconazole.pdb_7135.pdb o/345805_HEM_Ketoconazole.pdb_6437.pdb o/345805_HEM_Ketoconazole.pdb_4869.pdb o/345805_HEM_Ketoconazole.pdb_6701.pdb o/345805_HEM_Ketoconazole.pdb_2617.pdb o/345805_HEM_Ketoconazole.pdb_1193.pdb o/345805_HEM_Ketoconazole.pdb_9551.pdb o/345805_HEM_Ketoconazole.pdb_9196.pdb o/345805_HEM_Ketoconazole.pdb_3677.pdb o/345805_HEM_Ketoconazole.pdb_1045.pdb 
11 o/345805_HEM_Ketoconazole.pdb_6884.pdb o/345805_HEM_Ketoconazole.pdb_4192.pdb o/345805_HEM_Ketoconazole.pdb_5322.pdb o/345805_HEM_Ketoconazole.pdb_3167.pdb o/345805_HEM_Ketoconazole.pdb_6669.pdb o/345805_HEM_Ketoconazole.pdb_5817.pdb o/345805_HEM_Ketoconazole.pdb_1377.pdb o/345805_HEM_Ketoconazole.pdb_998.pdb o/345805_HEM_Ketoconazole.pdb_8656.pdb o/345805_HEM_Ketoconazole.pdb_4833.pdb o/345805_HEM_Ketoconazole.pdb_1044.pdb 
10 o/345805_HEM_Ketoconazole.pdb_3319.pdb o/345805_HEM_Ketoconazole.pdb_2829.pdb o/345805_HEM_Ketoconazole.pdb_2296.pdb o/345805_HEM_Ketoconazole.pdb_7535.pdb o/345805_HEM_Ketoconazole.pdb_4289.pdb o/345805_HEM_Ketoconazole.pdb_2071.pdb o/345805_HEM_Ketoconazole.pdb_6008.pdb o/345805_HEM_Ketoconazole.pdb_4038.pdb o/345805_HEM_Ketoconazole.pdb_1644.pdb o/345805_HEM_Ketoconazole.pdb_1348.pdb 
10 o/345805_HEM_Ketoconazole.pdb_9407.pdb o/345805_HEM_Ketoconazole.pdb_6788.pdb o/345805_HEM_Ketoconazole.pdb_8449.pdb o/345805_HEM_Ketoconazole.pdb_2113.pdb o/345805_HEM_Ketoconazole.pdb_4013.pdb o/345805_HEM_Ketoconazole.pdb_4579.pdb o/345805_HEM_Ketoconazole.pdb_2032.pdb o/345805_HEM_Ketoconazole.pdb_9335.pdb o/345805_HEM_Ketoconazole.pdb_4004.pdb o/345805_HEM_Ketoconazole.pdb_158.pdb 
19 o/345805_HEM_Ketoconazole.pdb_6892.pdb o/345805_HEM_Ketoconazole.pdb_9505.pdb o/345805_HEM_Ketoconazole.pdb_3083.pdb o/345805_HEM_Ketoconazole.pdb_8514.pdb o/345805_HEM_Ketoconazole.pdb_6306.pdb o/345805_HEM_Ketoconazole.pdb_9542.pdb o/345805_HEM_Ketoconazole.pdb_5835.pdb o/345805_HEM_Ketoconazole.pdb_4167.pdb o/345805_HEM_Ketoconazole.pdb_3669.pdb o/345805_HEM_Ketoconazole.pdb_7227.pdb o/345805_HEM_Ketoconazole.pdb_2265.pdb o/345805_HEM_Ketoconazole.pdb_9928.pdb o/345805_HEM_Ketoconazole.pdb_712.pdb o/345805_HEM_Ketoconazole.pdb_6265.pdb o/345805_HEM_Ketoconazole.pdb_5217.pdb o/345805_HEM_Ketoconazole.pdb_6967.pdb o/345805_HEM_Ketoconazole.pdb_3739.pdb o/345805_HEM_Ketoconazole.pdb_4363.pdb o/345805_HEM_Ketoconazole.pdb_1845.pdb 
11 o/345805_HEM_Ketoconazole.pdb_5075.pdb o/345805_HEM_Ketoconazole.pdb_2746.pdb o/345805_HEM_Ketoconazole.pdb_4993.pdb o/345805_HEM_Ketoconazole.pdb_1079.pdb o/345805_HEM_Ketoconazole.pdb_5448.pdb o/345805_HEM_Ketoconazole.pdb_7969.pdb o/345805_HEM_Ketoconazole.pdb_582.pdb o/345805_HEM_Ketoconazole.pdb_1822.pdb o/345805_HEM_Ketoconazole.pdb_3242.pdb o/345805_HEM_Ketoconazole.pdb_477.pdb o/345805_HEM_Ketoconazole.pdb_1041.pdb 
12 o/345805_HEM_Ketoconazole.pdb_3989.pdb o/345805_HEM_Ketoconazole.pdb_8559.pdb o/345805_HEM_Ketoconazole.pdb_3359.pdb o/345805_HEM_Ketoconazole.pdb_4877.pdb o/345805_HEM_Ketoconazole.pdb_9424.pdb o/345805_HEM_Ketoconazole.pdb_4049.pdb o/345805_HEM_Ketoconazole.pdb_8436.pdb o/345805_HEM_Ketoconazole.pdb_2621.pdb o/345805_HEM_Ketoconazole.pdb_8615.pdb o/345805_HEM_Ketoconazole.pdb_8210.pdb o/345805_HEM_Ketoconazole.pdb_6652.pdb o/345805_HEM_Ketoconazole.pdb_1736.pdb 
13 o/345805_HEM_Ketoconazole.pdb_5724.pdb o/345805_HEM_Ketoconazole.pdb_4153.pdb o/345805_HEM_Ketoconazole.pdb_536.pdb o/345805_HEM_Ketoconazole.pdb_9506.pdb o/345805_HEM_Ketoconazole.pdb_348.pdb o/345805_HEM_Ketoconazole.pdb_2215.pdb o/345805_HEM_Ketoconazole.pdb_5596.pdb o/345805_HEM_Ketoconazole.pdb_1668.pdb o/345805_HEM_Ketoconazole.pdb_142.pdb o/345805_HEM_Ketoconazole.pdb_7877.pdb o/345805_HEM_Ketoconazole.pdb_2288.pdb o/345805_HEM_Ketoconazole.pdb_3844.pdb o/345805_HEM_Ketoconazole.pdb_103.pdb 
10 o/345805_HEM_Ketoconazole.pdb_9575.pdb o/345805_HEM_Ketoconazole.pdb_3944.pdb o/345805_HEM_Ketoconazole.pdb_8793.pdb o/345805_HEM_Ketoconazole.pdb_4166.pdb o/345805_HEM_Ketoconazole.pdb_4797.pdb o/345805_HEM_Ketoconazole.pdb_8061.pdb o/345805_HEM_Ketoconazole.pdb_4210.pdb o/345805_HEM_Ketoconazole.pdb_4865.pdb o/345805_HEM_Ketoconazole.pdb_2488.pdb o/345805_HEM_Ketoconazole.pdb_1230.pdb 
10 o/345805_HEM_Ketoconazole.pdb_9871.pdb o/345805_HEM_Ketoconazole.pdb_7747.pdb o/345805_HEM_Ketoconazole.pdb_7204.pdb o/345805_HEM_Ketoconazole.pdb_8894.pdb o/345805_HEM_Ketoconazole.pdb_5287.pdb o/345805_HEM_Ketoconazole.pdb_865.pdb o/345805_HEM_Ketoconazole.pdb_3298.pdb o/345805_HEM_Ketoconazole.pdb_2456.pdb o/345805_HEM_Ketoconazole.pdb_2109.pdb o/345805_HEM_Ketoconazole.pdb_1027.pdb 
11 o/345805_HEM_Ketoconazole.pdb_5510.pdb o/345805_HEM_Ketoconazole.pdb_7758.pdb o/345805_HEM_Ketoconazole.pdb_7045.pdb o/345805_HEM_Ketoconazole.pdb_2459.pdb o/345805_HEM_Ketoconazole.pdb_723.pdb o/345805_HEM_Ketoconazole.pdb_4151.pdb o/345805_HEM_Ketoconazole.pdb_6589.pdb o/345805_HEM_Ketoconazole.pdb_3442.pdb o/345805_HEM_Ketoconazole.pdb_1323.pdb o/345805_HEM_Ketoconazole.pdb_2807.pdb o/345805_HEM_Ketoconazole.pdb_1025.pdb 
13 o/345805_HEM_Ketoconazole.pdb_9091.pdb o/345805_HEM_Ketoconazole.pdb_7463.pdb o/345805_HEM_Ketoconazole.pdb_5979.pdb o/345805_HEM_Ketoconazole.pdb_5661.pdb o/345805_HEM_Ketoconazole.pdb_1213.pdb o/345805_HEM_Ketoconazole.pdb_1078.pdb o/345805_HEM_Ketoconazole.pdb_6618.pdb o/345805_HEM_Ketoconazole.pdb_7270.pdb o/345805_HEM_Ketoconazole.pdb_6240.pdb o/345805_HEM_Ketoconazole.pdb_5618.pdb o/345805_HEM_Ketoconazole.pdb_1867.pdb o/345805_HEM_Ketoconazole.pdb_3673.pdb o/345805_HEM_Ketoconazole.pdb_1055.pdb 
23 o/345805_HEM_Ketoconazole.pdb_5652.pdb o/345805_HEM_Ketoconazole.pdb_634.pdb o/345805_HEM_Ketoconazole.pdb_3377.pdb o/345805_HEM_Ketoconazole.pdb_8412.pdb o/345805_HEM_Ketoconazole.pdb_7509.pdb o/345805_HEM_Ketoconazole.pdb_7785.pdb o/345805_HEM_Ketoconazole.pdb_3228.pdb o/345805_HEM_Ketoconazole.pdb_2881.pdb o/345805_HEM_Ketoconazole.pdb_7009.pdb o/345805_HEM_Ketoconazole.pdb_3020.pdb o/345805_HEM_Ketoconazole.pdb_2043.pdb o/345805_HEM_Ketoconazole.pdb_4541.pdb o/345805_HEM_Ketoconazole.pdb_3872.pdb o/345805_HEM_Ketoconazole.pdb_1826.pdb o/345805_HEM_Ketoconazole.pdb_458.pdb o/345805_HEM_Ketoconazole.pdb_977.pdb o/345805_HEM_Ketoconazole.pdb_1506.pdb o/345805_HEM_Ketoconazole.pdb_6006.pdb o/345805_HEM_Ketoconazole.pdb_7609.pdb o/345805_HEM_Ketoconazole.pdb_1451.pdb o/345805_HEM_Ketoconazole.pdb_8068.pdb o/345805_HEM_Ketoconazole.pdb_4609.pdb o/345805_HEM_Ketoconazole.pdb_1405.pdb 
10 o/345805_HEM_Ketoconazole.pdb_933.pdb o/345805_HEM_Ketoconazole.pdb_8584.pdb o/345805_HEM_Ketoconazole.pdb_4346.pdb o/345805_HEM_Ketoconazole.pdb_8877.pdb o/345805_HEM_Ketoconazole.pdb_6539.pdb o/345805_HEM_Ketoconazole.pdb_7523.pdb o/345805_HEM_Ketoconazole.pdb_525.pdb o/345805_HEM_Ketoconazole.pdb_3378.pdb o/345805_HEM_Ketoconazole.pdb_5412.pdb o/345805_HEM_Ketoconazole.pdb_1717.pdb 
16 o/345805_HEM_Ketoconazole.pdb_8148.pdb o/345805_HEM_Ketoconazole.pdb_6790.pdb o/345805_HEM_Ketoconazole.pdb_8279.pdb o/345805_HEM_Ketoconazole.pdb_2930.pdb o/345805_HEM_Ketoconazole.pdb_2760.pdb o/345805_HEM_Ketoconazole.pdb_5890.pdb o/345805_HEM_Ketoconazole.pdb_5754.pdb o/345805_HEM_Ketoconazole.pdb_6900.pdb o/345805_HEM_Ketoconazole.pdb_4837.pdb o/345805_HEM_Ketoconazole.pdb_2388.pdb o/345805_HEM_Ketoconazole.pdb_1675.pdb o/345805_HEM_Ketoconazole.pdb_8486.pdb o/345805_HEM_Ketoconazole.pdb_7176.pdb o/345805_HEM_Ketoconazole.pdb_1789.pdb o/345805_HEM_Ketoconazole.pdb_2872.pdb o/345805_HEM_Ketoconazole.pdb_1020.pdb 
14 o/345805_HEM_Ketoconazole.pdb_6296.pdb o/345805_HEM_Ketoconazole.pdb_8315.pdb o/345805_HEM_Ketoconazole.pdb_7867.pdb o/345805_HEM_Ketoconazole.pdb_5384.pdb o/345805_HEM_Ketoconazole.pdb_7103.pdb o/345805_HEM_Ketoconazole.pdb_1928.pdb o/345805_HEM_Ketoconazole.pdb_9299.pdb o/345805_HEM_Ketoconazole.pdb_7.pdb o/345805_HEM_Ketoconazole.pdb_9228.pdb o/345805_HEM_Ketoconazole.pdb_7444.pdb o/345805_HEM_Ketoconazole.pdb_9573.pdb o/345805_HEM_Ketoconazole.pdb_7840.pdb o/345805_HEM_Ketoconazole.pdb_1671.pdb o/345805_HEM_Ketoconazole.pdb_1610.pdb 
10 o/345805_HEM_Ketoconazole.pdb_87.pdb o/345805_HEM_Ketoconazole.pdb_2101.pdb o/345805_HEM_Ketoconazole.pdb_5903.pdb o/345805_HEM_Ketoconazole.pdb_2983.pdb o/345805_HEM_Ketoconazole.pdb_2099.pdb o/345805_HEM_Ketoconazole.pdb_9161.pdb o/345805_HEM_Ketoconazole.pdb_6169.pdb o/345805_HEM_Ketoconazole.pdb_4464.pdb o/345805_HEM_Ketoconazole.pdb_4908.pdb o/345805_HEM_Ketoconazole.pdb_124.pdb 
13 o/345805_HEM_Ketoconazole.pdb_700.pdb o/345805_HEM_Ketoconazole.pdb_6062.pdb o/345805_HEM_Ketoconazole.pdb_86.pdb o/345805_HEM_Ketoconazole.pdb_7865.pdb o/345805_HEM_Ketoconazole.pdb_5634.pdb o/345805_HEM_Ketoconazole.pdb_5561.pdb o/345805_HEM_Ketoconazole.pdb_3371.pdb o/345805_HEM_Ketoconazole.pdb_7793.pdb o/345805_HEM_Ketoconazole.pdb_2970.pdb o/345805_HEM_Ketoconazole.pdb_7106.pdb o/345805_HEM_Ketoconazole.pdb_5236.pdb o/345805_HEM_Ketoconazole.pdb_6543.pdb o/345805_HEM_Ketoconazole.pdb_283.pdb 
11 o/345805_HEM_Ketoconazole.pdb_8568.pdb o/345805_HEM_Ketoconazole.pdb_4983.pdb o/345805_HEM_Ketoconazole.pdb_3657.pdb o/345805_HEM_Ketoconazole.pdb_3151.pdb o/345805_HEM_Ketoconazole.pdb_883.pdb o/345805_HEM_Ketoconazole.pdb_2843.pdb o/345805_HEM_Ketoconazole.pdb_7112.pdb o/345805_HEM_Ketoconazole.pdb_2822.pdb o/345805_HEM_Ketoconazole.pdb_2117.pdb o/345805_HEM_Ketoconazole.pdb_5475.pdb o/345805_HEM_Ketoconazole.pdb_1019.pdb 
10 o/345805_HEM_Ketoconazole.pdb_9792.pdb o/345805_HEM_Ketoconazole.pdb_9116.pdb o/345805_HEM_Ketoconazole.pdb_764.pdb o/345805_HEM_Ketoconazole.pdb_2311.pdb o/345805_HEM_Ketoconazole.pdb_754.pdb o/345805_HEM_Ketoconazole.pdb_4225.pdb o/345805_HEM_Ketoconazole.pdb_8504.pdb o/345805_HEM_Ketoconazole.pdb_6451.pdb o/345805_HEM_Ketoconazole.pdb_9446.pdb o/345805_HEM_Ketoconazole.pdb_2171.pdb 
15 o/345805_HEM_Ketoconazole.pdb_8234.pdb o/345805_HEM_Ketoconazole.pdb_9234.pdb o/345805_HEM_Ketoconazole.pdb_8106.pdb o/345805_HEM_Ketoconazole.pdb_545.pdb o/345805_HEM_Ketoconazole.pdb_2534.pdb o/345805_HEM_Ketoconazole.pdb_9229.pdb o/345805_HEM_Ketoconazole.pdb_2332.pdb o/345805_HEM_Ketoconazole.pdb_4742.pdb o/345805_HEM_Ketoconazole.pdb_7058.pdb o/345805_HEM_Ketoconazole.pdb_4605.pdb o/345805_HEM_Ketoconazole.pdb_514.pdb o/345805_HEM_Ketoconazole.pdb_2819.pdb o/345805_HEM_Ketoconazole.pdb_8740.pdb o/345805_HEM_Ketoconazole.pdb_5153.pdb o/345805_HEM_Ketoconazole.pdb_1536.pdb 
12 o/345805_HEM_Ketoconazole.pdb_6154.pdb o/345805_HEM_Ketoconazole.pdb_1239.pdb o/345805_HEM_Ketoconazole.pdb_5945.pdb o/345805_HEM_Ketoconazole.pdb_551.pdb o/345805_HEM_Ketoconazole.pdb_8652.pdb o/345805_HEM_Ketoconazole.pdb_1737.pdb o/345805_HEM_Ketoconazole.pdb_1364.pdb o/345805_HEM_Ketoconazole.pdb_6550.pdb o/345805_HEM_Ketoconazole.pdb_3992.pdb o/345805_HEM_Ketoconazole.pdb_2237.pdb o/345805_HEM_Ketoconazole.pdb_1260.pdb o/345805_HEM_Ketoconazole.pdb_1138.pdb 
12 o/345805_HEM_Ketoconazole.pdb_7923.pdb o/345805_HEM_Ketoconazole.pdb_4178.pdb o/345805_HEM_Ketoconazole.pdb_2502.pdb o/345805_HEM_Ketoconazole.pdb_6106.pdb o/345805_HEM_Ketoconazole.pdb_5351.pdb o/345805_HEM_Ketoconazole.pdb_1757.pdb o/345805_HEM_Ketoconazole.pdb_8389.pdb o/345805_HEM_Ketoconazole.pdb_1505.pdb o/345805_HEM_Ketoconazole.pdb_9799.pdb o/345805_HEM_Ketoconazole.pdb_4963.pdb o/345805_HEM_Ketoconazole.pdb_4143.pdb o/345805_HEM_Ketoconazole.pdb_1014.pdb 
12 o/345805_HEM_Ketoconazole.pdb_5595.pdb o/345805_HEM_Ketoconazole.pdb_5285.pdb o/345805_HEM_Ketoconazole.pdb_206.pdb o/345805_HEM_Ketoconazole.pdb_8851.pdb o/345805_HEM_Ketoconazole.pdb_6555.pdb o/345805_HEM_Ketoconazole.pdb_7731.pdb o/345805_HEM_Ketoconazole.pdb_2030.pdb o/345805_HEM_Ketoconazole.pdb_7340.pdb o/345805_HEM_Ketoconazole.pdb_8313.pdb o/345805_HEM_Ketoconazole.pdb_3832.pdb o/345805_HEM_Ketoconazole.pdb_1679.pdb o/345805_HEM_Ketoconazole.pdb_1002.pdb 
13 o/345805_HEM_Ketoconazole.pdb_8502.pdb o/345805_HEM_Ketoconazole.pdb_8219.pdb o/345805_HEM_Ketoconazole.pdb_233.pdb o/345805_HEM_Ketoconazole.pdb_6481.pdb o/345805_HEM_Ketoconazole.pdb_9484.pdb o/345805_HEM_Ketoconazole.pdb_13.pdb o/345805_HEM_Ketoconazole.pdb_9523.pdb o/345805_HEM_Ketoconazole.pdb_3140.pdb o/345805_HEM_Ketoconazole.pdb_2022.pdb o/345805_HEM_Ketoconazole.pdb_5474.pdb o/345805_HEM_Ketoconazole.pdb_3622.pdb o/345805_HEM_Ketoconazole.pdb_742.pdb o/345805_HEM_Ketoconazole.pdb_1000.pdb 
10 o/345805_HEM_Ketoconazole.pdb_5276.pdb o/345805_HEM_Ketoconazole.pdb_4610.pdb o/345805_HEM_Ketoconazole.pdb_9842.pdb o/345805_HEM_Ketoconazole.pdb_3980.pdb o/345805_HEM_Ketoconazole.pdb_8460.pdb o/345805_HEM_Ketoconazole.pdb_6609.pdb o/345805_HEM_Ketoconazole.pdb_2610.pdb o/345805_HEM_Ketoconazole.pdb_8488.pdb o/345805_HEM_Ketoconazole.pdb_2477.pdb o/345805_HEM_Ketoconazole.pdb_1602.pdb 
11 o/345805_HEM_Ketoconazole.pdb_834.pdb o/345805_HEM_Ketoconazole.pdb_6556.pdb o/345805_HEM_Ketoconazole.pdb_3390.pdb o/345805_HEM_Ketoconazole.pdb_2281.pdb o/345805_HEM_Ketoconazole.pdb_2192.pdb o/345805_HEM_Ketoconazole.pdb_8297.pdb o/345805_HEM_Ketoconazole.pdb_8294.pdb o/345805_HEM_Ketoconazole.pdb_4810.pdb o/345805_HEM_Ketoconazole.pdb_2096.pdb o/345805_HEM_Ketoconazole.pdb_6117.pdb o/345805_HEM_Ketoconazole.pdb_1820.pdb 
