10 o/629036_HEM_Itraconazole.pdb_8530.pdb o/629036_HEM_Itraconazole.pdb_7099.pdb o/629036_HEM_Itraconazole.pdb_5439.pdb o/629036_HEM_Itraconazole.pdb_7494.pdb o/629036_HEM_Itraconazole.pdb_5309.pdb o/629036_HEM_Itraconazole.pdb_8372.pdb o/629036_HEM_Itraconazole.pdb_5472.pdb o/629036_HEM_Itraconazole.pdb_8187.pdb o/629036_HEM_Itraconazole.pdb_4317.pdb o/629036_HEM_Itraconazole.pdb_2646.pdb 
10 o/629036_HEM_Itraconazole.pdb_6279.pdb o/629036_HEM_Itraconazole.pdb_959.pdb o/629036_HEM_Itraconazole.pdb_8344.pdb o/629036_HEM_Itraconazole.pdb_8853.pdb o/629036_HEM_Itraconazole.pdb_5835.pdb o/629036_HEM_Itraconazole.pdb_4343.pdb o/629036_HEM_Itraconazole.pdb_828.pdb o/629036_HEM_Itraconazole.pdb_8959.pdb o/629036_HEM_Itraconazole.pdb_71.pdb o/629036_HEM_Itraconazole.pdb_3310.pdb 
11 o/629036_HEM_Itraconazole.pdb_3175.pdb o/629036_HEM_Itraconazole.pdb_3523.pdb o/629036_HEM_Itraconazole.pdb_3948.pdb o/629036_HEM_Itraconazole.pdb_862.pdb o/629036_HEM_Itraconazole.pdb_5724.pdb o/629036_HEM_Itraconazole.pdb_2756.pdb o/629036_HEM_Itraconazole.pdb_9309.pdb o/629036_HEM_Itraconazole.pdb_9306.pdb o/629036_HEM_Itraconazole.pdb_6994.pdb o/629036_HEM_Itraconazole.pdb_3546.pdb o/629036_HEM_Itraconazole.pdb_127.pdb 
11 o/629036_HEM_Itraconazole.pdb_5119.pdb o/629036_HEM_Itraconazole.pdb_9366.pdb o/629036_HEM_Itraconazole.pdb_4075.pdb o/629036_HEM_Itraconazole.pdb_2413.pdb o/629036_HEM_Itraconazole.pdb_5746.pdb o/629036_HEM_Itraconazole.pdb_5544.pdb o/629036_HEM_Itraconazole.pdb_8675.pdb o/629036_HEM_Itraconazole.pdb_7454.pdb o/629036_HEM_Itraconazole.pdb_7223.pdb o/629036_HEM_Itraconazole.pdb_8828.pdb o/629036_HEM_Itraconazole.pdb_1752.pdb 
10 o/629036_HEM_Itraconazole.pdb_6252.pdb o/629036_HEM_Itraconazole.pdb_4767.pdb o/629036_HEM_Itraconazole.pdb_4158.pdb o/629036_HEM_Itraconazole.pdb_232.pdb o/629036_HEM_Itraconazole.pdb_2095.pdb o/629036_HEM_Itraconazole.pdb_2280.pdb o/629036_HEM_Itraconazole.pdb_1716.pdb o/629036_HEM_Itraconazole.pdb_2432.pdb o/629036_HEM_Itraconazole.pdb_9299.pdb o/629036_HEM_Itraconazole.pdb_1108.pdb 
10 o/629036_HEM_Itraconazole.pdb_5664.pdb o/629036_HEM_Itraconazole.pdb_6838.pdb o/629036_HEM_Itraconazole.pdb_576.pdb o/629036_HEM_Itraconazole.pdb_5004.pdb o/629036_HEM_Itraconazole.pdb_2791.pdb o/629036_HEM_Itraconazole.pdb_3255.pdb o/629036_HEM_Itraconazole.pdb_9733.pdb o/629036_HEM_Itraconazole.pdb_5405.pdb o/629036_HEM_Itraconazole.pdb_9704.pdb o/629036_HEM_Itraconazole.pdb_204.pdb 
10 o/629036_HEM_Itraconazole.pdb_6890.pdb o/629036_HEM_Itraconazole.pdb_5780.pdb o/629036_HEM_Itraconazole.pdb_6970.pdb o/629036_HEM_Itraconazole.pdb_6832.pdb o/629036_HEM_Itraconazole.pdb_3986.pdb o/629036_HEM_Itraconazole.pdb_8311.pdb o/629036_HEM_Itraconazole.pdb_5718.pdb o/629036_HEM_Itraconazole.pdb_2615.pdb o/629036_HEM_Itraconazole.pdb_8521.pdb o/629036_HEM_Itraconazole.pdb_217.pdb 
