10 o/345805_HEM_VT_1129.pdb_9762.pdb o/345805_HEM_VT_1129.pdb_5980.pdb o/345805_HEM_VT_1129.pdb_9232.pdb o/345805_HEM_VT_1129.pdb_415.pdb o/345805_HEM_VT_1129.pdb_443.pdb o/345805_HEM_VT_1129.pdb_514.pdb o/345805_HEM_VT_1129.pdb_4041.pdb o/345805_HEM_VT_1129.pdb_5252.pdb o/345805_HEM_VT_1129.pdb_6942.pdb o/345805_HEM_VT_1129.pdb_161.pdb 
11 o/345805_HEM_VT_1129.pdb_9140.pdb o/345805_HEM_VT_1129.pdb_5715.pdb o/345805_HEM_VT_1129.pdb_3212.pdb o/345805_HEM_VT_1129.pdb_6688.pdb o/345805_HEM_VT_1129.pdb_6973.pdb o/345805_HEM_VT_1129.pdb_6465.pdb o/345805_HEM_VT_1129.pdb_2993.pdb o/345805_HEM_VT_1129.pdb_4834.pdb o/345805_HEM_VT_1129.pdb_3701.pdb o/345805_HEM_VT_1129.pdb_3348.pdb o/345805_HEM_VT_1129.pdb_1585.pdb 
12 o/345805_HEM_VT_1129.pdb_7125.pdb o/345805_HEM_VT_1129.pdb_5691.pdb o/345805_HEM_VT_1129.pdb_503.pdb o/345805_HEM_VT_1129.pdb_257.pdb o/345805_HEM_VT_1129.pdb_9846.pdb o/345805_HEM_VT_1129.pdb_2015.pdb o/345805_HEM_VT_1129.pdb_9501.pdb o/345805_HEM_VT_1129.pdb_6798.pdb o/345805_HEM_VT_1129.pdb_6149.pdb o/345805_HEM_VT_1129.pdb_4752.pdb o/345805_HEM_VT_1129.pdb_6102.pdb o/345805_HEM_VT_1129.pdb_1524.pdb 
12 o/345805_HEM_VT_1129.pdb_7502.pdb o/345805_HEM_VT_1129.pdb_698.pdb o/345805_HEM_VT_1129.pdb_5585.pdb o/345805_HEM_VT_1129.pdb_5286.pdb o/345805_HEM_VT_1129.pdb_6804.pdb o/345805_HEM_VT_1129.pdb_5094.pdb o/345805_HEM_VT_1129.pdb_5005.pdb o/345805_HEM_VT_1129.pdb_5669.pdb o/345805_HEM_VT_1129.pdb_5127.pdb o/345805_HEM_VT_1129.pdb_1937.pdb o/345805_HEM_VT_1129.pdb_3853.pdb o/345805_HEM_VT_1129.pdb_1801.pdb 
10 o/345805_HEM_VT_1129.pdb_892.pdb o/345805_HEM_VT_1129.pdb_5535.pdb o/345805_HEM_VT_1129.pdb_4274.pdb o/345805_HEM_VT_1129.pdb_7550.pdb o/345805_HEM_VT_1129.pdb_5890.pdb o/345805_HEM_VT_1129.pdb_673.pdb o/345805_HEM_VT_1129.pdb_702.pdb o/345805_HEM_VT_1129.pdb_6004.pdb o/345805_HEM_VT_1129.pdb_3976.pdb o/345805_HEM_VT_1129.pdb_1655.pdb 
12 o/345805_HEM_VT_1129.pdb_9230.pdb o/345805_HEM_VT_1129.pdb_8302.pdb o/345805_HEM_VT_1129.pdb_6267.pdb o/345805_HEM_VT_1129.pdb_9236.pdb o/345805_HEM_VT_1129.pdb_5713.pdb o/345805_HEM_VT_1129.pdb_5494.pdb o/345805_HEM_VT_1129.pdb_6647.pdb o/345805_HEM_VT_1129.pdb_4590.pdb o/345805_HEM_VT_1129.pdb_4213.pdb o/345805_HEM_VT_1129.pdb_578.pdb o/345805_HEM_VT_1129.pdb_6252.pdb o/345805_HEM_VT_1129.pdb_2453.pdb 
13 o/345805_HEM_VT_1129.pdb_8367.pdb o/345805_HEM_VT_1129.pdb_8297.pdb o/345805_HEM_VT_1129.pdb_4054.pdb o/345805_HEM_VT_1129.pdb_3828.pdb o/345805_HEM_VT_1129.pdb_7745.pdb o/345805_HEM_VT_1129.pdb_6962.pdb o/345805_HEM_VT_1129.pdb_7834.pdb o/345805_HEM_VT_1129.pdb_2600.pdb o/345805_HEM_VT_1129.pdb_9215.pdb o/345805_HEM_VT_1129.pdb_4060.pdb o/345805_HEM_VT_1129.pdb_8284.pdb o/345805_HEM_VT_1129.pdb_2235.pdb o/345805_HEM_VT_1129.pdb_1121.pdb 
12 o/345805_HEM_VT_1129.pdb_9886.pdb o/345805_HEM_VT_1129.pdb_3983.pdb o/345805_HEM_VT_1129.pdb_3325.pdb o/345805_HEM_VT_1129.pdb_81.pdb o/345805_HEM_VT_1129.pdb_7267.pdb o/345805_HEM_VT_1129.pdb_7862.pdb o/345805_HEM_VT_1129.pdb_6742.pdb o/345805_HEM_VT_1129.pdb_7567.pdb o/345805_HEM_VT_1129.pdb_9737.pdb o/345805_HEM_VT_1129.pdb_7988.pdb o/345805_HEM_VT_1129.pdb_8101.pdb o/345805_HEM_VT_1129.pdb_3311.pdb 
12 o/345805_HEM_VT_1129.pdb_8868.pdb o/345805_HEM_VT_1129.pdb_8619.pdb o/345805_HEM_VT_1129.pdb_5852.pdb o/345805_HEM_VT_1129.pdb_9011.pdb o/345805_HEM_VT_1129.pdb_3505.pdb o/345805_HEM_VT_1129.pdb_7015.pdb o/345805_HEM_VT_1129.pdb_2745.pdb o/345805_HEM_VT_1129.pdb_9435.pdb o/345805_HEM_VT_1129.pdb_6924.pdb o/345805_HEM_VT_1129.pdb_657.pdb o/345805_HEM_VT_1129.pdb_1546.pdb o/345805_HEM_VT_1129.pdb_1075.pdb 
14 o/345805_HEM_VT_1129.pdb_2102.pdb o/345805_HEM_VT_1129.pdb_5972.pdb o/345805_HEM_VT_1129.pdb_4965.pdb o/345805_HEM_VT_1129.pdb_3968.pdb o/345805_HEM_VT_1129.pdb_1077.pdb o/345805_HEM_VT_1129.pdb_6325.pdb o/345805_HEM_VT_1129.pdb_4124.pdb o/345805_HEM_VT_1129.pdb_9253.pdb o/345805_HEM_VT_1129.pdb_9928.pdb o/345805_HEM_VT_1129.pdb_2911.pdb o/345805_HEM_VT_1129.pdb_2487.pdb o/345805_HEM_VT_1129.pdb_9603.pdb o/345805_HEM_VT_1129.pdb_3493.pdb o/345805_HEM_VT_1129.pdb_1069.pdb 
10 o/345805_HEM_VT_1129.pdb_9402.pdb o/345805_HEM_VT_1129.pdb_9462.pdb o/345805_HEM_VT_1129.pdb_4259.pdb o/345805_HEM_VT_1129.pdb_9770.pdb o/345805_HEM_VT_1129.pdb_845.pdb o/345805_HEM_VT_1129.pdb_3406.pdb o/345805_HEM_VT_1129.pdb_5742.pdb o/345805_HEM_VT_1129.pdb_9110.pdb o/345805_HEM_VT_1129.pdb_2598.pdb o/345805_HEM_VT_1129.pdb_1863.pdb 
10 o/345805_HEM_VT_1129.pdb_7677.pdb o/345805_HEM_VT_1129.pdb_7160.pdb o/345805_HEM_VT_1129.pdb_5207.pdb o/345805_HEM_VT_1129.pdb_3965.pdb o/345805_HEM_VT_1129.pdb_7756.pdb o/345805_HEM_VT_1129.pdb_341.pdb o/345805_HEM_VT_1129.pdb_4617.pdb o/345805_HEM_VT_1129.pdb_3544.pdb o/345805_HEM_VT_1129.pdb_7758.pdb o/345805_HEM_VT_1129.pdb_2725.pdb 
10 o/345805_HEM_VT_1129.pdb_8625.pdb o/345805_HEM_VT_1129.pdb_4739.pdb o/345805_HEM_VT_1129.pdb_9078.pdb o/345805_HEM_VT_1129.pdb_4017.pdb o/345805_HEM_VT_1129.pdb_1515.pdb o/345805_HEM_VT_1129.pdb_9019.pdb o/345805_HEM_VT_1129.pdb_8998.pdb o/345805_HEM_VT_1129.pdb_5743.pdb o/345805_HEM_VT_1129.pdb_5547.pdb o/345805_HEM_VT_1129.pdb_1039.pdb 
10 o/345805_HEM_VT_1129.pdb_969.pdb o/345805_HEM_VT_1129.pdb_3692.pdb o/345805_HEM_VT_1129.pdb_9498.pdb o/345805_HEM_VT_1129.pdb_2257.pdb o/345805_HEM_VT_1129.pdb_6254.pdb o/345805_HEM_VT_1129.pdb_395.pdb o/345805_HEM_VT_1129.pdb_1544.pdb o/345805_HEM_VT_1129.pdb_3197.pdb o/345805_HEM_VT_1129.pdb_9249.pdb o/345805_HEM_VT_1129.pdb_1306.pdb 
16 o/345805_HEM_VT_1129.pdb_9892.pdb o/345805_HEM_VT_1129.pdb_5340.pdb o/345805_HEM_VT_1129.pdb_6997.pdb o/345805_HEM_VT_1129.pdb_4462.pdb o/345805_HEM_VT_1129.pdb_8668.pdb o/345805_HEM_VT_1129.pdb_8335.pdb o/345805_HEM_VT_1129.pdb_1985.pdb o/345805_HEM_VT_1129.pdb_75.pdb o/345805_HEM_VT_1129.pdb_5528.pdb o/345805_HEM_VT_1129.pdb_1676.pdb o/345805_HEM_VT_1129.pdb_9390.pdb o/345805_HEM_VT_1129.pdb_2666.pdb o/345805_HEM_VT_1129.pdb_6257.pdb o/345805_HEM_VT_1129.pdb_144.pdb o/345805_HEM_VT_1129.pdb_5833.pdb o/345805_HEM_VT_1129.pdb_1203.pdb 
