10 o/KIR77383_HEM_Fluconazole.pdb_5546.pdb o/KIR77383_HEM_Fluconazole.pdb_8585.pdb o/KIR77383_HEM_Fluconazole.pdb_3788.pdb o/KIR77383_HEM_Fluconazole.pdb_6045.pdb o/KIR77383_HEM_Fluconazole.pdb_4778.pdb o/KIR77383_HEM_Fluconazole.pdb_1627.pdb o/KIR77383_HEM_Fluconazole.pdb_8239.pdb o/KIR77383_HEM_Fluconazole.pdb_1451.pdb o/KIR77383_HEM_Fluconazole.pdb_4415.pdb o/KIR77383_HEM_Fluconazole.pdb_1182.pdb 
12 o/KIR77383_HEM_Fluconazole.pdb_9611.pdb o/KIR77383_HEM_Fluconazole.pdb_4775.pdb o/KIR77383_HEM_Fluconazole.pdb_8608.pdb o/KIR77383_HEM_Fluconazole.pdb_6259.pdb o/KIR77383_HEM_Fluconazole.pdb_4638.pdb o/KIR77383_HEM_Fluconazole.pdb_4691.pdb o/KIR77383_HEM_Fluconazole.pdb_7867.pdb o/KIR77383_HEM_Fluconazole.pdb_3603.pdb o/KIR77383_HEM_Fluconazole.pdb_9670.pdb o/KIR77383_HEM_Fluconazole.pdb_5823.pdb o/KIR77383_HEM_Fluconazole.pdb_4670.pdb o/KIR77383_HEM_Fluconazole.pdb_3014.pdb 
12 o/KIR77383_HEM_Fluconazole.pdb_9240.pdb o/KIR77383_HEM_Fluconazole.pdb_7498.pdb o/KIR77383_HEM_Fluconazole.pdb_4569.pdb o/KIR77383_HEM_Fluconazole.pdb_8322.pdb o/KIR77383_HEM_Fluconazole.pdb_55.pdb o/KIR77383_HEM_Fluconazole.pdb_9494.pdb o/KIR77383_HEM_Fluconazole.pdb_5398.pdb o/KIR77383_HEM_Fluconazole.pdb_3975.pdb o/KIR77383_HEM_Fluconazole.pdb_282.pdb o/KIR77383_HEM_Fluconazole.pdb_7177.pdb o/KIR77383_HEM_Fluconazole.pdb_4748.pdb o/KIR77383_HEM_Fluconazole.pdb_2050.pdb 
10 o/KIR77383_HEM_Fluconazole.pdb_8506.pdb o/KIR77383_HEM_Fluconazole.pdb_8063.pdb o/KIR77383_HEM_Fluconazole.pdb_667.pdb o/KIR77383_HEM_Fluconazole.pdb_2908.pdb o/KIR77383_HEM_Fluconazole.pdb_4757.pdb o/KIR77383_HEM_Fluconazole.pdb_2148.pdb o/KIR77383_HEM_Fluconazole.pdb_6816.pdb o/KIR77383_HEM_Fluconazole.pdb_6809.pdb o/KIR77383_HEM_Fluconazole.pdb_6414.pdb o/KIR77383_HEM_Fluconazole.pdb_1737.pdb 
13 o/KIR77383_HEM_Fluconazole.pdb_9648.pdb o/KIR77383_HEM_Fluconazole.pdb_7009.pdb o/KIR77383_HEM_Fluconazole.pdb_643.pdb o/KIR77383_HEM_Fluconazole.pdb_4477.pdb o/KIR77383_HEM_Fluconazole.pdb_3297.pdb o/KIR77383_HEM_Fluconazole.pdb_9349.pdb o/KIR77383_HEM_Fluconazole.pdb_9452.pdb o/KIR77383_HEM_Fluconazole.pdb_7985.pdb o/KIR77383_HEM_Fluconazole.pdb_6892.pdb o/KIR77383_HEM_Fluconazole.pdb_4721.pdb o/KIR77383_HEM_Fluconazole.pdb_1841.pdb o/KIR77383_HEM_Fluconazole.pdb_3508.pdb o/KIR77383_HEM_Fluconazole.pdb_1244.pdb 
12 o/KIR77383_HEM_Fluconazole.pdb_9079.pdb o/KIR77383_HEM_Fluconazole.pdb_5131.pdb o/KIR77383_HEM_Fluconazole.pdb_8765.pdb o/KIR77383_HEM_Fluconazole.pdb_3352.pdb o/KIR77383_HEM_Fluconazole.pdb_8952.pdb o/KIR77383_HEM_Fluconazole.pdb_7491.pdb o/KIR77383_HEM_Fluconazole.pdb_9043.pdb o/KIR77383_HEM_Fluconazole.pdb_559.pdb o/KIR77383_HEM_Fluconazole.pdb_9310.pdb o/KIR77383_HEM_Fluconazole.pdb_5340.pdb o/KIR77383_HEM_Fluconazole.pdb_2599.pdb o/KIR77383_HEM_Fluconazole.pdb_2152.pdb 
11 o/KIR77383_HEM_Fluconazole.pdb_6222.pdb o/KIR77383_HEM_Fluconazole.pdb_9207.pdb o/KIR77383_HEM_Fluconazole.pdb_5134.pdb o/KIR77383_HEM_Fluconazole.pdb_2976.pdb o/KIR77383_HEM_Fluconazole.pdb_9265.pdb o/KIR77383_HEM_Fluconazole.pdb_5114.pdb o/KIR77383_HEM_Fluconazole.pdb_6446.pdb o/KIR77383_HEM_Fluconazole.pdb_5375.pdb o/KIR77383_HEM_Fluconazole.pdb_8069.pdb o/KIR77383_HEM_Fluconazole.pdb_2035.pdb o/KIR77383_HEM_Fluconazole.pdb_1260.pdb 
10 o/KIR77383_HEM_Fluconazole.pdb_7728.pdb o/KIR77383_HEM_Fluconazole.pdb_6761.pdb o/KIR77383_HEM_Fluconazole.pdb_7097.pdb o/KIR77383_HEM_Fluconazole.pdb_6149.pdb o/KIR77383_HEM_Fluconazole.pdb_6039.pdb o/KIR77383_HEM_Fluconazole.pdb_9122.pdb o/KIR77383_HEM_Fluconazole.pdb_3596.pdb o/KIR77383_HEM_Fluconazole.pdb_3597.pdb o/KIR77383_HEM_Fluconazole.pdb_3270.pdb o/KIR77383_HEM_Fluconazole.pdb_164.pdb 
13 o/KIR77383_HEM_Fluconazole.pdb_6954.pdb o/KIR77383_HEM_Fluconazole.pdb_3165.pdb o/KIR77383_HEM_Fluconazole.pdb_6210.pdb o/KIR77383_HEM_Fluconazole.pdb_2600.pdb o/KIR77383_HEM_Fluconazole.pdb_7872.pdb o/KIR77383_HEM_Fluconazole.pdb_8888.pdb o/KIR77383_HEM_Fluconazole.pdb_6215.pdb o/KIR77383_HEM_Fluconazole.pdb_8930.pdb o/KIR77383_HEM_Fluconazole.pdb_3201.pdb o/KIR77383_HEM_Fluconazole.pdb_7342.pdb o/KIR77383_HEM_Fluconazole.pdb_8672.pdb o/KIR77383_HEM_Fluconazole.pdb_2131.pdb o/KIR77383_HEM_Fluconazole.pdb_1337.pdb 
10 o/KIR77383_HEM_Fluconazole.pdb_582.pdb o/KIR77383_HEM_Fluconazole.pdb_5769.pdb o/KIR77383_HEM_Fluconazole.pdb_4512.pdb o/KIR77383_HEM_Fluconazole.pdb_5873.pdb o/KIR77383_HEM_Fluconazole.pdb_2674.pdb o/KIR77383_HEM_Fluconazole.pdb_1710.pdb o/KIR77383_HEM_Fluconazole.pdb_8893.pdb o/KIR77383_HEM_Fluconazole.pdb_9746.pdb o/KIR77383_HEM_Fluconazole.pdb_2743.pdb o/KIR77383_HEM_Fluconazole.pdb_1303.pdb 
