10 o/627561_HEM_Eburicol.pdb_5587.pdb o/627561_HEM_Eburicol.pdb_4982.pdb o/627561_HEM_Eburicol.pdb_3130.pdb o/627561_HEM_Eburicol.pdb_6110.pdb o/627561_HEM_Eburicol.pdb_4041.pdb o/627561_HEM_Eburicol.pdb_7523.pdb o/627561_HEM_Eburicol.pdb_8427.pdb o/627561_HEM_Eburicol.pdb_7775.pdb o/627561_HEM_Eburicol.pdb_4372.pdb o/627561_HEM_Eburicol.pdb_2483.pdb 
10 o/627561_HEM_Eburicol.pdb_7333.pdb o/627561_HEM_Eburicol.pdb_3254.pdb o/627561_HEM_Eburicol.pdb_6940.pdb o/627561_HEM_Eburicol.pdb_2030.pdb o/627561_HEM_Eburicol.pdb_2980.pdb o/627561_HEM_Eburicol.pdb_2388.pdb o/627561_HEM_Eburicol.pdb_7052.pdb o/627561_HEM_Eburicol.pdb_286.pdb o/627561_HEM_Eburicol.pdb_7896.pdb o/627561_HEM_Eburicol.pdb_1474.pdb 
12 o/627561_HEM_Eburicol.pdb_8374.pdb o/627561_HEM_Eburicol.pdb_2419.pdb o/627561_HEM_Eburicol.pdb_5784.pdb o/627561_HEM_Eburicol.pdb_6624.pdb o/627561_HEM_Eburicol.pdb_2112.pdb o/627561_HEM_Eburicol.pdb_6916.pdb o/627561_HEM_Eburicol.pdb_5838.pdb o/627561_HEM_Eburicol.pdb_5487.pdb o/627561_HEM_Eburicol.pdb_7380.pdb o/627561_HEM_Eburicol.pdb_8298.pdb o/627561_HEM_Eburicol.pdb_5976.pdb o/627561_HEM_Eburicol.pdb_1697.pdb 
12 o/627561_HEM_Eburicol.pdb_9923.pdb o/627561_HEM_Eburicol.pdb_4406.pdb o/627561_HEM_Eburicol.pdb_5354.pdb o/627561_HEM_Eburicol.pdb_9341.pdb o/627561_HEM_Eburicol.pdb_2967.pdb o/627561_HEM_Eburicol.pdb_230.pdb o/627561_HEM_Eburicol.pdb_9391.pdb o/627561_HEM_Eburicol.pdb_5807.pdb o/627561_HEM_Eburicol.pdb_5126.pdb o/627561_HEM_Eburicol.pdb_4105.pdb o/627561_HEM_Eburicol.pdb_3376.pdb o/627561_HEM_Eburicol.pdb_1261.pdb 
12 o/627561_HEM_Eburicol.pdb_5674.pdb o/627561_HEM_Eburicol.pdb_8831.pdb o/627561_HEM_Eburicol.pdb_9241.pdb o/627561_HEM_Eburicol.pdb_7867.pdb o/627561_HEM_Eburicol.pdb_4172.pdb o/627561_HEM_Eburicol.pdb_6565.pdb o/627561_HEM_Eburicol.pdb_7930.pdb o/627561_HEM_Eburicol.pdb_4003.pdb o/627561_HEM_Eburicol.pdb_677.pdb o/627561_HEM_Eburicol.pdb_3344.pdb o/627561_HEM_Eburicol.pdb_5075.pdb o/627561_HEM_Eburicol.pdb_1963.pdb 
11 o/627561_HEM_Eburicol.pdb_6155.pdb o/627561_HEM_Eburicol.pdb_3689.pdb o/627561_HEM_Eburicol.pdb_8497.pdb o/627561_HEM_Eburicol.pdb_7214.pdb o/627561_HEM_Eburicol.pdb_3866.pdb o/627561_HEM_Eburicol.pdb_6038.pdb o/627561_HEM_Eburicol.pdb_5663.pdb o/627561_HEM_Eburicol.pdb_3721.pdb o/627561_HEM_Eburicol.pdb_7057.pdb o/627561_HEM_Eburicol.pdb_4727.pdb o/627561_HEM_Eburicol.pdb_2696.pdb 
13 o/627561_HEM_Eburicol.pdb_5972.pdb o/627561_HEM_Eburicol.pdb_912.pdb o/627561_HEM_Eburicol.pdb_5933.pdb o/627561_HEM_Eburicol.pdb_9595.pdb o/627561_HEM_Eburicol.pdb_7872.pdb o/627561_HEM_Eburicol.pdb_3035.pdb o/627561_HEM_Eburicol.pdb_9972.pdb o/627561_HEM_Eburicol.pdb_9217.pdb o/627561_HEM_Eburicol.pdb_8550.pdb o/627561_HEM_Eburicol.pdb_6806.pdb o/627561_HEM_Eburicol.pdb_4862.pdb o/627561_HEM_Eburicol.pdb_5344.pdb o/627561_HEM_Eburicol.pdb_2524.pdb 
10 o/627561_HEM_Eburicol.pdb_3352.pdb o/627561_HEM_Eburicol.pdb_6488.pdb o/627561_HEM_Eburicol.pdb_7538.pdb o/627561_HEM_Eburicol.pdb_5276.pdb o/627561_HEM_Eburicol.pdb_9471.pdb o/627561_HEM_Eburicol.pdb_5117.pdb o/627561_HEM_Eburicol.pdb_1905.pdb o/627561_HEM_Eburicol.pdb_5769.pdb o/627561_HEM_Eburicol.pdb_83.pdb o/627561_HEM_Eburicol.pdb_1729.pdb 
15 o/627561_HEM_Eburicol.pdb_6935.pdb o/627561_HEM_Eburicol.pdb_4271.pdb o/627561_HEM_Eburicol.pdb_8343.pdb o/627561_HEM_Eburicol.pdb_7745.pdb o/627561_HEM_Eburicol.pdb_653.pdb o/627561_HEM_Eburicol.pdb_2917.pdb o/627561_HEM_Eburicol.pdb_2507.pdb o/627561_HEM_Eburicol.pdb_6162.pdb o/627561_HEM_Eburicol.pdb_6884.pdb o/627561_HEM_Eburicol.pdb_665.pdb o/627561_HEM_Eburicol.pdb_5101.pdb o/627561_HEM_Eburicol.pdb_3424.pdb o/627561_HEM_Eburicol.pdb_4888.pdb o/627561_HEM_Eburicol.pdb_4190.pdb o/627561_HEM_Eburicol.pdb_1187.pdb 
16 o/627561_HEM_Eburicol.pdb_2979.pdb o/627561_HEM_Eburicol.pdb_2266.pdb o/627561_HEM_Eburicol.pdb_5282.pdb o/627561_HEM_Eburicol.pdb_5192.pdb o/627561_HEM_Eburicol.pdb_5148.pdb o/627561_HEM_Eburicol.pdb_4055.pdb o/627561_HEM_Eburicol.pdb_125.pdb o/627561_HEM_Eburicol.pdb_7787.pdb o/627561_HEM_Eburicol.pdb_928.pdb o/627561_HEM_Eburicol.pdb_7924.pdb o/627561_HEM_Eburicol.pdb_8597.pdb o/627561_HEM_Eburicol.pdb_7404.pdb o/627561_HEM_Eburicol.pdb_5948.pdb o/627561_HEM_Eburicol.pdb_5895.pdb o/627561_HEM_Eburicol.pdb_1713.pdb o/627561_HEM_Eburicol.pdb_1241.pdb 
10 o/627561_HEM_Eburicol.pdb_571.pdb o/627561_HEM_Eburicol.pdb_5351.pdb o/627561_HEM_Eburicol.pdb_2700.pdb o/627561_HEM_Eburicol.pdb_7718.pdb o/627561_HEM_Eburicol.pdb_5176.pdb o/627561_HEM_Eburicol.pdb_8794.pdb o/627561_HEM_Eburicol.pdb_5480.pdb o/627561_HEM_Eburicol.pdb_2289.pdb o/627561_HEM_Eburicol.pdb_916.pdb o/627561_HEM_Eburicol.pdb_1893.pdb 
11 o/627561_HEM_Eburicol.pdb_2601.pdb o/627561_HEM_Eburicol.pdb_4160.pdb o/627561_HEM_Eburicol.pdb_9096.pdb o/627561_HEM_Eburicol.pdb_2449.pdb o/627561_HEM_Eburicol.pdb_9229.pdb o/627561_HEM_Eburicol.pdb_7465.pdb o/627561_HEM_Eburicol.pdb_6429.pdb o/627561_HEM_Eburicol.pdb_8902.pdb o/627561_HEM_Eburicol.pdb_8535.pdb o/627561_HEM_Eburicol.pdb_5106.pdb o/627561_HEM_Eburicol.pdb_1557.pdb 
13 o/627561_HEM_Eburicol.pdb_9603.pdb o/627561_HEM_Eburicol.pdb_5496.pdb o/627561_HEM_Eburicol.pdb_8217.pdb o/627561_HEM_Eburicol.pdb_7413.pdb o/627561_HEM_Eburicol.pdb_6445.pdb o/627561_HEM_Eburicol.pdb_4032.pdb o/627561_HEM_Eburicol.pdb_9991.pdb o/627561_HEM_Eburicol.pdb_7648.pdb o/627561_HEM_Eburicol.pdb_9232.pdb o/627561_HEM_Eburicol.pdb_9115.pdb o/627561_HEM_Eburicol.pdb_7641.pdb o/627561_HEM_Eburicol.pdb_3021.pdb o/627561_HEM_Eburicol.pdb_2856.pdb 
14 o/627561_HEM_Eburicol.pdb_9793.pdb o/627561_HEM_Eburicol.pdb_8749.pdb o/627561_HEM_Eburicol.pdb_562.pdb o/627561_HEM_Eburicol.pdb_4774.pdb o/627561_HEM_Eburicol.pdb_3331.pdb o/627561_HEM_Eburicol.pdb_2389.pdb o/627561_HEM_Eburicol.pdb_6455.pdb o/627561_HEM_Eburicol.pdb_6092.pdb o/627561_HEM_Eburicol.pdb_1435.pdb o/627561_HEM_Eburicol.pdb_5283.pdb o/627561_HEM_Eburicol.pdb_3638.pdb o/627561_HEM_Eburicol.pdb_1748.pdb o/627561_HEM_Eburicol.pdb_7528.pdb o/627561_HEM_Eburicol.pdb_1105.pdb 
10 o/627561_HEM_Eburicol.pdb_6326.pdb o/627561_HEM_Eburicol.pdb_4054.pdb o/627561_HEM_Eburicol.pdb_4486.pdb o/627561_HEM_Eburicol.pdb_1249.pdb o/627561_HEM_Eburicol.pdb_8643.pdb o/627561_HEM_Eburicol.pdb_5563.pdb o/627561_HEM_Eburicol.pdb_6283.pdb o/627561_HEM_Eburicol.pdb_3386.pdb o/627561_HEM_Eburicol.pdb_3261.pdb o/627561_HEM_Eburicol.pdb_1104.pdb 
14 o/627561_HEM_Eburicol.pdb_6954.pdb o/627561_HEM_Eburicol.pdb_6303.pdb o/627561_HEM_Eburicol.pdb_2569.pdb o/627561_HEM_Eburicol.pdb_5708.pdb o/627561_HEM_Eburicol.pdb_3249.pdb o/627561_HEM_Eburicol.pdb_9618.pdb o/627561_HEM_Eburicol.pdb_475.pdb o/627561_HEM_Eburicol.pdb_3212.pdb o/627561_HEM_Eburicol.pdb_6551.pdb o/627561_HEM_Eburicol.pdb_8693.pdb o/627561_HEM_Eburicol.pdb_5678.pdb o/627561_HEM_Eburicol.pdb_9710.pdb o/627561_HEM_Eburicol.pdb_2169.pdb o/627561_HEM_Eburicol.pdb_1886.pdb 
11 o/627561_HEM_Eburicol.pdb_8898.pdb o/627561_HEM_Eburicol.pdb_8309.pdb o/627561_HEM_Eburicol.pdb_6598.pdb o/627561_HEM_Eburicol.pdb_6169.pdb o/627561_HEM_Eburicol.pdb_1466.pdb o/627561_HEM_Eburicol.pdb_6333.pdb o/627561_HEM_Eburicol.pdb_7370.pdb o/627561_HEM_Eburicol.pdb_3146.pdb o/627561_HEM_Eburicol.pdb_8980.pdb o/627561_HEM_Eburicol.pdb_2213.pdb o/627561_HEM_Eburicol.pdb_139.pdb 
10 o/627561_HEM_Eburicol.pdb_8257.pdb o/627561_HEM_Eburicol.pdb_8231.pdb o/627561_HEM_Eburicol.pdb_3601.pdb o/627561_HEM_Eburicol.pdb_2340.pdb o/627561_HEM_Eburicol.pdb_7034.pdb o/627561_HEM_Eburicol.pdb_6694.pdb o/627561_HEM_Eburicol.pdb_582.pdb o/627561_HEM_Eburicol.pdb_1753.pdb o/627561_HEM_Eburicol.pdb_1708.pdb o/627561_HEM_Eburicol.pdb_1083.pdb 
16 o/627561_HEM_Eburicol.pdb_6003.pdb o/627561_HEM_Eburicol.pdb_496.pdb o/627561_HEM_Eburicol.pdb_4144.pdb o/627561_HEM_Eburicol.pdb_3288.pdb o/627561_HEM_Eburicol.pdb_1454.pdb o/627561_HEM_Eburicol.pdb_3308.pdb o/627561_HEM_Eburicol.pdb_8307.pdb o/627561_HEM_Eburicol.pdb_7387.pdb o/627561_HEM_Eburicol.pdb_3380.pdb o/627561_HEM_Eburicol.pdb_8837.pdb o/627561_HEM_Eburicol.pdb_8144.pdb o/627561_HEM_Eburicol.pdb_5944.pdb o/627561_HEM_Eburicol.pdb_5467.pdb o/627561_HEM_Eburicol.pdb_8649.pdb o/627561_HEM_Eburicol.pdb_449.pdb o/627561_HEM_Eburicol.pdb_1226.pdb 
11 o/627561_HEM_Eburicol.pdb_8640.pdb o/627561_HEM_Eburicol.pdb_5768.pdb o/627561_HEM_Eburicol.pdb_5229.pdb o/627561_HEM_Eburicol.pdb_484.pdb o/627561_HEM_Eburicol.pdb_6051.pdb o/627561_HEM_Eburicol.pdb_5779.pdb o/627561_HEM_Eburicol.pdb_7922.pdb o/627561_HEM_Eburicol.pdb_7580.pdb o/627561_HEM_Eburicol.pdb_4953.pdb o/627561_HEM_Eburicol.pdb_3403.pdb o/627561_HEM_Eburicol.pdb_3402.pdb 
12 o/627561_HEM_Eburicol.pdb_6532.pdb o/627561_HEM_Eburicol.pdb_2228.pdb o/627561_HEM_Eburicol.pdb_723.pdb o/627561_HEM_Eburicol.pdb_1912.pdb o/627561_HEM_Eburicol.pdb_8912.pdb o/627561_HEM_Eburicol.pdb_474.pdb o/627561_HEM_Eburicol.pdb_2764.pdb o/627561_HEM_Eburicol.pdb_1959.pdb o/627561_HEM_Eburicol.pdb_5548.pdb o/627561_HEM_Eburicol.pdb_3580.pdb o/627561_HEM_Eburicol.pdb_9558.pdb o/627561_HEM_Eburicol.pdb_1757.pdb 
11 o/627561_HEM_Eburicol.pdb_9643.pdb o/627561_HEM_Eburicol.pdb_3958.pdb o/627561_HEM_Eburicol.pdb_2918.pdb o/627561_HEM_Eburicol.pdb_807.pdb o/627561_HEM_Eburicol.pdb_2116.pdb o/627561_HEM_Eburicol.pdb_3880.pdb o/627561_HEM_Eburicol.pdb_1811.pdb o/627561_HEM_Eburicol.pdb_7442.pdb o/627561_HEM_Eburicol.pdb_8220.pdb o/627561_HEM_Eburicol.pdb_9429.pdb o/627561_HEM_Eburicol.pdb_1216.pdb 
10 o/627561_HEM_Eburicol.pdb_9743.pdb o/627561_HEM_Eburicol.pdb_4036.pdb o/627561_HEM_Eburicol.pdb_3541.pdb o/627561_HEM_Eburicol.pdb_2245.pdb o/627561_HEM_Eburicol.pdb_2048.pdb o/627561_HEM_Eburicol.pdb_8432.pdb o/627561_HEM_Eburicol.pdb_1470.pdb o/627561_HEM_Eburicol.pdb_4528.pdb o/627561_HEM_Eburicol.pdb_5913.pdb o/627561_HEM_Eburicol.pdb_1040.pdb 
16 o/627561_HEM_Eburicol.pdb_9641.pdb o/627561_HEM_Eburicol.pdb_5736.pdb o/627561_HEM_Eburicol.pdb_3948.pdb o/627561_HEM_Eburicol.pdb_7000.pdb o/627561_HEM_Eburicol.pdb_5383.pdb o/627561_HEM_Eburicol.pdb_4699.pdb o/627561_HEM_Eburicol.pdb_1054.pdb o/627561_HEM_Eburicol.pdb_6602.pdb o/627561_HEM_Eburicol.pdb_4326.pdb o/627561_HEM_Eburicol.pdb_8444.pdb o/627561_HEM_Eburicol.pdb_2072.pdb o/627561_HEM_Eburicol.pdb_7595.pdb o/627561_HEM_Eburicol.pdb_4854.pdb o/627561_HEM_Eburicol.pdb_6759.pdb o/627561_HEM_Eburicol.pdb_861.pdb o/627561_HEM_Eburicol.pdb_1012.pdb 
15 o/627561_HEM_Eburicol.pdb_3682.pdb o/627561_HEM_Eburicol.pdb_9082.pdb o/627561_HEM_Eburicol.pdb_4827.pdb o/627561_HEM_Eburicol.pdb_345.pdb o/627561_HEM_Eburicol.pdb_7628.pdb o/627561_HEM_Eburicol.pdb_8458.pdb o/627561_HEM_Eburicol.pdb_318.pdb o/627561_HEM_Eburicol.pdb_7305.pdb o/627561_HEM_Eburicol.pdb_7371.pdb o/627561_HEM_Eburicol.pdb_9346.pdb o/627561_HEM_Eburicol.pdb_7429.pdb o/627561_HEM_Eburicol.pdb_6422.pdb o/627561_HEM_Eburicol.pdb_4758.pdb o/627561_HEM_Eburicol.pdb_8960.pdb o/627561_HEM_Eburicol.pdb_3108.pdb 
