15 o/627561_HEM_Eburicol.pdb_5162.pdb o/627561_HEM_Eburicol.pdb_4476.pdb o/627561_HEM_Eburicol.pdb_8115.pdb o/627561_HEM_Eburicol.pdb_6491.pdb o/627561_HEM_Eburicol.pdb_4319.pdb o/627561_HEM_Eburicol.pdb_5587.pdb o/627561_HEM_Eburicol.pdb_4982.pdb o/627561_HEM_Eburicol.pdb_3130.pdb o/627561_HEM_Eburicol.pdb_6110.pdb o/627561_HEM_Eburicol.pdb_4041.pdb o/627561_HEM_Eburicol.pdb_7523.pdb o/627561_HEM_Eburicol.pdb_8427.pdb o/627561_HEM_Eburicol.pdb_7775.pdb o/627561_HEM_Eburicol.pdb_4372.pdb o/627561_HEM_Eburicol.pdb_2483.pdb 
12 o/627561_HEM_Eburicol.pdb_8420.pdb o/627561_HEM_Eburicol.pdb_7625.pdb o/627561_HEM_Eburicol.pdb_9663.pdb o/627561_HEM_Eburicol.pdb_5138.pdb o/627561_HEM_Eburicol.pdb_6231.pdb o/627561_HEM_Eburicol.pdb_3709.pdb o/627561_HEM_Eburicol.pdb_9992.pdb o/627561_HEM_Eburicol.pdb_3052.pdb o/627561_HEM_Eburicol.pdb_5339.pdb o/627561_HEM_Eburicol.pdb_8353.pdb o/627561_HEM_Eburicol.pdb_4751.pdb o/627561_HEM_Eburicol.pdb_2356.pdb 
10 o/627561_HEM_Eburicol.pdb_5825.pdb o/627561_HEM_Eburicol.pdb_633.pdb o/627561_HEM_Eburicol.pdb_3632.pdb o/627561_HEM_Eburicol.pdb_8176.pdb o/627561_HEM_Eburicol.pdb_7251.pdb o/627561_HEM_Eburicol.pdb_3645.pdb o/627561_HEM_Eburicol.pdb_7652.pdb o/627561_HEM_Eburicol.pdb_6179.pdb o/627561_HEM_Eburicol.pdb_7013.pdb o/627561_HEM_Eburicol.pdb_2313.pdb 
11 o/627561_HEM_Eburicol.pdb_8908.pdb o/627561_HEM_Eburicol.pdb_7577.pdb o/627561_HEM_Eburicol.pdb_7509.pdb o/627561_HEM_Eburicol.pdb_7029.pdb o/627561_HEM_Eburicol.pdb_8695.pdb o/627561_HEM_Eburicol.pdb_4869.pdb o/627561_HEM_Eburicol.pdb_419.pdb o/627561_HEM_Eburicol.pdb_992.pdb o/627561_HEM_Eburicol.pdb_8359.pdb o/627561_HEM_Eburicol.pdb_68.pdb o/627561_HEM_Eburicol.pdb_3991.pdb 
10 o/627561_HEM_Eburicol.pdb_5857.pdb o/627561_HEM_Eburicol.pdb_7597.pdb o/627561_HEM_Eburicol.pdb_6573.pdb o/627561_HEM_Eburicol.pdb_4527.pdb o/627561_HEM_Eburicol.pdb_9135.pdb o/627561_HEM_Eburicol.pdb_8872.pdb o/627561_HEM_Eburicol.pdb_6134.pdb o/627561_HEM_Eburicol.pdb_507.pdb o/627561_HEM_Eburicol.pdb_4952.pdb o/627561_HEM_Eburicol.pdb_2298.pdb 
14 o/627561_HEM_Eburicol.pdb_8570.pdb o/627561_HEM_Eburicol.pdb_7.pdb o/627561_HEM_Eburicol.pdb_5622.pdb o/627561_HEM_Eburicol.pdb_4536.pdb o/627561_HEM_Eburicol.pdb_3999.pdb o/627561_HEM_Eburicol.pdb_6202.pdb o/627561_HEM_Eburicol.pdb_5320.pdb o/627561_HEM_Eburicol.pdb_414.pdb o/627561_HEM_Eburicol.pdb_6682.pdb o/627561_HEM_Eburicol.pdb_2486.pdb o/627561_HEM_Eburicol.pdb_513.pdb o/627561_HEM_Eburicol.pdb_3992.pdb o/627561_HEM_Eburicol.pdb_9013.pdb o/627561_HEM_Eburicol.pdb_1859.pdb 
10 o/627561_HEM_Eburicol.pdb_9568.pdb o/627561_HEM_Eburicol.pdb_264.pdb o/627561_HEM_Eburicol.pdb_4288.pdb o/627561_HEM_Eburicol.pdb_1844.pdb o/627561_HEM_Eburicol.pdb_812.pdb o/627561_HEM_Eburicol.pdb_1838.pdb o/627561_HEM_Eburicol.pdb_9848.pdb o/627561_HEM_Eburicol.pdb_4056.pdb o/627561_HEM_Eburicol.pdb_9745.pdb o/627561_HEM_Eburicol.pdb_1686.pdb 
16 o/627561_HEM_Eburicol.pdb_7078.pdb o/627561_HEM_Eburicol.pdb_4311.pdb o/627561_HEM_Eburicol.pdb_4075.pdb o/627561_HEM_Eburicol.pdb_8660.pdb o/627561_HEM_Eburicol.pdb_3839.pdb o/627561_HEM_Eburicol.pdb_2903.pdb o/627561_HEM_Eburicol.pdb_6069.pdb o/627561_HEM_Eburicol.pdb_8694.pdb o/627561_HEM_Eburicol.pdb_2790.pdb o/627561_HEM_Eburicol.pdb_7046.pdb o/627561_HEM_Eburicol.pdb_3987.pdb o/627561_HEM_Eburicol.pdb_3562.pdb o/627561_HEM_Eburicol.pdb_2648.pdb o/627561_HEM_Eburicol.pdb_7678.pdb o/627561_HEM_Eburicol.pdb_2461.pdb o/627561_HEM_Eburicol.pdb_2009.pdb 
10 o/627561_HEM_Eburicol.pdb_6197.pdb o/627561_HEM_Eburicol.pdb_7919.pdb o/627561_HEM_Eburicol.pdb_570.pdb o/627561_HEM_Eburicol.pdb_6425.pdb o/627561_HEM_Eburicol.pdb_5328.pdb o/627561_HEM_Eburicol.pdb_9990.pdb o/627561_HEM_Eburicol.pdb_6216.pdb o/627561_HEM_Eburicol.pdb_4725.pdb o/627561_HEM_Eburicol.pdb_4494.pdb o/627561_HEM_Eburicol.pdb_3919.pdb 
11 o/627561_HEM_Eburicol.pdb_3896.pdb o/627561_HEM_Eburicol.pdb_6866.pdb o/627561_HEM_Eburicol.pdb_8975.pdb o/627561_HEM_Eburicol.pdb_4093.pdb o/627561_HEM_Eburicol.pdb_6539.pdb o/627561_HEM_Eburicol.pdb_8893.pdb o/627561_HEM_Eburicol.pdb_385.pdb o/627561_HEM_Eburicol.pdb_772.pdb o/627561_HEM_Eburicol.pdb_5346.pdb o/627561_HEM_Eburicol.pdb_892.pdb o/627561_HEM_Eburicol.pdb_2208.pdb 
10 o/627561_HEM_Eburicol.pdb_6676.pdb o/627561_HEM_Eburicol.pdb_4664.pdb o/627561_HEM_Eburicol.pdb_4651.pdb o/627561_HEM_Eburicol.pdb_5816.pdb o/627561_HEM_Eburicol.pdb_4152.pdb o/627561_HEM_Eburicol.pdb_9459.pdb o/627561_HEM_Eburicol.pdb_3277.pdb o/627561_HEM_Eburicol.pdb_8974.pdb o/627561_HEM_Eburicol.pdb_2549.pdb o/627561_HEM_Eburicol.pdb_1571.pdb 
10 o/627561_HEM_Eburicol.pdb_2189.pdb o/627561_HEM_Eburicol.pdb_9494.pdb o/627561_HEM_Eburicol.pdb_6740.pdb o/627561_HEM_Eburicol.pdb_2074.pdb o/627561_HEM_Eburicol.pdb_6847.pdb o/627561_HEM_Eburicol.pdb_1745.pdb o/627561_HEM_Eburicol.pdb_9971.pdb o/627561_HEM_Eburicol.pdb_6089.pdb o/627561_HEM_Eburicol.pdb_9477.pdb o/627561_HEM_Eburicol.pdb_1553.pdb 
12 o/627561_HEM_Eburicol.pdb_5414.pdb o/627561_HEM_Eburicol.pdb_1813.pdb o/627561_HEM_Eburicol.pdb_8579.pdb o/627561_HEM_Eburicol.pdb_8641.pdb o/627561_HEM_Eburicol.pdb_7900.pdb o/627561_HEM_Eburicol.pdb_5874.pdb o/627561_HEM_Eburicol.pdb_1642.pdb o/627561_HEM_Eburicol.pdb_1554.pdb o/627561_HEM_Eburicol.pdb_8131.pdb o/627561_HEM_Eburicol.pdb_3421.pdb o/627561_HEM_Eburicol.pdb_5541.pdb o/627561_HEM_Eburicol.pdb_1472.pdb 
13 o/627561_HEM_Eburicol.pdb_5688.pdb o/627561_HEM_Eburicol.pdb_6325.pdb o/627561_HEM_Eburicol.pdb_4006.pdb o/627561_HEM_Eburicol.pdb_8883.pdb o/627561_HEM_Eburicol.pdb_67.pdb o/627561_HEM_Eburicol.pdb_3836.pdb o/627561_HEM_Eburicol.pdb_3687.pdb o/627561_HEM_Eburicol.pdb_8867.pdb o/627561_HEM_Eburicol.pdb_4248.pdb o/627561_HEM_Eburicol.pdb_4183.pdb o/627561_HEM_Eburicol.pdb_8528.pdb o/627561_HEM_Eburicol.pdb_8620.pdb o/627561_HEM_Eburicol.pdb_2128.pdb 
10 o/627561_HEM_Eburicol.pdb_8490.pdb o/627561_HEM_Eburicol.pdb_820.pdb o/627561_HEM_Eburicol.pdb_4155.pdb o/627561_HEM_Eburicol.pdb_8346.pdb o/627561_HEM_Eburicol.pdb_7804.pdb o/627561_HEM_Eburicol.pdb_9905.pdb o/627561_HEM_Eburicol.pdb_7522.pdb o/627561_HEM_Eburicol.pdb_7368.pdb o/627561_HEM_Eburicol.pdb_8956.pdb o/627561_HEM_Eburicol.pdb_1676.pdb 
10 o/627561_HEM_Eburicol.pdb_8692.pdb o/627561_HEM_Eburicol.pdb_5455.pdb o/627561_HEM_Eburicol.pdb_7138.pdb o/627561_HEM_Eburicol.pdb_5187.pdb o/627561_HEM_Eburicol.pdb_879.pdb o/627561_HEM_Eburicol.pdb_6441.pdb o/627561_HEM_Eburicol.pdb_6037.pdb o/627561_HEM_Eburicol.pdb_2985.pdb o/627561_HEM_Eburicol.pdb_216.pdb o/627561_HEM_Eburicol.pdb_1443.pdb 
10 o/627561_HEM_Eburicol.pdb_9017.pdb o/627561_HEM_Eburicol.pdb_9438.pdb o/627561_HEM_Eburicol.pdb_5782.pdb o/627561_HEM_Eburicol.pdb_9748.pdb o/627561_HEM_Eburicol.pdb_4537.pdb o/627561_HEM_Eburicol.pdb_9561.pdb o/627561_HEM_Eburicol.pdb_8666.pdb o/627561_HEM_Eburicol.pdb_9609.pdb o/627561_HEM_Eburicol.pdb_6983.pdb o/627561_HEM_Eburicol.pdb_4168.pdb 
16 o/627561_HEM_Eburicol.pdb_9001.pdb o/627561_HEM_Eburicol.pdb_7364.pdb o/627561_HEM_Eburicol.pdb_4673.pdb o/627561_HEM_Eburicol.pdb_6614.pdb o/627561_HEM_Eburicol.pdb_4947.pdb o/627561_HEM_Eburicol.pdb_4284.pdb o/627561_HEM_Eburicol.pdb_9104.pdb o/627561_HEM_Eburicol.pdb_639.pdb o/627561_HEM_Eburicol.pdb_3763.pdb o/627561_HEM_Eburicol.pdb_7279.pdb o/627561_HEM_Eburicol.pdb_3537.pdb o/627561_HEM_Eburicol.pdb_8226.pdb o/627561_HEM_Eburicol.pdb_8923.pdb o/627561_HEM_Eburicol.pdb_533.pdb o/627561_HEM_Eburicol.pdb_3500.pdb o/627561_HEM_Eburicol.pdb_3341.pdb 
15 o/627561_HEM_Eburicol.pdb_8371.pdb o/627561_HEM_Eburicol.pdb_2755.pdb o/627561_HEM_Eburicol.pdb_99.pdb o/627561_HEM_Eburicol.pdb_4037.pdb o/627561_HEM_Eburicol.pdb_7048.pdb o/627561_HEM_Eburicol.pdb_7921.pdb o/627561_HEM_Eburicol.pdb_2562.pdb o/627561_HEM_Eburicol.pdb_6783.pdb o/627561_HEM_Eburicol.pdb_6165.pdb o/627561_HEM_Eburicol.pdb_3333.pdb o/627561_HEM_Eburicol.pdb_9037.pdb o/627561_HEM_Eburicol.pdb_4216.pdb o/627561_HEM_Eburicol.pdb_4642.pdb o/627561_HEM_Eburicol.pdb_2945.pdb o/627561_HEM_Eburicol.pdb_2361.pdb 
10 o/627561_HEM_Eburicol.pdb_9919.pdb o/627561_HEM_Eburicol.pdb_7270.pdb o/627561_HEM_Eburicol.pdb_6381.pdb o/627561_HEM_Eburicol.pdb_7031.pdb o/627561_HEM_Eburicol.pdb_7497.pdb o/627561_HEM_Eburicol.pdb_3917.pdb o/627561_HEM_Eburicol.pdb_8765.pdb o/627561_HEM_Eburicol.pdb_6555.pdb o/627561_HEM_Eburicol.pdb_4643.pdb o/627561_HEM_Eburicol.pdb_3641.pdb 
13 o/627561_HEM_Eburicol.pdb_9962.pdb o/627561_HEM_Eburicol.pdb_9605.pdb o/627561_HEM_Eburicol.pdb_8713.pdb o/627561_HEM_Eburicol.pdb_7662.pdb o/627561_HEM_Eburicol.pdb_4019.pdb o/627561_HEM_Eburicol.pdb_3828.pdb o/627561_HEM_Eburicol.pdb_7420.pdb o/627561_HEM_Eburicol.pdb_7054.pdb o/627561_HEM_Eburicol.pdb_3658.pdb o/627561_HEM_Eburicol.pdb_8162.pdb o/627561_HEM_Eburicol.pdb_6773.pdb o/627561_HEM_Eburicol.pdb_4635.pdb o/627561_HEM_Eburicol.pdb_14.pdb 
10 o/627561_HEM_Eburicol.pdb_9470.pdb o/627561_HEM_Eburicol.pdb_6877.pdb o/627561_HEM_Eburicol.pdb_8532.pdb o/627561_HEM_Eburicol.pdb_785.pdb o/627561_HEM_Eburicol.pdb_5448.pdb o/627561_HEM_Eburicol.pdb_7326.pdb o/627561_HEM_Eburicol.pdb_9086.pdb o/627561_HEM_Eburicol.pdb_657.pdb o/627561_HEM_Eburicol.pdb_4451.pdb o/627561_HEM_Eburicol.pdb_4355.pdb 
11 o/627561_HEM_Eburicol.pdb_6250.pdb o/627561_HEM_Eburicol.pdb_8688.pdb o/627561_HEM_Eburicol.pdb_1952.pdb o/627561_HEM_Eburicol.pdb_9301.pdb o/627561_HEM_Eburicol.pdb_4231.pdb o/627561_HEM_Eburicol.pdb_3618.pdb o/627561_HEM_Eburicol.pdb_9837.pdb o/627561_HEM_Eburicol.pdb_7002.pdb o/627561_HEM_Eburicol.pdb_6571.pdb o/627561_HEM_Eburicol.pdb_6453.pdb o/627561_HEM_Eburicol.pdb_137.pdb 
10 o/627561_HEM_Eburicol.pdb_8013.pdb o/627561_HEM_Eburicol.pdb_6948.pdb o/627561_HEM_Eburicol.pdb_4993.pdb o/627561_HEM_Eburicol.pdb_7945.pdb o/627561_HEM_Eburicol.pdb_5078.pdb o/627561_HEM_Eburicol.pdb_4556.pdb o/627561_HEM_Eburicol.pdb_2875.pdb o/627561_HEM_Eburicol.pdb_9458.pdb o/627561_HEM_Eburicol.pdb_4418.pdb o/627561_HEM_Eburicol.pdb_2269.pdb 
10 o/627561_HEM_Eburicol.pdb_8351.pdb o/627561_HEM_Eburicol.pdb_962.pdb o/627561_HEM_Eburicol.pdb_5539.pdb o/627561_HEM_Eburicol.pdb_7037.pdb o/627561_HEM_Eburicol.pdb_4909.pdb o/627561_HEM_Eburicol.pdb_4783.pdb o/627561_HEM_Eburicol.pdb_8053.pdb o/627561_HEM_Eburicol.pdb_6791.pdb o/627561_HEM_Eburicol.pdb_832.pdb o/627561_HEM_Eburicol.pdb_3314.pdb 
13 o/627561_HEM_Eburicol.pdb_7014.pdb o/627561_HEM_Eburicol.pdb_6125.pdb o/627561_HEM_Eburicol.pdb_6257.pdb o/627561_HEM_Eburicol.pdb_5372.pdb o/627561_HEM_Eburicol.pdb_5575.pdb o/627561_HEM_Eburicol.pdb_2724.pdb o/627561_HEM_Eburicol.pdb_8527.pdb o/627561_HEM_Eburicol.pdb_6523.pdb o/627561_HEM_Eburicol.pdb_541.pdb o/627561_HEM_Eburicol.pdb_5260.pdb o/627561_HEM_Eburicol.pdb_4001.pdb o/627561_HEM_Eburicol.pdb_7098.pdb o/627561_HEM_Eburicol.pdb_2243.pdb 
11 o/627561_HEM_Eburicol.pdb_6528.pdb o/627561_HEM_Eburicol.pdb_6175.pdb o/627561_HEM_Eburicol.pdb_823.pdb o/627561_HEM_Eburicol.pdb_2685.pdb o/627561_HEM_Eburicol.pdb_9116.pdb o/627561_HEM_Eburicol.pdb_9895.pdb o/627561_HEM_Eburicol.pdb_219.pdb o/627561_HEM_Eburicol.pdb_9033.pdb o/627561_HEM_Eburicol.pdb_5081.pdb o/627561_HEM_Eburicol.pdb_9444.pdb o/627561_HEM_Eburicol.pdb_2122.pdb 
13 o/627561_HEM_Eburicol.pdb_5767.pdb o/627561_HEM_Eburicol.pdb_4872.pdb o/627561_HEM_Eburicol.pdb_261.pdb o/627561_HEM_Eburicol.pdb_7333.pdb o/627561_HEM_Eburicol.pdb_3254.pdb o/627561_HEM_Eburicol.pdb_6940.pdb o/627561_HEM_Eburicol.pdb_2030.pdb o/627561_HEM_Eburicol.pdb_2980.pdb o/627561_HEM_Eburicol.pdb_2388.pdb o/627561_HEM_Eburicol.pdb_7052.pdb o/627561_HEM_Eburicol.pdb_286.pdb o/627561_HEM_Eburicol.pdb_7896.pdb o/627561_HEM_Eburicol.pdb_1474.pdb 
11 o/627561_HEM_Eburicol.pdb_8963.pdb o/627561_HEM_Eburicol.pdb_6814.pdb o/627561_HEM_Eburicol.pdb_9967.pdb o/627561_HEM_Eburicol.pdb_2733.pdb o/627561_HEM_Eburicol.pdb_5559.pdb o/627561_HEM_Eburicol.pdb_4924.pdb o/627561_HEM_Eburicol.pdb_3885.pdb o/627561_HEM_Eburicol.pdb_8928.pdb o/627561_HEM_Eburicol.pdb_6751.pdb o/627561_HEM_Eburicol.pdb_7067.pdb o/627561_HEM_Eburicol.pdb_1328.pdb 
11 o/627561_HEM_Eburicol.pdb_9978.pdb o/627561_HEM_Eburicol.pdb_3736.pdb o/627561_HEM_Eburicol.pdb_9051.pdb o/627561_HEM_Eburicol.pdb_462.pdb o/627561_HEM_Eburicol.pdb_3224.pdb o/627561_HEM_Eburicol.pdb_8863.pdb o/627561_HEM_Eburicol.pdb_245.pdb o/627561_HEM_Eburicol.pdb_1783.pdb o/627561_HEM_Eburicol.pdb_4198.pdb o/627561_HEM_Eburicol.pdb_9046.pdb o/627561_HEM_Eburicol.pdb_1782.pdb 
10 o/627561_HEM_Eburicol.pdb_6637.pdb o/627561_HEM_Eburicol.pdb_753.pdb o/627561_HEM_Eburicol.pdb_9593.pdb o/627561_HEM_Eburicol.pdb_5004.pdb o/627561_HEM_Eburicol.pdb_4729.pdb o/627561_HEM_Eburicol.pdb_9423.pdb o/627561_HEM_Eburicol.pdb_9139.pdb o/627561_HEM_Eburicol.pdb_4038.pdb o/627561_HEM_Eburicol.pdb_3889.pdb o/627561_HEM_Eburicol.pdb_1312.pdb 
10 o/627561_HEM_Eburicol.pdb_510.pdb o/627561_HEM_Eburicol.pdb_8670.pdb o/627561_HEM_Eburicol.pdb_4637.pdb o/627561_HEM_Eburicol.pdb_9522.pdb o/627561_HEM_Eburicol.pdb_6564.pdb o/627561_HEM_Eburicol.pdb_6764.pdb o/627561_HEM_Eburicol.pdb_5492.pdb o/627561_HEM_Eburicol.pdb_3420.pdb o/627561_HEM_Eburicol.pdb_323.pdb o/627561_HEM_Eburicol.pdb_2704.pdb 
10 o/627561_HEM_Eburicol.pdb_8065.pdb o/627561_HEM_Eburicol.pdb_7485.pdb o/627561_HEM_Eburicol.pdb_926.pdb o/627561_HEM_Eburicol.pdb_9834.pdb o/627561_HEM_Eburicol.pdb_5880.pdb o/627561_HEM_Eburicol.pdb_6719.pdb o/627561_HEM_Eburicol.pdb_4508.pdb o/627561_HEM_Eburicol.pdb_593.pdb o/627561_HEM_Eburicol.pdb_3814.pdb o/627561_HEM_Eburicol.pdb_3069.pdb 
17 o/627561_HEM_Eburicol.pdb_8374.pdb o/627561_HEM_Eburicol.pdb_2419.pdb o/627561_HEM_Eburicol.pdb_5784.pdb o/627561_HEM_Eburicol.pdb_6624.pdb o/627561_HEM_Eburicol.pdb_2112.pdb o/627561_HEM_Eburicol.pdb_6916.pdb o/627561_HEM_Eburicol.pdb_5838.pdb o/627561_HEM_Eburicol.pdb_5487.pdb o/627561_HEM_Eburicol.pdb_7380.pdb o/627561_HEM_Eburicol.pdb_8298.pdb o/627561_HEM_Eburicol.pdb_5976.pdb o/627561_HEM_Eburicol.pdb_1697.pdb o/627561_HEM_Eburicol.pdb_6345.pdb o/627561_HEM_Eburicol.pdb_5626.pdb o/627561_HEM_Eburicol.pdb_1858.pdb o/627561_HEM_Eburicol.pdb_5158.pdb o/627561_HEM_Eburicol.pdb_1290.pdb 
12 o/627561_HEM_Eburicol.pdb_9923.pdb o/627561_HEM_Eburicol.pdb_4406.pdb o/627561_HEM_Eburicol.pdb_5354.pdb o/627561_HEM_Eburicol.pdb_9341.pdb o/627561_HEM_Eburicol.pdb_2967.pdb o/627561_HEM_Eburicol.pdb_230.pdb o/627561_HEM_Eburicol.pdb_9391.pdb o/627561_HEM_Eburicol.pdb_5807.pdb o/627561_HEM_Eburicol.pdb_5126.pdb o/627561_HEM_Eburicol.pdb_4105.pdb o/627561_HEM_Eburicol.pdb_3376.pdb o/627561_HEM_Eburicol.pdb_1261.pdb 
13 o/627561_HEM_Eburicol.pdb_7356.pdb o/627561_HEM_Eburicol.pdb_4394.pdb o/627561_HEM_Eburicol.pdb_8646.pdb o/627561_HEM_Eburicol.pdb_4385.pdb o/627561_HEM_Eburicol.pdb_6011.pdb o/627561_HEM_Eburicol.pdb_5691.pdb o/627561_HEM_Eburicol.pdb_348.pdb o/627561_HEM_Eburicol.pdb_8229.pdb o/627561_HEM_Eburicol.pdb_2586.pdb o/627561_HEM_Eburicol.pdb_5958.pdb o/627561_HEM_Eburicol.pdb_5844.pdb o/627561_HEM_Eburicol.pdb_3270.pdb o/627561_HEM_Eburicol.pdb_1967.pdb 
10 o/627561_HEM_Eburicol.pdb_829.pdb o/627561_HEM_Eburicol.pdb_8651.pdb o/627561_HEM_Eburicol.pdb_6393.pdb o/627561_HEM_Eburicol.pdb_2948.pdb o/627561_HEM_Eburicol.pdb_9926.pdb o/627561_HEM_Eburicol.pdb_431.pdb o/627561_HEM_Eburicol.pdb_256.pdb o/627561_HEM_Eburicol.pdb_5535.pdb o/627561_HEM_Eburicol.pdb_5257.pdb o/627561_HEM_Eburicol.pdb_2262.pdb 
14 o/627561_HEM_Eburicol.pdb_4603.pdb o/627561_HEM_Eburicol.pdb_3081.pdb o/627561_HEM_Eburicol.pdb_5674.pdb o/627561_HEM_Eburicol.pdb_8831.pdb o/627561_HEM_Eburicol.pdb_9241.pdb o/627561_HEM_Eburicol.pdb_7867.pdb o/627561_HEM_Eburicol.pdb_4172.pdb o/627561_HEM_Eburicol.pdb_6565.pdb o/627561_HEM_Eburicol.pdb_7930.pdb o/627561_HEM_Eburicol.pdb_4003.pdb o/627561_HEM_Eburicol.pdb_677.pdb o/627561_HEM_Eburicol.pdb_3344.pdb o/627561_HEM_Eburicol.pdb_5075.pdb o/627561_HEM_Eburicol.pdb_1963.pdb 
10 o/627561_HEM_Eburicol.pdb_7936.pdb o/627561_HEM_Eburicol.pdb_4115.pdb o/627561_HEM_Eburicol.pdb_5355.pdb o/627561_HEM_Eburicol.pdb_2845.pdb o/627561_HEM_Eburicol.pdb_9590.pdb o/627561_HEM_Eburicol.pdb_4351.pdb o/627561_HEM_Eburicol.pdb_5486.pdb o/627561_HEM_Eburicol.pdb_3970.pdb o/627561_HEM_Eburicol.pdb_8083.pdb o/627561_HEM_Eburicol.pdb_2798.pdb 
10 o/627561_HEM_Eburicol.pdb_6724.pdb o/627561_HEM_Eburicol.pdb_9440.pdb o/627561_HEM_Eburicol.pdb_4346.pdb o/627561_HEM_Eburicol.pdb_2910.pdb o/627561_HEM_Eburicol.pdb_7202.pdb o/627561_HEM_Eburicol.pdb_4234.pdb o/627561_HEM_Eburicol.pdb_7488.pdb o/627561_HEM_Eburicol.pdb_6593.pdb o/627561_HEM_Eburicol.pdb_1872.pdb o/627561_HEM_Eburicol.pdb_1751.pdb 
10 o/627561_HEM_Eburicol.pdb_9829.pdb o/627561_HEM_Eburicol.pdb_5070.pdb o/627561_HEM_Eburicol.pdb_8383.pdb o/627561_HEM_Eburicol.pdb_3946.pdb o/627561_HEM_Eburicol.pdb_7377.pdb o/627561_HEM_Eburicol.pdb_2476.pdb o/627561_HEM_Eburicol.pdb_4978.pdb o/627561_HEM_Eburicol.pdb_3622.pdb o/627561_HEM_Eburicol.pdb_3797.pdb o/627561_HEM_Eburicol.pdb_1920.pdb 
14 o/627561_HEM_Eburicol.pdb_8793.pdb o/627561_HEM_Eburicol.pdb_9696.pdb o/627561_HEM_Eburicol.pdb_9249.pdb o/627561_HEM_Eburicol.pdb_9203.pdb o/627561_HEM_Eburicol.pdb_761.pdb o/627561_HEM_Eburicol.pdb_9884.pdb o/627561_HEM_Eburicol.pdb_8012.pdb o/627561_HEM_Eburicol.pdb_3830.pdb o/627561_HEM_Eburicol.pdb_2628.pdb o/627561_HEM_Eburicol.pdb_9434.pdb o/627561_HEM_Eburicol.pdb_2190.pdb o/627561_HEM_Eburicol.pdb_3975.pdb o/627561_HEM_Eburicol.pdb_3147.pdb o/627561_HEM_Eburicol.pdb_1243.pdb 
13 o/627561_HEM_Eburicol.pdb_5851.pdb o/627561_HEM_Eburicol.pdb_539.pdb o/627561_HEM_Eburicol.pdb_6414.pdb o/627561_HEM_Eburicol.pdb_3026.pdb o/627561_HEM_Eburicol.pdb_2795.pdb o/627561_HEM_Eburicol.pdb_8868.pdb o/627561_HEM_Eburicol.pdb_8211.pdb o/627561_HEM_Eburicol.pdb_9349.pdb o/627561_HEM_Eburicol.pdb_2581.pdb o/627561_HEM_Eburicol.pdb_6131.pdb o/627561_HEM_Eburicol.pdb_4402.pdb o/627561_HEM_Eburicol.pdb_2989.pdb o/627561_HEM_Eburicol.pdb_1457.pdb 
10 o/627561_HEM_Eburicol.pdb_4359.pdb o/627561_HEM_Eburicol.pdb_7647.pdb o/627561_HEM_Eburicol.pdb_5939.pdb o/627561_HEM_Eburicol.pdb_5051.pdb o/627561_HEM_Eburicol.pdb_4625.pdb o/627561_HEM_Eburicol.pdb_7719.pdb o/627561_HEM_Eburicol.pdb_9068.pdb o/627561_HEM_Eburicol.pdb_2235.pdb o/627561_HEM_Eburicol.pdb_6374.pdb o/627561_HEM_Eburicol.pdb_1236.pdb 
10 o/627561_HEM_Eburicol.pdb_8227.pdb o/627561_HEM_Eburicol.pdb_8043.pdb o/627561_HEM_Eburicol.pdb_9804.pdb o/627561_HEM_Eburicol.pdb_5603.pdb o/627561_HEM_Eburicol.pdb_5888.pdb o/627561_HEM_Eburicol.pdb_3547.pdb o/627561_HEM_Eburicol.pdb_4257.pdb o/627561_HEM_Eburicol.pdb_6408.pdb o/627561_HEM_Eburicol.pdb_1681.pdb o/627561_HEM_Eburicol.pdb_1332.pdb 
11 o/627561_HEM_Eburicol.pdb_5273.pdb o/627561_HEM_Eburicol.pdb_291.pdb o/627561_HEM_Eburicol.pdb_5831.pdb o/627561_HEM_Eburicol.pdb_5761.pdb o/627561_HEM_Eburicol.pdb_6688.pdb o/627561_HEM_Eburicol.pdb_3044.pdb o/627561_HEM_Eburicol.pdb_9965.pdb o/627561_HEM_Eburicol.pdb_6342.pdb o/627561_HEM_Eburicol.pdb_6209.pdb o/627561_HEM_Eburicol.pdb_243.pdb o/627561_HEM_Eburicol.pdb_2416.pdb 
10 o/627561_HEM_Eburicol.pdb_929.pdb o/627561_HEM_Eburicol.pdb_9209.pdb o/627561_HEM_Eburicol.pdb_5011.pdb o/627561_HEM_Eburicol.pdb_447.pdb o/627561_HEM_Eburicol.pdb_6059.pdb o/627561_HEM_Eburicol.pdb_5215.pdb o/627561_HEM_Eburicol.pdb_7876.pdb o/627561_HEM_Eburicol.pdb_5094.pdb o/627561_HEM_Eburicol.pdb_7822.pdb o/627561_HEM_Eburicol.pdb_1220.pdb 
13 o/627561_HEM_Eburicol.pdb_9627.pdb o/627561_HEM_Eburicol.pdb_9490.pdb o/627561_HEM_Eburicol.pdb_8079.pdb o/627561_HEM_Eburicol.pdb_5416.pdb o/627561_HEM_Eburicol.pdb_5157.pdb o/627561_HEM_Eburicol.pdb_422.pdb o/627561_HEM_Eburicol.pdb_5489.pdb o/627561_HEM_Eburicol.pdb_7600.pdb o/627561_HEM_Eburicol.pdb_6548.pdb o/627561_HEM_Eburicol.pdb_2884.pdb o/627561_HEM_Eburicol.pdb_9011.pdb o/627561_HEM_Eburicol.pdb_7194.pdb o/627561_HEM_Eburicol.pdb_1601.pdb 
10 o/627561_HEM_Eburicol.pdb_3733.pdb o/627561_HEM_Eburicol.pdb_704.pdb o/627561_HEM_Eburicol.pdb_5751.pdb o/627561_HEM_Eburicol.pdb_5124.pdb o/627561_HEM_Eburicol.pdb_4465.pdb o/627561_HEM_Eburicol.pdb_2100.pdb o/627561_HEM_Eburicol.pdb_5815.pdb o/627561_HEM_Eburicol.pdb_520.pdb o/627561_HEM_Eburicol.pdb_9298.pdb o/627561_HEM_Eburicol.pdb_2050.pdb 
10 o/627561_HEM_Eburicol.pdb_8655.pdb o/627561_HEM_Eburicol.pdb_4899.pdb o/627561_HEM_Eburicol.pdb_8654.pdb o/627561_HEM_Eburicol.pdb_7802.pdb o/627561_HEM_Eburicol.pdb_4861.pdb o/627561_HEM_Eburicol.pdb_8154.pdb o/627561_HEM_Eburicol.pdb_7490.pdb o/627561_HEM_Eburicol.pdb_6545.pdb o/627561_HEM_Eburicol.pdb_5247.pdb o/627561_HEM_Eburicol.pdb_1786.pdb 
13 o/627561_HEM_Eburicol.pdb_817.pdb o/627561_HEM_Eburicol.pdb_7137.pdb o/627561_HEM_Eburicol.pdb_9499.pdb o/627561_HEM_Eburicol.pdb_5475.pdb o/627561_HEM_Eburicol.pdb_7108.pdb o/627561_HEM_Eburicol.pdb_5613.pdb o/627561_HEM_Eburicol.pdb_5039.pdb o/627561_HEM_Eburicol.pdb_9931.pdb o/627561_HEM_Eburicol.pdb_9799.pdb o/627561_HEM_Eburicol.pdb_6218.pdb o/627561_HEM_Eburicol.pdb_4045.pdb o/627561_HEM_Eburicol.pdb_8345.pdb o/627561_HEM_Eburicol.pdb_3202.pdb 
13 o/627561_HEM_Eburicol.pdb_9426.pdb o/627561_HEM_Eburicol.pdb_7128.pdb o/627561_HEM_Eburicol.pdb_5258.pdb o/627561_HEM_Eburicol.pdb_3648.pdb o/627561_HEM_Eburicol.pdb_7155.pdb o/627561_HEM_Eburicol.pdb_2613.pdb o/627561_HEM_Eburicol.pdb_7422.pdb o/627561_HEM_Eburicol.pdb_7337.pdb o/627561_HEM_Eburicol.pdb_9365.pdb o/627561_HEM_Eburicol.pdb_7566.pdb o/627561_HEM_Eburicol.pdb_5989.pdb o/627561_HEM_Eburicol.pdb_329.pdb o/627561_HEM_Eburicol.pdb_1570.pdb 
11 o/627561_HEM_Eburicol.pdb_9076.pdb o/627561_HEM_Eburicol.pdb_943.pdb o/627561_HEM_Eburicol.pdb_3075.pdb o/627561_HEM_Eburicol.pdb_2485.pdb o/627561_HEM_Eburicol.pdb_6702.pdb o/627561_HEM_Eburicol.pdb_4390.pdb o/627561_HEM_Eburicol.pdb_4096.pdb o/627561_HEM_Eburicol.pdb_6266.pdb o/627561_HEM_Eburicol.pdb_299.pdb o/627561_HEM_Eburicol.pdb_6526.pdb o/627561_HEM_Eburicol.pdb_171.pdb 
12 o/627561_HEM_Eburicol.pdb_7778.pdb o/627561_HEM_Eburicol.pdb_8377.pdb o/627561_HEM_Eburicol.pdb_5528.pdb o/627561_HEM_Eburicol.pdb_5445.pdb o/627561_HEM_Eburicol.pdb_9613.pdb o/627561_HEM_Eburicol.pdb_7095.pdb o/627561_HEM_Eburicol.pdb_457.pdb o/627561_HEM_Eburicol.pdb_7635.pdb o/627561_HEM_Eburicol.pdb_3899.pdb o/627561_HEM_Eburicol.pdb_1682.pdb o/627561_HEM_Eburicol.pdb_5033.pdb o/627561_HEM_Eburicol.pdb_1675.pdb 
13 o/627561_HEM_Eburicol.pdb_9103.pdb o/627561_HEM_Eburicol.pdb_3143.pdb o/627561_HEM_Eburicol.pdb_9821.pdb o/627561_HEM_Eburicol.pdb_8680.pdb o/627561_HEM_Eburicol.pdb_5792.pdb o/627561_HEM_Eburicol.pdb_2905.pdb o/627561_HEM_Eburicol.pdb_9939.pdb o/627561_HEM_Eburicol.pdb_5364.pdb o/627561_HEM_Eburicol.pdb_7990.pdb o/627561_HEM_Eburicol.pdb_5003.pdb o/627561_HEM_Eburicol.pdb_4663.pdb o/627561_HEM_Eburicol.pdb_3842.pdb o/627561_HEM_Eburicol.pdb_2205.pdb 
11 o/627561_HEM_Eburicol.pdb_3310.pdb o/627561_HEM_Eburicol.pdb_2914.pdb o/627561_HEM_Eburicol.pdb_5774.pdb o/627561_HEM_Eburicol.pdb_8239.pdb o/627561_HEM_Eburicol.pdb_950.pdb o/627561_HEM_Eburicol.pdb_9462.pdb o/627561_HEM_Eburicol.pdb_5596.pdb o/627561_HEM_Eburicol.pdb_3496.pdb o/627561_HEM_Eburicol.pdb_2186.pdb o/627561_HEM_Eburicol.pdb_6788.pdb o/627561_HEM_Eburicol.pdb_1636.pdb 
10 o/627561_HEM_Eburicol.pdb_9795.pdb o/627561_HEM_Eburicol.pdb_5023.pdb o/627561_HEM_Eburicol.pdb_4249.pdb o/627561_HEM_Eburicol.pdb_9845.pdb o/627561_HEM_Eburicol.pdb_8272.pdb o/627561_HEM_Eburicol.pdb_3419.pdb o/627561_HEM_Eburicol.pdb_1353.pdb o/627561_HEM_Eburicol.pdb_2996.pdb o/627561_HEM_Eburicol.pdb_8387.pdb o/627561_HEM_Eburicol.pdb_1184.pdb 
14 o/627561_HEM_Eburicol.pdb_94.pdb o/627561_HEM_Eburicol.pdb_7810.pdb o/627561_HEM_Eburicol.pdb_2745.pdb o/627561_HEM_Eburicol.pdb_6155.pdb o/627561_HEM_Eburicol.pdb_3689.pdb o/627561_HEM_Eburicol.pdb_8497.pdb o/627561_HEM_Eburicol.pdb_7214.pdb o/627561_HEM_Eburicol.pdb_3866.pdb o/627561_HEM_Eburicol.pdb_6038.pdb o/627561_HEM_Eburicol.pdb_5663.pdb o/627561_HEM_Eburicol.pdb_3721.pdb o/627561_HEM_Eburicol.pdb_7057.pdb o/627561_HEM_Eburicol.pdb_4727.pdb o/627561_HEM_Eburicol.pdb_2696.pdb 
11 o/627561_HEM_Eburicol.pdb_6091.pdb o/627561_HEM_Eburicol.pdb_8075.pdb o/627561_HEM_Eburicol.pdb_5074.pdb o/627561_HEM_Eburicol.pdb_3407.pdb o/627561_HEM_Eburicol.pdb_8242.pdb o/627561_HEM_Eburicol.pdb_2939.pdb o/627561_HEM_Eburicol.pdb_5910.pdb o/627561_HEM_Eburicol.pdb_7203.pdb o/627561_HEM_Eburicol.pdb_4990.pdb o/627561_HEM_Eburicol.pdb_5928.pdb o/627561_HEM_Eburicol.pdb_1166.pdb 
11 o/627561_HEM_Eburicol.pdb_654.pdb o/627561_HEM_Eburicol.pdb_6002.pdb o/627561_HEM_Eburicol.pdb_3269.pdb o/627561_HEM_Eburicol.pdb_4306.pdb o/627561_HEM_Eburicol.pdb_328.pdb o/627561_HEM_Eburicol.pdb_6217.pdb o/627561_HEM_Eburicol.pdb_22.pdb o/627561_HEM_Eburicol.pdb_990.pdb o/627561_HEM_Eburicol.pdb_226.pdb o/627561_HEM_Eburicol.pdb_2121.pdb o/627561_HEM_Eburicol.pdb_1164.pdb 
10 o/627561_HEM_Eburicol.pdb_8281.pdb o/627561_HEM_Eburicol.pdb_4169.pdb o/627561_HEM_Eburicol.pdb_7474.pdb o/627561_HEM_Eburicol.pdb_3369.pdb o/627561_HEM_Eburicol.pdb_8857.pdb o/627561_HEM_Eburicol.pdb_9563.pdb o/627561_HEM_Eburicol.pdb_6254.pdb o/627561_HEM_Eburicol.pdb_5578.pdb o/627561_HEM_Eburicol.pdb_8937.pdb o/627561_HEM_Eburicol.pdb_2308.pdb 
11 o/627561_HEM_Eburicol.pdb_8754.pdb o/627561_HEM_Eburicol.pdb_7374.pdb o/627561_HEM_Eburicol.pdb_7101.pdb o/627561_HEM_Eburicol.pdb_8861.pdb o/627561_HEM_Eburicol.pdb_3156.pdb o/627561_HEM_Eburicol.pdb_4012.pdb o/627561_HEM_Eburicol.pdb_6061.pdb o/627561_HEM_Eburicol.pdb_1520.pdb o/627561_HEM_Eburicol.pdb_4781.pdb o/627561_HEM_Eburicol.pdb_4491.pdb o/627561_HEM_Eburicol.pdb_1163.pdb 
21 o/627561_HEM_Eburicol.pdb_5972.pdb o/627561_HEM_Eburicol.pdb_912.pdb o/627561_HEM_Eburicol.pdb_5933.pdb o/627561_HEM_Eburicol.pdb_9595.pdb o/627561_HEM_Eburicol.pdb_7872.pdb o/627561_HEM_Eburicol.pdb_3035.pdb o/627561_HEM_Eburicol.pdb_9972.pdb o/627561_HEM_Eburicol.pdb_9217.pdb o/627561_HEM_Eburicol.pdb_8550.pdb o/627561_HEM_Eburicol.pdb_6806.pdb o/627561_HEM_Eburicol.pdb_4862.pdb o/627561_HEM_Eburicol.pdb_5344.pdb o/627561_HEM_Eburicol.pdb_2524.pdb o/627561_HEM_Eburicol.pdb_3135.pdb o/627561_HEM_Eburicol.pdb_4969.pdb o/627561_HEM_Eburicol.pdb_2151.pdb o/627561_HEM_Eburicol.pdb_3602.pdb o/627561_HEM_Eburicol.pdb_1580.pdb o/627561_HEM_Eburicol.pdb_4289.pdb o/627561_HEM_Eburicol.pdb_3752.pdb o/627561_HEM_Eburicol.pdb_1242.pdb 
10 o/627561_HEM_Eburicol.pdb_3428.pdb o/627561_HEM_Eburicol.pdb_5392.pdb o/627561_HEM_Eburicol.pdb_2706.pdb o/627561_HEM_Eburicol.pdb_8014.pdb o/627561_HEM_Eburicol.pdb_6058.pdb o/627561_HEM_Eburicol.pdb_773.pdb o/627561_HEM_Eburicol.pdb_4999.pdb o/627561_HEM_Eburicol.pdb_7974.pdb o/627561_HEM_Eburicol.pdb_3546.pdb o/627561_HEM_Eburicol.pdb_1340.pdb 
31 o/627561_HEM_Eburicol.pdb_9894.pdb o/627561_HEM_Eburicol.pdb_8910.pdb o/627561_HEM_Eburicol.pdb_4938.pdb o/627561_HEM_Eburicol.pdb_8785.pdb o/627561_HEM_Eburicol.pdb_5577.pdb o/627561_HEM_Eburicol.pdb_8540.pdb o/627561_HEM_Eburicol.pdb_1597.pdb o/627561_HEM_Eburicol.pdb_9807.pdb o/627561_HEM_Eburicol.pdb_6259.pdb o/627561_HEM_Eburicol.pdb_3959.pdb o/627561_HEM_Eburicol.pdb_6050.pdb o/627561_HEM_Eburicol.pdb_3847.pdb o/627561_HEM_Eburicol.pdb_8722.pdb o/627561_HEM_Eburicol.pdb_3348.pdb o/627561_HEM_Eburicol.pdb_5426.pdb o/627561_HEM_Eburicol.pdb_1235.pdb o/627561_HEM_Eburicol.pdb_6935.pdb o/627561_HEM_Eburicol.pdb_4271.pdb o/627561_HEM_Eburicol.pdb_8343.pdb o/627561_HEM_Eburicol.pdb_7745.pdb o/627561_HEM_Eburicol.pdb_653.pdb o/627561_HEM_Eburicol.pdb_2917.pdb o/627561_HEM_Eburicol.pdb_2507.pdb o/627561_HEM_Eburicol.pdb_6162.pdb o/627561_HEM_Eburicol.pdb_6884.pdb o/627561_HEM_Eburicol.pdb_665.pdb o/627561_HEM_Eburicol.pdb_5101.pdb o/627561_HEM_Eburicol.pdb_3424.pdb o/627561_HEM_Eburicol.pdb_4888.pdb o/627561_HEM_Eburicol.pdb_4190.pdb o/627561_HEM_Eburicol.pdb_1187.pdb 
14 o/627561_HEM_Eburicol.pdb_8471.pdb o/627561_HEM_Eburicol.pdb_7772.pdb o/627561_HEM_Eburicol.pdb_2951.pdb o/627561_HEM_Eburicol.pdb_2681.pdb o/627561_HEM_Eburicol.pdb_3352.pdb o/627561_HEM_Eburicol.pdb_6488.pdb o/627561_HEM_Eburicol.pdb_7538.pdb o/627561_HEM_Eburicol.pdb_5276.pdb o/627561_HEM_Eburicol.pdb_9471.pdb o/627561_HEM_Eburicol.pdb_5117.pdb o/627561_HEM_Eburicol.pdb_1905.pdb o/627561_HEM_Eburicol.pdb_5769.pdb o/627561_HEM_Eburicol.pdb_83.pdb o/627561_HEM_Eburicol.pdb_1729.pdb 
16 o/627561_HEM_Eburicol.pdb_2979.pdb o/627561_HEM_Eburicol.pdb_2266.pdb o/627561_HEM_Eburicol.pdb_5282.pdb o/627561_HEM_Eburicol.pdb_5192.pdb o/627561_HEM_Eburicol.pdb_5148.pdb o/627561_HEM_Eburicol.pdb_4055.pdb o/627561_HEM_Eburicol.pdb_125.pdb o/627561_HEM_Eburicol.pdb_7787.pdb o/627561_HEM_Eburicol.pdb_928.pdb o/627561_HEM_Eburicol.pdb_7924.pdb o/627561_HEM_Eburicol.pdb_8597.pdb o/627561_HEM_Eburicol.pdb_7404.pdb o/627561_HEM_Eburicol.pdb_5948.pdb o/627561_HEM_Eburicol.pdb_5895.pdb o/627561_HEM_Eburicol.pdb_1713.pdb o/627561_HEM_Eburicol.pdb_1241.pdb 
16 o/627561_HEM_Eburicol.pdb_6752.pdb o/627561_HEM_Eburicol.pdb_3031.pdb o/627561_HEM_Eburicol.pdb_5799.pdb o/627561_HEM_Eburicol.pdb_2248.pdb o/627561_HEM_Eburicol.pdb_9240.pdb o/627561_HEM_Eburicol.pdb_1958.pdb o/627561_HEM_Eburicol.pdb_571.pdb o/627561_HEM_Eburicol.pdb_5351.pdb o/627561_HEM_Eburicol.pdb_2700.pdb o/627561_HEM_Eburicol.pdb_7718.pdb o/627561_HEM_Eburicol.pdb_5176.pdb o/627561_HEM_Eburicol.pdb_8794.pdb o/627561_HEM_Eburicol.pdb_5480.pdb o/627561_HEM_Eburicol.pdb_2289.pdb o/627561_HEM_Eburicol.pdb_916.pdb o/627561_HEM_Eburicol.pdb_1893.pdb 
12 o/627561_HEM_Eburicol.pdb_7238.pdb o/627561_HEM_Eburicol.pdb_2514.pdb o/627561_HEM_Eburicol.pdb_3301.pdb o/627561_HEM_Eburicol.pdb_2160.pdb o/627561_HEM_Eburicol.pdb_9691.pdb o/627561_HEM_Eburicol.pdb_8924.pdb o/627561_HEM_Eburicol.pdb_8824.pdb o/627561_HEM_Eburicol.pdb_344.pdb o/627561_HEM_Eburicol.pdb_2876.pdb o/627561_HEM_Eburicol.pdb_626.pdb o/627561_HEM_Eburicol.pdb_1217.pdb o/627561_HEM_Eburicol.pdb_1151.pdb 
11 o/627561_HEM_Eburicol.pdb_8906.pdb o/627561_HEM_Eburicol.pdb_8661.pdb o/627561_HEM_Eburicol.pdb_7005.pdb o/627561_HEM_Eburicol.pdb_5465.pdb o/627561_HEM_Eburicol.pdb_9206.pdb o/627561_HEM_Eburicol.pdb_3278.pdb o/627561_HEM_Eburicol.pdb_2926.pdb o/627561_HEM_Eburicol.pdb_6742.pdb o/627561_HEM_Eburicol.pdb_9134.pdb o/627561_HEM_Eburicol.pdb_7397.pdb o/627561_HEM_Eburicol.pdb_1146.pdb 
13 o/627561_HEM_Eburicol.pdb_5642.pdb o/627561_HEM_Eburicol.pdb_2130.pdb o/627561_HEM_Eburicol.pdb_7193.pdb o/627561_HEM_Eburicol.pdb_1742.pdb o/627561_HEM_Eburicol.pdb_1294.pdb o/627561_HEM_Eburicol.pdb_7966.pdb o/627561_HEM_Eburicol.pdb_643.pdb o/627561_HEM_Eburicol.pdb_4193.pdb o/627561_HEM_Eburicol.pdb_3385.pdb o/627561_HEM_Eburicol.pdb_1201.pdb o/627561_HEM_Eburicol.pdb_6640.pdb o/627561_HEM_Eburicol.pdb_7545.pdb o/627561_HEM_Eburicol.pdb_1145.pdb 
10 o/627561_HEM_Eburicol.pdb_6035.pdb o/627561_HEM_Eburicol.pdb_940.pdb o/627561_HEM_Eburicol.pdb_30.pdb o/627561_HEM_Eburicol.pdb_2142.pdb o/627561_HEM_Eburicol.pdb_9449.pdb o/627561_HEM_Eburicol.pdb_4616.pdb o/627561_HEM_Eburicol.pdb_3180.pdb o/627561_HEM_Eburicol.pdb_9543.pdb o/627561_HEM_Eburicol.pdb_971.pdb o/627561_HEM_Eburicol.pdb_2103.pdb 
11 o/627561_HEM_Eburicol.pdb_9997.pdb o/627561_HEM_Eburicol.pdb_7942.pdb o/627561_HEM_Eburicol.pdb_9111.pdb o/627561_HEM_Eburicol.pdb_6215.pdb o/627561_HEM_Eburicol.pdb_3126.pdb o/627561_HEM_Eburicol.pdb_3902.pdb o/627561_HEM_Eburicol.pdb_2904.pdb o/627561_HEM_Eburicol.pdb_4236.pdb o/627561_HEM_Eburicol.pdb_9492.pdb o/627561_HEM_Eburicol.pdb_3981.pdb o/627561_HEM_Eburicol.pdb_2572.pdb 
12 o/627561_HEM_Eburicol.pdb_4333.pdb o/627561_HEM_Eburicol.pdb_2307.pdb o/627561_HEM_Eburicol.pdb_689.pdb o/627561_HEM_Eburicol.pdb_4478.pdb o/627561_HEM_Eburicol.pdb_5630.pdb o/627561_HEM_Eburicol.pdb_396.pdb o/627561_HEM_Eburicol.pdb_8096.pdb o/627561_HEM_Eburicol.pdb_660.pdb o/627561_HEM_Eburicol.pdb_8639.pdb o/627561_HEM_Eburicol.pdb_3323.pdb o/627561_HEM_Eburicol.pdb_1956.pdb o/627561_HEM_Eburicol.pdb_1414.pdb 
12 o/627561_HEM_Eburicol.pdb_7293.pdb o/627561_HEM_Eburicol.pdb_2601.pdb o/627561_HEM_Eburicol.pdb_4160.pdb o/627561_HEM_Eburicol.pdb_9096.pdb o/627561_HEM_Eburicol.pdb_2449.pdb o/627561_HEM_Eburicol.pdb_9229.pdb o/627561_HEM_Eburicol.pdb_7465.pdb o/627561_HEM_Eburicol.pdb_6429.pdb o/627561_HEM_Eburicol.pdb_8902.pdb o/627561_HEM_Eburicol.pdb_8535.pdb o/627561_HEM_Eburicol.pdb_5106.pdb o/627561_HEM_Eburicol.pdb_1557.pdb 
10 o/627561_HEM_Eburicol.pdb_8847.pdb o/627561_HEM_Eburicol.pdb_7521.pdb o/627561_HEM_Eburicol.pdb_9878.pdb o/627561_HEM_Eburicol.pdb_6928.pdb o/627561_HEM_Eburicol.pdb_3716.pdb o/627561_HEM_Eburicol.pdb_6071.pdb o/627561_HEM_Eburicol.pdb_4940.pdb o/627561_HEM_Eburicol.pdb_4905.pdb o/627561_HEM_Eburicol.pdb_4175.pdb o/627561_HEM_Eburicol.pdb_201.pdb 
13 o/627561_HEM_Eburicol.pdb_4623.pdb o/627561_HEM_Eburicol.pdb_9932.pdb o/627561_HEM_Eburicol.pdb_8436.pdb o/627561_HEM_Eburicol.pdb_2541.pdb o/627561_HEM_Eburicol.pdb_8382.pdb o/627561_HEM_Eburicol.pdb_8571.pdb o/627561_HEM_Eburicol.pdb_7555.pdb o/627561_HEM_Eburicol.pdb_2387.pdb o/627561_HEM_Eburicol.pdb_7213.pdb o/627561_HEM_Eburicol.pdb_4822.pdb o/627561_HEM_Eburicol.pdb_4652.pdb o/627561_HEM_Eburicol.pdb_4320.pdb o/627561_HEM_Eburicol.pdb_2285.pdb 
11 o/627561_HEM_Eburicol.pdb_7243.pdb o/627561_HEM_Eburicol.pdb_7292.pdb o/627561_HEM_Eburicol.pdb_5420.pdb o/627561_HEM_Eburicol.pdb_4170.pdb o/627561_HEM_Eburicol.pdb_9141.pdb o/627561_HEM_Eburicol.pdb_5970.pdb o/627561_HEM_Eburicol.pdb_4886.pdb o/627561_HEM_Eburicol.pdb_2896.pdb o/627561_HEM_Eburicol.pdb_5170.pdb o/627561_HEM_Eburicol.pdb_1409.pdb o/627561_HEM_Eburicol.pdb_1118.pdb 
12 o/627561_HEM_Eburicol.pdb_3120.pdb o/627561_HEM_Eburicol.pdb_1416.pdb o/627561_HEM_Eburicol.pdb_416.pdb o/627561_HEM_Eburicol.pdb_4690.pdb o/627561_HEM_Eburicol.pdb_6971.pdb o/627561_HEM_Eburicol.pdb_3624.pdb o/627561_HEM_Eburicol.pdb_1483.pdb o/627561_HEM_Eburicol.pdb_1339.pdb o/627561_HEM_Eburicol.pdb_9140.pdb o/627561_HEM_Eburicol.pdb_721.pdb o/627561_HEM_Eburicol.pdb_7167.pdb o/627561_HEM_Eburicol.pdb_1204.pdb 
13 o/627561_HEM_Eburicol.pdb_9953.pdb o/627561_HEM_Eburicol.pdb_6527.pdb o/627561_HEM_Eburicol.pdb_6186.pdb o/627561_HEM_Eburicol.pdb_4376.pdb o/627561_HEM_Eburicol.pdb_9737.pdb o/627561_HEM_Eburicol.pdb_2719.pdb o/627561_HEM_Eburicol.pdb_5147.pdb o/627561_HEM_Eburicol.pdb_2668.pdb o/627561_HEM_Eburicol.pdb_6599.pdb o/627561_HEM_Eburicol.pdb_4327.pdb o/627561_HEM_Eburicol.pdb_5765.pdb o/627561_HEM_Eburicol.pdb_551.pdb o/627561_HEM_Eburicol.pdb_1600.pdb 
10 o/627561_HEM_Eburicol.pdb_6310.pdb o/627561_HEM_Eburicol.pdb_6177.pdb o/627561_HEM_Eburicol.pdb_1690.pdb o/627561_HEM_Eburicol.pdb_1111.pdb o/627561_HEM_Eburicol.pdb_9599.pdb o/627561_HEM_Eburicol.pdb_5878.pdb o/627561_HEM_Eburicol.pdb_4846.pdb o/627561_HEM_Eburicol.pdb_3183.pdb o/627561_HEM_Eburicol.pdb_1418.pdb o/627561_HEM_Eburicol.pdb_111.pdb 
16 o/627561_HEM_Eburicol.pdb_9672.pdb o/627561_HEM_Eburicol.pdb_6714.pdb o/627561_HEM_Eburicol.pdb_480.pdb o/627561_HEM_Eburicol.pdb_9603.pdb o/627561_HEM_Eburicol.pdb_5496.pdb o/627561_HEM_Eburicol.pdb_8217.pdb o/627561_HEM_Eburicol.pdb_7413.pdb o/627561_HEM_Eburicol.pdb_6445.pdb o/627561_HEM_Eburicol.pdb_4032.pdb o/627561_HEM_Eburicol.pdb_9991.pdb o/627561_HEM_Eburicol.pdb_7648.pdb o/627561_HEM_Eburicol.pdb_9232.pdb o/627561_HEM_Eburicol.pdb_9115.pdb o/627561_HEM_Eburicol.pdb_7641.pdb o/627561_HEM_Eburicol.pdb_3021.pdb o/627561_HEM_Eburicol.pdb_2856.pdb 
10 o/627561_HEM_Eburicol.pdb_9860.pdb o/627561_HEM_Eburicol.pdb_8973.pdb o/627561_HEM_Eburicol.pdb_7612.pdb o/627561_HEM_Eburicol.pdb_6990.pdb o/627561_HEM_Eburicol.pdb_6898.pdb o/627561_HEM_Eburicol.pdb_7710.pdb o/627561_HEM_Eburicol.pdb_5275.pdb o/627561_HEM_Eburicol.pdb_8254.pdb o/627561_HEM_Eburicol.pdb_428.pdb o/627561_HEM_Eburicol.pdb_1106.pdb 
14 o/627561_HEM_Eburicol.pdb_9793.pdb o/627561_HEM_Eburicol.pdb_8749.pdb o/627561_HEM_Eburicol.pdb_562.pdb o/627561_HEM_Eburicol.pdb_4774.pdb o/627561_HEM_Eburicol.pdb_3331.pdb o/627561_HEM_Eburicol.pdb_2389.pdb o/627561_HEM_Eburicol.pdb_6455.pdb o/627561_HEM_Eburicol.pdb_6092.pdb o/627561_HEM_Eburicol.pdb_1435.pdb o/627561_HEM_Eburicol.pdb_5283.pdb o/627561_HEM_Eburicol.pdb_3638.pdb o/627561_HEM_Eburicol.pdb_1748.pdb o/627561_HEM_Eburicol.pdb_7528.pdb o/627561_HEM_Eburicol.pdb_1105.pdb 
11 o/627561_HEM_Eburicol.pdb_6442.pdb o/627561_HEM_Eburicol.pdb_5259.pdb o/627561_HEM_Eburicol.pdb_8320.pdb o/627561_HEM_Eburicol.pdb_5136.pdb o/627561_HEM_Eburicol.pdb_4455.pdb o/627561_HEM_Eburicol.pdb_918.pdb o/627561_HEM_Eburicol.pdb_4247.pdb o/627561_HEM_Eburicol.pdb_9893.pdb o/627561_HEM_Eburicol.pdb_5750.pdb o/627561_HEM_Eburicol.pdb_4713.pdb o/627561_HEM_Eburicol.pdb_4239.pdb 
10 o/627561_HEM_Eburicol.pdb_6326.pdb o/627561_HEM_Eburicol.pdb_4054.pdb o/627561_HEM_Eburicol.pdb_4486.pdb o/627561_HEM_Eburicol.pdb_1249.pdb o/627561_HEM_Eburicol.pdb_8643.pdb o/627561_HEM_Eburicol.pdb_5563.pdb o/627561_HEM_Eburicol.pdb_6283.pdb o/627561_HEM_Eburicol.pdb_3386.pdb o/627561_HEM_Eburicol.pdb_3261.pdb o/627561_HEM_Eburicol.pdb_1104.pdb 
14 o/627561_HEM_Eburicol.pdb_4756.pdb o/627561_HEM_Eburicol.pdb_3271.pdb o/627561_HEM_Eburicol.pdb_8848.pdb o/627561_HEM_Eburicol.pdb_4393.pdb o/627561_HEM_Eburicol.pdb_4135.pdb o/627561_HEM_Eburicol.pdb_2958.pdb o/627561_HEM_Eburicol.pdb_2481.pdb o/627561_HEM_Eburicol.pdb_4435.pdb o/627561_HEM_Eburicol.pdb_6957.pdb o/627561_HEM_Eburicol.pdb_2046.pdb o/627561_HEM_Eburicol.pdb_2058.pdb o/627561_HEM_Eburicol.pdb_8791.pdb o/627561_HEM_Eburicol.pdb_7875.pdb o/627561_HEM_Eburicol.pdb_1099.pdb 
11 o/627561_HEM_Eburicol.pdb_8903.pdb o/627561_HEM_Eburicol.pdb_6747.pdb o/627561_HEM_Eburicol.pdb_8172.pdb o/627561_HEM_Eburicol.pdb_4500.pdb o/627561_HEM_Eburicol.pdb_1372.pdb o/627561_HEM_Eburicol.pdb_6588.pdb o/627561_HEM_Eburicol.pdb_4662.pdb o/627561_HEM_Eburicol.pdb_5062.pdb o/627561_HEM_Eburicol.pdb_1763.pdb o/627561_HEM_Eburicol.pdb_4671.pdb o/627561_HEM_Eburicol.pdb_1089.pdb 
12 o/627561_HEM_Eburicol.pdb_262.pdb o/627561_HEM_Eburicol.pdb_4246.pdb o/627561_HEM_Eburicol.pdb_1805.pdb o/627561_HEM_Eburicol.pdb_9897.pdb o/627561_HEM_Eburicol.pdb_8523.pdb o/627561_HEM_Eburicol.pdb_3659.pdb o/627561_HEM_Eburicol.pdb_2494.pdb o/627561_HEM_Eburicol.pdb_1779.pdb o/627561_HEM_Eburicol.pdb_8168.pdb o/627561_HEM_Eburicol.pdb_7340.pdb o/627561_HEM_Eburicol.pdb_5457.pdb o/627561_HEM_Eburicol.pdb_1313.pdb 
15 o/627561_HEM_Eburicol.pdb_3923.pdb o/627561_HEM_Eburicol.pdb_6954.pdb o/627561_HEM_Eburicol.pdb_6303.pdb o/627561_HEM_Eburicol.pdb_2569.pdb o/627561_HEM_Eburicol.pdb_5708.pdb o/627561_HEM_Eburicol.pdb_3249.pdb o/627561_HEM_Eburicol.pdb_9618.pdb o/627561_HEM_Eburicol.pdb_475.pdb o/627561_HEM_Eburicol.pdb_3212.pdb o/627561_HEM_Eburicol.pdb_6551.pdb o/627561_HEM_Eburicol.pdb_8693.pdb o/627561_HEM_Eburicol.pdb_5678.pdb o/627561_HEM_Eburicol.pdb_9710.pdb o/627561_HEM_Eburicol.pdb_2169.pdb o/627561_HEM_Eburicol.pdb_1886.pdb 
16 o/627561_HEM_Eburicol.pdb_8569.pdb o/627561_HEM_Eburicol.pdb_7564.pdb o/627561_HEM_Eburicol.pdb_5817.pdb o/627561_HEM_Eburicol.pdb_4964.pdb o/627561_HEM_Eburicol.pdb_1806.pdb o/627561_HEM_Eburicol.pdb_8898.pdb o/627561_HEM_Eburicol.pdb_8309.pdb o/627561_HEM_Eburicol.pdb_6598.pdb o/627561_HEM_Eburicol.pdb_6169.pdb o/627561_HEM_Eburicol.pdb_1466.pdb o/627561_HEM_Eburicol.pdb_6333.pdb o/627561_HEM_Eburicol.pdb_7370.pdb o/627561_HEM_Eburicol.pdb_3146.pdb o/627561_HEM_Eburicol.pdb_8980.pdb o/627561_HEM_Eburicol.pdb_2213.pdb o/627561_HEM_Eburicol.pdb_139.pdb 
12 o/627561_HEM_Eburicol.pdb_3487.pdb o/627561_HEM_Eburicol.pdb_2907.pdb o/627561_HEM_Eburicol.pdb_995.pdb o/627561_HEM_Eburicol.pdb_2900.pdb o/627561_HEM_Eburicol.pdb_7139.pdb o/627561_HEM_Eburicol.pdb_253.pdb o/627561_HEM_Eburicol.pdb_7651.pdb o/627561_HEM_Eburicol.pdb_1754.pdb o/627561_HEM_Eburicol.pdb_813.pdb o/627561_HEM_Eburicol.pdb_2807.pdb o/627561_HEM_Eburicol.pdb_6546.pdb o/627561_HEM_Eburicol.pdb_1400.pdb 
10 o/627561_HEM_Eburicol.pdb_8257.pdb o/627561_HEM_Eburicol.pdb_8231.pdb o/627561_HEM_Eburicol.pdb_3601.pdb o/627561_HEM_Eburicol.pdb_2340.pdb o/627561_HEM_Eburicol.pdb_7034.pdb o/627561_HEM_Eburicol.pdb_6694.pdb o/627561_HEM_Eburicol.pdb_582.pdb o/627561_HEM_Eburicol.pdb_1753.pdb o/627561_HEM_Eburicol.pdb_1708.pdb o/627561_HEM_Eburicol.pdb_1083.pdb 
12 o/627561_HEM_Eburicol.pdb_4591.pdb o/627561_HEM_Eburicol.pdb_4180.pdb o/627561_HEM_Eburicol.pdb_6253.pdb o/627561_HEM_Eburicol.pdb_3642.pdb o/627561_HEM_Eburicol.pdb_6361.pdb o/627561_HEM_Eburicol.pdb_3430.pdb o/627561_HEM_Eburicol.pdb_3894.pdb o/627561_HEM_Eburicol.pdb_3167.pdb o/627561_HEM_Eburicol.pdb_5439.pdb o/627561_HEM_Eburicol.pdb_3282.pdb o/627561_HEM_Eburicol.pdb_5228.pdb o/627561_HEM_Eburicol.pdb_1392.pdb 
13 o/627561_HEM_Eburicol.pdb_9615.pdb o/627561_HEM_Eburicol.pdb_7962.pdb o/627561_HEM_Eburicol.pdb_627.pdb o/627561_HEM_Eburicol.pdb_5103.pdb o/627561_HEM_Eburicol.pdb_5026.pdb o/627561_HEM_Eburicol.pdb_4975.pdb o/627561_HEM_Eburicol.pdb_4292.pdb o/627561_HEM_Eburicol.pdb_3850.pdb o/627561_HEM_Eburicol.pdb_8634.pdb o/627561_HEM_Eburicol.pdb_7115.pdb o/627561_HEM_Eburicol.pdb_5689.pdb o/627561_HEM_Eburicol.pdb_8361.pdb o/627561_HEM_Eburicol.pdb_1092.pdb 
12 o/627561_HEM_Eburicol.pdb_7179.pdb o/627561_HEM_Eburicol.pdb_3169.pdb o/627561_HEM_Eburicol.pdb_8501.pdb o/627561_HEM_Eburicol.pdb_8783.pdb o/627561_HEM_Eburicol.pdb_3338.pdb o/627561_HEM_Eburicol.pdb_6077.pdb o/627561_HEM_Eburicol.pdb_8792.pdb o/627561_HEM_Eburicol.pdb_9785.pdb o/627561_HEM_Eburicol.pdb_1523.pdb o/627561_HEM_Eburicol.pdb_801.pdb o/627561_HEM_Eburicol.pdb_9542.pdb o/627561_HEM_Eburicol.pdb_1103.pdb 
10 o/627561_HEM_Eburicol.pdb_2542.pdb o/627561_HEM_Eburicol.pdb_5951.pdb o/627561_HEM_Eburicol.pdb_2314.pdb o/627561_HEM_Eburicol.pdb_7366.pdb o/627561_HEM_Eburicol.pdb_2276.pdb o/627561_HEM_Eburicol.pdb_6671.pdb o/627561_HEM_Eburicol.pdb_2707.pdb o/627561_HEM_Eburicol.pdb_4353.pdb o/627561_HEM_Eburicol.pdb_9658.pdb o/627561_HEM_Eburicol.pdb_1829.pdb 
10 o/627561_HEM_Eburicol.pdb_7126.pdb o/627561_HEM_Eburicol.pdb_495.pdb o/627561_HEM_Eburicol.pdb_5829.pdb o/627561_HEM_Eburicol.pdb_5704.pdb o/627561_HEM_Eburicol.pdb_8238.pdb o/627561_HEM_Eburicol.pdb_4697.pdb o/627561_HEM_Eburicol.pdb_9852.pdb o/627561_HEM_Eburicol.pdb_3861.pdb o/627561_HEM_Eburicol.pdb_9619.pdb o/627561_HEM_Eburicol.pdb_1940.pdb 
12 o/627561_HEM_Eburicol.pdb_9244.pdb o/627561_HEM_Eburicol.pdb_4259.pdb o/627561_HEM_Eburicol.pdb_7907.pdb o/627561_HEM_Eburicol.pdb_7210.pdb o/627561_HEM_Eburicol.pdb_8575.pdb o/627561_HEM_Eburicol.pdb_694.pdb o/627561_HEM_Eburicol.pdb_2823.pdb o/627561_HEM_Eburicol.pdb_8723.pdb o/627561_HEM_Eburicol.pdb_7003.pdb o/627561_HEM_Eburicol.pdb_2179.pdb o/627561_HEM_Eburicol.pdb_135.pdb o/627561_HEM_Eburicol.pdb_1067.pdb 
18 o/627561_HEM_Eburicol.pdb_8321.pdb o/627561_HEM_Eburicol.pdb_4545.pdb o/627561_HEM_Eburicol.pdb_6003.pdb o/627561_HEM_Eburicol.pdb_496.pdb o/627561_HEM_Eburicol.pdb_4144.pdb o/627561_HEM_Eburicol.pdb_3288.pdb o/627561_HEM_Eburicol.pdb_1454.pdb o/627561_HEM_Eburicol.pdb_3308.pdb o/627561_HEM_Eburicol.pdb_8307.pdb o/627561_HEM_Eburicol.pdb_7387.pdb o/627561_HEM_Eburicol.pdb_3380.pdb o/627561_HEM_Eburicol.pdb_8837.pdb o/627561_HEM_Eburicol.pdb_8144.pdb o/627561_HEM_Eburicol.pdb_5944.pdb o/627561_HEM_Eburicol.pdb_5467.pdb o/627561_HEM_Eburicol.pdb_8649.pdb o/627561_HEM_Eburicol.pdb_449.pdb o/627561_HEM_Eburicol.pdb_1226.pdb 
12 o/627561_HEM_Eburicol.pdb_6360.pdb o/627561_HEM_Eburicol.pdb_357.pdb o/627561_HEM_Eburicol.pdb_5726.pdb o/627561_HEM_Eburicol.pdb_7175.pdb o/627561_HEM_Eburicol.pdb_4419.pdb o/627561_HEM_Eburicol.pdb_9454.pdb o/627561_HEM_Eburicol.pdb_3558.pdb o/627561_HEM_Eburicol.pdb_4186.pdb o/627561_HEM_Eburicol.pdb_9629.pdb o/627561_HEM_Eburicol.pdb_3453.pdb o/627561_HEM_Eburicol.pdb_6335.pdb o/627561_HEM_Eburicol.pdb_2538.pdb 
13 o/627561_HEM_Eburicol.pdb_9780.pdb o/627561_HEM_Eburicol.pdb_997.pdb o/627561_HEM_Eburicol.pdb_8452.pdb o/627561_HEM_Eburicol.pdb_585.pdb o/627561_HEM_Eburicol.pdb_526.pdb o/627561_HEM_Eburicol.pdb_3304.pdb o/627561_HEM_Eburicol.pdb_6903.pdb o/627561_HEM_Eburicol.pdb_5082.pdb o/627561_HEM_Eburicol.pdb_701.pdb o/627561_HEM_Eburicol.pdb_5740.pdb o/627561_HEM_Eburicol.pdb_3280.pdb o/627561_HEM_Eburicol.pdb_6020.pdb o/627561_HEM_Eburicol.pdb_17.pdb 
11 o/627561_HEM_Eburicol.pdb_2752.pdb o/627561_HEM_Eburicol.pdb_2474.pdb o/627561_HEM_Eburicol.pdb_8544.pdb o/627561_HEM_Eburicol.pdb_2615.pdb o/627561_HEM_Eburicol.pdb_5711.pdb o/627561_HEM_Eburicol.pdb_2162.pdb o/627561_HEM_Eburicol.pdb_9439.pdb o/627561_HEM_Eburicol.pdb_5007.pdb o/627561_HEM_Eburicol.pdb_2336.pdb o/627561_HEM_Eburicol.pdb_7176.pdb o/627561_HEM_Eburicol.pdb_1785.pdb 
13 o/627561_HEM_Eburicol.pdb_8640.pdb o/627561_HEM_Eburicol.pdb_5768.pdb o/627561_HEM_Eburicol.pdb_5229.pdb o/627561_HEM_Eburicol.pdb_484.pdb o/627561_HEM_Eburicol.pdb_6051.pdb o/627561_HEM_Eburicol.pdb_5779.pdb o/627561_HEM_Eburicol.pdb_7922.pdb o/627561_HEM_Eburicol.pdb_7580.pdb o/627561_HEM_Eburicol.pdb_4953.pdb o/627561_HEM_Eburicol.pdb_3403.pdb o/627561_HEM_Eburicol.pdb_3402.pdb o/627561_HEM_Eburicol.pdb_8797.pdb o/627561_HEM_Eburicol.pdb_3335.pdb 
11 o/627561_HEM_Eburicol.pdb_5322.pdb o/627561_HEM_Eburicol.pdb_7637.pdb o/627561_HEM_Eburicol.pdb_7110.pdb o/627561_HEM_Eburicol.pdb_1375.pdb o/627561_HEM_Eburicol.pdb_712.pdb o/627561_HEM_Eburicol.pdb_552.pdb o/627561_HEM_Eburicol.pdb_5332.pdb o/627561_HEM_Eburicol.pdb_5190.pdb o/627561_HEM_Eburicol.pdb_9067.pdb o/627561_HEM_Eburicol.pdb_6229.pdb o/627561_HEM_Eburicol.pdb_1057.pdb 
17 o/627561_HEM_Eburicol.pdb_7441.pdb o/627561_HEM_Eburicol.pdb_6076.pdb o/627561_HEM_Eburicol.pdb_4357.pdb o/627561_HEM_Eburicol.pdb_8368.pdb o/627561_HEM_Eburicol.pdb_9815.pdb o/627561_HEM_Eburicol.pdb_7988.pdb o/627561_HEM_Eburicol.pdb_5292.pdb o/627561_HEM_Eburicol.pdb_5017.pdb o/627561_HEM_Eburicol.pdb_7813.pdb o/627561_HEM_Eburicol.pdb_3284.pdb o/627561_HEM_Eburicol.pdb_6818.pdb o/627561_HEM_Eburicol.pdb_3771.pdb o/627561_HEM_Eburicol.pdb_4881.pdb o/627561_HEM_Eburicol.pdb_8970.pdb o/627561_HEM_Eburicol.pdb_3346.pdb o/627561_HEM_Eburicol.pdb_9589.pdb o/627561_HEM_Eburicol.pdb_1175.pdb 
14 o/627561_HEM_Eburicol.pdb_4668.pdb o/627561_HEM_Eburicol.pdb_3809.pdb o/627561_HEM_Eburicol.pdb_6532.pdb o/627561_HEM_Eburicol.pdb_2228.pdb o/627561_HEM_Eburicol.pdb_723.pdb o/627561_HEM_Eburicol.pdb_1912.pdb o/627561_HEM_Eburicol.pdb_8912.pdb o/627561_HEM_Eburicol.pdb_474.pdb o/627561_HEM_Eburicol.pdb_2764.pdb o/627561_HEM_Eburicol.pdb_1959.pdb o/627561_HEM_Eburicol.pdb_5548.pdb o/627561_HEM_Eburicol.pdb_3580.pdb o/627561_HEM_Eburicol.pdb_9558.pdb o/627561_HEM_Eburicol.pdb_1757.pdb 
12 o/627561_HEM_Eburicol.pdb_430.pdb o/627561_HEM_Eburicol.pdb_6684.pdb o/627561_HEM_Eburicol.pdb_4121.pdb o/627561_HEM_Eburicol.pdb_5388.pdb o/627561_HEM_Eburicol.pdb_4156.pdb o/627561_HEM_Eburicol.pdb_450.pdb o/627561_HEM_Eburicol.pdb_1741.pdb o/627561_HEM_Eburicol.pdb_9316.pdb o/627561_HEM_Eburicol.pdb_6270.pdb o/627561_HEM_Eburicol.pdb_6066.pdb o/627561_HEM_Eburicol.pdb_3484.pdb o/627561_HEM_Eburicol.pdb_1056.pdb 
16 o/627561_HEM_Eburicol.pdb_7532.pdb o/627561_HEM_Eburicol.pdb_9137.pdb o/627561_HEM_Eburicol.pdb_7261.pdb o/627561_HEM_Eburicol.pdb_6973.pdb o/627561_HEM_Eburicol.pdb_1351.pdb o/627561_HEM_Eburicol.pdb_9643.pdb o/627561_HEM_Eburicol.pdb_3958.pdb o/627561_HEM_Eburicol.pdb_2918.pdb o/627561_HEM_Eburicol.pdb_807.pdb o/627561_HEM_Eburicol.pdb_2116.pdb o/627561_HEM_Eburicol.pdb_3880.pdb o/627561_HEM_Eburicol.pdb_1811.pdb o/627561_HEM_Eburicol.pdb_7442.pdb o/627561_HEM_Eburicol.pdb_8220.pdb o/627561_HEM_Eburicol.pdb_9429.pdb o/627561_HEM_Eburicol.pdb_1216.pdb 
15 o/627561_HEM_Eburicol.pdb_271.pdb o/627561_HEM_Eburicol.pdb_4619.pdb o/627561_HEM_Eburicol.pdb_4777.pdb o/627561_HEM_Eburicol.pdb_279.pdb o/627561_HEM_Eburicol.pdb_4232.pdb o/627561_HEM_Eburicol.pdb_2829.pdb o/627561_HEM_Eburicol.pdb_1706.pdb o/627561_HEM_Eburicol.pdb_9681.pdb o/627561_HEM_Eburicol.pdb_3851.pdb o/627561_HEM_Eburicol.pdb_6685.pdb o/627561_HEM_Eburicol.pdb_1799.pdb o/627561_HEM_Eburicol.pdb_9113.pdb o/627561_HEM_Eburicol.pdb_7499.pdb o/627561_HEM_Eburicol.pdb_9442.pdb o/627561_HEM_Eburicol.pdb_1050.pdb 
11 o/627561_HEM_Eburicol.pdb_7769.pdb o/627561_HEM_Eburicol.pdb_7639.pdb o/627561_HEM_Eburicol.pdb_4356.pdb o/627561_HEM_Eburicol.pdb_2759.pdb o/627561_HEM_Eburicol.pdb_6776.pdb o/627561_HEM_Eburicol.pdb_1913.pdb o/627561_HEM_Eburicol.pdb_6794.pdb o/627561_HEM_Eburicol.pdb_3200.pdb o/627561_HEM_Eburicol.pdb_227.pdb o/627561_HEM_Eburicol.pdb_3739.pdb o/627561_HEM_Eburicol.pdb_1072.pdb 
11 o/627561_HEM_Eburicol.pdb_7394.pdb o/627561_HEM_Eburicol.pdb_3794.pdb o/627561_HEM_Eburicol.pdb_1316.pdb o/627561_HEM_Eburicol.pdb_8707.pdb o/627561_HEM_Eburicol.pdb_8155.pdb o/627561_HEM_Eburicol.pdb_3449.pdb o/627561_HEM_Eburicol.pdb_4434.pdb o/627561_HEM_Eburicol.pdb_1919.pdb o/627561_HEM_Eburicol.pdb_3993.pdb o/627561_HEM_Eburicol.pdb_9529.pdb o/627561_HEM_Eburicol.pdb_115.pdb 
13 o/627561_HEM_Eburicol.pdb_6552.pdb o/627561_HEM_Eburicol.pdb_4970.pdb o/627561_HEM_Eburicol.pdb_4159.pdb o/627561_HEM_Eburicol.pdb_8069.pdb o/627561_HEM_Eburicol.pdb_5561.pdb o/627561_HEM_Eburicol.pdb_5238.pdb o/627561_HEM_Eburicol.pdb_3550.pdb o/627561_HEM_Eburicol.pdb_6543.pdb o/627561_HEM_Eburicol.pdb_2520.pdb o/627561_HEM_Eburicol.pdb_6756.pdb o/627561_HEM_Eburicol.pdb_6668.pdb o/627561_HEM_Eburicol.pdb_1560.pdb o/627561_HEM_Eburicol.pdb_1212.pdb 
10 o/627561_HEM_Eburicol.pdb_845.pdb o/627561_HEM_Eburicol.pdb_7993.pdb o/627561_HEM_Eburicol.pdb_7707.pdb o/627561_HEM_Eburicol.pdb_9155.pdb o/627561_HEM_Eburicol.pdb_7762.pdb o/627561_HEM_Eburicol.pdb_6629.pdb o/627561_HEM_Eburicol.pdb_6423.pdb o/627561_HEM_Eburicol.pdb_2959.pdb o/627561_HEM_Eburicol.pdb_5649.pdb o/627561_HEM_Eburicol.pdb_1155.pdb 
10 o/627561_HEM_Eburicol.pdb_9743.pdb o/627561_HEM_Eburicol.pdb_4036.pdb o/627561_HEM_Eburicol.pdb_3541.pdb o/627561_HEM_Eburicol.pdb_2245.pdb o/627561_HEM_Eburicol.pdb_2048.pdb o/627561_HEM_Eburicol.pdb_8432.pdb o/627561_HEM_Eburicol.pdb_1470.pdb o/627561_HEM_Eburicol.pdb_4528.pdb o/627561_HEM_Eburicol.pdb_5913.pdb o/627561_HEM_Eburicol.pdb_1040.pdb 
10 o/627561_HEM_Eburicol.pdb_6968.pdb o/627561_HEM_Eburicol.pdb_6870.pdb o/627561_HEM_Eburicol.pdb_6946.pdb o/627561_HEM_Eburicol.pdb_6648.pdb o/627561_HEM_Eburicol.pdb_6190.pdb o/627561_HEM_Eburicol.pdb_8416.pdb o/627561_HEM_Eburicol.pdb_335.pdb o/627561_HEM_Eburicol.pdb_948.pdb o/627561_HEM_Eburicol.pdb_5415.pdb o/627561_HEM_Eburicol.pdb_2666.pdb 
10 o/627561_HEM_Eburicol.pdb_9288.pdb o/627561_HEM_Eburicol.pdb_7766.pdb o/627561_HEM_Eburicol.pdb_8606.pdb o/627561_HEM_Eburicol.pdb_811.pdb o/627561_HEM_Eburicol.pdb_4464.pdb o/627561_HEM_Eburicol.pdb_9792.pdb o/627561_HEM_Eburicol.pdb_8969.pdb o/627561_HEM_Eburicol.pdb_66.pdb o/627561_HEM_Eburicol.pdb_4621.pdb o/627561_HEM_Eburicol.pdb_2264.pdb 
12 o/627561_HEM_Eburicol.pdb_8943.pdb o/627561_HEM_Eburicol.pdb_363.pdb o/627561_HEM_Eburicol.pdb_3668.pdb o/627561_HEM_Eburicol.pdb_2515.pdb o/627561_HEM_Eburicol.pdb_5617.pdb o/627561_HEM_Eburicol.pdb_2352.pdb o/627561_HEM_Eburicol.pdb_188.pdb o/627561_HEM_Eburicol.pdb_6769.pdb o/627561_HEM_Eburicol.pdb_8447.pdb o/627561_HEM_Eburicol.pdb_7322.pdb o/627561_HEM_Eburicol.pdb_2339.pdb o/627561_HEM_Eburicol.pdb_1039.pdb 
10 o/627561_HEM_Eburicol.pdb_9274.pdb o/627561_HEM_Eburicol.pdb_6880.pdb o/627561_HEM_Eburicol.pdb_9958.pdb o/627561_HEM_Eburicol.pdb_8930.pdb o/627561_HEM_Eburicol.pdb_4855.pdb o/627561_HEM_Eburicol.pdb_9027.pdb o/627561_HEM_Eburicol.pdb_347.pdb o/627561_HEM_Eburicol.pdb_3064.pdb o/627561_HEM_Eburicol.pdb_6420.pdb o/627561_HEM_Eburicol.pdb_2451.pdb 
13 o/627561_HEM_Eburicol.pdb_8542.pdb o/627561_HEM_Eburicol.pdb_5211.pdb o/627561_HEM_Eburicol.pdb_8737.pdb o/627561_HEM_Eburicol.pdb_4539.pdb o/627561_HEM_Eburicol.pdb_3481.pdb o/627561_HEM_Eburicol.pdb_2382.pdb o/627561_HEM_Eburicol.pdb_5828.pdb o/627561_HEM_Eburicol.pdb_6312.pdb o/627561_HEM_Eburicol.pdb_4468.pdb o/627561_HEM_Eburicol.pdb_2965.pdb o/627561_HEM_Eburicol.pdb_9885.pdb o/627561_HEM_Eburicol.pdb_4728.pdb o/627561_HEM_Eburicol.pdb_1355.pdb 
13 o/627561_HEM_Eburicol.pdb_5516.pdb o/627561_HEM_Eburicol.pdb_7064.pdb o/627561_HEM_Eburicol.pdb_3489.pdb o/627561_HEM_Eburicol.pdb_3767.pdb o/627561_HEM_Eburicol.pdb_3168.pdb o/627561_HEM_Eburicol.pdb_4461.pdb o/627561_HEM_Eburicol.pdb_3799.pdb o/627561_HEM_Eburicol.pdb_711.pdb o/627561_HEM_Eburicol.pdb_3724.pdb o/627561_HEM_Eburicol.pdb_4283.pdb o/627561_HEM_Eburicol.pdb_5943.pdb o/627561_HEM_Eburicol.pdb_8099.pdb o/627561_HEM_Eburicol.pdb_1379.pdb 
14 o/627561_HEM_Eburicol.pdb_7622.pdb o/627561_HEM_Eburicol.pdb_4354.pdb o/627561_HEM_Eburicol.pdb_3136.pdb o/627561_HEM_Eburicol.pdb_999.pdb o/627561_HEM_Eburicol.pdb_3283.pdb o/627561_HEM_Eburicol.pdb_236.pdb o/627561_HEM_Eburicol.pdb_6053.pdb o/627561_HEM_Eburicol.pdb_1066.pdb o/627561_HEM_Eburicol.pdb_4845.pdb o/627561_HEM_Eburicol.pdb_9123.pdb o/627561_HEM_Eburicol.pdb_8836.pdb o/627561_HEM_Eburicol.pdb_2484.pdb o/627561_HEM_Eburicol.pdb_9803.pdb o/627561_HEM_Eburicol.pdb_1031.pdb 
13 o/627561_HEM_Eburicol.pdb_9670.pdb o/627561_HEM_Eburicol.pdb_8492.pdb o/627561_HEM_Eburicol.pdb_8284.pdb o/627561_HEM_Eburicol.pdb_5450.pdb o/627561_HEM_Eburicol.pdb_4887.pdb o/627561_HEM_Eburicol.pdb_4572.pdb o/627561_HEM_Eburicol.pdb_7228.pdb o/627561_HEM_Eburicol.pdb_1908.pdb o/627561_HEM_Eburicol.pdb_9270.pdb o/627561_HEM_Eburicol.pdb_4842.pdb o/627561_HEM_Eburicol.pdb_1924.pdb o/627561_HEM_Eburicol.pdb_6596.pdb o/627561_HEM_Eburicol.pdb_12.pdb 
11 o/627561_HEM_Eburicol.pdb_6760.pdb o/627561_HEM_Eburicol.pdb_4384.pdb o/627561_HEM_Eburicol.pdb_8193.pdb o/627561_HEM_Eburicol.pdb_6917.pdb o/627561_HEM_Eburicol.pdb_8972.pdb o/627561_HEM_Eburicol.pdb_3123.pdb o/627561_HEM_Eburicol.pdb_9412.pdb o/627561_HEM_Eburicol.pdb_4988.pdb o/627561_HEM_Eburicol.pdb_394.pdb o/627561_HEM_Eburicol.pdb_8055.pdb o/627561_HEM_Eburicol.pdb_1046.pdb 
10 o/627561_HEM_Eburicol.pdb_8587.pdb o/627561_HEM_Eburicol.pdb_7298.pdb o/627561_HEM_Eburicol.pdb_8302.pdb o/627561_HEM_Eburicol.pdb_7720.pdb o/627561_HEM_Eburicol.pdb_9377.pdb o/627561_HEM_Eburicol.pdb_4444.pdb o/627561_HEM_Eburicol.pdb_824.pdb o/627561_HEM_Eburicol.pdb_8147.pdb o/627561_HEM_Eburicol.pdb_273.pdb o/627561_HEM_Eburicol.pdb_1771.pdb 
14 o/627561_HEM_Eburicol.pdb_9043.pdb o/627561_HEM_Eburicol.pdb_525.pdb o/627561_HEM_Eburicol.pdb_6517.pdb o/627561_HEM_Eburicol.pdb_2408.pdb o/627561_HEM_Eburicol.pdb_8517.pdb o/627561_HEM_Eburicol.pdb_5727.pdb o/627561_HEM_Eburicol.pdb_7687.pdb o/627561_HEM_Eburicol.pdb_7725.pdb o/627561_HEM_Eburicol.pdb_5509.pdb o/627561_HEM_Eburicol.pdb_8093.pdb o/627561_HEM_Eburicol.pdb_3144.pdb o/627561_HEM_Eburicol.pdb_5534.pdb o/627561_HEM_Eburicol.pdb_310.pdb o/627561_HEM_Eburicol.pdb_1025.pdb 
10 o/627561_HEM_Eburicol.pdb_9934.pdb o/627561_HEM_Eburicol.pdb_4141.pdb o/627561_HEM_Eburicol.pdb_2083.pdb o/627561_HEM_Eburicol.pdb_8102.pdb o/627561_HEM_Eburicol.pdb_5307.pdb o/627561_HEM_Eburicol.pdb_7517.pdb o/627561_HEM_Eburicol.pdb_3297.pdb o/627561_HEM_Eburicol.pdb_7630.pdb o/627561_HEM_Eburicol.pdb_2925.pdb o/627561_HEM_Eburicol.pdb_1728.pdb 
12 o/627561_HEM_Eburicol.pdb_8184.pdb o/627561_HEM_Eburicol.pdb_5885.pdb o/627561_HEM_Eburicol.pdb_2464.pdb o/627561_HEM_Eburicol.pdb_6654.pdb o/627561_HEM_Eburicol.pdb_9152.pdb o/627561_HEM_Eburicol.pdb_6617.pdb o/627561_HEM_Eburicol.pdb_3505.pdb o/627561_HEM_Eburicol.pdb_9719.pdb o/627561_HEM_Eburicol.pdb_6675.pdb o/627561_HEM_Eburicol.pdb_5048.pdb o/627561_HEM_Eburicol.pdb_2644.pdb o/627561_HEM_Eburicol.pdb_1512.pdb 
12 o/627561_HEM_Eburicol.pdb_5168.pdb o/627561_HEM_Eburicol.pdb_2509.pdb o/627561_HEM_Eburicol.pdb_2019.pdb o/627561_HEM_Eburicol.pdb_764.pdb o/627561_HEM_Eburicol.pdb_7535.pdb o/627561_HEM_Eburicol.pdb_3852.pdb o/627561_HEM_Eburicol.pdb_7995.pdb o/627561_HEM_Eburicol.pdb_4796.pdb o/627561_HEM_Eburicol.pdb_4787.pdb o/627561_HEM_Eburicol.pdb_4742.pdb o/627561_HEM_Eburicol.pdb_6933.pdb o/627561_HEM_Eburicol.pdb_1508.pdb 
10 o/627561_HEM_Eburicol.pdb_8968.pdb o/627561_HEM_Eburicol.pdb_7453.pdb o/627561_HEM_Eburicol.pdb_2794.pdb o/627561_HEM_Eburicol.pdb_2777.pdb o/627561_HEM_Eburicol.pdb_9204.pdb o/627561_HEM_Eburicol.pdb_1402.pdb o/627561_HEM_Eburicol.pdb_3203.pdb o/627561_HEM_Eburicol.pdb_1760.pdb o/627561_HEM_Eburicol.pdb_6572.pdb o/627561_HEM_Eburicol.pdb_1033.pdb 
21 o/627561_HEM_Eburicol.pdb_6480.pdb o/627561_HEM_Eburicol.pdb_4873.pdb o/627561_HEM_Eburicol.pdb_4794.pdb o/627561_HEM_Eburicol.pdb_1865.pdb o/627561_HEM_Eburicol.pdb_9188.pdb o/627561_HEM_Eburicol.pdb_2445.pdb o/627561_HEM_Eburicol.pdb_1787.pdb o/627561_HEM_Eburicol.pdb_5590.pdb o/627561_HEM_Eburicol.pdb_3686.pdb o/627561_HEM_Eburicol.pdb_6108.pdb o/627561_HEM_Eburicol.pdb_3382.pdb o/627561_HEM_Eburicol.pdb_1849.pdb o/627561_HEM_Eburicol.pdb_6200.pdb o/627561_HEM_Eburicol.pdb_3747.pdb o/627561_HEM_Eburicol.pdb_8875.pdb o/627561_HEM_Eburicol.pdb_1213.pdb o/627561_HEM_Eburicol.pdb_5894.pdb o/627561_HEM_Eburicol.pdb_3112.pdb o/627561_HEM_Eburicol.pdb_3968.pdb o/627561_HEM_Eburicol.pdb_301.pdb o/627561_HEM_Eburicol.pdb_1017.pdb 
19 o/627561_HEM_Eburicol.pdb_6474.pdb o/627561_HEM_Eburicol.pdb_6810.pdb o/627561_HEM_Eburicol.pdb_2991.pdb o/627561_HEM_Eburicol.pdb_9641.pdb o/627561_HEM_Eburicol.pdb_5736.pdb o/627561_HEM_Eburicol.pdb_3948.pdb o/627561_HEM_Eburicol.pdb_7000.pdb o/627561_HEM_Eburicol.pdb_5383.pdb o/627561_HEM_Eburicol.pdb_4699.pdb o/627561_HEM_Eburicol.pdb_1054.pdb o/627561_HEM_Eburicol.pdb_6602.pdb o/627561_HEM_Eburicol.pdb_4326.pdb o/627561_HEM_Eburicol.pdb_8444.pdb o/627561_HEM_Eburicol.pdb_2072.pdb o/627561_HEM_Eburicol.pdb_7595.pdb o/627561_HEM_Eburicol.pdb_4854.pdb o/627561_HEM_Eburicol.pdb_6759.pdb o/627561_HEM_Eburicol.pdb_861.pdb o/627561_HEM_Eburicol.pdb_1012.pdb 
12 o/627561_HEM_Eburicol.pdb_7209.pdb o/627561_HEM_Eburicol.pdb_5206.pdb o/627561_HEM_Eburicol.pdb_4409.pdb o/627561_HEM_Eburicol.pdb_8446.pdb o/627561_HEM_Eburicol.pdb_4926.pdb o/627561_HEM_Eburicol.pdb_3383.pdb o/627561_HEM_Eburicol.pdb_1405.pdb o/627561_HEM_Eburicol.pdb_1044.pdb o/627561_HEM_Eburicol.pdb_6988.pdb o/627561_HEM_Eburicol.pdb_6991.pdb o/627561_HEM_Eburicol.pdb_5579.pdb o/627561_HEM_Eburicol.pdb_1011.pdb 
15 o/627561_HEM_Eburicol.pdb_5859.pdb o/627561_HEM_Eburicol.pdb_4098.pdb o/627561_HEM_Eburicol.pdb_349.pdb o/627561_HEM_Eburicol.pdb_1189.pdb o/627561_HEM_Eburicol.pdb_6467.pdb o/627561_HEM_Eburicol.pdb_2988.pdb o/627561_HEM_Eburicol.pdb_986.pdb o/627561_HEM_Eburicol.pdb_3720.pdb o/627561_HEM_Eburicol.pdb_6780.pdb o/627561_HEM_Eburicol.pdb_8186.pdb o/627561_HEM_Eburicol.pdb_5598.pdb o/627561_HEM_Eburicol.pdb_4375.pdb o/627561_HEM_Eburicol.pdb_2942.pdb o/627561_HEM_Eburicol.pdb_1965.pdb o/627561_HEM_Eburicol.pdb_1008.pdb 
12 o/627561_HEM_Eburicol.pdb_8495.pdb o/627561_HEM_Eburicol.pdb_3459.pdb o/627561_HEM_Eburicol.pdb_2679.pdb o/627561_HEM_Eburicol.pdb_7026.pdb o/627561_HEM_Eburicol.pdb_8119.pdb o/627561_HEM_Eburicol.pdb_5030.pdb o/627561_HEM_Eburicol.pdb_2414.pdb o/627561_HEM_Eburicol.pdb_7112.pdb o/627561_HEM_Eburicol.pdb_8698.pdb o/627561_HEM_Eburicol.pdb_5055.pdb o/627561_HEM_Eburicol.pdb_3450.pdb o/627561_HEM_Eburicol.pdb_1823.pdb 
11 o/627561_HEM_Eburicol.pdb_6042.pdb o/627561_HEM_Eburicol.pdb_5814.pdb o/627561_HEM_Eburicol.pdb_386.pdb o/627561_HEM_Eburicol.pdb_79.pdb o/627561_HEM_Eburicol.pdb_148.pdb o/627561_HEM_Eburicol.pdb_6915.pdb o/627561_HEM_Eburicol.pdb_2624.pdb o/627561_HEM_Eburicol.pdb_8356.pdb o/627561_HEM_Eburicol.pdb_1551.pdb o/627561_HEM_Eburicol.pdb_7489.pdb o/627561_HEM_Eburicol.pdb_1107.pdb 
15 o/627561_HEM_Eburicol.pdb_3682.pdb o/627561_HEM_Eburicol.pdb_9082.pdb o/627561_HEM_Eburicol.pdb_4827.pdb o/627561_HEM_Eburicol.pdb_345.pdb o/627561_HEM_Eburicol.pdb_7628.pdb o/627561_HEM_Eburicol.pdb_8458.pdb o/627561_HEM_Eburicol.pdb_318.pdb o/627561_HEM_Eburicol.pdb_7305.pdb o/627561_HEM_Eburicol.pdb_7371.pdb o/627561_HEM_Eburicol.pdb_9346.pdb o/627561_HEM_Eburicol.pdb_7429.pdb o/627561_HEM_Eburicol.pdb_6422.pdb o/627561_HEM_Eburicol.pdb_4758.pdb o/627561_HEM_Eburicol.pdb_8960.pdb o/627561_HEM_Eburicol.pdb_3108.pdb 
11 o/627561_HEM_Eburicol.pdb_8329.pdb o/627561_HEM_Eburicol.pdb_6274.pdb o/627561_HEM_Eburicol.pdb_7217.pdb o/627561_HEM_Eburicol.pdb_2938.pdb o/627561_HEM_Eburicol.pdb_7086.pdb o/627561_HEM_Eburicol.pdb_3649.pdb o/627561_HEM_Eburicol.pdb_599.pdb o/627561_HEM_Eburicol.pdb_3589.pdb o/627561_HEM_Eburicol.pdb_8010.pdb o/627561_HEM_Eburicol.pdb_9285.pdb o/627561_HEM_Eburicol.pdb_1002.pdb 
