14 o/345805_HEM_Obtusifoliol.pdb_8224.pdb o/345805_HEM_Obtusifoliol.pdb_8746.pdb o/345805_HEM_Obtusifoliol.pdb_3939.pdb o/345805_HEM_Obtusifoliol.pdb_7764.pdb o/345805_HEM_Obtusifoliol.pdb_6761.pdb o/345805_HEM_Obtusifoliol.pdb_5240.pdb o/345805_HEM_Obtusifoliol.pdb_7844.pdb o/345805_HEM_Obtusifoliol.pdb_4597.pdb o/345805_HEM_Obtusifoliol.pdb_7173.pdb o/345805_HEM_Obtusifoliol.pdb_4465.pdb o/345805_HEM_Obtusifoliol.pdb_7227.pdb o/345805_HEM_Obtusifoliol.pdb_2435.pdb o/345805_HEM_Obtusifoliol.pdb_6519.pdb o/345805_HEM_Obtusifoliol.pdb_2056.pdb 
11 o/345805_HEM_Obtusifoliol.pdb_8253.pdb o/345805_HEM_Obtusifoliol.pdb_7464.pdb o/345805_HEM_Obtusifoliol.pdb_2812.pdb o/345805_HEM_Obtusifoliol.pdb_3617.pdb o/345805_HEM_Obtusifoliol.pdb_37.pdb o/345805_HEM_Obtusifoliol.pdb_2017.pdb o/345805_HEM_Obtusifoliol.pdb_1629.pdb o/345805_HEM_Obtusifoliol.pdb_8912.pdb o/345805_HEM_Obtusifoliol.pdb_858.pdb o/345805_HEM_Obtusifoliol.pdb_2674.pdb o/345805_HEM_Obtusifoliol.pdb_1382.pdb 
10 o/345805_HEM_Obtusifoliol.pdb_6570.pdb o/345805_HEM_Obtusifoliol.pdb_7482.pdb o/345805_HEM_Obtusifoliol.pdb_3564.pdb o/345805_HEM_Obtusifoliol.pdb_5722.pdb o/345805_HEM_Obtusifoliol.pdb_5356.pdb o/345805_HEM_Obtusifoliol.pdb_5066.pdb o/345805_HEM_Obtusifoliol.pdb_6573.pdb o/345805_HEM_Obtusifoliol.pdb_3703.pdb o/345805_HEM_Obtusifoliol.pdb_3959.pdb o/345805_HEM_Obtusifoliol.pdb_1399.pdb 
