14 o/629036_HEM_Lanosterol.pdb_8063.pdb o/629036_HEM_Lanosterol.pdb_4227.pdb o/629036_HEM_Lanosterol.pdb_359.pdb o/629036_HEM_Lanosterol.pdb_938.pdb o/629036_HEM_Lanosterol.pdb_9760.pdb o/629036_HEM_Lanosterol.pdb_3320.pdb o/629036_HEM_Lanosterol.pdb_5927.pdb o/629036_HEM_Lanosterol.pdb_5745.pdb o/629036_HEM_Lanosterol.pdb_9667.pdb o/629036_HEM_Lanosterol.pdb_441.pdb o/629036_HEM_Lanosterol.pdb_5629.pdb o/629036_HEM_Lanosterol.pdb_4774.pdb o/629036_HEM_Lanosterol.pdb_2306.pdb o/629036_HEM_Lanosterol.pdb_2093.pdb 
14 o/629036_HEM_Lanosterol.pdb_5741.pdb o/629036_HEM_Lanosterol.pdb_5651.pdb o/629036_HEM_Lanosterol.pdb_5001.pdb o/629036_HEM_Lanosterol.pdb_6229.pdb o/629036_HEM_Lanosterol.pdb_585.pdb o/629036_HEM_Lanosterol.pdb_4705.pdb o/629036_HEM_Lanosterol.pdb_4646.pdb o/629036_HEM_Lanosterol.pdb_6370.pdb o/629036_HEM_Lanosterol.pdb_3404.pdb o/629036_HEM_Lanosterol.pdb_2347.pdb o/629036_HEM_Lanosterol.pdb_9210.pdb o/629036_HEM_Lanosterol.pdb_5863.pdb o/629036_HEM_Lanosterol.pdb_2493.pdb o/629036_HEM_Lanosterol.pdb_1677.pdb 
11 o/629036_HEM_Lanosterol.pdb_9096.pdb o/629036_HEM_Lanosterol.pdb_6733.pdb o/629036_HEM_Lanosterol.pdb_6873.pdb o/629036_HEM_Lanosterol.pdb_6604.pdb o/629036_HEM_Lanosterol.pdb_7123.pdb o/629036_HEM_Lanosterol.pdb_5004.pdb o/629036_HEM_Lanosterol.pdb_4225.pdb o/629036_HEM_Lanosterol.pdb_2689.pdb o/629036_HEM_Lanosterol.pdb_8915.pdb o/629036_HEM_Lanosterol.pdb_3557.pdb o/629036_HEM_Lanosterol.pdb_25.pdb 
10 o/629036_HEM_Lanosterol.pdb_3787.pdb o/629036_HEM_Lanosterol.pdb_1636.pdb o/629036_HEM_Lanosterol.pdb_2831.pdb o/629036_HEM_Lanosterol.pdb_2817.pdb o/629036_HEM_Lanosterol.pdb_9174.pdb o/629036_HEM_Lanosterol.pdb_519.pdb o/629036_HEM_Lanosterol.pdb_2442.pdb o/629036_HEM_Lanosterol.pdb_9147.pdb o/629036_HEM_Lanosterol.pdb_9629.pdb o/629036_HEM_Lanosterol.pdb_1411.pdb 
10 o/629036_HEM_Lanosterol.pdb_51.pdb o/629036_HEM_Lanosterol.pdb_905.pdb o/629036_HEM_Lanosterol.pdb_4376.pdb o/629036_HEM_Lanosterol.pdb_3812.pdb o/629036_HEM_Lanosterol.pdb_8874.pdb o/629036_HEM_Lanosterol.pdb_5273.pdb o/629036_HEM_Lanosterol.pdb_8455.pdb o/629036_HEM_Lanosterol.pdb_3283.pdb o/629036_HEM_Lanosterol.pdb_3948.pdb o/629036_HEM_Lanosterol.pdb_1544.pdb 
12 o/629036_HEM_Lanosterol.pdb_9295.pdb o/629036_HEM_Lanosterol.pdb_9237.pdb o/629036_HEM_Lanosterol.pdb_9299.pdb o/629036_HEM_Lanosterol.pdb_771.pdb o/629036_HEM_Lanosterol.pdb_75.pdb o/629036_HEM_Lanosterol.pdb_4300.pdb o/629036_HEM_Lanosterol.pdb_598.pdb o/629036_HEM_Lanosterol.pdb_6552.pdb o/629036_HEM_Lanosterol.pdb_2797.pdb o/629036_HEM_Lanosterol.pdb_6867.pdb o/629036_HEM_Lanosterol.pdb_397.pdb o/629036_HEM_Lanosterol.pdb_2276.pdb 
14 o/629036_HEM_Lanosterol.pdb_6961.pdb o/629036_HEM_Lanosterol.pdb_6301.pdb o/629036_HEM_Lanosterol.pdb_6012.pdb o/629036_HEM_Lanosterol.pdb_5268.pdb o/629036_HEM_Lanosterol.pdb_4852.pdb o/629036_HEM_Lanosterol.pdb_2299.pdb o/629036_HEM_Lanosterol.pdb_9815.pdb o/629036_HEM_Lanosterol.pdb_244.pdb o/629036_HEM_Lanosterol.pdb_164.pdb o/629036_HEM_Lanosterol.pdb_6271.pdb o/629036_HEM_Lanosterol.pdb_9025.pdb o/629036_HEM_Lanosterol.pdb_9703.pdb o/629036_HEM_Lanosterol.pdb_7765.pdb o/629036_HEM_Lanosterol.pdb_1304.pdb 
11 o/629036_HEM_Lanosterol.pdb_9984.pdb o/629036_HEM_Lanosterol.pdb_9284.pdb o/629036_HEM_Lanosterol.pdb_5630.pdb o/629036_HEM_Lanosterol.pdb_383.pdb o/629036_HEM_Lanosterol.pdb_3729.pdb o/629036_HEM_Lanosterol.pdb_9444.pdb o/629036_HEM_Lanosterol.pdb_8438.pdb o/629036_HEM_Lanosterol.pdb_2371.pdb o/629036_HEM_Lanosterol.pdb_8071.pdb o/629036_HEM_Lanosterol.pdb_4407.pdb o/629036_HEM_Lanosterol.pdb_2296.pdb 
15 o/629036_HEM_Lanosterol.pdb_4960.pdb o/629036_HEM_Lanosterol.pdb_7695.pdb o/629036_HEM_Lanosterol.pdb_4638.pdb o/629036_HEM_Lanosterol.pdb_9478.pdb o/629036_HEM_Lanosterol.pdb_5276.pdb o/629036_HEM_Lanosterol.pdb_6050.pdb o/629036_HEM_Lanosterol.pdb_7428.pdb o/629036_HEM_Lanosterol.pdb_3767.pdb o/629036_HEM_Lanosterol.pdb_4155.pdb o/629036_HEM_Lanosterol.pdb_16.pdb o/629036_HEM_Lanosterol.pdb_7515.pdb o/629036_HEM_Lanosterol.pdb_5947.pdb o/629036_HEM_Lanosterol.pdb_2561.pdb o/629036_HEM_Lanosterol.pdb_4822.pdb o/629036_HEM_Lanosterol.pdb_1585.pdb 
10 o/629036_HEM_Lanosterol.pdb_906.pdb o/629036_HEM_Lanosterol.pdb_6539.pdb o/629036_HEM_Lanosterol.pdb_8303.pdb o/629036_HEM_Lanosterol.pdb_7116.pdb o/629036_HEM_Lanosterol.pdb_2559.pdb o/629036_HEM_Lanosterol.pdb_8183.pdb o/629036_HEM_Lanosterol.pdb_6266.pdb o/629036_HEM_Lanosterol.pdb_201.pdb o/629036_HEM_Lanosterol.pdb_8240.pdb o/629036_HEM_Lanosterol.pdb_1545.pdb 
10 o/629036_HEM_Lanosterol.pdb_8599.pdb o/629036_HEM_Lanosterol.pdb_6484.pdb o/629036_HEM_Lanosterol.pdb_4599.pdb o/629036_HEM_Lanosterol.pdb_2505.pdb o/629036_HEM_Lanosterol.pdb_9520.pdb o/629036_HEM_Lanosterol.pdb_7489.pdb o/629036_HEM_Lanosterol.pdb_325.pdb o/629036_HEM_Lanosterol.pdb_5582.pdb o/629036_HEM_Lanosterol.pdb_9558.pdb o/629036_HEM_Lanosterol.pdb_2123.pdb 
10 o/629036_HEM_Lanosterol.pdb_5611.pdb o/629036_HEM_Lanosterol.pdb_4895.pdb o/629036_HEM_Lanosterol.pdb_9267.pdb o/629036_HEM_Lanosterol.pdb_4697.pdb o/629036_HEM_Lanosterol.pdb_9474.pdb o/629036_HEM_Lanosterol.pdb_6661.pdb o/629036_HEM_Lanosterol.pdb_124.pdb o/629036_HEM_Lanosterol.pdb_8935.pdb o/629036_HEM_Lanosterol.pdb_9467.pdb o/629036_HEM_Lanosterol.pdb_1216.pdb 
12 o/629036_HEM_Lanosterol.pdb_5399.pdb o/629036_HEM_Lanosterol.pdb_6860.pdb o/629036_HEM_Lanosterol.pdb_4933.pdb o/629036_HEM_Lanosterol.pdb_4645.pdb o/629036_HEM_Lanosterol.pdb_3332.pdb o/629036_HEM_Lanosterol.pdb_2685.pdb o/629036_HEM_Lanosterol.pdb_286.pdb o/629036_HEM_Lanosterol.pdb_2658.pdb o/629036_HEM_Lanosterol.pdb_7331.pdb o/629036_HEM_Lanosterol.pdb_6214.pdb o/629036_HEM_Lanosterol.pdb_544.pdb o/629036_HEM_Lanosterol.pdb_2062.pdb 
10 o/629036_HEM_Lanosterol.pdb_8456.pdb o/629036_HEM_Lanosterol.pdb_6898.pdb o/629036_HEM_Lanosterol.pdb_8235.pdb o/629036_HEM_Lanosterol.pdb_9060.pdb o/629036_HEM_Lanosterol.pdb_1559.pdb o/629036_HEM_Lanosterol.pdb_2696.pdb o/629036_HEM_Lanosterol.pdb_5481.pdb o/629036_HEM_Lanosterol.pdb_5043.pdb o/629036_HEM_Lanosterol.pdb_5059.pdb o/629036_HEM_Lanosterol.pdb_1181.pdb 
12 o/629036_HEM_Lanosterol.pdb_5167.pdb o/629036_HEM_Lanosterol.pdb_31.pdb o/629036_HEM_Lanosterol.pdb_8118.pdb o/629036_HEM_Lanosterol.pdb_1449.pdb o/629036_HEM_Lanosterol.pdb_7538.pdb o/629036_HEM_Lanosterol.pdb_4546.pdb o/629036_HEM_Lanosterol.pdb_4722.pdb o/629036_HEM_Lanosterol.pdb_8369.pdb o/629036_HEM_Lanosterol.pdb_2091.pdb o/629036_HEM_Lanosterol.pdb_449.pdb o/629036_HEM_Lanosterol.pdb_3466.pdb o/629036_HEM_Lanosterol.pdb_1129.pdb 
11 o/629036_HEM_Lanosterol.pdb_1572.pdb o/629036_HEM_Lanosterol.pdb_1323.pdb o/629036_HEM_Lanosterol.pdb_9126.pdb o/629036_HEM_Lanosterol.pdb_6070.pdb o/629036_HEM_Lanosterol.pdb_3629.pdb o/629036_HEM_Lanosterol.pdb_1117.pdb o/629036_HEM_Lanosterol.pdb_8472.pdb o/629036_HEM_Lanosterol.pdb_8426.pdb o/629036_HEM_Lanosterol.pdb_4842.pdb o/629036_HEM_Lanosterol.pdb_6061.pdb o/629036_HEM_Lanosterol.pdb_1114.pdb 
10 o/629036_HEM_Lanosterol.pdb_9488.pdb o/629036_HEM_Lanosterol.pdb_5266.pdb o/629036_HEM_Lanosterol.pdb_4235.pdb o/629036_HEM_Lanosterol.pdb_6386.pdb o/629036_HEM_Lanosterol.pdb_3461.pdb o/629036_HEM_Lanosterol.pdb_2474.pdb o/629036_HEM_Lanosterol.pdb_9604.pdb o/629036_HEM_Lanosterol.pdb_5645.pdb o/629036_HEM_Lanosterol.pdb_3329.pdb o/629036_HEM_Lanosterol.pdb_2069.pdb 
10 o/629036_HEM_Lanosterol.pdb_90.pdb o/629036_HEM_Lanosterol.pdb_8372.pdb o/629036_HEM_Lanosterol.pdb_967.pdb o/629036_HEM_Lanosterol.pdb_4321.pdb o/629036_HEM_Lanosterol.pdb_1830.pdb o/629036_HEM_Lanosterol.pdb_4028.pdb o/629036_HEM_Lanosterol.pdb_4021.pdb o/629036_HEM_Lanosterol.pdb_1786.pdb o/629036_HEM_Lanosterol.pdb_8651.pdb o/629036_HEM_Lanosterol.pdb_1188.pdb 
13 o/629036_HEM_Lanosterol.pdb_6981.pdb o/629036_HEM_Lanosterol.pdb_3852.pdb o/629036_HEM_Lanosterol.pdb_7989.pdb o/629036_HEM_Lanosterol.pdb_7806.pdb o/629036_HEM_Lanosterol.pdb_5548.pdb o/629036_HEM_Lanosterol.pdb_2027.pdb o/629036_HEM_Lanosterol.pdb_9477.pdb o/629036_HEM_Lanosterol.pdb_4353.pdb o/629036_HEM_Lanosterol.pdb_826.pdb o/629036_HEM_Lanosterol.pdb_2079.pdb o/629036_HEM_Lanosterol.pdb_5859.pdb o/629036_HEM_Lanosterol.pdb_9672.pdb o/629036_HEM_Lanosterol.pdb_2008.pdb 
10 o/629036_HEM_Lanosterol.pdb_7424.pdb o/629036_HEM_Lanosterol.pdb_538.pdb o/629036_HEM_Lanosterol.pdb_8598.pdb o/629036_HEM_Lanosterol.pdb_6871.pdb o/629036_HEM_Lanosterol.pdb_9987.pdb o/629036_HEM_Lanosterol.pdb_5593.pdb o/629036_HEM_Lanosterol.pdb_2387.pdb o/629036_HEM_Lanosterol.pdb_7921.pdb o/629036_HEM_Lanosterol.pdb_9400.pdb o/629036_HEM_Lanosterol.pdb_1250.pdb 
11 o/629036_HEM_Lanosterol.pdb_1531.pdb o/629036_HEM_Lanosterol.pdb_8264.pdb o/629036_HEM_Lanosterol.pdb_7743.pdb o/629036_HEM_Lanosterol.pdb_9663.pdb o/629036_HEM_Lanosterol.pdb_800.pdb o/629036_HEM_Lanosterol.pdb_6477.pdb o/629036_HEM_Lanosterol.pdb_5716.pdb o/629036_HEM_Lanosterol.pdb_9929.pdb o/629036_HEM_Lanosterol.pdb_8447.pdb o/629036_HEM_Lanosterol.pdb_4614.pdb o/629036_HEM_Lanosterol.pdb_1396.pdb 
10 o/629036_HEM_Lanosterol.pdb_8686.pdb o/629036_HEM_Lanosterol.pdb_1864.pdb o/629036_HEM_Lanosterol.pdb_8466.pdb o/629036_HEM_Lanosterol.pdb_660.pdb o/629036_HEM_Lanosterol.pdb_6632.pdb o/629036_HEM_Lanosterol.pdb_2394.pdb o/629036_HEM_Lanosterol.pdb_4319.pdb o/629036_HEM_Lanosterol.pdb_6846.pdb o/629036_HEM_Lanosterol.pdb_6774.pdb o/629036_HEM_Lanosterol.pdb_1089.pdb 
10 o/629036_HEM_Lanosterol.pdb_6085.pdb o/629036_HEM_Lanosterol.pdb_5397.pdb o/629036_HEM_Lanosterol.pdb_4833.pdb o/629036_HEM_Lanosterol.pdb_2875.pdb o/629036_HEM_Lanosterol.pdb_8366.pdb o/629036_HEM_Lanosterol.pdb_1222.pdb o/629036_HEM_Lanosterol.pdb_5649.pdb o/629036_HEM_Lanosterol.pdb_4374.pdb o/629036_HEM_Lanosterol.pdb_1965.pdb o/629036_HEM_Lanosterol.pdb_1171.pdb 
10 o/629036_HEM_Lanosterol.pdb_8002.pdb o/629036_HEM_Lanosterol.pdb_7420.pdb o/629036_HEM_Lanosterol.pdb_4727.pdb o/629036_HEM_Lanosterol.pdb_7969.pdb o/629036_HEM_Lanosterol.pdb_6156.pdb o/629036_HEM_Lanosterol.pdb_7868.pdb o/629036_HEM_Lanosterol.pdb_3377.pdb o/629036_HEM_Lanosterol.pdb_6812.pdb o/629036_HEM_Lanosterol.pdb_4062.pdb o/629036_HEM_Lanosterol.pdb_197.pdb 
10 o/629036_HEM_Lanosterol.pdb_8370.pdb o/629036_HEM_Lanosterol.pdb_5477.pdb o/629036_HEM_Lanosterol.pdb_5256.pdb o/629036_HEM_Lanosterol.pdb_43.pdb o/629036_HEM_Lanosterol.pdb_1537.pdb o/629036_HEM_Lanosterol.pdb_6392.pdb o/629036_HEM_Lanosterol.pdb_571.pdb o/629036_HEM_Lanosterol.pdb_561.pdb o/629036_HEM_Lanosterol.pdb_3994.pdb o/629036_HEM_Lanosterol.pdb_1045.pdb 
11 o/629036_HEM_Lanosterol.pdb_8470.pdb o/629036_HEM_Lanosterol.pdb_6416.pdb o/629036_HEM_Lanosterol.pdb_5568.pdb o/629036_HEM_Lanosterol.pdb_374.pdb o/629036_HEM_Lanosterol.pdb_978.pdb o/629036_HEM_Lanosterol.pdb_8117.pdb o/629036_HEM_Lanosterol.pdb_3393.pdb o/629036_HEM_Lanosterol.pdb_9207.pdb o/629036_HEM_Lanosterol.pdb_2494.pdb o/629036_HEM_Lanosterol.pdb_4516.pdb o/629036_HEM_Lanosterol.pdb_1000.pdb 
11 o/629036_HEM_Lanosterol.pdb_6581.pdb o/629036_HEM_Lanosterol.pdb_8691.pdb o/629036_HEM_Lanosterol.pdb_4466.pdb o/629036_HEM_Lanosterol.pdb_8125.pdb o/629036_HEM_Lanosterol.pdb_7339.pdb o/629036_HEM_Lanosterol.pdb_5833.pdb o/629036_HEM_Lanosterol.pdb_1895.pdb o/629036_HEM_Lanosterol.pdb_8048.pdb o/629036_HEM_Lanosterol.pdb_8425.pdb o/629036_HEM_Lanosterol.pdb_8070.pdb o/629036_HEM_Lanosterol.pdb_1094.pdb 
