11 o/1742_HEM_Itraconazole.pdb_6423.pdb o/1742_HEM_Itraconazole.pdb_5697.pdb o/1742_HEM_Itraconazole.pdb_4389.pdb o/1742_HEM_Itraconazole.pdb_2349.pdb o/1742_HEM_Itraconazole.pdb_1789.pdb o/1742_HEM_Itraconazole.pdb_9823.pdb o/1742_HEM_Itraconazole.pdb_2001.pdb o/1742_HEM_Itraconazole.pdb_9368.pdb o/1742_HEM_Itraconazole.pdb_7318.pdb o/1742_HEM_Itraconazole.pdb_1964.pdb o/1742_HEM_Itraconazole.pdb_1428.pdb 
11 o/1742_HEM_Itraconazole.pdb_8225.pdb o/1742_HEM_Itraconazole.pdb_6924.pdb o/1742_HEM_Itraconazole.pdb_6712.pdb o/1742_HEM_Itraconazole.pdb_5611.pdb o/1742_HEM_Itraconazole.pdb_3086.pdb o/1742_HEM_Itraconazole.pdb_8569.pdb o/1742_HEM_Itraconazole.pdb_5648.pdb o/1742_HEM_Itraconazole.pdb_3016.pdb o/1742_HEM_Itraconazole.pdb_9522.pdb o/1742_HEM_Itraconazole.pdb_8645.pdb o/1742_HEM_Itraconazole.pdb_2310.pdb 
10 o/1742_HEM_Itraconazole.pdb_5214.pdb o/1742_HEM_Itraconazole.pdb_8632.pdb o/1742_HEM_Itraconazole.pdb_4766.pdb o/1742_HEM_Itraconazole.pdb_6066.pdb o/1742_HEM_Itraconazole.pdb_5414.pdb o/1742_HEM_Itraconazole.pdb_4253.pdb o/1742_HEM_Itraconazole.pdb_3429.pdb o/1742_HEM_Itraconazole.pdb_7879.pdb o/1742_HEM_Itraconazole.pdb_3458.pdb o/1742_HEM_Itraconazole.pdb_2338.pdb 
10 o/1742_HEM_Itraconazole.pdb_8140.pdb o/1742_HEM_Itraconazole.pdb_7861.pdb o/1742_HEM_Itraconazole.pdb_4501.pdb o/1742_HEM_Itraconazole.pdb_8071.pdb o/1742_HEM_Itraconazole.pdb_910.pdb o/1742_HEM_Itraconazole.pdb_714.pdb o/1742_HEM_Itraconazole.pdb_4413.pdb o/1742_HEM_Itraconazole.pdb_4254.pdb o/1742_HEM_Itraconazole.pdb_261.pdb o/1742_HEM_Itraconazole.pdb_1657.pdb 
11 o/1742_HEM_Itraconazole.pdb_9231.pdb o/1742_HEM_Itraconazole.pdb_8181.pdb o/1742_HEM_Itraconazole.pdb_5950.pdb o/1742_HEM_Itraconazole.pdb_6557.pdb o/1742_HEM_Itraconazole.pdb_3980.pdb o/1742_HEM_Itraconazole.pdb_4537.pdb o/1742_HEM_Itraconazole.pdb_9070.pdb o/1742_HEM_Itraconazole.pdb_3899.pdb o/1742_HEM_Itraconazole.pdb_5947.pdb o/1742_HEM_Itraconazole.pdb_9301.pdb o/1742_HEM_Itraconazole.pdb_1519.pdb 
13 o/1742_HEM_Itraconazole.pdb_5176.pdb o/1742_HEM_Itraconazole.pdb_9493.pdb o/1742_HEM_Itraconazole.pdb_7037.pdb o/1742_HEM_Itraconazole.pdb_6808.pdb o/1742_HEM_Itraconazole.pdb_3848.pdb o/1742_HEM_Itraconazole.pdb_6748.pdb o/1742_HEM_Itraconazole.pdb_1413.pdb o/1742_HEM_Itraconazole.pdb_6100.pdb o/1742_HEM_Itraconazole.pdb_1122.pdb o/1742_HEM_Itraconazole.pdb_7389.pdb o/1742_HEM_Itraconazole.pdb_5712.pdb o/1742_HEM_Itraconazole.pdb_6893.pdb o/1742_HEM_Itraconazole.pdb_1064.pdb 
10 o/1742_HEM_Itraconazole.pdb_4757.pdb o/1742_HEM_Itraconazole.pdb_3207.pdb o/1742_HEM_Itraconazole.pdb_9775.pdb o/1742_HEM_Itraconazole.pdb_7685.pdb o/1742_HEM_Itraconazole.pdb_488.pdb o/1742_HEM_Itraconazole.pdb_8015.pdb o/1742_HEM_Itraconazole.pdb_4447.pdb o/1742_HEM_Itraconazole.pdb_3179.pdb o/1742_HEM_Itraconazole.pdb_9066.pdb o/1742_HEM_Itraconazole.pdb_2627.pdb 
15 o/1742_HEM_Itraconazole.pdb_566.pdb o/1742_HEM_Itraconazole.pdb_223.pdb o/1742_HEM_Itraconazole.pdb_8104.pdb o/1742_HEM_Itraconazole.pdb_4998.pdb o/1742_HEM_Itraconazole.pdb_4141.pdb o/1742_HEM_Itraconazole.pdb_5596.pdb o/1742_HEM_Itraconazole.pdb_4586.pdb o/1742_HEM_Itraconazole.pdb_7805.pdb o/1742_HEM_Itraconazole.pdb_5683.pdb o/1742_HEM_Itraconazole.pdb_2512.pdb o/1742_HEM_Itraconazole.pdb_7401.pdb o/1742_HEM_Itraconazole.pdb_5998.pdb o/1742_HEM_Itraconazole.pdb_1754.pdb o/1742_HEM_Itraconazole.pdb_4969.pdb o/1742_HEM_Itraconazole.pdb_1541.pdb 
13 o/1742_HEM_Itraconazole.pdb_5118.pdb o/1742_HEM_Itraconazole.pdb_46.pdb o/1742_HEM_Itraconazole.pdb_9465.pdb o/1742_HEM_Itraconazole.pdb_3931.pdb o/1742_HEM_Itraconazole.pdb_6444.pdb o/1742_HEM_Itraconazole.pdb_3.pdb o/1742_HEM_Itraconazole.pdb_8998.pdb o/1742_HEM_Itraconazole.pdb_6986.pdb o/1742_HEM_Itraconazole.pdb_1712.pdb o/1742_HEM_Itraconazole.pdb_4329.pdb o/1742_HEM_Itraconazole.pdb_1316.pdb o/1742_HEM_Itraconazole.pdb_8179.pdb o/1742_HEM_Itraconazole.pdb_1028.pdb 
14 o/1742_HEM_Itraconazole.pdb_6505.pdb o/1742_HEM_Itraconazole.pdb_6941.pdb o/1742_HEM_Itraconazole.pdb_6863.pdb o/1742_HEM_Itraconazole.pdb_6741.pdb o/1742_HEM_Itraconazole.pdb_3563.pdb o/1742_HEM_Itraconazole.pdb_4055.pdb o/1742_HEM_Itraconazole.pdb_1874.pdb o/1742_HEM_Itraconazole.pdb_7371.pdb o/1742_HEM_Itraconazole.pdb_4154.pdb o/1742_HEM_Itraconazole.pdb_5308.pdb o/1742_HEM_Itraconazole.pdb_7282.pdb o/1742_HEM_Itraconazole.pdb_4589.pdb o/1742_HEM_Itraconazole.pdb_3900.pdb o/1742_HEM_Itraconazole.pdb_1708.pdb 
