13 o/523016_HEM_VT_1129.pdb_7311.pdb o/523016_HEM_VT_1129.pdb_6080.pdb o/523016_HEM_VT_1129.pdb_7410.pdb o/523016_HEM_VT_1129.pdb_7173.pdb o/523016_HEM_VT_1129.pdb_8291.pdb o/523016_HEM_VT_1129.pdb_6148.pdb o/523016_HEM_VT_1129.pdb_9237.pdb o/523016_HEM_VT_1129.pdb_3486.pdb o/523016_HEM_VT_1129.pdb_7718.pdb o/523016_HEM_VT_1129.pdb_4482.pdb o/523016_HEM_VT_1129.pdb_3753.pdb o/523016_HEM_VT_1129.pdb_8472.pdb o/523016_HEM_VT_1129.pdb_2580.pdb 
12 o/523016_HEM_VT_1129.pdb_9430.pdb o/523016_HEM_VT_1129.pdb_8970.pdb o/523016_HEM_VT_1129.pdb_4383.pdb o/523016_HEM_VT_1129.pdb_625.pdb o/523016_HEM_VT_1129.pdb_5755.pdb o/523016_HEM_VT_1129.pdb_3024.pdb o/523016_HEM_VT_1129.pdb_926.pdb o/523016_HEM_VT_1129.pdb_6732.pdb o/523016_HEM_VT_1129.pdb_3476.pdb o/523016_HEM_VT_1129.pdb_8139.pdb o/523016_HEM_VT_1129.pdb_2553.pdb o/523016_HEM_VT_1129.pdb_1985.pdb 
10 o/523016_HEM_VT_1129.pdb_8144.pdb o/523016_HEM_VT_1129.pdb_7266.pdb o/523016_HEM_VT_1129.pdb_40.pdb o/523016_HEM_VT_1129.pdb_7021.pdb o/523016_HEM_VT_1129.pdb_3801.pdb o/523016_HEM_VT_1129.pdb_3591.pdb o/523016_HEM_VT_1129.pdb_2960.pdb o/523016_HEM_VT_1129.pdb_4396.pdb o/523016_HEM_VT_1129.pdb_4182.pdb o/523016_HEM_VT_1129.pdb_2226.pdb 
10 o/523016_HEM_VT_1129.pdb_9860.pdb o/523016_HEM_VT_1129.pdb_7978.pdb o/523016_HEM_VT_1129.pdb_6121.pdb o/523016_HEM_VT_1129.pdb_9181.pdb o/523016_HEM_VT_1129.pdb_6682.pdb o/523016_HEM_VT_1129.pdb_6081.pdb o/523016_HEM_VT_1129.pdb_598.pdb o/523016_HEM_VT_1129.pdb_9376.pdb o/523016_HEM_VT_1129.pdb_5952.pdb o/523016_HEM_VT_1129.pdb_2749.pdb 
14 o/523016_HEM_VT_1129.pdb_9288.pdb o/523016_HEM_VT_1129.pdb_9704.pdb o/523016_HEM_VT_1129.pdb_7052.pdb o/523016_HEM_VT_1129.pdb_6294.pdb o/523016_HEM_VT_1129.pdb_5384.pdb o/523016_HEM_VT_1129.pdb_7859.pdb o/523016_HEM_VT_1129.pdb_9769.pdb o/523016_HEM_VT_1129.pdb_9546.pdb o/523016_HEM_VT_1129.pdb_7446.pdb o/523016_HEM_VT_1129.pdb_496.pdb o/523016_HEM_VT_1129.pdb_4546.pdb o/523016_HEM_VT_1129.pdb_7095.pdb o/523016_HEM_VT_1129.pdb_9659.pdb o/523016_HEM_VT_1129.pdb_3094.pdb 
10 o/523016_HEM_VT_1129.pdb_9818.pdb o/523016_HEM_VT_1129.pdb_7219.pdb o/523016_HEM_VT_1129.pdb_5138.pdb o/523016_HEM_VT_1129.pdb_2084.pdb o/523016_HEM_VT_1129.pdb_8040.pdb o/523016_HEM_VT_1129.pdb_623.pdb o/523016_HEM_VT_1129.pdb_6184.pdb o/523016_HEM_VT_1129.pdb_3930.pdb o/523016_HEM_VT_1129.pdb_9105.pdb o/523016_HEM_VT_1129.pdb_200.pdb 
10 o/523016_HEM_VT_1129.pdb_810.pdb o/523016_HEM_VT_1129.pdb_6319.pdb o/523016_HEM_VT_1129.pdb_6257.pdb o/523016_HEM_VT_1129.pdb_9067.pdb o/523016_HEM_VT_1129.pdb_462.pdb o/523016_HEM_VT_1129.pdb_7078.pdb o/523016_HEM_VT_1129.pdb_4258.pdb o/523016_HEM_VT_1129.pdb_9022.pdb o/523016_HEM_VT_1129.pdb_7297.pdb o/523016_HEM_VT_1129.pdb_2818.pdb 
13 o/523016_HEM_VT_1129.pdb_9362.pdb o/523016_HEM_VT_1129.pdb_3098.pdb o/523016_HEM_VT_1129.pdb_2876.pdb o/523016_HEM_VT_1129.pdb_7692.pdb o/523016_HEM_VT_1129.pdb_8262.pdb o/523016_HEM_VT_1129.pdb_4929.pdb o/523016_HEM_VT_1129.pdb_4567.pdb o/523016_HEM_VT_1129.pdb_9526.pdb o/523016_HEM_VT_1129.pdb_4443.pdb o/523016_HEM_VT_1129.pdb_6240.pdb o/523016_HEM_VT_1129.pdb_2382.pdb o/523016_HEM_VT_1129.pdb_4337.pdb o/523016_HEM_VT_1129.pdb_1951.pdb 
12 o/523016_HEM_VT_1129.pdb_7896.pdb o/523016_HEM_VT_1129.pdb_8836.pdb o/523016_HEM_VT_1129.pdb_6108.pdb o/523016_HEM_VT_1129.pdb_5256.pdb o/523016_HEM_VT_1129.pdb_9415.pdb o/523016_HEM_VT_1129.pdb_7633.pdb o/523016_HEM_VT_1129.pdb_6780.pdb o/523016_HEM_VT_1129.pdb_2989.pdb o/523016_HEM_VT_1129.pdb_7411.pdb o/523016_HEM_VT_1129.pdb_6330.pdb o/523016_HEM_VT_1129.pdb_6158.pdb o/523016_HEM_VT_1129.pdb_2466.pdb 
10 o/523016_HEM_VT_1129.pdb_9928.pdb o/523016_HEM_VT_1129.pdb_7661.pdb o/523016_HEM_VT_1129.pdb_5116.pdb o/523016_HEM_VT_1129.pdb_2924.pdb o/523016_HEM_VT_1129.pdb_5449.pdb o/523016_HEM_VT_1129.pdb_3559.pdb o/523016_HEM_VT_1129.pdb_3618.pdb o/523016_HEM_VT_1129.pdb_2982.pdb o/523016_HEM_VT_1129.pdb_8703.pdb o/523016_HEM_VT_1129.pdb_1587.pdb 
20 o/523016_HEM_VT_1129.pdb_876.pdb o/523016_HEM_VT_1129.pdb_753.pdb o/523016_HEM_VT_1129.pdb_8625.pdb o/523016_HEM_VT_1129.pdb_5316.pdb o/523016_HEM_VT_1129.pdb_3533.pdb o/523016_HEM_VT_1129.pdb_2061.pdb o/523016_HEM_VT_1129.pdb_3882.pdb o/523016_HEM_VT_1129.pdb_952.pdb o/523016_HEM_VT_1129.pdb_9090.pdb o/523016_HEM_VT_1129.pdb_6590.pdb o/523016_HEM_VT_1129.pdb_2105.pdb o/523016_HEM_VT_1129.pdb_9377.pdb o/523016_HEM_VT_1129.pdb_1849.pdb o/523016_HEM_VT_1129.pdb_9553.pdb o/523016_HEM_VT_1129.pdb_1769.pdb o/523016_HEM_VT_1129.pdb_3343.pdb o/523016_HEM_VT_1129.pdb_1690.pdb o/523016_HEM_VT_1129.pdb_8131.pdb o/523016_HEM_VT_1129.pdb_6363.pdb o/523016_HEM_VT_1129.pdb_1637.pdb 
10 o/523016_HEM_VT_1129.pdb_8008.pdb o/523016_HEM_VT_1129.pdb_3257.pdb o/523016_HEM_VT_1129.pdb_4794.pdb o/523016_HEM_VT_1129.pdb_3881.pdb o/523016_HEM_VT_1129.pdb_587.pdb o/523016_HEM_VT_1129.pdb_6109.pdb o/523016_HEM_VT_1129.pdb_347.pdb o/523016_HEM_VT_1129.pdb_7776.pdb o/523016_HEM_VT_1129.pdb_5940.pdb o/523016_HEM_VT_1129.pdb_1824.pdb 
14 o/523016_HEM_VT_1129.pdb_9184.pdb o/523016_HEM_VT_1129.pdb_8279.pdb o/523016_HEM_VT_1129.pdb_5251.pdb o/523016_HEM_VT_1129.pdb_4550.pdb o/523016_HEM_VT_1129.pdb_6675.pdb o/523016_HEM_VT_1129.pdb_4266.pdb o/523016_HEM_VT_1129.pdb_5517.pdb o/523016_HEM_VT_1129.pdb_6380.pdb o/523016_HEM_VT_1129.pdb_8557.pdb o/523016_HEM_VT_1129.pdb_4854.pdb o/523016_HEM_VT_1129.pdb_4596.pdb o/523016_HEM_VT_1129.pdb_2932.pdb o/523016_HEM_VT_1129.pdb_9648.pdb o/523016_HEM_VT_1129.pdb_1530.pdb 
15 o/523016_HEM_VT_1129.pdb_5324.pdb o/523016_HEM_VT_1129.pdb_6806.pdb o/523016_HEM_VT_1129.pdb_3985.pdb o/523016_HEM_VT_1129.pdb_8491.pdb o/523016_HEM_VT_1129.pdb_5200.pdb o/523016_HEM_VT_1129.pdb_4510.pdb o/523016_HEM_VT_1129.pdb_6447.pdb o/523016_HEM_VT_1129.pdb_579.pdb o/523016_HEM_VT_1129.pdb_2565.pdb o/523016_HEM_VT_1129.pdb_6062.pdb o/523016_HEM_VT_1129.pdb_7062.pdb o/523016_HEM_VT_1129.pdb_8508.pdb o/523016_HEM_VT_1129.pdb_7671.pdb o/523016_HEM_VT_1129.pdb_3663.pdb o/523016_HEM_VT_1129.pdb_153.pdb 
11 o/523016_HEM_VT_1129.pdb_7601.pdb o/523016_HEM_VT_1129.pdb_412.pdb o/523016_HEM_VT_1129.pdb_3743.pdb o/523016_HEM_VT_1129.pdb_1513.pdb o/523016_HEM_VT_1129.pdb_8818.pdb o/523016_HEM_VT_1129.pdb_6848.pdb o/523016_HEM_VT_1129.pdb_4257.pdb o/523016_HEM_VT_1129.pdb_3481.pdb o/523016_HEM_VT_1129.pdb_3058.pdb o/523016_HEM_VT_1129.pdb_5476.pdb o/523016_HEM_VT_1129.pdb_1509.pdb 
16 o/523016_HEM_VT_1129.pdb_9909.pdb o/523016_HEM_VT_1129.pdb_620.pdb o/523016_HEM_VT_1129.pdb_8984.pdb o/523016_HEM_VT_1129.pdb_2997.pdb o/523016_HEM_VT_1129.pdb_9709.pdb o/523016_HEM_VT_1129.pdb_6644.pdb o/523016_HEM_VT_1129.pdb_5996.pdb o/523016_HEM_VT_1129.pdb_5297.pdb o/523016_HEM_VT_1129.pdb_2863.pdb o/523016_HEM_VT_1129.pdb_2264.pdb o/523016_HEM_VT_1129.pdb_7864.pdb o/523016_HEM_VT_1129.pdb_2586.pdb o/523016_HEM_VT_1129.pdb_4837.pdb o/523016_HEM_VT_1129.pdb_5470.pdb o/523016_HEM_VT_1129.pdb_4181.pdb o/523016_HEM_VT_1129.pdb_1675.pdb 
19 o/523016_HEM_VT_1129.pdb_9613.pdb o/523016_HEM_VT_1129.pdb_702.pdb o/523016_HEM_VT_1129.pdb_5007.pdb o/523016_HEM_VT_1129.pdb_8767.pdb o/523016_HEM_VT_1129.pdb_6685.pdb o/523016_HEM_VT_1129.pdb_5062.pdb o/523016_HEM_VT_1129.pdb_6021.pdb o/523016_HEM_VT_1129.pdb_4705.pdb o/523016_HEM_VT_1129.pdb_8950.pdb o/523016_HEM_VT_1129.pdb_4574.pdb o/523016_HEM_VT_1129.pdb_745.pdb o/523016_HEM_VT_1129.pdb_5565.pdb o/523016_HEM_VT_1129.pdb_4023.pdb o/523016_HEM_VT_1129.pdb_9339.pdb o/523016_HEM_VT_1129.pdb_927.pdb o/523016_HEM_VT_1129.pdb_8352.pdb o/523016_HEM_VT_1129.pdb_4022.pdb o/523016_HEM_VT_1129.pdb_2609.pdb o/523016_HEM_VT_1129.pdb_1923.pdb 
10 o/523016_HEM_VT_1129.pdb_7581.pdb o/523016_HEM_VT_1129.pdb_3342.pdb o/523016_HEM_VT_1129.pdb_9518.pdb o/523016_HEM_VT_1129.pdb_8466.pdb o/523016_HEM_VT_1129.pdb_802.pdb o/523016_HEM_VT_1129.pdb_3800.pdb o/523016_HEM_VT_1129.pdb_2065.pdb o/523016_HEM_VT_1129.pdb_2556.pdb o/523016_HEM_VT_1129.pdb_3209.pdb o/523016_HEM_VT_1129.pdb_146.pdb 
11 o/523016_HEM_VT_1129.pdb_1759.pdb o/523016_HEM_VT_1129.pdb_5829.pdb o/523016_HEM_VT_1129.pdb_6412.pdb o/523016_HEM_VT_1129.pdb_7358.pdb o/523016_HEM_VT_1129.pdb_6469.pdb o/523016_HEM_VT_1129.pdb_4942.pdb o/523016_HEM_VT_1129.pdb_9866.pdb o/523016_HEM_VT_1129.pdb_2335.pdb o/523016_HEM_VT_1129.pdb_7264.pdb o/523016_HEM_VT_1129.pdb_7035.pdb o/523016_HEM_VT_1129.pdb_1436.pdb 
14 o/523016_HEM_VT_1129.pdb_7715.pdb o/523016_HEM_VT_1129.pdb_809.pdb o/523016_HEM_VT_1129.pdb_678.pdb o/523016_HEM_VT_1129.pdb_3394.pdb o/523016_HEM_VT_1129.pdb_8737.pdb o/523016_HEM_VT_1129.pdb_4826.pdb o/523016_HEM_VT_1129.pdb_6536.pdb o/523016_HEM_VT_1129.pdb_4524.pdb o/523016_HEM_VT_1129.pdb_8275.pdb o/523016_HEM_VT_1129.pdb_3103.pdb o/523016_HEM_VT_1129.pdb_7386.pdb o/523016_HEM_VT_1129.pdb_4247.pdb o/523016_HEM_VT_1129.pdb_4036.pdb o/523016_HEM_VT_1129.pdb_1435.pdb 
15 o/523016_HEM_VT_1129.pdb_8684.pdb o/523016_HEM_VT_1129.pdb_6964.pdb o/523016_HEM_VT_1129.pdb_4714.pdb o/523016_HEM_VT_1129.pdb_5320.pdb o/523016_HEM_VT_1129.pdb_5170.pdb o/523016_HEM_VT_1129.pdb_7167.pdb o/523016_HEM_VT_1129.pdb_5233.pdb o/523016_HEM_VT_1129.pdb_4993.pdb o/523016_HEM_VT_1129.pdb_4050.pdb o/523016_HEM_VT_1129.pdb_7093.pdb o/523016_HEM_VT_1129.pdb_7036.pdb o/523016_HEM_VT_1129.pdb_5671.pdb o/523016_HEM_VT_1129.pdb_2214.pdb o/523016_HEM_VT_1129.pdb_6573.pdb o/523016_HEM_VT_1129.pdb_1673.pdb 
11 o/523016_HEM_VT_1129.pdb_9375.pdb o/523016_HEM_VT_1129.pdb_8553.pdb o/523016_HEM_VT_1129.pdb_1687.pdb o/523016_HEM_VT_1129.pdb_750.pdb o/523016_HEM_VT_1129.pdb_4832.pdb o/523016_HEM_VT_1129.pdb_3807.pdb o/523016_HEM_VT_1129.pdb_2141.pdb o/523016_HEM_VT_1129.pdb_8781.pdb o/523016_HEM_VT_1129.pdb_4147.pdb o/523016_HEM_VT_1129.pdb_8564.pdb o/523016_HEM_VT_1129.pdb_1528.pdb 
11 o/523016_HEM_VT_1129.pdb_6442.pdb o/523016_HEM_VT_1129.pdb_7301.pdb o/523016_HEM_VT_1129.pdb_5770.pdb o/523016_HEM_VT_1129.pdb_7497.pdb o/523016_HEM_VT_1129.pdb_5576.pdb o/523016_HEM_VT_1129.pdb_7798.pdb o/523016_HEM_VT_1129.pdb_254.pdb o/523016_HEM_VT_1129.pdb_4388.pdb o/523016_HEM_VT_1129.pdb_4813.pdb o/523016_HEM_VT_1129.pdb_3401.pdb o/523016_HEM_VT_1129.pdb_23.pdb 
13 o/523016_HEM_VT_1129.pdb_9701.pdb o/523016_HEM_VT_1129.pdb_9945.pdb o/523016_HEM_VT_1129.pdb_5967.pdb o/523016_HEM_VT_1129.pdb_5656.pdb o/523016_HEM_VT_1129.pdb_4790.pdb o/523016_HEM_VT_1129.pdb_5346.pdb o/523016_HEM_VT_1129.pdb_2458.pdb o/523016_HEM_VT_1129.pdb_816.pdb o/523016_HEM_VT_1129.pdb_4093.pdb o/523016_HEM_VT_1129.pdb_4495.pdb o/523016_HEM_VT_1129.pdb_3603.pdb o/523016_HEM_VT_1129.pdb_2363.pdb o/523016_HEM_VT_1129.pdb_1425.pdb 
17 o/523016_HEM_VT_1129.pdb_9322.pdb o/523016_HEM_VT_1129.pdb_705.pdb o/523016_HEM_VT_1129.pdb_5600.pdb o/523016_HEM_VT_1129.pdb_3404.pdb o/523016_HEM_VT_1129.pdb_847.pdb o/523016_HEM_VT_1129.pdb_7064.pdb o/523016_HEM_VT_1129.pdb_6088.pdb o/523016_HEM_VT_1129.pdb_7094.pdb o/523016_HEM_VT_1129.pdb_5664.pdb o/523016_HEM_VT_1129.pdb_9662.pdb o/523016_HEM_VT_1129.pdb_6712.pdb o/523016_HEM_VT_1129.pdb_3418.pdb o/523016_HEM_VT_1129.pdb_9004.pdb o/523016_HEM_VT_1129.pdb_6832.pdb o/523016_HEM_VT_1129.pdb_5446.pdb o/523016_HEM_VT_1129.pdb_9895.pdb o/523016_HEM_VT_1129.pdb_1402.pdb 
15 o/523016_HEM_VT_1129.pdb_8403.pdb o/523016_HEM_VT_1129.pdb_4788.pdb o/523016_HEM_VT_1129.pdb_3786.pdb o/523016_HEM_VT_1129.pdb_5678.pdb o/523016_HEM_VT_1129.pdb_367.pdb o/523016_HEM_VT_1129.pdb_339.pdb o/523016_HEM_VT_1129.pdb_7391.pdb o/523016_HEM_VT_1129.pdb_9495.pdb o/523016_HEM_VT_1129.pdb_7826.pdb o/523016_HEM_VT_1129.pdb_4089.pdb o/523016_HEM_VT_1129.pdb_9006.pdb o/523016_HEM_VT_1129.pdb_371.pdb o/523016_HEM_VT_1129.pdb_5515.pdb o/523016_HEM_VT_1129.pdb_7175.pdb o/523016_HEM_VT_1129.pdb_2594.pdb 
13 o/523016_HEM_VT_1129.pdb_2371.pdb o/523016_HEM_VT_1129.pdb_6077.pdb o/523016_HEM_VT_1129.pdb_2270.pdb o/523016_HEM_VT_1129.pdb_7694.pdb o/523016_HEM_VT_1129.pdb_5386.pdb o/523016_HEM_VT_1129.pdb_1812.pdb o/523016_HEM_VT_1129.pdb_7277.pdb o/523016_HEM_VT_1129.pdb_5459.pdb o/523016_HEM_VT_1129.pdb_4711.pdb o/523016_HEM_VT_1129.pdb_3384.pdb o/523016_HEM_VT_1129.pdb_7532.pdb o/523016_HEM_VT_1129.pdb_3950.pdb o/523016_HEM_VT_1129.pdb_1625.pdb 
11 o/523016_HEM_VT_1129.pdb_1624.pdb o/523016_HEM_VT_1129.pdb_8489.pdb o/523016_HEM_VT_1129.pdb_7383.pdb o/523016_HEM_VT_1129.pdb_885.pdb o/523016_HEM_VT_1129.pdb_7067.pdb o/523016_HEM_VT_1129.pdb_9138.pdb o/523016_HEM_VT_1129.pdb_8743.pdb o/523016_HEM_VT_1129.pdb_3595.pdb o/523016_HEM_VT_1129.pdb_4052.pdb o/523016_HEM_VT_1129.pdb_6429.pdb o/523016_HEM_VT_1129.pdb_1591.pdb 
13 o/523016_HEM_VT_1129.pdb_4528.pdb o/523016_HEM_VT_1129.pdb_4453.pdb o/523016_HEM_VT_1129.pdb_7047.pdb o/523016_HEM_VT_1129.pdb_6833.pdb o/523016_HEM_VT_1129.pdb_2950.pdb o/523016_HEM_VT_1129.pdb_2066.pdb o/523016_HEM_VT_1129.pdb_8837.pdb o/523016_HEM_VT_1129.pdb_8058.pdb o/523016_HEM_VT_1129.pdb_6854.pdb o/523016_HEM_VT_1129.pdb_3093.pdb o/523016_HEM_VT_1129.pdb_6734.pdb o/523016_HEM_VT_1129.pdb_4507.pdb o/523016_HEM_VT_1129.pdb_1694.pdb 
13 o/523016_HEM_VT_1129.pdb_3932.pdb o/523016_HEM_VT_1129.pdb_8896.pdb o/523016_HEM_VT_1129.pdb_6940.pdb o/523016_HEM_VT_1129.pdb_3877.pdb o/523016_HEM_VT_1129.pdb_7511.pdb o/523016_HEM_VT_1129.pdb_378.pdb o/523016_HEM_VT_1129.pdb_3694.pdb o/523016_HEM_VT_1129.pdb_9476.pdb o/523016_HEM_VT_1129.pdb_685.pdb o/523016_HEM_VT_1129.pdb_7984.pdb o/523016_HEM_VT_1129.pdb_5465.pdb o/523016_HEM_VT_1129.pdb_7654.pdb o/523016_HEM_VT_1129.pdb_2985.pdb 
16 o/523016_HEM_VT_1129.pdb_8425.pdb o/523016_HEM_VT_1129.pdb_5052.pdb o/523016_HEM_VT_1129.pdb_6957.pdb o/523016_HEM_VT_1129.pdb_6520.pdb o/523016_HEM_VT_1129.pdb_5159.pdb o/523016_HEM_VT_1129.pdb_4332.pdb o/523016_HEM_VT_1129.pdb_6187.pdb o/523016_HEM_VT_1129.pdb_3828.pdb o/523016_HEM_VT_1129.pdb_3830.pdb o/523016_HEM_VT_1129.pdb_428.pdb o/523016_HEM_VT_1129.pdb_3075.pdb o/523016_HEM_VT_1129.pdb_5443.pdb o/523016_HEM_VT_1129.pdb_6435.pdb o/523016_HEM_VT_1129.pdb_4118.pdb o/523016_HEM_VT_1129.pdb_7983.pdb o/523016_HEM_VT_1129.pdb_1875.pdb 
12 o/523016_HEM_VT_1129.pdb_9474.pdb o/523016_HEM_VT_1129.pdb_765.pdb o/523016_HEM_VT_1129.pdb_7972.pdb o/523016_HEM_VT_1129.pdb_450.pdb o/523016_HEM_VT_1129.pdb_912.pdb o/523016_HEM_VT_1129.pdb_8712.pdb o/523016_HEM_VT_1129.pdb_4081.pdb o/523016_HEM_VT_1129.pdb_4330.pdb o/523016_HEM_VT_1129.pdb_3320.pdb o/523016_HEM_VT_1129.pdb_6829.pdb o/523016_HEM_VT_1129.pdb_292.pdb o/523016_HEM_VT_1129.pdb_1716.pdb 
10 o/523016_HEM_VT_1129.pdb_5510.pdb o/523016_HEM_VT_1129.pdb_3312.pdb o/523016_HEM_VT_1129.pdb_9249.pdb o/523016_HEM_VT_1129.pdb_908.pdb o/523016_HEM_VT_1129.pdb_5419.pdb o/523016_HEM_VT_1129.pdb_6394.pdb o/523016_HEM_VT_1129.pdb_530.pdb o/523016_HEM_VT_1129.pdb_7721.pdb o/523016_HEM_VT_1129.pdb_6038.pdb o/523016_HEM_VT_1129.pdb_1492.pdb 
10 o/523016_HEM_VT_1129.pdb_6490.pdb o/523016_HEM_VT_1129.pdb_1555.pdb o/523016_HEM_VT_1129.pdb_8496.pdb o/523016_HEM_VT_1129.pdb_5922.pdb o/523016_HEM_VT_1129.pdb_8895.pdb o/523016_HEM_VT_1129.pdb_6809.pdb o/523016_HEM_VT_1129.pdb_5702.pdb o/523016_HEM_VT_1129.pdb_8471.pdb o/523016_HEM_VT_1129.pdb_5411.pdb o/523016_HEM_VT_1129.pdb_132.pdb 
10 o/523016_HEM_VT_1129.pdb_9014.pdb o/523016_HEM_VT_1129.pdb_9990.pdb o/523016_HEM_VT_1129.pdb_2941.pdb o/523016_HEM_VT_1129.pdb_6450.pdb o/523016_HEM_VT_1129.pdb_3644.pdb o/523016_HEM_VT_1129.pdb_4792.pdb o/523016_HEM_VT_1129.pdb_5812.pdb o/523016_HEM_VT_1129.pdb_719.pdb o/523016_HEM_VT_1129.pdb_3116.pdb o/523016_HEM_VT_1129.pdb_2034.pdb 
10 o/523016_HEM_VT_1129.pdb_9437.pdb o/523016_HEM_VT_1129.pdb_99.pdb o/523016_HEM_VT_1129.pdb_4155.pdb o/523016_HEM_VT_1129.pdb_3243.pdb o/523016_HEM_VT_1129.pdb_4305.pdb o/523016_HEM_VT_1129.pdb_794.pdb o/523016_HEM_VT_1129.pdb_2557.pdb o/523016_HEM_VT_1129.pdb_8926.pdb o/523016_HEM_VT_1129.pdb_9728.pdb o/523016_HEM_VT_1129.pdb_1968.pdb 
12 o/523016_HEM_VT_1129.pdb_992.pdb o/523016_HEM_VT_1129.pdb_9427.pdb o/523016_HEM_VT_1129.pdb_742.pdb o/523016_HEM_VT_1129.pdb_6982.pdb o/523016_HEM_VT_1129.pdb_609.pdb o/523016_HEM_VT_1129.pdb_5260.pdb o/523016_HEM_VT_1129.pdb_3247.pdb o/523016_HEM_VT_1129.pdb_4733.pdb o/523016_HEM_VT_1129.pdb_3925.pdb o/523016_HEM_VT_1129.pdb_8897.pdb o/523016_HEM_VT_1129.pdb_4053.pdb o/523016_HEM_VT_1129.pdb_2132.pdb 
11 o/523016_HEM_VT_1129.pdb_9762.pdb o/523016_HEM_VT_1129.pdb_6771.pdb o/523016_HEM_VT_1129.pdb_8790.pdb o/523016_HEM_VT_1129.pdb_3979.pdb o/523016_HEM_VT_1129.pdb_7119.pdb o/523016_HEM_VT_1129.pdb_369.pdb o/523016_HEM_VT_1129.pdb_9716.pdb o/523016_HEM_VT_1129.pdb_8032.pdb o/523016_HEM_VT_1129.pdb_7971.pdb o/523016_HEM_VT_1129.pdb_5881.pdb o/523016_HEM_VT_1129.pdb_1283.pdb 
12 o/523016_HEM_VT_1129.pdb_8616.pdb o/523016_HEM_VT_1129.pdb_5314.pdb o/523016_HEM_VT_1129.pdb_8243.pdb o/523016_HEM_VT_1129.pdb_6491.pdb o/523016_HEM_VT_1129.pdb_9101.pdb o/523016_HEM_VT_1129.pdb_4051.pdb o/523016_HEM_VT_1129.pdb_3858.pdb o/523016_HEM_VT_1129.pdb_9190.pdb o/523016_HEM_VT_1129.pdb_4359.pdb o/523016_HEM_VT_1129.pdb_9017.pdb o/523016_HEM_VT_1129.pdb_404.pdb o/523016_HEM_VT_1129.pdb_1684.pdb 
11 o/523016_HEM_VT_1129.pdb_9910.pdb o/523016_HEM_VT_1129.pdb_6532.pdb o/523016_HEM_VT_1129.pdb_680.pdb o/523016_HEM_VT_1129.pdb_6649.pdb o/523016_HEM_VT_1129.pdb_5902.pdb o/523016_HEM_VT_1129.pdb_871.pdb o/523016_HEM_VT_1129.pdb_7466.pdb o/523016_HEM_VT_1129.pdb_9861.pdb o/523016_HEM_VT_1129.pdb_980.pdb o/523016_HEM_VT_1129.pdb_3284.pdb o/523016_HEM_VT_1129.pdb_2342.pdb 
20 o/523016_HEM_VT_1129.pdb_8922.pdb o/523016_HEM_VT_1129.pdb_7458.pdb o/523016_HEM_VT_1129.pdb_6296.pdb o/523016_HEM_VT_1129.pdb_9503.pdb o/523016_HEM_VT_1129.pdb_8484.pdb o/523016_HEM_VT_1129.pdb_3520.pdb o/523016_HEM_VT_1129.pdb_1890.pdb o/523016_HEM_VT_1129.pdb_7887.pdb o/523016_HEM_VT_1129.pdb_4761.pdb o/523016_HEM_VT_1129.pdb_5162.pdb o/523016_HEM_VT_1129.pdb_3780.pdb o/523016_HEM_VT_1129.pdb_2605.pdb o/523016_HEM_VT_1129.pdb_2241.pdb o/523016_HEM_VT_1129.pdb_3066.pdb o/523016_HEM_VT_1129.pdb_3042.pdb o/523016_HEM_VT_1129.pdb_197.pdb o/523016_HEM_VT_1129.pdb_1505.pdb o/523016_HEM_VT_1129.pdb_1665.pdb o/523016_HEM_VT_1129.pdb_1302.pdb o/523016_HEM_VT_1129.pdb_127.pdb 
12 o/523016_HEM_VT_1129.pdb_8728.pdb o/523016_HEM_VT_1129.pdb_6271.pdb o/523016_HEM_VT_1129.pdb_4040.pdb o/523016_HEM_VT_1129.pdb_4256.pdb o/523016_HEM_VT_1129.pdb_3167.pdb o/523016_HEM_VT_1129.pdb_8003.pdb o/523016_HEM_VT_1129.pdb_772.pdb o/523016_HEM_VT_1129.pdb_665.pdb o/523016_HEM_VT_1129.pdb_6174.pdb o/523016_HEM_VT_1129.pdb_956.pdb o/523016_HEM_VT_1129.pdb_6820.pdb o/523016_HEM_VT_1129.pdb_1532.pdb 
14 o/523016_HEM_VT_1129.pdb_6367.pdb o/523016_HEM_VT_1129.pdb_3265.pdb o/523016_HEM_VT_1129.pdb_6189.pdb o/523016_HEM_VT_1129.pdb_4838.pdb o/523016_HEM_VT_1129.pdb_6815.pdb o/523016_HEM_VT_1129.pdb_2429.pdb o/523016_HEM_VT_1129.pdb_5835.pdb o/523016_HEM_VT_1129.pdb_3906.pdb o/523016_HEM_VT_1129.pdb_8795.pdb o/523016_HEM_VT_1129.pdb_8204.pdb o/523016_HEM_VT_1129.pdb_7565.pdb o/523016_HEM_VT_1129.pdb_3912.pdb o/523016_HEM_VT_1129.pdb_2168.pdb o/523016_HEM_VT_1129.pdb_1850.pdb 
14 o/523016_HEM_VT_1129.pdb_4571.pdb o/523016_HEM_VT_1129.pdb_5049.pdb o/523016_HEM_VT_1129.pdb_442.pdb o/523016_HEM_VT_1129.pdb_9708.pdb o/523016_HEM_VT_1129.pdb_7020.pdb o/523016_HEM_VT_1129.pdb_4170.pdb o/523016_HEM_VT_1129.pdb_89.pdb o/523016_HEM_VT_1129.pdb_7273.pdb o/523016_HEM_VT_1129.pdb_9353.pdb o/523016_HEM_VT_1129.pdb_722.pdb o/523016_HEM_VT_1129.pdb_6370.pdb o/523016_HEM_VT_1129.pdb_5878.pdb o/523016_HEM_VT_1129.pdb_6606.pdb o/523016_HEM_VT_1129.pdb_2552.pdb 
11 o/523016_HEM_VT_1129.pdb_9241.pdb o/523016_HEM_VT_1129.pdb_779.pdb o/523016_HEM_VT_1129.pdb_28.pdb o/523016_HEM_VT_1129.pdb_8188.pdb o/523016_HEM_VT_1129.pdb_7772.pdb o/523016_HEM_VT_1129.pdb_7234.pdb o/523016_HEM_VT_1129.pdb_3525.pdb o/523016_HEM_VT_1129.pdb_7815.pdb o/523016_HEM_VT_1129.pdb_5969.pdb o/523016_HEM_VT_1129.pdb_2164.pdb o/523016_HEM_VT_1129.pdb_1245.pdb 
19 o/523016_HEM_VT_1129.pdb_7593.pdb o/523016_HEM_VT_1129.pdb_8394.pdb o/523016_HEM_VT_1129.pdb_8461.pdb o/523016_HEM_VT_1129.pdb_4725.pdb o/523016_HEM_VT_1129.pdb_2636.pdb o/523016_HEM_VT_1129.pdb_9597.pdb o/523016_HEM_VT_1129.pdb_9545.pdb o/523016_HEM_VT_1129.pdb_7866.pdb o/523016_HEM_VT_1129.pdb_8658.pdb o/523016_HEM_VT_1129.pdb_79.pdb o/523016_HEM_VT_1129.pdb_1718.pdb o/523016_HEM_VT_1129.pdb_7649.pdb o/523016_HEM_VT_1129.pdb_7530.pdb o/523016_HEM_VT_1129.pdb_7075.pdb o/523016_HEM_VT_1129.pdb_6063.pdb o/523016_HEM_VT_1129.pdb_6521.pdb o/523016_HEM_VT_1129.pdb_804.pdb o/523016_HEM_VT_1129.pdb_6614.pdb o/523016_HEM_VT_1129.pdb_1484.pdb 
14 o/523016_HEM_VT_1129.pdb_6159.pdb o/523016_HEM_VT_1129.pdb_6115.pdb o/523016_HEM_VT_1129.pdb_3228.pdb o/523016_HEM_VT_1129.pdb_9060.pdb o/523016_HEM_VT_1129.pdb_6946.pdb o/523016_HEM_VT_1129.pdb_7757.pdb o/523016_HEM_VT_1129.pdb_5265.pdb o/523016_HEM_VT_1129.pdb_747.pdb o/523016_HEM_VT_1129.pdb_2528.pdb o/523016_HEM_VT_1129.pdb_5136.pdb o/523016_HEM_VT_1129.pdb_865.pdb o/523016_HEM_VT_1129.pdb_3534.pdb o/523016_HEM_VT_1129.pdb_9279.pdb o/523016_HEM_VT_1129.pdb_1944.pdb 
12 o/523016_HEM_VT_1129.pdb_8011.pdb o/523016_HEM_VT_1129.pdb_4745.pdb o/523016_HEM_VT_1129.pdb_6335.pdb o/523016_HEM_VT_1129.pdb_69.pdb o/523016_HEM_VT_1129.pdb_6144.pdb o/523016_HEM_VT_1129.pdb_9300.pdb o/523016_HEM_VT_1129.pdb_9051.pdb o/523016_HEM_VT_1129.pdb_5025.pdb o/523016_HEM_VT_1129.pdb_7922.pdb o/523016_HEM_VT_1129.pdb_6551.pdb o/523016_HEM_VT_1129.pdb_41.pdb o/523016_HEM_VT_1129.pdb_1767.pdb 
12 o/523016_HEM_VT_1129.pdb_8404.pdb o/523016_HEM_VT_1129.pdb_6897.pdb o/523016_HEM_VT_1129.pdb_9981.pdb o/523016_HEM_VT_1129.pdb_9013.pdb o/523016_HEM_VT_1129.pdb_8025.pdb o/523016_HEM_VT_1129.pdb_3507.pdb o/523016_HEM_VT_1129.pdb_3156.pdb o/523016_HEM_VT_1129.pdb_8406.pdb o/523016_HEM_VT_1129.pdb_5477.pdb o/523016_HEM_VT_1129.pdb_2293.pdb o/523016_HEM_VT_1129.pdb_2324.pdb o/523016_HEM_VT_1129.pdb_2067.pdb 
17 o/523016_HEM_VT_1129.pdb_9463.pdb o/523016_HEM_VT_1129.pdb_7489.pdb o/523016_HEM_VT_1129.pdb_4902.pdb o/523016_HEM_VT_1129.pdb_1908.pdb o/523016_HEM_VT_1129.pdb_9519.pdb o/523016_HEM_VT_1129.pdb_7249.pdb o/523016_HEM_VT_1129.pdb_1867.pdb o/523016_HEM_VT_1129.pdb_9127.pdb o/523016_HEM_VT_1129.pdb_1634.pdb o/523016_HEM_VT_1129.pdb_8827.pdb o/523016_HEM_VT_1129.pdb_1271.pdb o/523016_HEM_VT_1129.pdb_8126.pdb o/523016_HEM_VT_1129.pdb_7499.pdb o/523016_HEM_VT_1129.pdb_4193.pdb o/523016_HEM_VT_1129.pdb_8429.pdb o/523016_HEM_VT_1129.pdb_3698.pdb o/523016_HEM_VT_1129.pdb_124.pdb 
15 o/523016_HEM_VT_1129.pdb_5518.pdb o/523016_HEM_VT_1129.pdb_5394.pdb o/523016_HEM_VT_1129.pdb_1862.pdb o/523016_HEM_VT_1129.pdb_7729.pdb o/523016_HEM_VT_1129.pdb_1899.pdb o/523016_HEM_VT_1129.pdb_161.pdb o/523016_HEM_VT_1129.pdb_9171.pdb o/523016_HEM_VT_1129.pdb_9445.pdb o/523016_HEM_VT_1129.pdb_4965.pdb o/523016_HEM_VT_1129.pdb_1406.pdb o/523016_HEM_VT_1129.pdb_7460.pdb o/523016_HEM_VT_1129.pdb_3259.pdb o/523016_HEM_VT_1129.pdb_4438.pdb o/523016_HEM_VT_1129.pdb_7414.pdb o/523016_HEM_VT_1129.pdb_1247.pdb 
19 o/523016_HEM_VT_1129.pdb_9914.pdb o/523016_HEM_VT_1129.pdb_74.pdb o/523016_HEM_VT_1129.pdb_6922.pdb o/523016_HEM_VT_1129.pdb_4072.pdb o/523016_HEM_VT_1129.pdb_1732.pdb o/523016_HEM_VT_1129.pdb_4566.pdb o/523016_HEM_VT_1129.pdb_4584.pdb o/523016_HEM_VT_1129.pdb_3702.pdb o/523016_HEM_VT_1129.pdb_748.pdb o/523016_HEM_VT_1129.pdb_1538.pdb o/523016_HEM_VT_1129.pdb_2653.pdb o/523016_HEM_VT_1129.pdb_608.pdb o/523016_HEM_VT_1129.pdb_2480.pdb o/523016_HEM_VT_1129.pdb_9707.pdb o/523016_HEM_VT_1129.pdb_4747.pdb o/523016_HEM_VT_1129.pdb_9560.pdb o/523016_HEM_VT_1129.pdb_1535.pdb o/523016_HEM_VT_1129.pdb_8252.pdb o/523016_HEM_VT_1129.pdb_1232.pdb 
11 o/523016_HEM_VT_1129.pdb_4757.pdb o/523016_HEM_VT_1129.pdb_1774.pdb o/523016_HEM_VT_1129.pdb_8270.pdb o/523016_HEM_VT_1129.pdb_5486.pdb o/523016_HEM_VT_1129.pdb_1627.pdb o/523016_HEM_VT_1129.pdb_9287.pdb o/523016_HEM_VT_1129.pdb_7604.pdb o/523016_HEM_VT_1129.pdb_9591.pdb o/523016_HEM_VT_1129.pdb_3480.pdb o/523016_HEM_VT_1129.pdb_2292.pdb o/523016_HEM_VT_1129.pdb_1226.pdb 
22 o/523016_HEM_VT_1129.pdb_8213.pdb o/523016_HEM_VT_1129.pdb_6921.pdb o/523016_HEM_VT_1129.pdb_7834.pdb o/523016_HEM_VT_1129.pdb_4077.pdb o/523016_HEM_VT_1129.pdb_7400.pdb o/523016_HEM_VT_1129.pdb_402.pdb o/523016_HEM_VT_1129.pdb_8405.pdb o/523016_HEM_VT_1129.pdb_3914.pdb o/523016_HEM_VT_1129.pdb_8171.pdb o/523016_HEM_VT_1129.pdb_9699.pdb o/523016_HEM_VT_1129.pdb_6752.pdb o/523016_HEM_VT_1129.pdb_7155.pdb o/523016_HEM_VT_1129.pdb_6703.pdb o/523016_HEM_VT_1129.pdb_9186.pdb o/523016_HEM_VT_1129.pdb_6399.pdb o/523016_HEM_VT_1129.pdb_5795.pdb o/523016_HEM_VT_1129.pdb_6488.pdb o/523016_HEM_VT_1129.pdb_5019.pdb o/523016_HEM_VT_1129.pdb_4204.pdb o/523016_HEM_VT_1129.pdb_5867.pdb o/523016_HEM_VT_1129.pdb_7148.pdb o/523016_HEM_VT_1129.pdb_1915.pdb 
10 o/523016_HEM_VT_1129.pdb_944.pdb o/523016_HEM_VT_1129.pdb_8820.pdb o/523016_HEM_VT_1129.pdb_8195.pdb o/523016_HEM_VT_1129.pdb_7255.pdb o/523016_HEM_VT_1129.pdb_8865.pdb o/523016_HEM_VT_1129.pdb_6991.pdb o/523016_HEM_VT_1129.pdb_5197.pdb o/523016_HEM_VT_1129.pdb_4691.pdb o/523016_HEM_VT_1129.pdb_957.pdb o/523016_HEM_VT_1129.pdb_4527.pdb 
17 o/523016_HEM_VT_1129.pdb_9671.pdb o/523016_HEM_VT_1129.pdb_4263.pdb o/523016_HEM_VT_1129.pdb_446.pdb o/523016_HEM_VT_1129.pdb_4763.pdb o/523016_HEM_VT_1129.pdb_2504.pdb o/523016_HEM_VT_1129.pdb_4586.pdb o/523016_HEM_VT_1129.pdb_2904.pdb o/523016_HEM_VT_1129.pdb_1287.pdb o/523016_HEM_VT_1129.pdb_1276.pdb o/523016_HEM_VT_1129.pdb_7079.pdb o/523016_HEM_VT_1129.pdb_2217.pdb o/523016_HEM_VT_1129.pdb_198.pdb o/523016_HEM_VT_1129.pdb_2089.pdb o/523016_HEM_VT_1129.pdb_1986.pdb o/523016_HEM_VT_1129.pdb_1972.pdb o/523016_HEM_VT_1129.pdb_9346.pdb o/523016_HEM_VT_1129.pdb_1194.pdb 
10 o/523016_HEM_VT_1129.pdb_8499.pdb o/523016_HEM_VT_1129.pdb_4558.pdb o/523016_HEM_VT_1129.pdb_7645.pdb o/523016_HEM_VT_1129.pdb_7558.pdb o/523016_HEM_VT_1129.pdb_7343.pdb o/523016_HEM_VT_1129.pdb_630.pdb o/523016_HEM_VT_1129.pdb_6477.pdb o/523016_HEM_VT_1129.pdb_3566.pdb o/523016_HEM_VT_1129.pdb_3155.pdb o/523016_HEM_VT_1129.pdb_2767.pdb 
15 o/523016_HEM_VT_1129.pdb_3777.pdb o/523016_HEM_VT_1129.pdb_3250.pdb o/523016_HEM_VT_1129.pdb_3218.pdb o/523016_HEM_VT_1129.pdb_7462.pdb o/523016_HEM_VT_1129.pdb_3026.pdb o/523016_HEM_VT_1129.pdb_3699.pdb o/523016_HEM_VT_1129.pdb_3362.pdb o/523016_HEM_VT_1129.pdb_9477.pdb o/523016_HEM_VT_1129.pdb_9053.pdb o/523016_HEM_VT_1129.pdb_4708.pdb o/523016_HEM_VT_1129.pdb_6905.pdb o/523016_HEM_VT_1129.pdb_3408.pdb o/523016_HEM_VT_1129.pdb_5399.pdb o/523016_HEM_VT_1129.pdb_5041.pdb o/523016_HEM_VT_1129.pdb_1706.pdb 
10 o/523016_HEM_VT_1129.pdb_4446.pdb o/523016_HEM_VT_1129.pdb_6343.pdb o/523016_HEM_VT_1129.pdb_5427.pdb o/523016_HEM_VT_1129.pdb_2993.pdb o/523016_HEM_VT_1129.pdb_2848.pdb o/523016_HEM_VT_1129.pdb_3900.pdb o/523016_HEM_VT_1129.pdb_2631.pdb o/523016_HEM_VT_1129.pdb_8260.pdb o/523016_HEM_VT_1129.pdb_5064.pdb o/523016_HEM_VT_1129.pdb_21.pdb 
11 o/523016_HEM_VT_1129.pdb_6474.pdb o/523016_HEM_VT_1129.pdb_4273.pdb o/523016_HEM_VT_1129.pdb_9749.pdb o/523016_HEM_VT_1129.pdb_724.pdb o/523016_HEM_VT_1129.pdb_4101.pdb o/523016_HEM_VT_1129.pdb_9173.pdb o/523016_HEM_VT_1129.pdb_4700.pdb o/523016_HEM_VT_1129.pdb_8638.pdb o/523016_HEM_VT_1129.pdb_6292.pdb o/523016_HEM_VT_1129.pdb_3970.pdb o/523016_HEM_VT_1129.pdb_1384.pdb 
10 o/523016_HEM_VT_1129.pdb_6951.pdb o/523016_HEM_VT_1129.pdb_6094.pdb o/523016_HEM_VT_1129.pdb_6887.pdb o/523016_HEM_VT_1129.pdb_5787.pdb o/523016_HEM_VT_1129.pdb_7432.pdb o/523016_HEM_VT_1129.pdb_4655.pdb o/523016_HEM_VT_1129.pdb_8479.pdb o/523016_HEM_VT_1129.pdb_7539.pdb o/523016_HEM_VT_1129.pdb_7308.pdb o/523016_HEM_VT_1129.pdb_4287.pdb 
11 o/523016_HEM_VT_1129.pdb_7755.pdb o/523016_HEM_VT_1129.pdb_3962.pdb o/523016_HEM_VT_1129.pdb_8947.pdb o/523016_HEM_VT_1129.pdb_5429.pdb o/523016_HEM_VT_1129.pdb_250.pdb o/523016_HEM_VT_1129.pdb_8915.pdb o/523016_HEM_VT_1129.pdb_7706.pdb o/523016_HEM_VT_1129.pdb_2500.pdb o/523016_HEM_VT_1129.pdb_6202.pdb o/523016_HEM_VT_1129.pdb_2273.pdb o/523016_HEM_VT_1129.pdb_2136.pdb 
11 o/523016_HEM_VT_1129.pdb_6186.pdb o/523016_HEM_VT_1129.pdb_7345.pdb o/523016_HEM_VT_1129.pdb_9957.pdb o/523016_HEM_VT_1129.pdb_6894.pdb o/523016_HEM_VT_1129.pdb_5998.pdb o/523016_HEM_VT_1129.pdb_5870.pdb o/523016_HEM_VT_1129.pdb_6239.pdb o/523016_HEM_VT_1129.pdb_4670.pdb o/523016_HEM_VT_1129.pdb_2718.pdb o/523016_HEM_VT_1129.pdb_8698.pdb o/523016_HEM_VT_1129.pdb_1175.pdb 
18 o/523016_HEM_VT_1129.pdb_1953.pdb o/523016_HEM_VT_1129.pdb_1697.pdb o/523016_HEM_VT_1129.pdb_6372.pdb o/523016_HEM_VT_1129.pdb_4423.pdb o/523016_HEM_VT_1129.pdb_4531.pdb o/523016_HEM_VT_1129.pdb_3154.pdb o/523016_HEM_VT_1129.pdb_8604.pdb o/523016_HEM_VT_1129.pdb_2796.pdb o/523016_HEM_VT_1129.pdb_1473.pdb o/523016_HEM_VT_1129.pdb_7236.pdb o/523016_HEM_VT_1129.pdb_9091.pdb o/523016_HEM_VT_1129.pdb_8456.pdb o/523016_HEM_VT_1129.pdb_309.pdb o/523016_HEM_VT_1129.pdb_4070.pdb o/523016_HEM_VT_1129.pdb_2115.pdb o/523016_HEM_VT_1129.pdb_3629.pdb o/523016_HEM_VT_1129.pdb_8742.pdb o/523016_HEM_VT_1129.pdb_121.pdb 
12 o/523016_HEM_VT_1129.pdb_8316.pdb o/523016_HEM_VT_1129.pdb_582.pdb o/523016_HEM_VT_1129.pdb_6722.pdb o/523016_HEM_VT_1129.pdb_5113.pdb o/523016_HEM_VT_1129.pdb_514.pdb o/523016_HEM_VT_1129.pdb_504.pdb o/523016_HEM_VT_1129.pdb_9516.pdb o/523016_HEM_VT_1129.pdb_7941.pdb o/523016_HEM_VT_1129.pdb_6227.pdb o/523016_HEM_VT_1129.pdb_8107.pdb o/523016_HEM_VT_1129.pdb_8050.pdb o/523016_HEM_VT_1129.pdb_4620.pdb 
15 o/523016_HEM_VT_1129.pdb_6596.pdb o/523016_HEM_VT_1129.pdb_2297.pdb o/523016_HEM_VT_1129.pdb_1758.pdb o/523016_HEM_VT_1129.pdb_2521.pdb o/523016_HEM_VT_1129.pdb_9483.pdb o/523016_HEM_VT_1129.pdb_551.pdb o/523016_HEM_VT_1129.pdb_239.pdb o/523016_HEM_VT_1129.pdb_7226.pdb o/523016_HEM_VT_1129.pdb_5009.pdb o/523016_HEM_VT_1129.pdb_2188.pdb o/523016_HEM_VT_1129.pdb_4239.pdb o/523016_HEM_VT_1129.pdb_5389.pdb o/523016_HEM_VT_1129.pdb_355.pdb o/523016_HEM_VT_1129.pdb_2797.pdb o/523016_HEM_VT_1129.pdb_1480.pdb 
10 o/523016_HEM_VT_1129.pdb_9080.pdb o/523016_HEM_VT_1129.pdb_3550.pdb o/523016_HEM_VT_1129.pdb_8692.pdb o/523016_HEM_VT_1129.pdb_910.pdb o/523016_HEM_VT_1129.pdb_2287.pdb o/523016_HEM_VT_1129.pdb_5903.pdb o/523016_HEM_VT_1129.pdb_6694.pdb o/523016_HEM_VT_1129.pdb_4261.pdb o/523016_HEM_VT_1129.pdb_2343.pdb o/523016_HEM_VT_1129.pdb_1167.pdb 
28 o/523016_HEM_VT_1129.pdb_6437.pdb o/523016_HEM_VT_1129.pdb_7193.pdb o/523016_HEM_VT_1129.pdb_5030.pdb o/523016_HEM_VT_1129.pdb_9745.pdb o/523016_HEM_VT_1129.pdb_7748.pdb o/523016_HEM_VT_1129.pdb_7561.pdb o/523016_HEM_VT_1129.pdb_3531.pdb o/523016_HEM_VT_1129.pdb_3102.pdb o/523016_HEM_VT_1129.pdb_9448.pdb o/523016_HEM_VT_1129.pdb_8835.pdb o/523016_HEM_VT_1129.pdb_8987.pdb o/523016_HEM_VT_1129.pdb_3173.pdb o/523016_HEM_VT_1129.pdb_8329.pdb o/523016_HEM_VT_1129.pdb_3447.pdb o/523016_HEM_VT_1129.pdb_7537.pdb o/523016_HEM_VT_1129.pdb_1733.pdb o/523016_HEM_VT_1129.pdb_7825.pdb o/523016_HEM_VT_1129.pdb_633.pdb o/523016_HEM_VT_1129.pdb_5845.pdb o/523016_HEM_VT_1129.pdb_373.pdb o/523016_HEM_VT_1129.pdb_6731.pdb o/523016_HEM_VT_1129.pdb_7713.pdb o/523016_HEM_VT_1129.pdb_9482.pdb o/523016_HEM_VT_1129.pdb_5091.pdb o/523016_HEM_VT_1129.pdb_728.pdb o/523016_HEM_VT_1129.pdb_4765.pdb o/523016_HEM_VT_1129.pdb_2929.pdb o/523016_HEM_VT_1129.pdb_1261.pdb 
10 o/523016_HEM_VT_1129.pdb_9097.pdb o/523016_HEM_VT_1129.pdb_7737.pdb o/523016_HEM_VT_1129.pdb_5398.pdb o/523016_HEM_VT_1129.pdb_8651.pdb o/523016_HEM_VT_1129.pdb_423.pdb o/523016_HEM_VT_1129.pdb_4215.pdb o/523016_HEM_VT_1129.pdb_7190.pdb o/523016_HEM_VT_1129.pdb_1844.pdb o/523016_HEM_VT_1129.pdb_502.pdb o/523016_HEM_VT_1129.pdb_1275.pdb 
11 o/523016_HEM_VT_1129.pdb_815.pdb o/523016_HEM_VT_1129.pdb_5797.pdb o/523016_HEM_VT_1129.pdb_3.pdb o/523016_HEM_VT_1129.pdb_2741.pdb o/523016_HEM_VT_1129.pdb_7237.pdb o/523016_HEM_VT_1129.pdb_6835.pdb o/523016_HEM_VT_1129.pdb_3993.pdb o/523016_HEM_VT_1129.pdb_7793.pdb o/523016_HEM_VT_1129.pdb_2366.pdb o/523016_HEM_VT_1129.pdb_1554.pdb o/523016_HEM_VT_1129.pdb_1231.pdb 
11 o/523016_HEM_VT_1129.pdb_3923.pdb o/523016_HEM_VT_1129.pdb_9475.pdb o/523016_HEM_VT_1129.pdb_4462.pdb o/523016_HEM_VT_1129.pdb_9379.pdb o/523016_HEM_VT_1129.pdb_2823.pdb o/523016_HEM_VT_1129.pdb_8972.pdb o/523016_HEM_VT_1129.pdb_8888.pdb o/523016_HEM_VT_1129.pdb_4681.pdb o/523016_HEM_VT_1129.pdb_5087.pdb o/523016_HEM_VT_1129.pdb_3825.pdb o/523016_HEM_VT_1129.pdb_1712.pdb 
13 o/523016_HEM_VT_1129.pdb_6050.pdb o/523016_HEM_VT_1129.pdb_9116.pdb o/523016_HEM_VT_1129.pdb_4201.pdb o/523016_HEM_VT_1129.pdb_5220.pdb o/523016_HEM_VT_1129.pdb_6433.pdb o/523016_HEM_VT_1129.pdb_3992.pdb o/523016_HEM_VT_1129.pdb_712.pdb o/523016_HEM_VT_1129.pdb_9852.pdb o/523016_HEM_VT_1129.pdb_2113.pdb o/523016_HEM_VT_1129.pdb_998.pdb o/523016_HEM_VT_1129.pdb_1571.pdb o/523016_HEM_VT_1129.pdb_875.pdb o/523016_HEM_VT_1129.pdb_123.pdb 
18 o/523016_HEM_VT_1129.pdb_9512.pdb o/523016_HEM_VT_1129.pdb_7244.pdb o/523016_HEM_VT_1129.pdb_86.pdb o/523016_HEM_VT_1129.pdb_1851.pdb o/523016_HEM_VT_1129.pdb_4121.pdb o/523016_HEM_VT_1129.pdb_1346.pdb o/523016_HEM_VT_1129.pdb_4251.pdb o/523016_HEM_VT_1129.pdb_9223.pdb o/523016_HEM_VT_1129.pdb_4280.pdb o/523016_HEM_VT_1129.pdb_2108.pdb o/523016_HEM_VT_1129.pdb_5567.pdb o/523016_HEM_VT_1129.pdb_3244.pdb o/523016_HEM_VT_1129.pdb_9711.pdb o/523016_HEM_VT_1129.pdb_2990.pdb o/523016_HEM_VT_1129.pdb_1320.pdb o/523016_HEM_VT_1129.pdb_7814.pdb o/523016_HEM_VT_1129.pdb_4017.pdb o/523016_HEM_VT_1129.pdb_1188.pdb 
14 o/523016_HEM_VT_1129.pdb_8326.pdb o/523016_HEM_VT_1129.pdb_9972.pdb o/523016_HEM_VT_1129.pdb_6501.pdb o/523016_HEM_VT_1129.pdb_7799.pdb o/523016_HEM_VT_1129.pdb_2328.pdb o/523016_HEM_VT_1129.pdb_9118.pdb o/523016_HEM_VT_1129.pdb_8128.pdb o/523016_HEM_VT_1129.pdb_6871.pdb o/523016_HEM_VT_1129.pdb_9556.pdb o/523016_HEM_VT_1129.pdb_8179.pdb o/523016_HEM_VT_1129.pdb_581.pdb o/523016_HEM_VT_1129.pdb_2761.pdb o/523016_HEM_VT_1129.pdb_5074.pdb o/523016_HEM_VT_1129.pdb_229.pdb 
12 o/523016_HEM_VT_1129.pdb_8813.pdb o/523016_HEM_VT_1129.pdb_8357.pdb o/523016_HEM_VT_1129.pdb_7722.pdb o/523016_HEM_VT_1129.pdb_8340.pdb o/523016_HEM_VT_1129.pdb_5983.pdb o/523016_HEM_VT_1129.pdb_8667.pdb o/523016_HEM_VT_1129.pdb_8118.pdb o/523016_HEM_VT_1129.pdb_6280.pdb o/523016_HEM_VT_1129.pdb_5229.pdb o/523016_HEM_VT_1129.pdb_3417.pdb o/523016_HEM_VT_1129.pdb_3888.pdb o/523016_HEM_VT_1129.pdb_2833.pdb 
17 o/523016_HEM_VT_1129.pdb_94.pdb o/523016_HEM_VT_1129.pdb_5626.pdb o/523016_HEM_VT_1129.pdb_8917.pdb o/523016_HEM_VT_1129.pdb_8734.pdb o/523016_HEM_VT_1129.pdb_7108.pdb o/523016_HEM_VT_1129.pdb_6886.pdb o/523016_HEM_VT_1129.pdb_2627.pdb o/523016_HEM_VT_1129.pdb_5670.pdb o/523016_HEM_VT_1129.pdb_2194.pdb o/523016_HEM_VT_1129.pdb_8592.pdb o/523016_HEM_VT_1129.pdb_213.pdb o/523016_HEM_VT_1129.pdb_1666.pdb o/523016_HEM_VT_1129.pdb_807.pdb o/523016_HEM_VT_1129.pdb_925.pdb o/523016_HEM_VT_1129.pdb_457.pdb o/523016_HEM_VT_1129.pdb_1788.pdb o/523016_HEM_VT_1129.pdb_1536.pdb 
17 o/523016_HEM_VT_1129.pdb_8919.pdb o/523016_HEM_VT_1129.pdb_9600.pdb o/523016_HEM_VT_1129.pdb_8503.pdb o/523016_HEM_VT_1129.pdb_782.pdb o/523016_HEM_VT_1129.pdb_7505.pdb o/523016_HEM_VT_1129.pdb_5823.pdb o/523016_HEM_VT_1129.pdb_6201.pdb o/523016_HEM_VT_1129.pdb_8525.pdb o/523016_HEM_VT_1129.pdb_6571.pdb o/523016_HEM_VT_1129.pdb_5920.pdb o/523016_HEM_VT_1129.pdb_4163.pdb o/523016_HEM_VT_1129.pdb_9902.pdb o/523016_HEM_VT_1129.pdb_6336.pdb o/523016_HEM_VT_1129.pdb_3593.pdb o/523016_HEM_VT_1129.pdb_6141.pdb o/523016_HEM_VT_1129.pdb_2704.pdb o/523016_HEM_VT_1129.pdb_1143.pdb 
10 o/523016_HEM_VT_1129.pdb_825.pdb o/523016_HEM_VT_1129.pdb_2743.pdb o/523016_HEM_VT_1129.pdb_2059.pdb o/523016_HEM_VT_1129.pdb_8857.pdb o/523016_HEM_VT_1129.pdb_9421.pdb o/523016_HEM_VT_1129.pdb_4319.pdb o/523016_HEM_VT_1129.pdb_2308.pdb o/523016_HEM_VT_1129.pdb_7399.pdb o/523016_HEM_VT_1129.pdb_6025.pdb o/523016_HEM_VT_1129.pdb_1227.pdb 
10 o/523016_HEM_VT_1129.pdb_8236.pdb o/523016_HEM_VT_1129.pdb_7333.pdb o/523016_HEM_VT_1129.pdb_2531.pdb o/523016_HEM_VT_1129.pdb_2536.pdb o/523016_HEM_VT_1129.pdb_9953.pdb o/523016_HEM_VT_1129.pdb_1610.pdb o/523016_HEM_VT_1129.pdb_8361.pdb o/523016_HEM_VT_1129.pdb_8629.pdb o/523016_HEM_VT_1129.pdb_2597.pdb o/523016_HEM_VT_1129.pdb_1142.pdb 
10 o/523016_HEM_VT_1129.pdb_5569.pdb o/523016_HEM_VT_1129.pdb_5351.pdb o/523016_HEM_VT_1129.pdb_458.pdb o/523016_HEM_VT_1129.pdb_3008.pdb o/523016_HEM_VT_1129.pdb_2527.pdb o/523016_HEM_VT_1129.pdb_9392.pdb o/523016_HEM_VT_1129.pdb_5343.pdb o/523016_HEM_VT_1129.pdb_4325.pdb o/523016_HEM_VT_1129.pdb_8653.pdb o/523016_HEM_VT_1129.pdb_1909.pdb 
14 o/523016_HEM_VT_1129.pdb_5707.pdb o/523016_HEM_VT_1129.pdb_9277.pdb o/523016_HEM_VT_1129.pdb_5367.pdb o/523016_HEM_VT_1129.pdb_8914.pdb o/523016_HEM_VT_1129.pdb_729.pdb o/523016_HEM_VT_1129.pdb_1913.pdb o/523016_HEM_VT_1129.pdb_738.pdb o/523016_HEM_VT_1129.pdb_1827.pdb o/523016_HEM_VT_1129.pdb_8486.pdb o/523016_HEM_VT_1129.pdb_4553.pdb o/523016_HEM_VT_1129.pdb_386.pdb o/523016_HEM_VT_1129.pdb_1459.pdb o/523016_HEM_VT_1129.pdb_8676.pdb o/523016_HEM_VT_1129.pdb_1443.pdb 
20 o/523016_HEM_VT_1129.pdb_7197.pdb o/523016_HEM_VT_1129.pdb_8974.pdb o/523016_HEM_VT_1129.pdb_8633.pdb o/523016_HEM_VT_1129.pdb_7804.pdb o/523016_HEM_VT_1129.pdb_6526.pdb o/523016_HEM_VT_1129.pdb_8900.pdb o/523016_HEM_VT_1129.pdb_4389.pdb o/523016_HEM_VT_1129.pdb_991.pdb o/523016_HEM_VT_1129.pdb_4173.pdb o/523016_HEM_VT_1129.pdb_3451.pdb o/523016_HEM_VT_1129.pdb_1616.pdb o/523016_HEM_VT_1129.pdb_9835.pdb o/523016_HEM_VT_1129.pdb_6623.pdb o/523016_HEM_VT_1129.pdb_6797.pdb o/523016_HEM_VT_1129.pdb_3766.pdb o/523016_HEM_VT_1129.pdb_6439.pdb o/523016_HEM_VT_1129.pdb_360.pdb o/523016_HEM_VT_1129.pdb_3293.pdb o/523016_HEM_VT_1129.pdb_2205.pdb o/523016_HEM_VT_1129.pdb_1512.pdb 
15 o/523016_HEM_VT_1129.pdb_548.pdb o/523016_HEM_VT_1129.pdb_280.pdb o/523016_HEM_VT_1129.pdb_7154.pdb o/523016_HEM_VT_1129.pdb_1843.pdb o/523016_HEM_VT_1129.pdb_9343.pdb o/523016_HEM_VT_1129.pdb_5593.pdb o/523016_HEM_VT_1129.pdb_3347.pdb o/523016_HEM_VT_1129.pdb_6138.pdb o/523016_HEM_VT_1129.pdb_1772.pdb o/523016_HEM_VT_1129.pdb_4549.pdb o/523016_HEM_VT_1129.pdb_3144.pdb o/523016_HEM_VT_1129.pdb_2325.pdb o/523016_HEM_VT_1129.pdb_2628.pdb o/523016_HEM_VT_1129.pdb_8272.pdb o/523016_HEM_VT_1129.pdb_1140.pdb 
10 o/523016_HEM_VT_1129.pdb_6745.pdb o/523016_HEM_VT_1129.pdb_8791.pdb o/523016_HEM_VT_1129.pdb_6405.pdb o/523016_HEM_VT_1129.pdb_8555.pdb o/523016_HEM_VT_1129.pdb_5872.pdb o/523016_HEM_VT_1129.pdb_7328.pdb o/523016_HEM_VT_1129.pdb_3420.pdb o/523016_HEM_VT_1129.pdb_2352.pdb o/523016_HEM_VT_1129.pdb_1801.pdb o/523016_HEM_VT_1129.pdb_1404.pdb 
11 o/523016_HEM_VT_1129.pdb_2578.pdb o/523016_HEM_VT_1129.pdb_2119.pdb o/523016_HEM_VT_1129.pdb_7506.pdb o/523016_HEM_VT_1129.pdb_6997.pdb o/523016_HEM_VT_1129.pdb_4656.pdb o/523016_HEM_VT_1129.pdb_8309.pdb o/523016_HEM_VT_1129.pdb_4190.pdb o/523016_HEM_VT_1129.pdb_4793.pdb o/523016_HEM_VT_1129.pdb_6024.pdb o/523016_HEM_VT_1129.pdb_2888.pdb o/523016_HEM_VT_1129.pdb_2103.pdb 
10 o/523016_HEM_VT_1129.pdb_9215.pdb o/523016_HEM_VT_1129.pdb_9064.pdb o/523016_HEM_VT_1129.pdb_6861.pdb o/523016_HEM_VT_1129.pdb_7914.pdb o/523016_HEM_VT_1129.pdb_4769.pdb o/523016_HEM_VT_1129.pdb_7760.pdb o/523016_HEM_VT_1129.pdb_1696.pdb o/523016_HEM_VT_1129.pdb_6914.pdb o/523016_HEM_VT_1129.pdb_2922.pdb o/523016_HEM_VT_1129.pdb_119.pdb 
11 o/523016_HEM_VT_1129.pdb_9404.pdb o/523016_HEM_VT_1129.pdb_9798.pdb o/523016_HEM_VT_1129.pdb_7595.pdb o/523016_HEM_VT_1129.pdb_8283.pdb o/523016_HEM_VT_1129.pdb_7897.pdb o/523016_HEM_VT_1129.pdb_7295.pdb o/523016_HEM_VT_1129.pdb_5445.pdb o/523016_HEM_VT_1129.pdb_4724.pdb o/523016_HEM_VT_1129.pdb_4616.pdb o/523016_HEM_VT_1129.pdb_6192.pdb o/523016_HEM_VT_1129.pdb_1417.pdb 
21 o/523016_HEM_VT_1129.pdb_6976.pdb o/523016_HEM_VT_1129.pdb_5638.pdb o/523016_HEM_VT_1129.pdb_8295.pdb o/523016_HEM_VT_1129.pdb_4892.pdb o/523016_HEM_VT_1129.pdb_4701.pdb o/523016_HEM_VT_1129.pdb_8159.pdb o/523016_HEM_VT_1129.pdb_6702.pdb o/523016_HEM_VT_1129.pdb_8209.pdb o/523016_HEM_VT_1129.pdb_7929.pdb o/523016_HEM_VT_1129.pdb_3795.pdb o/523016_HEM_VT_1129.pdb_7844.pdb o/523016_HEM_VT_1129.pdb_5699.pdb o/523016_HEM_VT_1129.pdb_3380.pdb o/523016_HEM_VT_1129.pdb_4937.pdb o/523016_HEM_VT_1129.pdb_2927.pdb o/523016_HEM_VT_1129.pdb_829.pdb o/523016_HEM_VT_1129.pdb_2601.pdb o/523016_HEM_VT_1129.pdb_3242.pdb o/523016_HEM_VT_1129.pdb_5379.pdb o/523016_HEM_VT_1129.pdb_9248.pdb o/523016_HEM_VT_1129.pdb_1200.pdb 
12 o/523016_HEM_VT_1129.pdb_8902.pdb o/523016_HEM_VT_1129.pdb_3544.pdb o/523016_HEM_VT_1129.pdb_2518.pdb o/523016_HEM_VT_1129.pdb_9804.pdb o/523016_HEM_VT_1129.pdb_1403.pdb o/523016_HEM_VT_1129.pdb_8313.pdb o/523016_HEM_VT_1129.pdb_5586.pdb o/523016_HEM_VT_1129.pdb_5524.pdb o/523016_HEM_VT_1129.pdb_372.pdb o/523016_HEM_VT_1129.pdb_1719.pdb o/523016_HEM_VT_1129.pdb_1322.pdb o/523016_HEM_VT_1129.pdb_1252.pdb 
11 o/523016_HEM_VT_1129.pdb_6366.pdb o/523016_HEM_VT_1129.pdb_5916.pdb o/523016_HEM_VT_1129.pdb_5643.pdb o/523016_HEM_VT_1129.pdb_7970.pdb o/523016_HEM_VT_1129.pdb_3392.pdb o/523016_HEM_VT_1129.pdb_577.pdb o/523016_HEM_VT_1129.pdb_9715.pdb o/523016_HEM_VT_1129.pdb_2122.pdb o/523016_HEM_VT_1129.pdb_9768.pdb o/523016_HEM_VT_1129.pdb_9886.pdb o/523016_HEM_VT_1129.pdb_1510.pdb 
12 o/523016_HEM_VT_1129.pdb_8305.pdb o/523016_HEM_VT_1129.pdb_8268.pdb o/523016_HEM_VT_1129.pdb_7287.pdb o/523016_HEM_VT_1129.pdb_7719.pdb o/523016_HEM_VT_1129.pdb_3545.pdb o/523016_HEM_VT_1129.pdb_656.pdb o/523016_HEM_VT_1129.pdb_9557.pdb o/523016_HEM_VT_1129.pdb_192.pdb o/523016_HEM_VT_1129.pdb_4341.pdb o/523016_HEM_VT_1129.pdb_7247.pdb o/523016_HEM_VT_1129.pdb_1600.pdb o/523016_HEM_VT_1129.pdb_1469.pdb 
14 o/523016_HEM_VT_1129.pdb_9049.pdb o/523016_HEM_VT_1129.pdb_7520.pdb o/523016_HEM_VT_1129.pdb_3337.pdb o/523016_HEM_VT_1129.pdb_2029.pdb o/523016_HEM_VT_1129.pdb_1165.pdb o/523016_HEM_VT_1129.pdb_8612.pdb o/523016_HEM_VT_1129.pdb_6217.pdb o/523016_HEM_VT_1129.pdb_9944.pdb o/523016_HEM_VT_1129.pdb_4876.pdb o/523016_HEM_VT_1129.pdb_8518.pdb o/523016_HEM_VT_1129.pdb_7314.pdb o/523016_HEM_VT_1129.pdb_667.pdb o/523016_HEM_VT_1129.pdb_5860.pdb o/523016_HEM_VT_1129.pdb_1149.pdb 
16 o/523016_HEM_VT_1129.pdb_8817.pdb o/523016_HEM_VT_1129.pdb_3957.pdb o/523016_HEM_VT_1129.pdb_6297.pdb o/523016_HEM_VT_1129.pdb_4145.pdb o/523016_HEM_VT_1129.pdb_90.pdb o/523016_HEM_VT_1129.pdb_7080.pdb o/523016_HEM_VT_1129.pdb_8467.pdb o/523016_HEM_VT_1129.pdb_3524.pdb o/523016_HEM_VT_1129.pdb_8293.pdb o/523016_HEM_VT_1129.pdb_6737.pdb o/523016_HEM_VT_1129.pdb_3893.pdb o/523016_HEM_VT_1129.pdb_859.pdb o/523016_HEM_VT_1129.pdb_2140.pdb o/523016_HEM_VT_1129.pdb_3351.pdb o/523016_HEM_VT_1129.pdb_6322.pdb o/523016_HEM_VT_1129.pdb_1661.pdb 
11 o/523016_HEM_VT_1129.pdb_9214.pdb o/523016_HEM_VT_1129.pdb_7250.pdb o/523016_HEM_VT_1129.pdb_5650.pdb o/523016_HEM_VT_1129.pdb_4964.pdb o/523016_HEM_VT_1129.pdb_6150.pdb o/523016_HEM_VT_1129.pdb_4417.pdb o/523016_HEM_VT_1129.pdb_377.pdb o/523016_HEM_VT_1129.pdb_9947.pdb o/523016_HEM_VT_1129.pdb_7599.pdb o/523016_HEM_VT_1129.pdb_5474.pdb o/523016_HEM_VT_1129.pdb_2562.pdb 
11 o/523016_HEM_VT_1129.pdb_5761.pdb o/523016_HEM_VT_1129.pdb_25.pdb o/523016_HEM_VT_1129.pdb_9850.pdb o/523016_HEM_VT_1129.pdb_8143.pdb o/523016_HEM_VT_1129.pdb_1185.pdb o/523016_HEM_VT_1129.pdb_7498.pdb o/523016_HEM_VT_1129.pdb_2620.pdb o/523016_HEM_VT_1129.pdb_2281.pdb o/523016_HEM_VT_1129.pdb_214.pdb o/523016_HEM_VT_1129.pdb_2935.pdb o/523016_HEM_VT_1129.pdb_1108.pdb 
10 o/523016_HEM_VT_1129.pdb_3961.pdb o/523016_HEM_VT_1129.pdb_7518.pdb o/523016_HEM_VT_1129.pdb_4525.pdb o/523016_HEM_VT_1129.pdb_6874.pdb o/523016_HEM_VT_1129.pdb_594.pdb o/523016_HEM_VT_1129.pdb_3438.pdb o/523016_HEM_VT_1129.pdb_2440.pdb o/523016_HEM_VT_1129.pdb_7596.pdb o/523016_HEM_VT_1129.pdb_4226.pdb o/523016_HEM_VT_1129.pdb_1169.pdb 
15 o/523016_HEM_VT_1129.pdb_6900.pdb o/523016_HEM_VT_1129.pdb_949.pdb o/523016_HEM_VT_1129.pdb_7988.pdb o/523016_HEM_VT_1129.pdb_3803.pdb o/523016_HEM_VT_1129.pdb_7902.pdb o/523016_HEM_VT_1129.pdb_5754.pdb o/523016_HEM_VT_1129.pdb_945.pdb o/523016_HEM_VT_1129.pdb_2776.pdb o/523016_HEM_VT_1129.pdb_5358.pdb o/523016_HEM_VT_1129.pdb_649.pdb o/523016_HEM_VT_1129.pdb_2202.pdb o/523016_HEM_VT_1129.pdb_2555.pdb o/523016_HEM_VT_1129.pdb_201.pdb o/523016_HEM_VT_1129.pdb_5163.pdb o/523016_HEM_VT_1129.pdb_1138.pdb 
17 o/523016_HEM_VT_1129.pdb_4845.pdb o/523016_HEM_VT_1129.pdb_988.pdb o/523016_HEM_VT_1129.pdb_478.pdb o/523016_HEM_VT_1129.pdb_6445.pdb o/523016_HEM_VT_1129.pdb_419.pdb o/523016_HEM_VT_1129.pdb_3196.pdb o/523016_HEM_VT_1129.pdb_278.pdb o/523016_HEM_VT_1129.pdb_6316.pdb o/523016_HEM_VT_1129.pdb_6020.pdb o/523016_HEM_VT_1129.pdb_9587.pdb o/523016_HEM_VT_1129.pdb_3636.pdb o/523016_HEM_VT_1129.pdb_4777.pdb o/523016_HEM_VT_1129.pdb_4650.pdb o/523016_HEM_VT_1129.pdb_7570.pdb o/523016_HEM_VT_1129.pdb_5891.pdb o/523016_HEM_VT_1129.pdb_9399.pdb o/523016_HEM_VT_1129.pdb_1737.pdb 
15 o/523016_HEM_VT_1129.pdb_9609.pdb o/523016_HEM_VT_1129.pdb_6295.pdb o/523016_HEM_VT_1129.pdb_6360.pdb o/523016_HEM_VT_1129.pdb_8500.pdb o/523016_HEM_VT_1129.pdb_3512.pdb o/523016_HEM_VT_1129.pdb_2579.pdb o/523016_HEM_VT_1129.pdb_1592.pdb o/523016_HEM_VT_1129.pdb_9073.pdb o/523016_HEM_VT_1129.pdb_1478.pdb o/523016_HEM_VT_1129.pdb_6314.pdb o/523016_HEM_VT_1129.pdb_3356.pdb o/523016_HEM_VT_1129.pdb_6253.pdb o/523016_HEM_VT_1129.pdb_784.pdb o/523016_HEM_VT_1129.pdb_3528.pdb o/523016_HEM_VT_1129.pdb_1094.pdb 
10 o/523016_HEM_VT_1129.pdb_3723.pdb o/523016_HEM_VT_1129.pdb_5242.pdb o/523016_HEM_VT_1129.pdb_5004.pdb o/523016_HEM_VT_1129.pdb_1714.pdb o/523016_HEM_VT_1129.pdb_2348.pdb o/523016_HEM_VT_1129.pdb_7220.pdb o/523016_HEM_VT_1129.pdb_2416.pdb o/523016_HEM_VT_1129.pdb_1815.pdb o/523016_HEM_VT_1129.pdb_5306.pdb o/523016_HEM_VT_1129.pdb_1161.pdb 
13 o/523016_HEM_VT_1129.pdb_6805.pdb o/523016_HEM_VT_1129.pdb_6726.pdb o/523016_HEM_VT_1129.pdb_7742.pdb o/523016_HEM_VT_1129.pdb_4698.pdb o/523016_HEM_VT_1129.pdb_7575.pdb o/523016_HEM_VT_1129.pdb_3078.pdb o/523016_HEM_VT_1129.pdb_8657.pdb o/523016_HEM_VT_1129.pdb_8521.pdb o/523016_HEM_VT_1129.pdb_2807.pdb o/523016_HEM_VT_1129.pdb_8330.pdb o/523016_HEM_VT_1129.pdb_2988.pdb o/523016_HEM_VT_1129.pdb_3232.pdb o/523016_HEM_VT_1129.pdb_1090.pdb 
12 o/523016_HEM_VT_1129.pdb_2532.pdb o/523016_HEM_VT_1129.pdb_6181.pdb o/523016_HEM_VT_1129.pdb_6173.pdb o/523016_HEM_VT_1129.pdb_7789.pdb o/523016_HEM_VT_1129.pdb_247.pdb o/523016_HEM_VT_1129.pdb_9425.pdb o/523016_HEM_VT_1129.pdb_5776.pdb o/523016_HEM_VT_1129.pdb_3308.pdb o/523016_HEM_VT_1129.pdb_2303.pdb o/523016_HEM_VT_1129.pdb_7010.pdb o/523016_HEM_VT_1129.pdb_6978.pdb o/523016_HEM_VT_1129.pdb_1401.pdb 
18 o/523016_HEM_VT_1129.pdb_7559.pdb o/523016_HEM_VT_1129.pdb_6506.pdb o/523016_HEM_VT_1129.pdb_8299.pdb o/523016_HEM_VT_1129.pdb_6723.pdb o/523016_HEM_VT_1129.pdb_6170.pdb o/523016_HEM_VT_1129.pdb_5137.pdb o/523016_HEM_VT_1129.pdb_246.pdb o/523016_HEM_VT_1129.pdb_601.pdb o/523016_HEM_VT_1129.pdb_2845.pdb o/523016_HEM_VT_1129.pdb_1171.pdb o/523016_HEM_VT_1129.pdb_9620.pdb o/523016_HEM_VT_1129.pdb_7146.pdb o/523016_HEM_VT_1129.pdb_2769.pdb o/523016_HEM_VT_1129.pdb_9747.pdb o/523016_HEM_VT_1129.pdb_1671.pdb o/523016_HEM_VT_1129.pdb_7174.pdb o/523016_HEM_VT_1129.pdb_8673.pdb o/523016_HEM_VT_1129.pdb_1115.pdb 
10 o/523016_HEM_VT_1129.pdb_9262.pdb o/523016_HEM_VT_1129.pdb_9398.pdb o/523016_HEM_VT_1129.pdb_9114.pdb o/523016_HEM_VT_1129.pdb_6530.pdb o/523016_HEM_VT_1129.pdb_3647.pdb o/523016_HEM_VT_1129.pdb_9441.pdb o/523016_HEM_VT_1129.pdb_6863.pdb o/523016_HEM_VT_1129.pdb_3761.pdb o/523016_HEM_VT_1129.pdb_2756.pdb o/523016_HEM_VT_1129.pdb_1864.pdb 
10 o/523016_HEM_VT_1129.pdb_8691.pdb o/523016_HEM_VT_1129.pdb_5203.pdb o/523016_HEM_VT_1129.pdb_6515.pdb o/523016_HEM_VT_1129.pdb_5658.pdb o/523016_HEM_VT_1129.pdb_3736.pdb o/523016_HEM_VT_1129.pdb_9045.pdb o/523016_HEM_VT_1129.pdb_4604.pdb o/523016_HEM_VT_1129.pdb_6773.pdb o/523016_HEM_VT_1129.pdb_4142.pdb o/523016_HEM_VT_1129.pdb_3365.pdb 
11 o/523016_HEM_VT_1129.pdb_6801.pdb o/523016_HEM_VT_1129.pdb_7072.pdb o/523016_HEM_VT_1129.pdb_6455.pdb o/523016_HEM_VT_1129.pdb_7976.pdb o/523016_HEM_VT_1129.pdb_6285.pdb o/523016_HEM_VT_1129.pdb_9470.pdb o/523016_HEM_VT_1129.pdb_4593.pdb o/523016_HEM_VT_1129.pdb_8068.pdb o/523016_HEM_VT_1129.pdb_447.pdb o/523016_HEM_VT_1129.pdb_7463.pdb o/523016_HEM_VT_1129.pdb_1086.pdb 
13 o/523016_HEM_VT_1129.pdb_7239.pdb o/523016_HEM_VT_1129.pdb_3188.pdb o/523016_HEM_VT_1129.pdb_5730.pdb o/523016_HEM_VT_1129.pdb_3456.pdb o/523016_HEM_VT_1129.pdb_8856.pdb o/523016_HEM_VT_1129.pdb_7975.pdb o/523016_HEM_VT_1129.pdb_1757.pdb o/523016_HEM_VT_1129.pdb_9774.pdb o/523016_HEM_VT_1129.pdb_3130.pdb o/523016_HEM_VT_1129.pdb_1896.pdb o/523016_HEM_VT_1129.pdb_7024.pdb o/523016_HEM_VT_1129.pdb_2524.pdb o/523016_HEM_VT_1129.pdb_1212.pdb 
15 o/523016_HEM_VT_1129.pdb_4004.pdb o/523016_HEM_VT_1129.pdb_8258.pdb o/523016_HEM_VT_1129.pdb_3400.pdb o/523016_HEM_VT_1129.pdb_8793.pdb o/523016_HEM_VT_1129.pdb_3543.pdb o/523016_HEM_VT_1129.pdb_3397.pdb o/523016_HEM_VT_1129.pdb_7202.pdb o/523016_HEM_VT_1129.pdb_3363.pdb o/523016_HEM_VT_1129.pdb_909.pdb o/523016_HEM_VT_1129.pdb_8059.pdb o/523016_HEM_VT_1129.pdb_5993.pdb o/523016_HEM_VT_1129.pdb_439.pdb o/523016_HEM_VT_1129.pdb_2539.pdb o/523016_HEM_VT_1129.pdb_9435.pdb o/523016_HEM_VT_1129.pdb_158.pdb 
11 o/523016_HEM_VT_1129.pdb_9656.pdb o/523016_HEM_VT_1129.pdb_3405.pdb o/523016_HEM_VT_1129.pdb_4374.pdb o/523016_HEM_VT_1129.pdb_2826.pdb o/523016_HEM_VT_1129.pdb_6814.pdb o/523016_HEM_VT_1129.pdb_1874.pdb o/523016_HEM_VT_1129.pdb_6866.pdb o/523016_HEM_VT_1129.pdb_6643.pdb o/523016_HEM_VT_1129.pdb_6665.pdb o/523016_HEM_VT_1129.pdb_6935.pdb o/523016_HEM_VT_1129.pdb_1213.pdb 
10 o/523016_HEM_VT_1129.pdb_6847.pdb o/523016_HEM_VT_1129.pdb_4512.pdb o/523016_HEM_VT_1129.pdb_7548.pdb o/523016_HEM_VT_1129.pdb_3954.pdb o/523016_HEM_VT_1129.pdb_8776.pdb o/523016_HEM_VT_1129.pdb_4122.pdb o/523016_HEM_VT_1129.pdb_4834.pdb o/523016_HEM_VT_1129.pdb_1855.pdb o/523016_HEM_VT_1129.pdb_7440.pdb o/523016_HEM_VT_1129.pdb_1079.pdb 
26 o/523016_HEM_VT_1129.pdb_5257.pdb o/523016_HEM_VT_1129.pdb_7643.pdb o/523016_HEM_VT_1129.pdb_401.pdb o/523016_HEM_VT_1129.pdb_9645.pdb o/523016_HEM_VT_1129.pdb_9515.pdb o/523016_HEM_VT_1129.pdb_788.pdb o/523016_HEM_VT_1129.pdb_7472.pdb o/523016_HEM_VT_1129.pdb_1950.pdb o/523016_HEM_VT_1129.pdb_7316.pdb o/523016_HEM_VT_1129.pdb_783.pdb o/523016_HEM_VT_1129.pdb_591.pdb o/523016_HEM_VT_1129.pdb_3955.pdb o/523016_HEM_VT_1129.pdb_195.pdb o/523016_HEM_VT_1129.pdb_1873.pdb o/523016_HEM_VT_1129.pdb_9240.pdb o/523016_HEM_VT_1129.pdb_9849.pdb o/523016_HEM_VT_1129.pdb_547.pdb o/523016_HEM_VT_1129.pdb_3317.pdb o/523016_HEM_VT_1129.pdb_5016.pdb o/523016_HEM_VT_1129.pdb_1564.pdb o/523016_HEM_VT_1129.pdb_7708.pdb o/523016_HEM_VT_1129.pdb_3019.pdb o/523016_HEM_VT_1129.pdb_2183.pdb o/523016_HEM_VT_1129.pdb_4634.pdb o/523016_HEM_VT_1129.pdb_4231.pdb o/523016_HEM_VT_1129.pdb_109.pdb 
18 o/523016_HEM_VT_1129.pdb_9790.pdb o/523016_HEM_VT_1129.pdb_4898.pdb o/523016_HEM_VT_1129.pdb_9845.pdb o/523016_HEM_VT_1129.pdb_1455.pdb o/523016_HEM_VT_1129.pdb_6333.pdb o/523016_HEM_VT_1129.pdb_2096.pdb o/523016_HEM_VT_1129.pdb_8829.pdb o/523016_HEM_VT_1129.pdb_4970.pdb o/523016_HEM_VT_1129.pdb_7376.pdb o/523016_HEM_VT_1129.pdb_7353.pdb o/523016_HEM_VT_1129.pdb_2535.pdb o/523016_HEM_VT_1129.pdb_1791.pdb o/523016_HEM_VT_1129.pdb_958.pdb o/523016_HEM_VT_1129.pdb_3673.pdb o/523016_HEM_VT_1129.pdb_6058.pdb o/523016_HEM_VT_1129.pdb_171.pdb o/523016_HEM_VT_1129.pdb_3639.pdb o/523016_HEM_VT_1129.pdb_1078.pdb 
11 o/523016_HEM_VT_1129.pdb_4666.pdb o/523016_HEM_VT_1129.pdb_9500.pdb o/523016_HEM_VT_1129.pdb_4234.pdb o/523016_HEM_VT_1129.pdb_739.pdb o/523016_HEM_VT_1129.pdb_5936.pdb o/523016_HEM_VT_1129.pdb_3264.pdb o/523016_HEM_VT_1129.pdb_6451.pdb o/523016_HEM_VT_1129.pdb_9710.pdb o/523016_HEM_VT_1129.pdb_9612.pdb o/523016_HEM_VT_1129.pdb_9140.pdb o/523016_HEM_VT_1129.pdb_1195.pdb 
11 o/523016_HEM_VT_1129.pdb_5605.pdb o/523016_HEM_VT_1129.pdb_4502.pdb o/523016_HEM_VT_1129.pdb_635.pdb o/523016_HEM_VT_1129.pdb_5370.pdb o/523016_HEM_VT_1129.pdb_3982.pdb o/523016_HEM_VT_1129.pdb_967.pdb o/523016_HEM_VT_1129.pdb_337.pdb o/523016_HEM_VT_1129.pdb_2550.pdb o/523016_HEM_VT_1129.pdb_3602.pdb o/523016_HEM_VT_1129.pdb_740.pdb o/523016_HEM_VT_1129.pdb_1303.pdb 
12 o/523016_HEM_VT_1129.pdb_4368.pdb o/523016_HEM_VT_1129.pdb_9162.pdb o/523016_HEM_VT_1129.pdb_843.pdb o/523016_HEM_VT_1129.pdb_5894.pdb o/523016_HEM_VT_1129.pdb_9265.pdb o/523016_HEM_VT_1129.pdb_7534.pdb o/523016_HEM_VT_1129.pdb_3055.pdb o/523016_HEM_VT_1129.pdb_4010.pdb o/523016_HEM_VT_1129.pdb_8929.pdb o/523016_HEM_VT_1129.pdb_1497.pdb o/523016_HEM_VT_1129.pdb_1382.pdb o/523016_HEM_VT_1129.pdb_12.pdb 
10 o/523016_HEM_VT_1129.pdb_5666.pdb o/523016_HEM_VT_1129.pdb_427.pdb o/523016_HEM_VT_1129.pdb_9306.pdb o/523016_HEM_VT_1129.pdb_7847.pdb o/523016_HEM_VT_1129.pdb_3666.pdb o/523016_HEM_VT_1129.pdb_2145.pdb o/523016_HEM_VT_1129.pdb_7403.pdb o/523016_HEM_VT_1129.pdb_4336.pdb o/523016_HEM_VT_1129.pdb_6356.pdb o/523016_HEM_VT_1129.pdb_107.pdb 
12 o/523016_HEM_VT_1129.pdb_9837.pdb o/523016_HEM_VT_1129.pdb_569.pdb o/523016_HEM_VT_1129.pdb_5809.pdb o/523016_HEM_VT_1129.pdb_1773.pdb o/523016_HEM_VT_1129.pdb_7879.pdb o/523016_HEM_VT_1129.pdb_7048.pdb o/523016_HEM_VT_1129.pdb_7547.pdb o/523016_HEM_VT_1129.pdb_6893.pdb o/523016_HEM_VT_1129.pdb_1254.pdb o/523016_HEM_VT_1129.pdb_4175.pdb o/523016_HEM_VT_1129.pdb_2516.pdb o/523016_HEM_VT_1129.pdb_1068.pdb 
13 o/523016_HEM_VT_1129.pdb_7109.pdb o/523016_HEM_VT_1129.pdb_3785.pdb o/523016_HEM_VT_1129.pdb_6432.pdb o/523016_HEM_VT_1129.pdb_6129.pdb o/523016_HEM_VT_1129.pdb_9911.pdb o/523016_HEM_VT_1129.pdb_3354.pdb o/523016_HEM_VT_1129.pdb_796.pdb o/523016_HEM_VT_1129.pdb_9949.pdb o/523016_HEM_VT_1129.pdb_9324.pdb o/523016_HEM_VT_1129.pdb_6274.pdb o/523016_HEM_VT_1129.pdb_9735.pdb o/523016_HEM_VT_1129.pdb_4980.pdb o/523016_HEM_VT_1129.pdb_1633.pdb 
13 o/523016_HEM_VT_1129.pdb_9884.pdb o/523016_HEM_VT_1129.pdb_5807.pdb o/523016_HEM_VT_1129.pdb_8748.pdb o/523016_HEM_VT_1129.pdb_9524.pdb o/523016_HEM_VT_1129.pdb_1445.pdb o/523016_HEM_VT_1129.pdb_6047.pdb o/523016_HEM_VT_1129.pdb_82.pdb o/523016_HEM_VT_1129.pdb_7406.pdb o/523016_HEM_VT_1129.pdb_3682.pdb o/523016_HEM_VT_1129.pdb_3060.pdb o/523016_HEM_VT_1129.pdb_2476.pdb o/523016_HEM_VT_1129.pdb_3126.pdb o/523016_HEM_VT_1129.pdb_1215.pdb 
12 o/523016_HEM_VT_1129.pdb_9187.pdb o/523016_HEM_VT_1129.pdb_9169.pdb o/523016_HEM_VT_1129.pdb_5207.pdb o/523016_HEM_VT_1129.pdb_5254.pdb o/523016_HEM_VT_1129.pdb_5037.pdb o/523016_HEM_VT_1129.pdb_785.pdb o/523016_HEM_VT_1129.pdb_7245.pdb o/523016_HEM_VT_1129.pdb_6930.pdb o/523016_HEM_VT_1129.pdb_3867.pdb o/523016_HEM_VT_1129.pdb_9964.pdb o/523016_HEM_VT_1129.pdb_4894.pdb o/523016_HEM_VT_1129.pdb_3421.pdb 
21 o/523016_HEM_VT_1129.pdb_9836.pdb o/523016_HEM_VT_1129.pdb_7362.pdb o/523016_HEM_VT_1129.pdb_6937.pdb o/523016_HEM_VT_1129.pdb_9890.pdb o/523016_HEM_VT_1129.pdb_6842.pdb o/523016_HEM_VT_1129.pdb_6881.pdb o/523016_HEM_VT_1129.pdb_5282.pdb o/523016_HEM_VT_1129.pdb_448.pdb o/523016_HEM_VT_1129.pdb_8937.pdb o/523016_HEM_VT_1129.pdb_6709.pdb o/523016_HEM_VT_1129.pdb_5063.pdb o/523016_HEM_VT_1129.pdb_4403.pdb o/523016_HEM_VT_1129.pdb_8965.pdb o/523016_HEM_VT_1129.pdb_2952.pdb o/523016_HEM_VT_1129.pdb_6111.pdb o/523016_HEM_VT_1129.pdb_2568.pdb o/523016_HEM_VT_1129.pdb_640.pdb o/523016_HEM_VT_1129.pdb_8298.pdb o/523016_HEM_VT_1129.pdb_647.pdb o/523016_HEM_VT_1129.pdb_5553.pdb o/523016_HEM_VT_1129.pdb_2485.pdb 
10 o/523016_HEM_VT_1129.pdb_8901.pdb o/523016_HEM_VT_1129.pdb_7473.pdb o/523016_HEM_VT_1129.pdb_9570.pdb o/523016_HEM_VT_1129.pdb_9820.pdb o/523016_HEM_VT_1129.pdb_6404.pdb o/523016_HEM_VT_1129.pdb_5735.pdb o/523016_HEM_VT_1129.pdb_4511.pdb o/523016_HEM_VT_1129.pdb_2994.pdb o/523016_HEM_VT_1129.pdb_1922.pdb o/523016_HEM_VT_1129.pdb_1062.pdb 
10 o/523016_HEM_VT_1129.pdb_931.pdb o/523016_HEM_VT_1129.pdb_6393.pdb o/523016_HEM_VT_1129.pdb_4521.pdb o/523016_HEM_VT_1129.pdb_6130.pdb o/523016_HEM_VT_1129.pdb_2178.pdb o/523016_HEM_VT_1129.pdb_6090.pdb o/523016_HEM_VT_1129.pdb_4483.pdb o/523016_HEM_VT_1129.pdb_7828.pdb o/523016_HEM_VT_1129.pdb_9484.pdb o/523016_HEM_VT_1129.pdb_1059.pdb 
15 o/523016_HEM_VT_1129.pdb_9054.pdb o/523016_HEM_VT_1129.pdb_4740.pdb o/523016_HEM_VT_1129.pdb_3794.pdb o/523016_HEM_VT_1129.pdb_3597.pdb o/523016_HEM_VT_1129.pdb_4699.pdb o/523016_HEM_VT_1129.pdb_2842.pdb o/523016_HEM_VT_1129.pdb_743.pdb o/523016_HEM_VT_1129.pdb_9028.pdb o/523016_HEM_VT_1129.pdb_1704.pdb o/523016_HEM_VT_1129.pdb_1544.pdb o/523016_HEM_VT_1129.pdb_5997.pdb o/523016_HEM_VT_1129.pdb_6358.pdb o/523016_HEM_VT_1129.pdb_4537.pdb o/523016_HEM_VT_1129.pdb_7350.pdb o/523016_HEM_VT_1129.pdb_1250.pdb 
16 o/523016_HEM_VT_1129.pdb_4949.pdb o/523016_HEM_VT_1129.pdb_2143.pdb o/523016_HEM_VT_1129.pdb_9862.pdb o/523016_HEM_VT_1129.pdb_1973.pdb o/523016_HEM_VT_1129.pdb_1475.pdb o/523016_HEM_VT_1129.pdb_6340.pdb o/523016_HEM_VT_1129.pdb_5939.pdb o/523016_HEM_VT_1129.pdb_9490.pdb o/523016_HEM_VT_1129.pdb_1848.pdb o/523016_HEM_VT_1129.pdb_2397.pdb o/523016_HEM_VT_1129.pdb_7030.pdb o/523016_HEM_VT_1129.pdb_6492.pdb o/523016_HEM_VT_1129.pdb_6591.pdb o/523016_HEM_VT_1129.pdb_5793.pdb o/523016_HEM_VT_1129.pdb_7106.pdb o/523016_HEM_VT_1129.pdb_1081.pdb 
15 o/523016_HEM_VT_1129.pdb_7898.pdb o/523016_HEM_VT_1129.pdb_5954.pdb o/523016_HEM_VT_1129.pdb_7673.pdb o/523016_HEM_VT_1129.pdb_7240.pdb o/523016_HEM_VT_1129.pdb_4787.pdb o/523016_HEM_VT_1129.pdb_5107.pdb o/523016_HEM_VT_1129.pdb_4644.pdb o/523016_HEM_VT_1129.pdb_9552.pdb o/523016_HEM_VT_1129.pdb_8887.pdb o/523016_HEM_VT_1129.pdb_2345.pdb o/523016_HEM_VT_1129.pdb_8982.pdb o/523016_HEM_VT_1129.pdb_8387.pdb o/523016_HEM_VT_1129.pdb_3564.pdb o/523016_HEM_VT_1129.pdb_4817.pdb o/523016_HEM_VT_1129.pdb_1939.pdb 
22 o/523016_HEM_VT_1129.pdb_3258.pdb o/523016_HEM_VT_1129.pdb_683.pdb o/523016_HEM_VT_1129.pdb_5975.pdb o/523016_HEM_VT_1129.pdb_4342.pdb o/523016_HEM_VT_1129.pdb_2832.pdb o/523016_HEM_VT_1129.pdb_2153.pdb o/523016_HEM_VT_1129.pdb_5391.pdb o/523016_HEM_VT_1129.pdb_2720.pdb o/523016_HEM_VT_1129.pdb_9576.pdb o/523016_HEM_VT_1129.pdb_2336.pdb o/523016_HEM_VT_1129.pdb_9808.pdb o/523016_HEM_VT_1129.pdb_6977.pdb o/523016_HEM_VT_1129.pdb_1419.pdb o/523016_HEM_VT_1129.pdb_4829.pdb o/523016_HEM_VT_1129.pdb_8156.pdb o/523016_HEM_VT_1129.pdb_3467.pdb o/523016_HEM_VT_1129.pdb_8548.pdb o/523016_HEM_VT_1129.pdb_1495.pdb o/523016_HEM_VT_1129.pdb_9825.pdb o/523016_HEM_VT_1129.pdb_5503.pdb o/523016_HEM_VT_1129.pdb_8819.pdb o/523016_HEM_VT_1129.pdb_1067.pdb 
14 o/523016_HEM_VT_1129.pdb_2739.pdb o/523016_HEM_VT_1129.pdb_2490.pdb o/523016_HEM_VT_1129.pdb_9103.pdb o/523016_HEM_VT_1129.pdb_1622.pdb o/523016_HEM_VT_1129.pdb_8921.pdb o/523016_HEM_VT_1129.pdb_1239.pdb o/523016_HEM_VT_1129.pdb_8851.pdb o/523016_HEM_VT_1129.pdb_4602.pdb o/523016_HEM_VT_1129.pdb_2284.pdb o/523016_HEM_VT_1129.pdb_1085.pdb o/523016_HEM_VT_1129.pdb_939.pdb o/523016_HEM_VT_1129.pdb_2304.pdb o/523016_HEM_VT_1129.pdb_2191.pdb o/523016_HEM_VT_1129.pdb_1053.pdb 
10 o/523016_HEM_VT_1129.pdb_8804.pdb o/523016_HEM_VT_1129.pdb_9998.pdb o/523016_HEM_VT_1129.pdb_8253.pdb o/523016_HEM_VT_1129.pdb_58.pdb o/523016_HEM_VT_1129.pdb_4636.pdb o/523016_HEM_VT_1129.pdb_563.pdb o/523016_HEM_VT_1129.pdb_9867.pdb o/523016_HEM_VT_1129.pdb_3742.pdb o/523016_HEM_VT_1129.pdb_2149.pdb o/523016_HEM_VT_1129.pdb_1390.pdb 
14 o/523016_HEM_VT_1129.pdb_8558.pdb o/523016_HEM_VT_1129.pdb_9002.pdb o/523016_HEM_VT_1129.pdb_5624.pdb o/523016_HEM_VT_1129.pdb_5293.pdb o/523016_HEM_VT_1129.pdb_7857.pdb o/523016_HEM_VT_1129.pdb_4211.pdb o/523016_HEM_VT_1129.pdb_3371.pdb o/523016_HEM_VT_1129.pdb_588.pdb o/523016_HEM_VT_1129.pdb_228.pdb o/523016_HEM_VT_1129.pdb_6484.pdb o/523016_HEM_VT_1129.pdb_6929.pdb o/523016_HEM_VT_1129.pdb_1958.pdb o/523016_HEM_VT_1129.pdb_9183.pdb o/523016_HEM_VT_1129.pdb_1454.pdb 
11 o/523016_HEM_VT_1129.pdb_2914.pdb o/523016_HEM_VT_1129.pdb_7073.pdb o/523016_HEM_VT_1129.pdb_3100.pdb o/523016_HEM_VT_1129.pdb_2549.pdb o/523016_HEM_VT_1129.pdb_7349.pdb o/523016_HEM_VT_1129.pdb_8985.pdb o/523016_HEM_VT_1129.pdb_965.pdb o/523016_HEM_VT_1129.pdb_4947.pdb o/523016_HEM_VT_1129.pdb_9236.pdb o/523016_HEM_VT_1129.pdb_3680.pdb o/523016_HEM_VT_1129.pdb_2234.pdb 
18 o/523016_HEM_VT_1129.pdb_8141.pdb o/523016_HEM_VT_1129.pdb_8233.pdb o/523016_HEM_VT_1129.pdb_3789.pdb o/523016_HEM_VT_1129.pdb_7430.pdb o/523016_HEM_VT_1129.pdb_7792.pdb o/523016_HEM_VT_1129.pdb_7304.pdb o/523016_HEM_VT_1129.pdb_495.pdb o/523016_HEM_VT_1129.pdb_8581.pdb o/523016_HEM_VT_1129.pdb_5359.pdb o/523016_HEM_VT_1129.pdb_4824.pdb o/523016_HEM_VT_1129.pdb_6678.pdb o/523016_HEM_VT_1129.pdb_2174.pdb o/523016_HEM_VT_1129.pdb_7681.pdb o/523016_HEM_VT_1129.pdb_1963.pdb o/523016_HEM_VT_1129.pdb_1411.pdb o/523016_HEM_VT_1129.pdb_8662.pdb o/523016_HEM_VT_1129.pdb_314.pdb o/523016_HEM_VT_1129.pdb_1047.pdb 
16 o/523016_HEM_VT_1129.pdb_8647.pdb o/523016_HEM_VT_1129.pdb_9026.pdb o/523016_HEM_VT_1129.pdb_3759.pdb o/523016_HEM_VT_1129.pdb_7945.pdb o/523016_HEM_VT_1129.pdb_6913.pdb o/523016_HEM_VT_1129.pdb_4831.pdb o/523016_HEM_VT_1129.pdb_6161.pdb o/523016_HEM_VT_1129.pdb_2369.pdb o/523016_HEM_VT_1129.pdb_8269.pdb o/523016_HEM_VT_1129.pdb_6136.pdb o/523016_HEM_VT_1129.pdb_7392.pdb o/523016_HEM_VT_1129.pdb_5888.pdb o/523016_HEM_VT_1129.pdb_8428.pdb o/523016_HEM_VT_1129.pdb_1319.pdb o/523016_HEM_VT_1129.pdb_7422.pdb o/523016_HEM_VT_1129.pdb_1272.pdb 
21 o/523016_HEM_VT_1129.pdb_573.pdb o/523016_HEM_VT_1129.pdb_4044.pdb o/523016_HEM_VT_1129.pdb_4995.pdb o/523016_HEM_VT_1129.pdb_3942.pdb o/523016_HEM_VT_1129.pdb_693.pdb o/523016_HEM_VT_1129.pdb_5698.pdb o/523016_HEM_VT_1129.pdb_7421.pdb o/523016_HEM_VT_1129.pdb_834.pdb o/523016_HEM_VT_1129.pdb_4628.pdb o/523016_HEM_VT_1129.pdb_4283.pdb o/523016_HEM_VT_1129.pdb_5641.pdb o/523016_HEM_VT_1129.pdb_3599.pdb o/523016_HEM_VT_1129.pdb_9943.pdb o/523016_HEM_VT_1129.pdb_3366.pdb o/523016_HEM_VT_1129.pdb_9284.pdb o/523016_HEM_VT_1129.pdb_6441.pdb o/523016_HEM_VT_1129.pdb_7650.pdb o/523016_HEM_VT_1129.pdb_7217.pdb o/523016_HEM_VT_1129.pdb_8679.pdb o/523016_HEM_VT_1129.pdb_6008.pdb o/523016_HEM_VT_1129.pdb_1046.pdb 
13 o/523016_HEM_VT_1129.pdb_987.pdb o/523016_HEM_VT_1129.pdb_9243.pdb o/523016_HEM_VT_1129.pdb_5950.pdb o/523016_HEM_VT_1129.pdb_3939.pdb o/523016_HEM_VT_1129.pdb_8841.pdb o/523016_HEM_VT_1129.pdb_8530.pdb o/523016_HEM_VT_1129.pdb_6248.pdb o/523016_HEM_VT_1129.pdb_4727.pdb o/523016_HEM_VT_1129.pdb_8882.pdb o/523016_HEM_VT_1129.pdb_6810.pdb o/523016_HEM_VT_1129.pdb_2812.pdb o/523016_HEM_VT_1129.pdb_3018.pdb o/523016_HEM_VT_1129.pdb_2104.pdb 
10 o/523016_HEM_VT_1129.pdb_8419.pdb o/523016_HEM_VT_1129.pdb_848.pdb o/523016_HEM_VT_1129.pdb_424.pdb o/523016_HEM_VT_1129.pdb_8605.pdb o/523016_HEM_VT_1129.pdb_2682.pdb o/523016_HEM_VT_1129.pdb_8877.pdb o/523016_HEM_VT_1129.pdb_4716.pdb o/523016_HEM_VT_1129.pdb_2721.pdb o/523016_HEM_VT_1129.pdb_5175.pdb o/523016_HEM_VT_1129.pdb_2512.pdb 
10 o/523016_HEM_VT_1129.pdb_6980.pdb o/523016_HEM_VT_1129.pdb_1565.pdb o/523016_HEM_VT_1129.pdb_6539.pdb o/523016_HEM_VT_1129.pdb_7728.pdb o/523016_HEM_VT_1129.pdb_13.pdb o/523016_HEM_VT_1129.pdb_8916.pdb o/523016_HEM_VT_1129.pdb_8191.pdb o/523016_HEM_VT_1129.pdb_6924.pdb o/523016_HEM_VT_1129.pdb_9995.pdb o/523016_HEM_VT_1129.pdb_104.pdb 
11 o/523016_HEM_VT_1129.pdb_9828.pdb o/523016_HEM_VT_1129.pdb_7817.pdb o/523016_HEM_VT_1129.pdb_6431.pdb o/523016_HEM_VT_1129.pdb_8565.pdb o/523016_HEM_VT_1129.pdb_5452.pdb o/523016_HEM_VT_1129.pdb_6401.pdb o/523016_HEM_VT_1129.pdb_2632.pdb o/523016_HEM_VT_1129.pdb_533.pdb o/523016_HEM_VT_1129.pdb_8958.pdb o/523016_HEM_VT_1129.pdb_2911.pdb o/523016_HEM_VT_1129.pdb_1106.pdb 
11 o/523016_HEM_VT_1129.pdb_890.pdb o/523016_HEM_VT_1129.pdb_6309.pdb o/523016_HEM_VT_1129.pdb_7629.pdb o/523016_HEM_VT_1129.pdb_5560.pdb o/523016_HEM_VT_1129.pdb_9310.pdb o/523016_HEM_VT_1129.pdb_1975.pdb o/523016_HEM_VT_1129.pdb_1180.pdb o/523016_HEM_VT_1129.pdb_2792.pdb o/523016_HEM_VT_1129.pdb_6000.pdb o/523016_HEM_VT_1129.pdb_8146.pdb o/523016_HEM_VT_1129.pdb_1038.pdb 
33 o/523016_HEM_VT_1129.pdb_7628.pdb o/523016_HEM_VT_1129.pdb_4219.pdb o/523016_HEM_VT_1129.pdb_2488.pdb o/523016_HEM_VT_1129.pdb_8056.pdb o/523016_HEM_VT_1129.pdb_4430.pdb o/523016_HEM_VT_1129.pdb_2659.pdb o/523016_HEM_VT_1129.pdb_3289.pdb o/523016_HEM_VT_1129.pdb_2421.pdb o/523016_HEM_VT_1129.pdb_7531.pdb o/523016_HEM_VT_1129.pdb_3990.pdb o/523016_HEM_VT_1129.pdb_3089.pdb o/523016_HEM_VT_1129.pdb_2032.pdb o/523016_HEM_VT_1129.pdb_4464.pdb o/523016_HEM_VT_1129.pdb_4222.pdb o/523016_HEM_VT_1129.pdb_2333.pdb o/523016_HEM_VT_1129.pdb_1462.pdb o/523016_HEM_VT_1129.pdb_9994.pdb o/523016_HEM_VT_1129.pdb_7870.pdb o/523016_HEM_VT_1129.pdb_7141.pdb o/523016_HEM_VT_1129.pdb_6168.pdb o/523016_HEM_VT_1129.pdb_334.pdb o/523016_HEM_VT_1129.pdb_7985.pdb o/523016_HEM_VT_1129.pdb_2223.pdb o/523016_HEM_VT_1129.pdb_7375.pdb o/523016_HEM_VT_1129.pdb_1463.pdb o/523016_HEM_VT_1129.pdb_6278.pdb o/523016_HEM_VT_1129.pdb_4279.pdb o/523016_HEM_VT_1129.pdb_3149.pdb o/523016_HEM_VT_1129.pdb_2958.pdb o/523016_HEM_VT_1129.pdb_9429.pdb o/523016_HEM_VT_1129.pdb_4228.pdb o/523016_HEM_VT_1129.pdb_3277.pdb o/523016_HEM_VT_1129.pdb_1371.pdb 
17 o/523016_HEM_VT_1129.pdb_8893.pdb o/523016_HEM_VT_1129.pdb_3304.pdb o/523016_HEM_VT_1129.pdb_3469.pdb o/523016_HEM_VT_1129.pdb_9631.pdb o/523016_HEM_VT_1129.pdb_9434.pdb o/523016_HEM_VT_1129.pdb_2473.pdb o/523016_HEM_VT_1129.pdb_2267.pdb o/523016_HEM_VT_1129.pdb_9332.pdb o/523016_HEM_VT_1129.pdb_9234.pdb o/523016_HEM_VT_1129.pdb_3411.pdb o/523016_HEM_VT_1129.pdb_1817.pdb o/523016_HEM_VT_1129.pdb_4500.pdb o/523016_HEM_VT_1129.pdb_3014.pdb o/523016_HEM_VT_1129.pdb_3928.pdb o/523016_HEM_VT_1129.pdb_8440.pdb o/523016_HEM_VT_1129.pdb_1749.pdb o/523016_HEM_VT_1129.pdb_1036.pdb 
10 o/523016_HEM_VT_1129.pdb_8683.pdb o/523016_HEM_VT_1129.pdb_6673.pdb o/523016_HEM_VT_1129.pdb_9583.pdb o/523016_HEM_VT_1129.pdb_4301.pdb o/523016_HEM_VT_1129.pdb_632.pdb o/523016_HEM_VT_1129.pdb_3951.pdb o/523016_HEM_VT_1129.pdb_3157.pdb o/523016_HEM_VT_1129.pdb_8848.pdb o/523016_HEM_VT_1129.pdb_5937.pdb o/523016_HEM_VT_1129.pdb_1531.pdb 
15 o/523016_HEM_VT_1129.pdb_2087.pdb o/523016_HEM_VT_1129.pdb_6306.pdb o/523016_HEM_VT_1129.pdb_5942.pdb o/523016_HEM_VT_1129.pdb_6289.pdb o/523016_HEM_VT_1129.pdb_2477.pdb o/523016_HEM_VT_1129.pdb_6359.pdb o/523016_HEM_VT_1129.pdb_2163.pdb o/523016_HEM_VT_1129.pdb_951.pdb o/523016_HEM_VT_1129.pdb_8589.pdb o/523016_HEM_VT_1129.pdb_1257.pdb o/523016_HEM_VT_1129.pdb_8031.pdb o/523016_HEM_VT_1129.pdb_5058.pdb o/523016_HEM_VT_1129.pdb_3134.pdb o/523016_HEM_VT_1129.pdb_1884.pdb o/523016_HEM_VT_1129.pdb_1034.pdb 
18 o/523016_HEM_VT_1129.pdb_3709.pdb o/523016_HEM_VT_1129.pdb_8934.pdb o/523016_HEM_VT_1129.pdb_4444.pdb o/523016_HEM_VT_1129.pdb_1990.pdb o/523016_HEM_VT_1129.pdb_6211.pdb o/523016_HEM_VT_1129.pdb_5418.pdb o/523016_HEM_VT_1129.pdb_1825.pdb o/523016_HEM_VT_1129.pdb_2670.pdb o/523016_HEM_VT_1129.pdb_3445.pdb o/523016_HEM_VT_1129.pdb_2197.pdb o/523016_HEM_VT_1129.pdb_1646.pdb o/523016_HEM_VT_1129.pdb_9289.pdb o/523016_HEM_VT_1129.pdb_2314.pdb o/523016_HEM_VT_1129.pdb_88.pdb o/523016_HEM_VT_1129.pdb_2167.pdb o/523016_HEM_VT_1129.pdb_937.pdb o/523016_HEM_VT_1129.pdb_6444.pdb o/523016_HEM_VT_1129.pdb_1490.pdb 
11 o/523016_HEM_VT_1129.pdb_5424.pdb o/523016_HEM_VT_1129.pdb_3946.pdb o/523016_HEM_VT_1129.pdb_6711.pdb o/523016_HEM_VT_1129.pdb_2058.pdb o/523016_HEM_VT_1129.pdb_9752.pdb o/523016_HEM_VT_1129.pdb_7457.pdb o/523016_HEM_VT_1129.pdb_4847.pdb o/523016_HEM_VT_1129.pdb_8363.pdb o/523016_HEM_VT_1129.pdb_8381.pdb o/523016_HEM_VT_1129.pdb_1854.pdb o/523016_HEM_VT_1129.pdb_1398.pdb 
16 o/523016_HEM_VT_1129.pdb_7533.pdb o/523016_HEM_VT_1129.pdb_5215.pdb o/523016_HEM_VT_1129.pdb_6803.pdb o/523016_HEM_VT_1129.pdb_4692.pdb o/523016_HEM_VT_1129.pdb_4639.pdb o/523016_HEM_VT_1129.pdb_4184.pdb o/523016_HEM_VT_1129.pdb_2491.pdb o/523016_HEM_VT_1129.pdb_5839.pdb o/523016_HEM_VT_1129.pdb_18.pdb o/523016_HEM_VT_1129.pdb_9232.pdb o/523016_HEM_VT_1129.pdb_2885.pdb o/523016_HEM_VT_1129.pdb_8234.pdb o/523016_HEM_VT_1129.pdb_2269.pdb o/523016_HEM_VT_1129.pdb_902.pdb o/523016_HEM_VT_1129.pdb_4896.pdb o/523016_HEM_VT_1129.pdb_1585.pdb 
12 o/523016_HEM_VT_1129.pdb_9134.pdb o/523016_HEM_VT_1129.pdb_6267.pdb o/523016_HEM_VT_1129.pdb_4133.pdb o/523016_HEM_VT_1129.pdb_4921.pdb o/523016_HEM_VT_1129.pdb_2593.pdb o/523016_HEM_VT_1129.pdb_9436.pdb o/523016_HEM_VT_1129.pdb_5348.pdb o/523016_HEM_VT_1129.pdb_8251.pdb o/523016_HEM_VT_1129.pdb_5284.pdb o/523016_HEM_VT_1129.pdb_4900.pdb o/523016_HEM_VT_1129.pdb_9767.pdb o/523016_HEM_VT_1129.pdb_1249.pdb 
16 o/523016_HEM_VT_1129.pdb_8053.pdb o/523016_HEM_VT_1129.pdb_7128.pdb o/523016_HEM_VT_1129.pdb_5542.pdb o/523016_HEM_VT_1129.pdb_6315.pdb o/523016_HEM_VT_1129.pdb_599.pdb o/523016_HEM_VT_1129.pdb_7771.pdb o/523016_HEM_VT_1129.pdb_4675.pdb o/523016_HEM_VT_1129.pdb_9012.pdb o/523016_HEM_VT_1129.pdb_4811.pdb o/523016_HEM_VT_1129.pdb_3617.pdb o/523016_HEM_VT_1129.pdb_2921.pdb o/523016_HEM_VT_1129.pdb_2411.pdb o/523016_HEM_VT_1129.pdb_2156.pdb o/523016_HEM_VT_1129.pdb_7517.pdb o/523016_HEM_VT_1129.pdb_6996.pdb o/523016_HEM_VT_1129.pdb_1422.pdb 
11 o/523016_HEM_VT_1129.pdb_774.pdb o/523016_HEM_VT_1129.pdb_7385.pdb o/523016_HEM_VT_1129.pdb_4275.pdb o/523016_HEM_VT_1129.pdb_3574.pdb o/523016_HEM_VT_1129.pdb_8538.pdb o/523016_HEM_VT_1129.pdb_8774.pdb o/523016_HEM_VT_1129.pdb_3437.pdb o/523016_HEM_VT_1129.pdb_9794.pdb o/523016_HEM_VT_1129.pdb_1980.pdb o/523016_HEM_VT_1129.pdb_4472.pdb o/523016_HEM_VT_1129.pdb_1335.pdb 
13 o/523016_HEM_VT_1129.pdb_6190.pdb o/523016_HEM_VT_1129.pdb_3560.pdb o/523016_HEM_VT_1129.pdb_1197.pdb o/523016_HEM_VT_1129.pdb_8071.pdb o/523016_HEM_VT_1129.pdb_4347.pdb o/523016_HEM_VT_1129.pdb_3862.pdb o/523016_HEM_VT_1129.pdb_2330.pdb o/523016_HEM_VT_1129.pdb_188.pdb o/523016_HEM_VT_1129.pdb_7647.pdb o/523016_HEM_VT_1129.pdb_6118.pdb o/523016_HEM_VT_1129.pdb_5635.pdb o/523016_HEM_VT_1129.pdb_4592.pdb o/523016_HEM_VT_1129.pdb_1028.pdb 
22 o/523016_HEM_VT_1129.pdb_9741.pdb o/523016_HEM_VT_1129.pdb_8250.pdb o/523016_HEM_VT_1129.pdb_8000.pdb o/523016_HEM_VT_1129.pdb_6311.pdb o/523016_HEM_VT_1129.pdb_8873.pdb o/523016_HEM_VT_1129.pdb_5381.pdb o/523016_HEM_VT_1129.pdb_5055.pdb o/523016_HEM_VT_1129.pdb_3083.pdb o/523016_HEM_VT_1129.pdb_9856.pdb o/523016_HEM_VT_1129.pdb_6137.pdb o/523016_HEM_VT_1129.pdb_8754.pdb o/523016_HEM_VT_1129.pdb_6238.pdb o/523016_HEM_VT_1129.pdb_3859.pdb o/523016_HEM_VT_1129.pdb_3619.pdb o/523016_HEM_VT_1129.pdb_1816.pdb o/523016_HEM_VT_1129.pdb_9393.pdb o/523016_HEM_VT_1129.pdb_6176.pdb o/523016_HEM_VT_1129.pdb_8490.pdb o/523016_HEM_VT_1129.pdb_668.pdb o/523016_HEM_VT_1129.pdb_2980.pdb o/523016_HEM_VT_1129.pdb_3319.pdb o/523016_HEM_VT_1129.pdb_152.pdb 
14 o/523016_HEM_VT_1129.pdb_6216.pdb o/523016_HEM_VT_1129.pdb_4317.pdb o/523016_HEM_VT_1129.pdb_8437.pdb o/523016_HEM_VT_1129.pdb_7366.pdb o/523016_HEM_VT_1129.pdb_2861.pdb o/523016_HEM_VT_1129.pdb_7424.pdb o/523016_HEM_VT_1129.pdb_6582.pdb o/523016_HEM_VT_1129.pdb_516.pdb o/523016_HEM_VT_1129.pdb_2409.pdb o/523016_HEM_VT_1129.pdb_676.pdb o/523016_HEM_VT_1129.pdb_6261.pdb o/523016_HEM_VT_1129.pdb_3861.pdb o/523016_HEM_VT_1129.pdb_8723.pdb o/523016_HEM_VT_1129.pdb_2166.pdb 
10 o/523016_HEM_VT_1129.pdb_368.pdb o/523016_HEM_VT_1129.pdb_5493.pdb o/523016_HEM_VT_1129.pdb_48.pdb o/523016_HEM_VT_1129.pdb_3529.pdb o/523016_HEM_VT_1129.pdb_9007.pdb o/523016_HEM_VT_1129.pdb_6646.pdb o/523016_HEM_VT_1129.pdb_6373.pdb o/523016_HEM_VT_1129.pdb_3935.pdb o/523016_HEM_VT_1129.pdb_3012.pdb o/523016_HEM_VT_1129.pdb_2148.pdb 
13 o/523016_HEM_VT_1129.pdb_6533.pdb o/523016_HEM_VT_1129.pdb_3823.pdb o/523016_HEM_VT_1129.pdb_8535.pdb o/523016_HEM_VT_1129.pdb_3153.pdb o/523016_HEM_VT_1129.pdb_2634.pdb o/523016_HEM_VT_1129.pdb_8226.pdb o/523016_HEM_VT_1129.pdb_4984.pdb o/523016_HEM_VT_1129.pdb_917.pdb o/523016_HEM_VT_1129.pdb_9100.pdb o/523016_HEM_VT_1129.pdb_624.pdb o/523016_HEM_VT_1129.pdb_8474.pdb o/523016_HEM_VT_1129.pdb_3085.pdb o/523016_HEM_VT_1129.pdb_1537.pdb 
11 o/523016_HEM_VT_1129.pdb_3627.pdb o/523016_HEM_VT_1129.pdb_970.pdb o/523016_HEM_VT_1129.pdb_5925.pdb o/523016_HEM_VT_1129.pdb_2181.pdb o/523016_HEM_VT_1129.pdb_9916.pdb o/523016_HEM_VT_1129.pdb_2574.pdb o/523016_HEM_VT_1129.pdb_4607.pdb o/523016_HEM_VT_1129.pdb_811.pdb o/523016_HEM_VT_1129.pdb_529.pdb o/523016_HEM_VT_1129.pdb_7149.pdb o/523016_HEM_VT_1129.pdb_2047.pdb 
10 o/523016_HEM_VT_1129.pdb_8962.pdb o/523016_HEM_VT_1129.pdb_5253.pdb o/523016_HEM_VT_1129.pdb_8978.pdb o/523016_HEM_VT_1129.pdb_8063.pdb o/523016_HEM_VT_1129.pdb_8380.pdb o/523016_HEM_VT_1129.pdb_5117.pdb o/523016_HEM_VT_1129.pdb_7389.pdb o/523016_HEM_VT_1129.pdb_294.pdb o/523016_HEM_VT_1129.pdb_7120.pdb o/523016_HEM_VT_1129.pdb_1998.pdb 
11 o/523016_HEM_VT_1129.pdb_4930.pdb o/523016_HEM_VT_1129.pdb_8794.pdb o/523016_HEM_VT_1129.pdb_4751.pdb o/523016_HEM_VT_1129.pdb_2282.pdb o/523016_HEM_VT_1129.pdb_4859.pdb o/523016_HEM_VT_1129.pdb_1631.pdb o/523016_HEM_VT_1129.pdb_6705.pdb o/523016_HEM_VT_1129.pdb_5591.pdb o/523016_HEM_VT_1129.pdb_1338.pdb o/523016_HEM_VT_1129.pdb_756.pdb o/523016_HEM_VT_1129.pdb_1151.pdb 
13 o/523016_HEM_VT_1129.pdb_6438.pdb o/523016_HEM_VT_1129.pdb_7402.pdb o/523016_HEM_VT_1129.pdb_6283.pdb o/523016_HEM_VT_1129.pdb_7687.pdb o/523016_HEM_VT_1129.pdb_6270.pdb o/523016_HEM_VT_1129.pdb_9335.pdb o/523016_HEM_VT_1129.pdb_4415.pdb o/523016_HEM_VT_1129.pdb_3330.pdb o/523016_HEM_VT_1129.pdb_7863.pdb o/523016_HEM_VT_1129.pdb_4391.pdb o/523016_HEM_VT_1129.pdb_5619.pdb o/523016_HEM_VT_1129.pdb_1989.pdb o/523016_HEM_VT_1129.pdb_1331.pdb 
10 o/523016_HEM_VT_1129.pdb_6883.pdb o/523016_HEM_VT_1129.pdb_6116.pdb o/523016_HEM_VT_1129.pdb_9329.pdb o/523016_HEM_VT_1129.pdb_3361.pdb o/523016_HEM_VT_1129.pdb_1578.pdb o/523016_HEM_VT_1129.pdb_3826.pdb o/523016_HEM_VT_1129.pdb_181.pdb o/523016_HEM_VT_1129.pdb_6619.pdb o/523016_HEM_VT_1129.pdb_8573.pdb o/523016_HEM_VT_1129.pdb_1129.pdb 
12 o/523016_HEM_VT_1129.pdb_824.pdb o/523016_HEM_VT_1129.pdb_9874.pdb o/523016_HEM_VT_1129.pdb_6955.pdb o/523016_HEM_VT_1129.pdb_9472.pdb o/523016_HEM_VT_1129.pdb_5680.pdb o/523016_HEM_VT_1129.pdb_301.pdb o/523016_HEM_VT_1129.pdb_47.pdb o/523016_HEM_VT_1129.pdb_8408.pdb o/523016_HEM_VT_1129.pdb_544.pdb o/523016_HEM_VT_1129.pdb_4091.pdb o/523016_HEM_VT_1129.pdb_852.pdb o/523016_HEM_VT_1129.pdb_1279.pdb 
12 o/523016_HEM_VT_1129.pdb_4931.pdb o/523016_HEM_VT_1129.pdb_4878.pdb o/523016_HEM_VT_1129.pdb_6756.pdb o/523016_HEM_VT_1129.pdb_5679.pdb o/523016_HEM_VT_1129.pdb_8259.pdb o/523016_HEM_VT_1129.pdb_45.pdb o/523016_HEM_VT_1129.pdb_9779.pdb o/523016_HEM_VT_1129.pdb_4346.pdb o/523016_HEM_VT_1129.pdb_6670.pdb o/523016_HEM_VT_1129.pdb_7405.pdb o/523016_HEM_VT_1129.pdb_539.pdb o/523016_HEM_VT_1129.pdb_2572.pdb 
12 o/523016_HEM_VT_1129.pdb_6331.pdb o/523016_HEM_VT_1129.pdb_8010.pdb o/523016_HEM_VT_1129.pdb_6428.pdb o/523016_HEM_VT_1129.pdb_4519.pdb o/523016_HEM_VT_1129.pdb_8392.pdb o/523016_HEM_VT_1129.pdb_7445.pdb o/523016_HEM_VT_1129.pdb_5737.pdb o/523016_HEM_VT_1129.pdb_6916.pdb o/523016_HEM_VT_1129.pdb_2445.pdb o/523016_HEM_VT_1129.pdb_6674.pdb o/523016_HEM_VT_1129.pdb_7962.pdb o/523016_HEM_VT_1129.pdb_1644.pdb 
13 o/523016_HEM_VT_1129.pdb_6085.pdb o/523016_HEM_VT_1129.pdb_9497.pdb o/523016_HEM_VT_1129.pdb_3074.pdb o/523016_HEM_VT_1129.pdb_9301.pdb o/523016_HEM_VT_1129.pdb_3105.pdb o/523016_HEM_VT_1129.pdb_1568.pdb o/523016_HEM_VT_1129.pdb_8138.pdb o/523016_HEM_VT_1129.pdb_6836.pdb o/523016_HEM_VT_1129.pdb_5448.pdb o/523016_HEM_VT_1129.pdb_4913.pdb o/523016_HEM_VT_1129.pdb_4450.pdb o/523016_HEM_VT_1129.pdb_3079.pdb o/523016_HEM_VT_1129.pdb_1524.pdb 
11 o/523016_HEM_VT_1129.pdb_9198.pdb o/523016_HEM_VT_1129.pdb_5123.pdb o/523016_HEM_VT_1129.pdb_3522.pdb o/523016_HEM_VT_1129.pdb_6418.pdb o/523016_HEM_VT_1129.pdb_2884.pdb o/523016_HEM_VT_1129.pdb_7284.pdb o/523016_HEM_VT_1129.pdb_9590.pdb o/523016_HEM_VT_1129.pdb_5206.pdb o/523016_HEM_VT_1129.pdb_4966.pdb o/523016_HEM_VT_1129.pdb_2963.pdb o/523016_HEM_VT_1129.pdb_1004.pdb 
22 o/523016_HEM_VT_1129.pdb_9038.pdb o/523016_HEM_VT_1129.pdb_7555.pdb o/523016_HEM_VT_1129.pdb_5931.pdb o/523016_HEM_VT_1129.pdb_7641.pdb o/523016_HEM_VT_1129.pdb_6799.pdb o/523016_HEM_VT_1129.pdb_9859.pdb o/523016_HEM_VT_1129.pdb_4870.pdb o/523016_HEM_VT_1129.pdb_8874.pdb o/523016_HEM_VT_1129.pdb_4267.pdb o/523016_HEM_VT_1129.pdb_8028.pdb o/523016_HEM_VT_1129.pdb_1820.pdb o/523016_HEM_VT_1129.pdb_1525.pdb o/523016_HEM_VT_1129.pdb_7963.pdb o/523016_HEM_VT_1129.pdb_7554.pdb o/523016_HEM_VT_1129.pdb_2362.pdb o/523016_HEM_VT_1129.pdb_1702.pdb o/523016_HEM_VT_1129.pdb_1205.pdb o/523016_HEM_VT_1129.pdb_9690.pdb o/523016_HEM_VT_1129.pdb_8973.pdb o/523016_HEM_VT_1129.pdb_5645.pdb o/523016_HEM_VT_1129.pdb_1970.pdb o/523016_HEM_VT_1129.pdb_1002.pdb 
14 o/523016_HEM_VT_1129.pdb_9918.pdb o/523016_HEM_VT_1129.pdb_5661.pdb o/523016_HEM_VT_1129.pdb_3324.pdb o/523016_HEM_VT_1129.pdb_2751.pdb o/523016_HEM_VT_1129.pdb_2858.pdb o/523016_HEM_VT_1129.pdb_7867.pdb o/523016_HEM_VT_1129.pdb_4479.pdb o/523016_HEM_VT_1129.pdb_1740.pdb o/523016_HEM_VT_1129.pdb_3267.pdb o/523016_HEM_VT_1129.pdb_1789.pdb o/523016_HEM_VT_1129.pdb_9119.pdb o/523016_HEM_VT_1129.pdb_1651.pdb o/523016_HEM_VT_1129.pdb_2730.pdb o/523016_HEM_VT_1129.pdb_1139.pdb 
14 o/523016_HEM_VT_1129.pdb_6567.pdb o/523016_HEM_VT_1129.pdb_3956.pdb o/523016_HEM_VT_1129.pdb_9750.pdb o/523016_HEM_VT_1129.pdb_8187.pdb o/523016_HEM_VT_1129.pdb_3622.pdb o/523016_HEM_VT_1129.pdb_9674.pdb o/523016_HEM_VT_1129.pdb_4127.pdb o/523016_HEM_VT_1129.pdb_5738.pdb o/523016_HEM_VT_1129.pdb_3555.pdb o/523016_HEM_VT_1129.pdb_6339.pdb o/523016_HEM_VT_1129.pdb_5904.pdb o/523016_HEM_VT_1129.pdb_4688.pdb o/523016_HEM_VT_1129.pdb_7603.pdb o/523016_HEM_VT_1129.pdb_2665.pdb 
18 o/523016_HEM_VT_1129.pdb_799.pdb o/523016_HEM_VT_1129.pdb_4484.pdb o/523016_HEM_VT_1129.pdb_8375.pdb o/523016_HEM_VT_1129.pdb_7396.pdb o/523016_HEM_VT_1129.pdb_475.pdb o/523016_HEM_VT_1129.pdb_4804.pdb o/523016_HEM_VT_1129.pdb_4285.pdb o/523016_HEM_VT_1129.pdb_3717.pdb o/523016_HEM_VT_1129.pdb_5861.pdb o/523016_HEM_VT_1129.pdb_5461.pdb o/523016_HEM_VT_1129.pdb_5723.pdb o/523016_HEM_VT_1129.pdb_3625.pdb o/523016_HEM_VT_1129.pdb_223.pdb o/523016_HEM_VT_1129.pdb_8765.pdb o/523016_HEM_VT_1129.pdb_589.pdb o/523016_HEM_VT_1129.pdb_713.pdb o/523016_HEM_VT_1129.pdb_7152.pdb o/523016_HEM_VT_1129.pdb_1292.pdb 
11 o/523016_HEM_VT_1129.pdb_616.pdb o/523016_HEM_VT_1129.pdb_4844.pdb o/523016_HEM_VT_1129.pdb_9219.pdb o/523016_HEM_VT_1129.pdb_4599.pdb o/523016_HEM_VT_1129.pdb_4402.pdb o/523016_HEM_VT_1129.pdb_4646.pdb o/523016_HEM_VT_1129.pdb_4168.pdb o/523016_HEM_VT_1129.pdb_6262.pdb o/523016_HEM_VT_1129.pdb_1093.pdb o/523016_HEM_VT_1129.pdb_7660.pdb o/523016_HEM_VT_1129.pdb_100.pdb 
11 o/523016_HEM_VT_1129.pdb_9098.pdb o/523016_HEM_VT_1129.pdb_6892.pdb o/523016_HEM_VT_1129.pdb_3630.pdb o/523016_HEM_VT_1129.pdb_9724.pdb o/523016_HEM_VT_1129.pdb_3827.pdb o/523016_HEM_VT_1129.pdb_2630.pdb o/523016_HEM_VT_1129.pdb_8938.pdb o/523016_HEM_VT_1129.pdb_6879.pdb o/523016_HEM_VT_1129.pdb_3712.pdb o/523016_HEM_VT_1129.pdb_1291.pdb o/523016_HEM_VT_1129.pdb_1269.pdb 
11 o/523016_HEM_VT_1129.pdb_6677.pdb o/523016_HEM_VT_1129.pdb_9044.pdb o/523016_HEM_VT_1129.pdb_7172.pdb o/523016_HEM_VT_1129.pdb_9746.pdb o/523016_HEM_VT_1129.pdb_5317.pdb o/523016_HEM_VT_1129.pdb_2165.pdb o/523016_HEM_VT_1129.pdb_7563.pdb o/523016_HEM_VT_1129.pdb_1677.pdb o/523016_HEM_VT_1129.pdb_1460.pdb o/523016_HEM_VT_1129.pdb_4911.pdb o/523016_HEM_VT_1129.pdb_1018.pdb 
11 o/523016_HEM_VT_1129.pdb_8468.pdb o/523016_HEM_VT_1129.pdb_911.pdb o/523016_HEM_VT_1129.pdb_4405.pdb o/523016_HEM_VT_1129.pdb_6651.pdb o/523016_HEM_VT_1129.pdb_3382.pdb o/523016_HEM_VT_1129.pdb_3036.pdb o/523016_HEM_VT_1129.pdb_8844.pdb o/523016_HEM_VT_1129.pdb_2356.pdb o/523016_HEM_VT_1129.pdb_190.pdb o/523016_HEM_VT_1129.pdb_5241.pdb o/523016_HEM_VT_1129.pdb_1.pdb 
12 o/523016_HEM_VT_1129.pdb_915.pdb o/523016_HEM_VT_1129.pdb_7986.pdb o/523016_HEM_VT_1129.pdb_4720.pdb o/523016_HEM_VT_1129.pdb_3506.pdb o/523016_HEM_VT_1129.pdb_327.pdb o/523016_HEM_VT_1129.pdb_5488.pdb o/523016_HEM_VT_1129.pdb_3873.pdb o/523016_HEM_VT_1129.pdb_2827.pdb o/523016_HEM_VT_1129.pdb_4573.pdb o/523016_HEM_VT_1129.pdb_1594.pdb o/523016_HEM_VT_1129.pdb_6859.pdb o/523016_HEM_VT_1129.pdb_1438.pdb 
