10 o/627561_HEM_Ketoconazole.pdb_8657.pdb o/627561_HEM_Ketoconazole.pdb_6258.pdb o/627561_HEM_Ketoconazole.pdb_4539.pdb o/627561_HEM_Ketoconazole.pdb_9215.pdb o/627561_HEM_Ketoconazole.pdb_6546.pdb o/627561_HEM_Ketoconazole.pdb_533.pdb o/627561_HEM_Ketoconazole.pdb_786.pdb o/627561_HEM_Ketoconazole.pdb_769.pdb o/627561_HEM_Ketoconazole.pdb_3133.pdb o/627561_HEM_Ketoconazole.pdb_208.pdb 
11 o/627561_HEM_Ketoconazole.pdb_4544.pdb o/627561_HEM_Ketoconazole.pdb_6748.pdb o/627561_HEM_Ketoconazole.pdb_3606.pdb o/627561_HEM_Ketoconazole.pdb_4051.pdb o/627561_HEM_Ketoconazole.pdb_7142.pdb o/627561_HEM_Ketoconazole.pdb_4638.pdb o/627561_HEM_Ketoconazole.pdb_4367.pdb o/627561_HEM_Ketoconazole.pdb_3735.pdb o/627561_HEM_Ketoconazole.pdb_6443.pdb o/627561_HEM_Ketoconazole.pdb_8640.pdb o/627561_HEM_Ketoconazole.pdb_3516.pdb 
10 o/627561_HEM_Ketoconazole.pdb_9742.pdb o/627561_HEM_Ketoconazole.pdb_7099.pdb o/627561_HEM_Ketoconazole.pdb_6207.pdb o/627561_HEM_Ketoconazole.pdb_6304.pdb o/627561_HEM_Ketoconazole.pdb_2160.pdb o/627561_HEM_Ketoconazole.pdb_3263.pdb o/627561_HEM_Ketoconazole.pdb_5349.pdb o/627561_HEM_Ketoconazole.pdb_3955.pdb o/627561_HEM_Ketoconazole.pdb_3866.pdb o/627561_HEM_Ketoconazole.pdb_1758.pdb 
11 o/627561_HEM_Ketoconazole.pdb_1859.pdb o/627561_HEM_Ketoconazole.pdb_9753.pdb o/627561_HEM_Ketoconazole.pdb_2937.pdb o/627561_HEM_Ketoconazole.pdb_2663.pdb o/627561_HEM_Ketoconazole.pdb_8926.pdb o/627561_HEM_Ketoconazole.pdb_6322.pdb o/627561_HEM_Ketoconazole.pdb_8138.pdb o/627561_HEM_Ketoconazole.pdb_164.pdb o/627561_HEM_Ketoconazole.pdb_5502.pdb o/627561_HEM_Ketoconazole.pdb_4001.pdb o/627561_HEM_Ketoconazole.pdb_1528.pdb 
10 o/627561_HEM_Ketoconazole.pdb_9553.pdb o/627561_HEM_Ketoconazole.pdb_9760.pdb o/627561_HEM_Ketoconazole.pdb_8597.pdb o/627561_HEM_Ketoconazole.pdb_4624.pdb o/627561_HEM_Ketoconazole.pdb_7167.pdb o/627561_HEM_Ketoconazole.pdb_6909.pdb o/627561_HEM_Ketoconazole.pdb_3596.pdb o/627561_HEM_Ketoconazole.pdb_9119.pdb o/627561_HEM_Ketoconazole.pdb_8570.pdb o/627561_HEM_Ketoconazole.pdb_302.pdb 
12 o/627561_HEM_Ketoconazole.pdb_8005.pdb o/627561_HEM_Ketoconazole.pdb_6885.pdb o/627561_HEM_Ketoconazole.pdb_9490.pdb o/627561_HEM_Ketoconazole.pdb_8649.pdb o/627561_HEM_Ketoconazole.pdb_7684.pdb o/627561_HEM_Ketoconazole.pdb_5809.pdb o/627561_HEM_Ketoconazole.pdb_4988.pdb o/627561_HEM_Ketoconazole.pdb_9296.pdb o/627561_HEM_Ketoconazole.pdb_487.pdb o/627561_HEM_Ketoconazole.pdb_4459.pdb o/627561_HEM_Ketoconazole.pdb_4515.pdb o/627561_HEM_Ketoconazole.pdb_2241.pdb 
14 o/627561_HEM_Ketoconazole.pdb_8996.pdb o/627561_HEM_Ketoconazole.pdb_8911.pdb o/627561_HEM_Ketoconazole.pdb_4678.pdb o/627561_HEM_Ketoconazole.pdb_5447.pdb o/627561_HEM_Ketoconazole.pdb_493.pdb o/627561_HEM_Ketoconazole.pdb_3584.pdb o/627561_HEM_Ketoconazole.pdb_9714.pdb o/627561_HEM_Ketoconazole.pdb_1708.pdb o/627561_HEM_Ketoconazole.pdb_3147.pdb o/627561_HEM_Ketoconazole.pdb_2782.pdb o/627561_HEM_Ketoconazole.pdb_1524.pdb o/627561_HEM_Ketoconazole.pdb_9870.pdb o/627561_HEM_Ketoconazole.pdb_7380.pdb o/627561_HEM_Ketoconazole.pdb_1201.pdb 
11 o/627561_HEM_Ketoconazole.pdb_5689.pdb o/627561_HEM_Ketoconazole.pdb_2669.pdb o/627561_HEM_Ketoconazole.pdb_1933.pdb o/627561_HEM_Ketoconazole.pdb_6327.pdb o/627561_HEM_Ketoconazole.pdb_8757.pdb o/627561_HEM_Ketoconazole.pdb_2216.pdb o/627561_HEM_Ketoconazole.pdb_9689.pdb o/627561_HEM_Ketoconazole.pdb_6089.pdb o/627561_HEM_Ketoconazole.pdb_7584.pdb o/627561_HEM_Ketoconazole.pdb_2978.pdb o/627561_HEM_Ketoconazole.pdb_1172.pdb 
11 o/627561_HEM_Ketoconazole.pdb_715.pdb o/627561_HEM_Ketoconazole.pdb_6405.pdb o/627561_HEM_Ketoconazole.pdb_3046.pdb o/627561_HEM_Ketoconazole.pdb_650.pdb o/627561_HEM_Ketoconazole.pdb_5793.pdb o/627561_HEM_Ketoconazole.pdb_8295.pdb o/627561_HEM_Ketoconazole.pdb_1525.pdb o/627561_HEM_Ketoconazole.pdb_7718.pdb o/627561_HEM_Ketoconazole.pdb_3101.pdb o/627561_HEM_Ketoconazole.pdb_1510.pdb o/627561_HEM_Ketoconazole.pdb_1180.pdb 
12 o/627561_HEM_Ketoconazole.pdb_7728.pdb o/627561_HEM_Ketoconazole.pdb_694.pdb o/627561_HEM_Ketoconazole.pdb_6848.pdb o/627561_HEM_Ketoconazole.pdb_4377.pdb o/627561_HEM_Ketoconazole.pdb_8779.pdb o/627561_HEM_Ketoconazole.pdb_1355.pdb o/627561_HEM_Ketoconazole.pdb_807.pdb o/627561_HEM_Ketoconazole.pdb_2481.pdb o/627561_HEM_Ketoconazole.pdb_1178.pdb o/627561_HEM_Ketoconazole.pdb_5749.pdb o/627561_HEM_Ketoconazole.pdb_9865.pdb o/627561_HEM_Ketoconazole.pdb_1126.pdb 
13 o/627561_HEM_Ketoconazole.pdb_9038.pdb o/627561_HEM_Ketoconazole.pdb_3752.pdb o/627561_HEM_Ketoconazole.pdb_5534.pdb o/627561_HEM_Ketoconazole.pdb_2670.pdb o/627561_HEM_Ketoconazole.pdb_6142.pdb o/627561_HEM_Ketoconazole.pdb_6105.pdb o/627561_HEM_Ketoconazole.pdb_6178.pdb o/627561_HEM_Ketoconazole.pdb_2281.pdb o/627561_HEM_Ketoconazole.pdb_1447.pdb o/627561_HEM_Ketoconazole.pdb_8401.pdb o/627561_HEM_Ketoconazole.pdb_5794.pdb o/627561_HEM_Ketoconazole.pdb_9664.pdb o/627561_HEM_Ketoconazole.pdb_1081.pdb 
10 o/627561_HEM_Ketoconazole.pdb_9766.pdb o/627561_HEM_Ketoconazole.pdb_8273.pdb o/627561_HEM_Ketoconazole.pdb_6929.pdb o/627561_HEM_Ketoconazole.pdb_8280.pdb o/627561_HEM_Ketoconazole.pdb_7857.pdb o/627561_HEM_Ketoconazole.pdb_6440.pdb o/627561_HEM_Ketoconazole.pdb_419.pdb o/627561_HEM_Ketoconazole.pdb_5015.pdb o/627561_HEM_Ketoconazole.pdb_5439.pdb o/627561_HEM_Ketoconazole.pdb_1310.pdb 
10 o/627561_HEM_Ketoconazole.pdb_2594.pdb o/627561_HEM_Ketoconazole.pdb_6154.pdb o/627561_HEM_Ketoconazole.pdb_1497.pdb o/627561_HEM_Ketoconazole.pdb_335.pdb o/627561_HEM_Ketoconazole.pdb_1961.pdb o/627561_HEM_Ketoconazole.pdb_9254.pdb o/627561_HEM_Ketoconazole.pdb_8585.pdb o/627561_HEM_Ketoconazole.pdb_5688.pdb o/627561_HEM_Ketoconazole.pdb_593.pdb o/627561_HEM_Ketoconazole.pdb_1067.pdb 
12 o/627561_HEM_Ketoconazole.pdb_4211.pdb o/627561_HEM_Ketoconazole.pdb_7420.pdb o/627561_HEM_Ketoconazole.pdb_2566.pdb o/627561_HEM_Ketoconazole.pdb_8672.pdb o/627561_HEM_Ketoconazole.pdb_7599.pdb o/627561_HEM_Ketoconazole.pdb_6635.pdb o/627561_HEM_Ketoconazole.pdb_3367.pdb o/627561_HEM_Ketoconazole.pdb_222.pdb o/627561_HEM_Ketoconazole.pdb_5225.pdb o/627561_HEM_Ketoconazole.pdb_3553.pdb o/627561_HEM_Ketoconazole.pdb_7733.pdb o/627561_HEM_Ketoconazole.pdb_1065.pdb 
10 o/627561_HEM_Ketoconazole.pdb_2833.pdb o/627561_HEM_Ketoconazole.pdb_6756.pdb o/627561_HEM_Ketoconazole.pdb_245.pdb o/627561_HEM_Ketoconazole.pdb_1486.pdb o/627561_HEM_Ketoconazole.pdb_9487.pdb o/627561_HEM_Ketoconazole.pdb_2179.pdb o/627561_HEM_Ketoconazole.pdb_3258.pdb o/627561_HEM_Ketoconazole.pdb_2945.pdb o/627561_HEM_Ketoconazole.pdb_6198.pdb o/627561_HEM_Ketoconazole.pdb_1050.pdb 
14 o/627561_HEM_Ketoconazole.pdb_9723.pdb o/627561_HEM_Ketoconazole.pdb_9458.pdb o/627561_HEM_Ketoconazole.pdb_78.pdb o/627561_HEM_Ketoconazole.pdb_8559.pdb o/627561_HEM_Ketoconazole.pdb_5936.pdb o/627561_HEM_Ketoconazole.pdb_5787.pdb o/627561_HEM_Ketoconazole.pdb_4583.pdb o/627561_HEM_Ketoconazole.pdb_396.pdb o/627561_HEM_Ketoconazole.pdb_8044.pdb o/627561_HEM_Ketoconazole.pdb_6340.pdb o/627561_HEM_Ketoconazole.pdb_2893.pdb o/627561_HEM_Ketoconazole.pdb_9519.pdb o/627561_HEM_Ketoconazole.pdb_2128.pdb o/627561_HEM_Ketoconazole.pdb_2091.pdb 
10 o/627561_HEM_Ketoconazole.pdb_7433.pdb o/627561_HEM_Ketoconazole.pdb_8750.pdb o/627561_HEM_Ketoconazole.pdb_5559.pdb o/627561_HEM_Ketoconazole.pdb_3905.pdb o/627561_HEM_Ketoconazole.pdb_3054.pdb o/627561_HEM_Ketoconazole.pdb_9259.pdb o/627561_HEM_Ketoconazole.pdb_4073.pdb o/627561_HEM_Ketoconazole.pdb_4050.pdb o/627561_HEM_Ketoconazole.pdb_9845.pdb o/627561_HEM_Ketoconazole.pdb_1487.pdb 
10 o/627561_HEM_Ketoconazole.pdb_2845.pdb o/627561_HEM_Ketoconazole.pdb_6274.pdb o/627561_HEM_Ketoconazole.pdb_2825.pdb o/627561_HEM_Ketoconazole.pdb_9624.pdb o/627561_HEM_Ketoconazole.pdb_5021.pdb o/627561_HEM_Ketoconazole.pdb_857.pdb o/627561_HEM_Ketoconazole.pdb_4105.pdb o/627561_HEM_Ketoconazole.pdb_5394.pdb o/627561_HEM_Ketoconazole.pdb_3059.pdb o/627561_HEM_Ketoconazole.pdb_1693.pdb 
