11 o/367271_HEM_Lanosterol.pdb_5727.pdb o/367271_HEM_Lanosterol.pdb_9077.pdb o/367271_HEM_Lanosterol.pdb_6406.pdb o/367271_HEM_Lanosterol.pdb_3435.pdb o/367271_HEM_Lanosterol.pdb_717.pdb o/367271_HEM_Lanosterol.pdb_5465.pdb o/367271_HEM_Lanosterol.pdb_2465.pdb o/367271_HEM_Lanosterol.pdb_5656.pdb o/367271_HEM_Lanosterol.pdb_5315.pdb o/367271_HEM_Lanosterol.pdb_9842.pdb o/367271_HEM_Lanosterol.pdb_2214.pdb 
17 o/367271_HEM_Lanosterol.pdb_4874.pdb o/367271_HEM_Lanosterol.pdb_967.pdb o/367271_HEM_Lanosterol.pdb_8170.pdb o/367271_HEM_Lanosterol.pdb_5134.pdb o/367271_HEM_Lanosterol.pdb_3090.pdb o/367271_HEM_Lanosterol.pdb_5726.pdb o/367271_HEM_Lanosterol.pdb_2458.pdb o/367271_HEM_Lanosterol.pdb_7954.pdb o/367271_HEM_Lanosterol.pdb_9135.pdb o/367271_HEM_Lanosterol.pdb_3256.pdb o/367271_HEM_Lanosterol.pdb_4949.pdb o/367271_HEM_Lanosterol.pdb_254.pdb o/367271_HEM_Lanosterol.pdb_7551.pdb o/367271_HEM_Lanosterol.pdb_5798.pdb o/367271_HEM_Lanosterol.pdb_3948.pdb o/367271_HEM_Lanosterol.pdb_9241.pdb o/367271_HEM_Lanosterol.pdb_1584.pdb 
14 o/367271_HEM_Lanosterol.pdb_9139.pdb o/367271_HEM_Lanosterol.pdb_7378.pdb o/367271_HEM_Lanosterol.pdb_3073.pdb o/367271_HEM_Lanosterol.pdb_7530.pdb o/367271_HEM_Lanosterol.pdb_632.pdb o/367271_HEM_Lanosterol.pdb_7455.pdb o/367271_HEM_Lanosterol.pdb_4069.pdb o/367271_HEM_Lanosterol.pdb_3438.pdb o/367271_HEM_Lanosterol.pdb_1921.pdb o/367271_HEM_Lanosterol.pdb_5013.pdb o/367271_HEM_Lanosterol.pdb_1552.pdb o/367271_HEM_Lanosterol.pdb_6725.pdb o/367271_HEM_Lanosterol.pdb_4215.pdb o/367271_HEM_Lanosterol.pdb_1351.pdb 
10 o/367271_HEM_Lanosterol.pdb_9012.pdb o/367271_HEM_Lanosterol.pdb_6302.pdb o/367271_HEM_Lanosterol.pdb_5337.pdb o/367271_HEM_Lanosterol.pdb_6162.pdb o/367271_HEM_Lanosterol.pdb_4276.pdb o/367271_HEM_Lanosterol.pdb_9136.pdb o/367271_HEM_Lanosterol.pdb_7970.pdb o/367271_HEM_Lanosterol.pdb_5477.pdb o/367271_HEM_Lanosterol.pdb_402.pdb o/367271_HEM_Lanosterol.pdb_3109.pdb 
11 o/367271_HEM_Lanosterol.pdb_9530.pdb o/367271_HEM_Lanosterol.pdb_787.pdb o/367271_HEM_Lanosterol.pdb_9929.pdb o/367271_HEM_Lanosterol.pdb_8177.pdb o/367271_HEM_Lanosterol.pdb_780.pdb o/367271_HEM_Lanosterol.pdb_9063.pdb o/367271_HEM_Lanosterol.pdb_5228.pdb o/367271_HEM_Lanosterol.pdb_6816.pdb o/367271_HEM_Lanosterol.pdb_5223.pdb o/367271_HEM_Lanosterol.pdb_5345.pdb o/367271_HEM_Lanosterol.pdb_2768.pdb 
11 o/367271_HEM_Lanosterol.pdb_9370.pdb o/367271_HEM_Lanosterol.pdb_9200.pdb o/367271_HEM_Lanosterol.pdb_7870.pdb o/367271_HEM_Lanosterol.pdb_8453.pdb o/367271_HEM_Lanosterol.pdb_4728.pdb o/367271_HEM_Lanosterol.pdb_4428.pdb o/367271_HEM_Lanosterol.pdb_3390.pdb o/367271_HEM_Lanosterol.pdb_8420.pdb o/367271_HEM_Lanosterol.pdb_2615.pdb o/367271_HEM_Lanosterol.pdb_1928.pdb o/367271_HEM_Lanosterol.pdb_1509.pdb 
11 o/367271_HEM_Lanosterol.pdb_7504.pdb o/367271_HEM_Lanosterol.pdb_6510.pdb o/367271_HEM_Lanosterol.pdb_5320.pdb o/367271_HEM_Lanosterol.pdb_7585.pdb o/367271_HEM_Lanosterol.pdb_7552.pdb o/367271_HEM_Lanosterol.pdb_3920.pdb o/367271_HEM_Lanosterol.pdb_7067.pdb o/367271_HEM_Lanosterol.pdb_6861.pdb o/367271_HEM_Lanosterol.pdb_5314.pdb o/367271_HEM_Lanosterol.pdb_6820.pdb o/367271_HEM_Lanosterol.pdb_327.pdb 
10 o/367271_HEM_Lanosterol.pdb_8753.pdb o/367271_HEM_Lanosterol.pdb_5862.pdb o/367271_HEM_Lanosterol.pdb_7133.pdb o/367271_HEM_Lanosterol.pdb_521.pdb o/367271_HEM_Lanosterol.pdb_8932.pdb o/367271_HEM_Lanosterol.pdb_4468.pdb o/367271_HEM_Lanosterol.pdb_2562.pdb o/367271_HEM_Lanosterol.pdb_1936.pdb o/367271_HEM_Lanosterol.pdb_5096.pdb o/367271_HEM_Lanosterol.pdb_1275.pdb 
12 o/367271_HEM_Lanosterol.pdb_9607.pdb o/367271_HEM_Lanosterol.pdb_7903.pdb o/367271_HEM_Lanosterol.pdb_9087.pdb o/367271_HEM_Lanosterol.pdb_6791.pdb o/367271_HEM_Lanosterol.pdb_6281.pdb o/367271_HEM_Lanosterol.pdb_8922.pdb o/367271_HEM_Lanosterol.pdb_5635.pdb o/367271_HEM_Lanosterol.pdb_5423.pdb o/367271_HEM_Lanosterol.pdb_8662.pdb o/367271_HEM_Lanosterol.pdb_7182.pdb o/367271_HEM_Lanosterol.pdb_5035.pdb o/367271_HEM_Lanosterol.pdb_37.pdb 
12 o/367271_HEM_Lanosterol.pdb_4748.pdb o/367271_HEM_Lanosterol.pdb_4565.pdb o/367271_HEM_Lanosterol.pdb_7555.pdb o/367271_HEM_Lanosterol.pdb_4278.pdb o/367271_HEM_Lanosterol.pdb_4110.pdb o/367271_HEM_Lanosterol.pdb_3387.pdb o/367271_HEM_Lanosterol.pdb_5103.pdb o/367271_HEM_Lanosterol.pdb_8289.pdb o/367271_HEM_Lanosterol.pdb_7484.pdb o/367271_HEM_Lanosterol.pdb_3767.pdb o/367271_HEM_Lanosterol.pdb_8031.pdb o/367271_HEM_Lanosterol.pdb_2712.pdb 
11 o/367271_HEM_Lanosterol.pdb_9594.pdb o/367271_HEM_Lanosterol.pdb_3661.pdb o/367271_HEM_Lanosterol.pdb_3278.pdb o/367271_HEM_Lanosterol.pdb_3019.pdb o/367271_HEM_Lanosterol.pdb_2970.pdb o/367271_HEM_Lanosterol.pdb_5178.pdb o/367271_HEM_Lanosterol.pdb_2112.pdb o/367271_HEM_Lanosterol.pdb_39.pdb o/367271_HEM_Lanosterol.pdb_2729.pdb o/367271_HEM_Lanosterol.pdb_8106.pdb o/367271_HEM_Lanosterol.pdb_1174.pdb 
10 o/367271_HEM_Lanosterol.pdb_7812.pdb o/367271_HEM_Lanosterol.pdb_7366.pdb o/367271_HEM_Lanosterol.pdb_6819.pdb o/367271_HEM_Lanosterol.pdb_3018.pdb o/367271_HEM_Lanosterol.pdb_8628.pdb o/367271_HEM_Lanosterol.pdb_7000.pdb o/367271_HEM_Lanosterol.pdb_8517.pdb o/367271_HEM_Lanosterol.pdb_7653.pdb o/367271_HEM_Lanosterol.pdb_6225.pdb o/367271_HEM_Lanosterol.pdb_1205.pdb 
10 o/367271_HEM_Lanosterol.pdb_5395.pdb o/367271_HEM_Lanosterol.pdb_6953.pdb o/367271_HEM_Lanosterol.pdb_9963.pdb o/367271_HEM_Lanosterol.pdb_5546.pdb o/367271_HEM_Lanosterol.pdb_7113.pdb o/367271_HEM_Lanosterol.pdb_249.pdb o/367271_HEM_Lanosterol.pdb_8343.pdb o/367271_HEM_Lanosterol.pdb_7346.pdb o/367271_HEM_Lanosterol.pdb_8955.pdb o/367271_HEM_Lanosterol.pdb_1111.pdb 
11 o/367271_HEM_Lanosterol.pdb_6702.pdb o/367271_HEM_Lanosterol.pdb_9061.pdb o/367271_HEM_Lanosterol.pdb_7739.pdb o/367271_HEM_Lanosterol.pdb_3544.pdb o/367271_HEM_Lanosterol.pdb_4095.pdb o/367271_HEM_Lanosterol.pdb_17.pdb o/367271_HEM_Lanosterol.pdb_1648.pdb o/367271_HEM_Lanosterol.pdb_4236.pdb o/367271_HEM_Lanosterol.pdb_2944.pdb o/367271_HEM_Lanosterol.pdb_5429.pdb o/367271_HEM_Lanosterol.pdb_1470.pdb 
10 o/367271_HEM_Lanosterol.pdb_4343.pdb o/367271_HEM_Lanosterol.pdb_337.pdb o/367271_HEM_Lanosterol.pdb_3086.pdb o/367271_HEM_Lanosterol.pdb_9496.pdb o/367271_HEM_Lanosterol.pdb_8685.pdb o/367271_HEM_Lanosterol.pdb_9474.pdb o/367271_HEM_Lanosterol.pdb_4453.pdb o/367271_HEM_Lanosterol.pdb_2865.pdb o/367271_HEM_Lanosterol.pdb_8603.pdb o/367271_HEM_Lanosterol.pdb_2573.pdb 
10 o/367271_HEM_Lanosterol.pdb_8331.pdb o/367271_HEM_Lanosterol.pdb_4787.pdb o/367271_HEM_Lanosterol.pdb_4620.pdb o/367271_HEM_Lanosterol.pdb_8306.pdb o/367271_HEM_Lanosterol.pdb_7177.pdb o/367271_HEM_Lanosterol.pdb_5596.pdb o/367271_HEM_Lanosterol.pdb_926.pdb o/367271_HEM_Lanosterol.pdb_6840.pdb o/367271_HEM_Lanosterol.pdb_7658.pdb o/367271_HEM_Lanosterol.pdb_1977.pdb 
10 o/367271_HEM_Lanosterol.pdb_5832.pdb o/367271_HEM_Lanosterol.pdb_3411.pdb o/367271_HEM_Lanosterol.pdb_3727.pdb o/367271_HEM_Lanosterol.pdb_3355.pdb o/367271_HEM_Lanosterol.pdb_6280.pdb o/367271_HEM_Lanosterol.pdb_8180.pdb o/367271_HEM_Lanosterol.pdb_4387.pdb o/367271_HEM_Lanosterol.pdb_5406.pdb o/367271_HEM_Lanosterol.pdb_2948.pdb o/367271_HEM_Lanosterol.pdb_2412.pdb 
10 o/367271_HEM_Lanosterol.pdb_9065.pdb o/367271_HEM_Lanosterol.pdb_7406.pdb o/367271_HEM_Lanosterol.pdb_6253.pdb o/367271_HEM_Lanosterol.pdb_3489.pdb o/367271_HEM_Lanosterol.pdb_794.pdb o/367271_HEM_Lanosterol.pdb_1775.pdb o/367271_HEM_Lanosterol.pdb_8494.pdb o/367271_HEM_Lanosterol.pdb_7471.pdb o/367271_HEM_Lanosterol.pdb_9151.pdb o/367271_HEM_Lanosterol.pdb_1071.pdb 
10 o/367271_HEM_Lanosterol.pdb_9491.pdb o/367271_HEM_Lanosterol.pdb_680.pdb o/367271_HEM_Lanosterol.pdb_670.pdb o/367271_HEM_Lanosterol.pdb_7547.pdb o/367271_HEM_Lanosterol.pdb_9222.pdb o/367271_HEM_Lanosterol.pdb_3822.pdb o/367271_HEM_Lanosterol.pdb_9515.pdb o/367271_HEM_Lanosterol.pdb_7535.pdb o/367271_HEM_Lanosterol.pdb_8690.pdb o/367271_HEM_Lanosterol.pdb_2942.pdb 
10 o/367271_HEM_Lanosterol.pdb_8951.pdb o/367271_HEM_Lanosterol.pdb_6535.pdb o/367271_HEM_Lanosterol.pdb_5987.pdb o/367271_HEM_Lanosterol.pdb_6786.pdb o/367271_HEM_Lanosterol.pdb_1381.pdb o/367271_HEM_Lanosterol.pdb_9706.pdb o/367271_HEM_Lanosterol.pdb_7219.pdb o/367271_HEM_Lanosterol.pdb_5193.pdb o/367271_HEM_Lanosterol.pdb_7411.pdb o/367271_HEM_Lanosterol.pdb_1282.pdb 
10 o/367271_HEM_Lanosterol.pdb_5652.pdb o/367271_HEM_Lanosterol.pdb_8351.pdb o/367271_HEM_Lanosterol.pdb_3738.pdb o/367271_HEM_Lanosterol.pdb_3788.pdb o/367271_HEM_Lanosterol.pdb_8007.pdb o/367271_HEM_Lanosterol.pdb_5785.pdb o/367271_HEM_Lanosterol.pdb_1780.pdb o/367271_HEM_Lanosterol.pdb_898.pdb o/367271_HEM_Lanosterol.pdb_5717.pdb o/367271_HEM_Lanosterol.pdb_131.pdb 
11 o/367271_HEM_Lanosterol.pdb_7237.pdb o/367271_HEM_Lanosterol.pdb_8085.pdb o/367271_HEM_Lanosterol.pdb_2933.pdb o/367271_HEM_Lanosterol.pdb_482.pdb o/367271_HEM_Lanosterol.pdb_2395.pdb o/367271_HEM_Lanosterol.pdb_8413.pdb o/367271_HEM_Lanosterol.pdb_9266.pdb o/367271_HEM_Lanosterol.pdb_8444.pdb o/367271_HEM_Lanosterol.pdb_7183.pdb o/367271_HEM_Lanosterol.pdb_4079.pdb o/367271_HEM_Lanosterol.pdb_1062.pdb 
10 o/367271_HEM_Lanosterol.pdb_3827.pdb o/367271_HEM_Lanosterol.pdb_9190.pdb o/367271_HEM_Lanosterol.pdb_7168.pdb o/367271_HEM_Lanosterol.pdb_6708.pdb o/367271_HEM_Lanosterol.pdb_5017.pdb o/367271_HEM_Lanosterol.pdb_3144.pdb o/367271_HEM_Lanosterol.pdb_9042.pdb o/367271_HEM_Lanosterol.pdb_58.pdb o/367271_HEM_Lanosterol.pdb_4746.pdb o/367271_HEM_Lanosterol.pdb_1698.pdb 
15 o/367271_HEM_Lanosterol.pdb_5036.pdb o/367271_HEM_Lanosterol.pdb_7630.pdb o/367271_HEM_Lanosterol.pdb_3560.pdb o/367271_HEM_Lanosterol.pdb_5029.pdb o/367271_HEM_Lanosterol.pdb_7688.pdb o/367271_HEM_Lanosterol.pdb_2121.pdb o/367271_HEM_Lanosterol.pdb_5222.pdb o/367271_HEM_Lanosterol.pdb_4948.pdb o/367271_HEM_Lanosterol.pdb_7580.pdb o/367271_HEM_Lanosterol.pdb_5831.pdb o/367271_HEM_Lanosterol.pdb_2571.pdb o/367271_HEM_Lanosterol.pdb_4310.pdb o/367271_HEM_Lanosterol.pdb_4196.pdb o/367271_HEM_Lanosterol.pdb_3404.pdb o/367271_HEM_Lanosterol.pdb_1540.pdb 
11 o/367271_HEM_Lanosterol.pdb_8236.pdb o/367271_HEM_Lanosterol.pdb_8035.pdb o/367271_HEM_Lanosterol.pdb_7375.pdb o/367271_HEM_Lanosterol.pdb_5930.pdb o/367271_HEM_Lanosterol.pdb_8136.pdb o/367271_HEM_Lanosterol.pdb_5518.pdb o/367271_HEM_Lanosterol.pdb_8897.pdb o/367271_HEM_Lanosterol.pdb_6185.pdb o/367271_HEM_Lanosterol.pdb_3663.pdb o/367271_HEM_Lanosterol.pdb_8231.pdb o/367271_HEM_Lanosterol.pdb_3451.pdb 
13 o/367271_HEM_Lanosterol.pdb_7200.pdb o/367271_HEM_Lanosterol.pdb_7350.pdb o/367271_HEM_Lanosterol.pdb_5055.pdb o/367271_HEM_Lanosterol.pdb_3246.pdb o/367271_HEM_Lanosterol.pdb_2201.pdb o/367271_HEM_Lanosterol.pdb_444.pdb o/367271_HEM_Lanosterol.pdb_9773.pdb o/367271_HEM_Lanosterol.pdb_8121.pdb o/367271_HEM_Lanosterol.pdb_3664.pdb o/367271_HEM_Lanosterol.pdb_5411.pdb o/367271_HEM_Lanosterol.pdb_2105.pdb o/367271_HEM_Lanosterol.pdb_4038.pdb o/367271_HEM_Lanosterol.pdb_1067.pdb 
10 o/367271_HEM_Lanosterol.pdb_8663.pdb o/367271_HEM_Lanosterol.pdb_5977.pdb o/367271_HEM_Lanosterol.pdb_5131.pdb o/367271_HEM_Lanosterol.pdb_4740.pdb o/367271_HEM_Lanosterol.pdb_2683.pdb o/367271_HEM_Lanosterol.pdb_8858.pdb o/367271_HEM_Lanosterol.pdb_5272.pdb o/367271_HEM_Lanosterol.pdb_3176.pdb o/367271_HEM_Lanosterol.pdb_5641.pdb o/367271_HEM_Lanosterol.pdb_1276.pdb 
11 o/367271_HEM_Lanosterol.pdb_7557.pdb o/367271_HEM_Lanosterol.pdb_8261.pdb o/367271_HEM_Lanosterol.pdb_9078.pdb o/367271_HEM_Lanosterol.pdb_6639.pdb o/367271_HEM_Lanosterol.pdb_8856.pdb o/367271_HEM_Lanosterol.pdb_9292.pdb o/367271_HEM_Lanosterol.pdb_7272.pdb o/367271_HEM_Lanosterol.pdb_2627.pdb o/367271_HEM_Lanosterol.pdb_441.pdb o/367271_HEM_Lanosterol.pdb_2559.pdb o/367271_HEM_Lanosterol.pdb_1909.pdb 
15 o/367271_HEM_Lanosterol.pdb_7762.pdb o/367271_HEM_Lanosterol.pdb_9901.pdb o/367271_HEM_Lanosterol.pdb_7943.pdb o/367271_HEM_Lanosterol.pdb_5351.pdb o/367271_HEM_Lanosterol.pdb_465.pdb o/367271_HEM_Lanosterol.pdb_4621.pdb o/367271_HEM_Lanosterol.pdb_9668.pdb o/367271_HEM_Lanosterol.pdb_6938.pdb o/367271_HEM_Lanosterol.pdb_420.pdb o/367271_HEM_Lanosterol.pdb_9859.pdb o/367271_HEM_Lanosterol.pdb_5763.pdb o/367271_HEM_Lanosterol.pdb_4066.pdb o/367271_HEM_Lanosterol.pdb_6578.pdb o/367271_HEM_Lanosterol.pdb_9300.pdb o/367271_HEM_Lanosterol.pdb_2106.pdb 
10 o/367271_HEM_Lanosterol.pdb_9016.pdb o/367271_HEM_Lanosterol.pdb_9635.pdb o/367271_HEM_Lanosterol.pdb_5354.pdb o/367271_HEM_Lanosterol.pdb_6291.pdb o/367271_HEM_Lanosterol.pdb_9220.pdb o/367271_HEM_Lanosterol.pdb_5919.pdb o/367271_HEM_Lanosterol.pdb_4677.pdb o/367271_HEM_Lanosterol.pdb_4544.pdb o/367271_HEM_Lanosterol.pdb_5201.pdb o/367271_HEM_Lanosterol.pdb_4112.pdb 
