Number:22
Cavity1|VAL:59:A TRP:65:A PHE:66:A SER:68:A ALA:69:A TYR:70:A SER:71:A TYR:72:A GLY:73:A THR:74:A ASP:75:A PRO:76:A TYR:77:A LYS:78:A PHE:79:A LEU:80:A PHE:81:A CYS:83:A PHE:91:A PHE:93:A ILE:94:A MET:95:A PHE:96:A ARG:98:A LYS:99:A MET:100:A THR:101:A VAL:102:A LEU:104:A ALA:125:A TYR:126:A LEU:129:A THR:130:A TYR:140:A PHE:235:A THR:236:A PRO:237:A ILE:238:A ASN:239:A PHE:240:A LEU:241:A PHE:242:A HIS:316:A PRO:381:A ILE:382:A HIS:383:A SER:384:A ILE:385:A TYR:386:A ARG:387:A VAL:418:A ALA:419:A ALA:420:A PRO:421:A VAL:423:A ASN:522:A TYR:523:A ASN:524:A THR:525:A MET:526:A ILE:527:A
Cavity2|SER:68:A ALA:69:A TYR:70:A SER:71:A TYR:72:A GLY:73:A THR:74:A ASP:75:A PRO:76:A TYR:77:A PHE:79:A LEU:80:A PHE:91:A PHE:93:A ILE:94:A MET:95:A PHE:96:A ARG:98:A MET:100:A VAL:102:A LEU:104:A LEU:113:A ALA:122:A ALA:125:A TYR:126:A LEU:129:A THR:130:A PHE:134:A VAL:138:A VAL:139:A TYR:140:A ASN:144:A MET:146:A LEU:147:A MET:148:A GLN:149:A GLN:150:A LYS:151:A LYS:152:A ILE:154:A LYS:155:A LEU:158:A PHE:163:A ILE:203:A ALA:207:A SER:208:A LEU:211:A PHE:235:A THR:236:A PRO:237:A ILE:238:A ASN:239:A PHE:240:A LEU:241:A PHE:242:A ASP:282:A MET:306:A MET:307:A ILE:308:A ALA:309:A ILE:310:A LEU:311:A MET:312:A ALA:313:A GLY:314:A GLN:315:A HIS:316:A THR:317:A SER:318:A THR:321:A LEU:376:A ALA:380:A PRO:381:A ILE:382:A HIS:383:A SER:384:A ILE:385:A TYR:386:A ARG:387:A VAL:418:A ALA:419:A ALA:420:A PRO:421:A GLY:422:A VAL:423:A MET:448:A MET:480:A PRO:481:A PHE:482:A GLY:483:A ALA:484:A GLY:485:A ARG:486:A HIS:487:A ARG:488:A CYS:489:A VAL:490:A GLY:491:A GLU:492:A GLN:493:A PHE:494:A ALA:495:A TYR:496:A GLN:498:A LEU:499:A ASN:522:A TYR:523:A ASN:524:A THR:525:A MET:526:A ILE:527:A VAL:528:A PRO:530:A
Cavity3|GLU:13:A GLY:14:A ILE:16:A GLN:17:A PRO:18:A ILE:19:A ASP:20:A PRO:21:A THR:22:A ILE:23:A PRO:24:A LEU:25:A ILE:27:A LEU:28:A SER:29:A SER:30:A ILE:31:A ALA:32:A ILE:33:A LEU:34:A LEU:35:A PHE:36:A THR:37:A VAL:39:A GLY:40:A LEU:43:A
Cavity4|PHE:177:A GLU:181:A GLU:194:A ALA:195:A ILE:196:A LYS:197:A PHE:198:A PHE:199:A SER:200:A GLU:201:A LEU:202:A ILE:204:A LEU:205:A SER:208:A ARG:217:A GLY:219:A LEU:220:A THR:221:A SER:222:A SER:223:A ALA:224:A ALA:225:A LYS:226:A HIS:227:A PHE:228:A GLU:229:A HIS:230:A LEU:231:A ASP:232:A LYS:233:A GLY:234:A PHE:235:A THR:236:A PRO:237:A ILE:238:A ASN:239:A SER:249:A TYR:250:A GLN:315:A HIS:316:A THR:317:A SER:318:A SER:319:A ALA:320:A THR:321:A SER:323:A TYR:523:A ASN:524:A THR:525:A MET:526:A ILE:527:A VAL:528:A LEU:529:A PRO:530:A LEU:531:A ASN:532:A
Cavity5|THR:74:A ASP:75:A PRO:76:A TYR:77:A LYS:78:A PHE:79:A PHE:81:A LYS:82:A ARG:84:A TRP:324:A HIS:328:A GLN:331:A ARG:377:A MET:378:A HIS:379:A ALA:380:A GLY:422:A VAL:423:A MET:426:A ASP:427:A PRO:428:A ALA:434:A ASP:435:A LYS:436:A TRP:437:A PRO:519:A GLN:520:A THR:521:A ASN:522:A TYR:523:A ILE:527:A PRO:530:A
Cavity6|GLN:45:A LEU:48:A ALA:49:A PRO:50:A ARG:51:A ASP:52:A PRO:53:A SER:54:A HIS:55:A PRO:56:A PRO:57:A VAL:58:A VAL:59:A LEU:60:A CYS:83:A ARG:84:A ALA:85:A LYS:86:A TYR:87:A GLY:88:A ASP:89:A VAL:90:A PHE:91:A ALA:103:A LEU:104:A GLY:105:A PRO:106:A LYS:107:A GLY:108:A LEU:111:A VAL:395:A PRO:396:A PRO:397:A ALA:398:A LEU:399:A ALA:401:A GLY:402:A GLY:403:A ASN:404:A GLY:405:A SER:406:A ARG:407:A PRO:408:A TYR:409:A
Cavity7|THR:127:A HIS:128:A LEU:129:A THR:130:A THR:131:A PRO:132:A VAL:133:A PHE:134:A GLY:135:A LYS:136:A GLY:137:A ASP:141:A PRO:243:A ASN:244:A TYR:250:A ARG:253:A ASP:254:A LYS:255:A GLN:257:A LYS:258:A ALA:259:A MET:260:A SER:261:A ASP:262:A PHE:263:A LEU:265:A ARG:269:A THR:299:A ARG:301:A ASP:302:A HIS:305:A
Cavity8|LYS:107:A ASN:109:A ASN:110:A LEU:111:A SER:112:A LEU:113:A GLY:114:A GLY:115:A LYS:116:A VAL:117:A SER:118:A HIS:119:A VAL:120:A GLN:391:A ASP:392:A LEU:393:A GLU:394:A VAL:395:A PRO:396:A PRO:397:A ALA:398:A THR:460:A SER:461:A GLU:462:A ILE:464:A ASP:465:A TYR:466:A SER:472:A LYS:473:A GLY:474:A THR:475:A GLU:476:A ALA:484:A GLY:485:A ARG:486:A
Cavity9|PRO:56:A VAL:90:A PHE:91:A THR:101:A VAL:102:A ALA:103:A LEU:104:A LYS:107:A GLY:108:A ASN:109:A ASN:110:A LEU:111:A SER:112:A LEU:113:A GLY:115:A VAL:120:A ARG:387:A VAL:389:A LEU:393:A GLU:394:A VAL:395:A TYR:409:A VAL:411:A PHE:416:A VAL:417:A VAL:418:A ALA:419:A ALA:420:A
Cavity10|SER:208:A GLN:212:A LYS:214:A GLU:215:A VAL:216:A ARG:217:A ALA:218:A GLY:219:A LEU:220:A THR:221:A SER:222:A SER:223:A ALA:224:A ALA:225:A HIS:227:A PHE:228:A ALA:256:A ALA:259:A MET:260:A SER:261:A ASP:262:A PHE:263:A TYR:264:A LEU:265:A GLU:266:A ILE:267:A MET:268:A LYS:270:A ILE:308:A
Cavity11|LYS:151:A LYS:155:A LEU:158:A THR:159:A PRO:160:A PHE:163:A TYR:359:A LYS:363:A ALA:369:A LYS:446:A GLY:447:A MET:448:A ALA:449:A GLN:450:A GLU:451:A ALA:452:A THR:460:A GLN:463:A ILE:464:A ASP:465:A PHE:468:A GLY:469:A GLN:470:A VAL:471:A SER:472:A LYS:473:A GLY:474:A THR:475:A SER:477:A TYR:479:A MET:480:A PRO:481:A PHE:482:A GLY:483:A ALA:484:A ARG:488:A CYS:489:A VAL:490:A GLY:491:A GLU:492:A GLN:493:A PHE:494:A TYR:496:A
Cavity12|PRO:106:A LYS:151:A LYS:155:A LEU:158:A PHE:163:A TYR:359:A ARG:373:A LYS:429:A VAL:430:A TRP:431:A ARG:441:A TRP:442:A LEU:443:A GLU:444:A ASP:445:A LYS:446:A GLY:447:A MET:448:A ALA:449:A GLN:450:A GLU:451:A ALA:452:A LEU:453:A ASP:454:A ALA:459:A THR:460:A SER:461:A GLN:463:A ILE:464:A PHE:468:A GLY:469:A GLN:470:A VAL:471:A SER:472:A LYS:473:A GLY:474:A THR:475:A GLU:476:A SER:477:A PRO:478:A TYR:479:A MET:480:A PRO:481:A PHE:482:A GLY:483:A ALA:484:A ARG:488:A CYS:489:A VAL:490:A GLY:491:A GLU:492:A GLN:493:A PHE:494:A
Cavity13|THR:37:A VAL:38:A GLY:40:A SER:41:A ASN:42:A MET:44:A GLN:45:A GLN:46:A PHE:47:A LEU:48:A ALA:49:A PRO:50:A VAL:58:A VAL:59:A HIS:61:A PHE:63:A PRO:64:A TRP:65:A PHE:66:A GLY:67:A THR:92:A PHE:93:A ILE:94:A MET:95:A PHE:96:A GLY:97:A ARG:98:A LYS:99:A HIS:415:A
Cavity14|GLN:331:A LYS:332:A PRO:333:A LEU:334:A ILE:335:A PHE:336:A LYS:337:A ALA:338:A LEU:339:A GLU:341:A LEU:367:A ASP:435:A LYS:436:A TRP:437:A ASP:438:A PRO:439:A PHE:440:A
Cavity15|PHE:153:A LYS:155:A HIS:156:A GLY:157:A LEU:158:A THR:159:A PRO:160:A GLN:161:A ALA:162:A PHE:163:A GLN:164:A THR:165:A TYR:166:A LEU:169:A THR:210:A LEU:211:A ASP:277:A VAL:278:A ASP:279:A GLU:280:A HIS:281:A ASP:282:A MET:283:A ILE:284:A ALA:285:A ALA:286:A LEU:287:A THR:288:A GLY:289:A
Cavity16|LYS:136:A GLY:137:A VAL:138:A ASP:141:A CYS:142:A PRO:143:A GLU:145:A MET:146:A LEU:147:A GLN:150:A ASN:290:A TYR:292:A LYS:293:A ASP:294:A GLY:295:A THR:296:A PRO:297:A LEU:298:A THR:299:A ASP:302:A
Cavity17|PHE:153:A MET:268:A ARG:269:A ARG:271:A ARG:272:A GLU:273:A GLY:274:A GLU:275:A SER:276:A ASP:277:A ILE:284:A ALA:286:A LEU:287:A THR:288:A GLY:289:A ASN:290:A GLU:291:A TYR:292:A GLY:295:A THR:296:A PRO:297:A LEU:298:A THR:299:A ASP:300:A ARG:301:A VAL:303:A
Cavity18|PHE:96:A GLY:97:A ARG:98:A LYS:99:A SER:121:A ALA:122:A GLU:123:A ASP:124:A ALA:125:A TYR:126:A THR:127:A HIS:128:A LEU:129:A TYR:140:A ASP:141:A CYS:142:A ASN:239:A PHE:240:A LEU:241:A PHE:242:A PRO:243:A LYS:388:A GLY:414:A HIS:415:A PHE:416:A
Cavity19|TYR:70:A SER:71:A TYR:72:A GLY:73:A THR:74:A ASP:75:A PRO:76:A LYS:78:A PHE:79:A LYS:82:A
Cavity20|GLN:164:A PRO:168:A ASP:345:A LEU:346:A PHE:347:A GLN:348:A THR:353:A TRP:354:A GLU:355:A ASP:356:A VAL:357:A THR:358:A TYR:359:A GLU:360:A SER:361:A THR:362:A LYS:363:A GLU:364:A
Cavity21|LYS:332:A PRO:333:A LEU:334:A ILE:335:A PHE:336:A LYS:337:A ALA:338:A PHE:340:A GLU:341:A GLU:342:A ARG:344:A ASP:511:A ILE:512:A GLN:513:A LYS:538:A ARG:540:A
Cavity22|LYS:116:A VAL:117:A SER:118:A HIS:119:A VAL:120:A SER:121:A ALA:122:A GLU:123:A ASP:124:A CYS:142:A PRO:143:A ASN:144:A GLU:145:A MET:146:A MET:148:A GLN:149:A LEU:390:A ILE:464:A ASP:465:A TYR:466:A GLY:467:A ARG:486:A
