13 o/629036_HEM_Obtusifoliol.pdb_6612.pdb o/629036_HEM_Obtusifoliol.pdb_631.pdb o/629036_HEM_Obtusifoliol.pdb_619.pdb o/629036_HEM_Obtusifoliol.pdb_5910.pdb o/629036_HEM_Obtusifoliol.pdb_9990.pdb o/629036_HEM_Obtusifoliol.pdb_3492.pdb o/629036_HEM_Obtusifoliol.pdb_68.pdb o/629036_HEM_Obtusifoliol.pdb_3835.pdb o/629036_HEM_Obtusifoliol.pdb_2937.pdb o/629036_HEM_Obtusifoliol.pdb_4255.pdb o/629036_HEM_Obtusifoliol.pdb_6001.pdb o/629036_HEM_Obtusifoliol.pdb_7459.pdb o/629036_HEM_Obtusifoliol.pdb_2225.pdb 
12 o/629036_HEM_Obtusifoliol.pdb_7742.pdb o/629036_HEM_Obtusifoliol.pdb_7293.pdb o/629036_HEM_Obtusifoliol.pdb_9219.pdb o/629036_HEM_Obtusifoliol.pdb_862.pdb o/629036_HEM_Obtusifoliol.pdb_8544.pdb o/629036_HEM_Obtusifoliol.pdb_9176.pdb o/629036_HEM_Obtusifoliol.pdb_614.pdb o/629036_HEM_Obtusifoliol.pdb_8079.pdb o/629036_HEM_Obtusifoliol.pdb_4965.pdb o/629036_HEM_Obtusifoliol.pdb_2166.pdb o/629036_HEM_Obtusifoliol.pdb_8041.pdb o/629036_HEM_Obtusifoliol.pdb_2023.pdb 
10 o/629036_HEM_Obtusifoliol.pdb_4339.pdb o/629036_HEM_Obtusifoliol.pdb_2419.pdb o/629036_HEM_Obtusifoliol.pdb_2321.pdb o/629036_HEM_Obtusifoliol.pdb_8541.pdb o/629036_HEM_Obtusifoliol.pdb_7609.pdb o/629036_HEM_Obtusifoliol.pdb_8476.pdb o/629036_HEM_Obtusifoliol.pdb_235.pdb o/629036_HEM_Obtusifoliol.pdb_9372.pdb o/629036_HEM_Obtusifoliol.pdb_3007.pdb o/629036_HEM_Obtusifoliol.pdb_1596.pdb 
10 o/629036_HEM_Obtusifoliol.pdb_7241.pdb o/629036_HEM_Obtusifoliol.pdb_2174.pdb o/629036_HEM_Obtusifoliol.pdb_7824.pdb o/629036_HEM_Obtusifoliol.pdb_9636.pdb o/629036_HEM_Obtusifoliol.pdb_7548.pdb o/629036_HEM_Obtusifoliol.pdb_564.pdb o/629036_HEM_Obtusifoliol.pdb_5427.pdb o/629036_HEM_Obtusifoliol.pdb_5066.pdb o/629036_HEM_Obtusifoliol.pdb_4333.pdb o/629036_HEM_Obtusifoliol.pdb_2093.pdb 
12 o/629036_HEM_Obtusifoliol.pdb_3805.pdb o/629036_HEM_Obtusifoliol.pdb_2161.pdb o/629036_HEM_Obtusifoliol.pdb_2808.pdb o/629036_HEM_Obtusifoliol.pdb_2636.pdb o/629036_HEM_Obtusifoliol.pdb_2112.pdb o/629036_HEM_Obtusifoliol.pdb_8633.pdb o/629036_HEM_Obtusifoliol.pdb_5431.pdb o/629036_HEM_Obtusifoliol.pdb_7099.pdb o/629036_HEM_Obtusifoliol.pdb_8661.pdb o/629036_HEM_Obtusifoliol.pdb_4656.pdb o/629036_HEM_Obtusifoliol.pdb_7974.pdb o/629036_HEM_Obtusifoliol.pdb_1396.pdb 
10 o/629036_HEM_Obtusifoliol.pdb_7966.pdb o/629036_HEM_Obtusifoliol.pdb_358.pdb o/629036_HEM_Obtusifoliol.pdb_2860.pdb o/629036_HEM_Obtusifoliol.pdb_9656.pdb o/629036_HEM_Obtusifoliol.pdb_1669.pdb o/629036_HEM_Obtusifoliol.pdb_6108.pdb o/629036_HEM_Obtusifoliol.pdb_3700.pdb o/629036_HEM_Obtusifoliol.pdb_2985.pdb o/629036_HEM_Obtusifoliol.pdb_33.pdb o/629036_HEM_Obtusifoliol.pdb_1467.pdb 
11 o/629036_HEM_Obtusifoliol.pdb_4438.pdb o/629036_HEM_Obtusifoliol.pdb_7386.pdb o/629036_HEM_Obtusifoliol.pdb_30.pdb o/629036_HEM_Obtusifoliol.pdb_8855.pdb o/629036_HEM_Obtusifoliol.pdb_6763.pdb o/629036_HEM_Obtusifoliol.pdb_6283.pdb o/629036_HEM_Obtusifoliol.pdb_8125.pdb o/629036_HEM_Obtusifoliol.pdb_2550.pdb o/629036_HEM_Obtusifoliol.pdb_3731.pdb o/629036_HEM_Obtusifoliol.pdb_1678.pdb o/629036_HEM_Obtusifoliol.pdb_1504.pdb 
11 o/629036_HEM_Obtusifoliol.pdb_7865.pdb o/629036_HEM_Obtusifoliol.pdb_9512.pdb o/629036_HEM_Obtusifoliol.pdb_7266.pdb o/629036_HEM_Obtusifoliol.pdb_6879.pdb o/629036_HEM_Obtusifoliol.pdb_3073.pdb o/629036_HEM_Obtusifoliol.pdb_738.pdb o/629036_HEM_Obtusifoliol.pdb_2339.pdb o/629036_HEM_Obtusifoliol.pdb_9179.pdb o/629036_HEM_Obtusifoliol.pdb_1532.pdb o/629036_HEM_Obtusifoliol.pdb_772.pdb o/629036_HEM_Obtusifoliol.pdb_1359.pdb 
12 o/629036_HEM_Obtusifoliol.pdb_6641.pdb o/629036_HEM_Obtusifoliol.pdb_5832.pdb o/629036_HEM_Obtusifoliol.pdb_7717.pdb o/629036_HEM_Obtusifoliol.pdb_8614.pdb o/629036_HEM_Obtusifoliol.pdb_3640.pdb o/629036_HEM_Obtusifoliol.pdb_6713.pdb o/629036_HEM_Obtusifoliol.pdb_7589.pdb o/629036_HEM_Obtusifoliol.pdb_3044.pdb o/629036_HEM_Obtusifoliol.pdb_16.pdb o/629036_HEM_Obtusifoliol.pdb_4093.pdb o/629036_HEM_Obtusifoliol.pdb_7125.pdb o/629036_HEM_Obtusifoliol.pdb_1391.pdb 
10 o/629036_HEM_Obtusifoliol.pdb_9187.pdb o/629036_HEM_Obtusifoliol.pdb_512.pdb o/629036_HEM_Obtusifoliol.pdb_9395.pdb o/629036_HEM_Obtusifoliol.pdb_8711.pdb o/629036_HEM_Obtusifoliol.pdb_4831.pdb o/629036_HEM_Obtusifoliol.pdb_9856.pdb o/629036_HEM_Obtusifoliol.pdb_7168.pdb o/629036_HEM_Obtusifoliol.pdb_6390.pdb o/629036_HEM_Obtusifoliol.pdb_2769.pdb o/629036_HEM_Obtusifoliol.pdb_2197.pdb 
10 o/629036_HEM_Obtusifoliol.pdb_6297.pdb o/629036_HEM_Obtusifoliol.pdb_2285.pdb o/629036_HEM_Obtusifoliol.pdb_5003.pdb o/629036_HEM_Obtusifoliol.pdb_4573.pdb o/629036_HEM_Obtusifoliol.pdb_3325.pdb o/629036_HEM_Obtusifoliol.pdb_6325.pdb o/629036_HEM_Obtusifoliol.pdb_2352.pdb o/629036_HEM_Obtusifoliol.pdb_7853.pdb o/629036_HEM_Obtusifoliol.pdb_1721.pdb o/629036_HEM_Obtusifoliol.pdb_171.pdb 
10 o/629036_HEM_Obtusifoliol.pdb_703.pdb o/629036_HEM_Obtusifoliol.pdb_9472.pdb o/629036_HEM_Obtusifoliol.pdb_381.pdb o/629036_HEM_Obtusifoliol.pdb_7587.pdb o/629036_HEM_Obtusifoliol.pdb_1660.pdb o/629036_HEM_Obtusifoliol.pdb_8357.pdb o/629036_HEM_Obtusifoliol.pdb_7332.pdb o/629036_HEM_Obtusifoliol.pdb_6044.pdb o/629036_HEM_Obtusifoliol.pdb_9600.pdb o/629036_HEM_Obtusifoliol.pdb_1615.pdb 
10 o/629036_HEM_Obtusifoliol.pdb_9908.pdb o/629036_HEM_Obtusifoliol.pdb_5011.pdb o/629036_HEM_Obtusifoliol.pdb_9682.pdb o/629036_HEM_Obtusifoliol.pdb_7170.pdb o/629036_HEM_Obtusifoliol.pdb_2833.pdb o/629036_HEM_Obtusifoliol.pdb_2795.pdb o/629036_HEM_Obtusifoliol.pdb_4984.pdb o/629036_HEM_Obtusifoliol.pdb_9978.pdb o/629036_HEM_Obtusifoliol.pdb_6391.pdb o/629036_HEM_Obtusifoliol.pdb_2403.pdb 
16 o/629036_HEM_Obtusifoliol.pdb_7399.pdb o/629036_HEM_Obtusifoliol.pdb_2564.pdb o/629036_HEM_Obtusifoliol.pdb_5022.pdb o/629036_HEM_Obtusifoliol.pdb_2560.pdb o/629036_HEM_Obtusifoliol.pdb_4724.pdb o/629036_HEM_Obtusifoliol.pdb_2995.pdb o/629036_HEM_Obtusifoliol.pdb_1689.pdb o/629036_HEM_Obtusifoliol.pdb_7302.pdb o/629036_HEM_Obtusifoliol.pdb_4298.pdb o/629036_HEM_Obtusifoliol.pdb_2615.pdb o/629036_HEM_Obtusifoliol.pdb_2271.pdb o/629036_HEM_Obtusifoliol.pdb_1681.pdb o/629036_HEM_Obtusifoliol.pdb_9394.pdb o/629036_HEM_Obtusifoliol.pdb_5305.pdb o/629036_HEM_Obtusifoliol.pdb_6674.pdb o/629036_HEM_Obtusifoliol.pdb_1193.pdb 
10 o/629036_HEM_Obtusifoliol.pdb_7907.pdb o/629036_HEM_Obtusifoliol.pdb_6574.pdb o/629036_HEM_Obtusifoliol.pdb_9071.pdb o/629036_HEM_Obtusifoliol.pdb_4833.pdb o/629036_HEM_Obtusifoliol.pdb_3582.pdb o/629036_HEM_Obtusifoliol.pdb_4786.pdb o/629036_HEM_Obtusifoliol.pdb_6012.pdb o/629036_HEM_Obtusifoliol.pdb_4539.pdb o/629036_HEM_Obtusifoliol.pdb_9996.pdb o/629036_HEM_Obtusifoliol.pdb_2906.pdb 
11 o/629036_HEM_Obtusifoliol.pdb_9186.pdb o/629036_HEM_Obtusifoliol.pdb_2311.pdb o/629036_HEM_Obtusifoliol.pdb_7567.pdb o/629036_HEM_Obtusifoliol.pdb_7128.pdb o/629036_HEM_Obtusifoliol.pdb_9207.pdb o/629036_HEM_Obtusifoliol.pdb_6367.pdb o/629036_HEM_Obtusifoliol.pdb_4156.pdb o/629036_HEM_Obtusifoliol.pdb_5797.pdb o/629036_HEM_Obtusifoliol.pdb_3199.pdb o/629036_HEM_Obtusifoliol.pdb_9439.pdb o/629036_HEM_Obtusifoliol.pdb_2204.pdb 
10 o/629036_HEM_Obtusifoliol.pdb_9390.pdb o/629036_HEM_Obtusifoliol.pdb_5648.pdb o/629036_HEM_Obtusifoliol.pdb_8582.pdb o/629036_HEM_Obtusifoliol.pdb_5304.pdb o/629036_HEM_Obtusifoliol.pdb_2886.pdb o/629036_HEM_Obtusifoliol.pdb_7113.pdb o/629036_HEM_Obtusifoliol.pdb_3405.pdb o/629036_HEM_Obtusifoliol.pdb_3808.pdb o/629036_HEM_Obtusifoliol.pdb_3260.pdb o/629036_HEM_Obtusifoliol.pdb_1339.pdb 
11 o/629036_HEM_Obtusifoliol.pdb_6567.pdb o/629036_HEM_Obtusifoliol.pdb_5705.pdb o/629036_HEM_Obtusifoliol.pdb_9700.pdb o/629036_HEM_Obtusifoliol.pdb_4030.pdb o/629036_HEM_Obtusifoliol.pdb_8005.pdb o/629036_HEM_Obtusifoliol.pdb_3448.pdb o/629036_HEM_Obtusifoliol.pdb_3416.pdb o/629036_HEM_Obtusifoliol.pdb_7164.pdb o/629036_HEM_Obtusifoliol.pdb_5045.pdb o/629036_HEM_Obtusifoliol.pdb_3080.pdb o/629036_HEM_Obtusifoliol.pdb_2073.pdb 
12 o/629036_HEM_Obtusifoliol.pdb_4882.pdb o/629036_HEM_Obtusifoliol.pdb_7283.pdb o/629036_HEM_Obtusifoliol.pdb_4643.pdb o/629036_HEM_Obtusifoliol.pdb_6745.pdb o/629036_HEM_Obtusifoliol.pdb_6255.pdb o/629036_HEM_Obtusifoliol.pdb_502.pdb o/629036_HEM_Obtusifoliol.pdb_3138.pdb o/629036_HEM_Obtusifoliol.pdb_531.pdb o/629036_HEM_Obtusifoliol.pdb_438.pdb o/629036_HEM_Obtusifoliol.pdb_7132.pdb o/629036_HEM_Obtusifoliol.pdb_3272.pdb o/629036_HEM_Obtusifoliol.pdb_1783.pdb 
10 o/629036_HEM_Obtusifoliol.pdb_7117.pdb o/629036_HEM_Obtusifoliol.pdb_5509.pdb o/629036_HEM_Obtusifoliol.pdb_3288.pdb o/629036_HEM_Obtusifoliol.pdb_9754.pdb o/629036_HEM_Obtusifoliol.pdb_9043.pdb o/629036_HEM_Obtusifoliol.pdb_7408.pdb o/629036_HEM_Obtusifoliol.pdb_2393.pdb o/629036_HEM_Obtusifoliol.pdb_5151.pdb o/629036_HEM_Obtusifoliol.pdb_81.pdb o/629036_HEM_Obtusifoliol.pdb_2380.pdb 
10 o/629036_HEM_Obtusifoliol.pdb_9940.pdb o/629036_HEM_Obtusifoliol.pdb_9150.pdb o/629036_HEM_Obtusifoliol.pdb_6801.pdb o/629036_HEM_Obtusifoliol.pdb_6505.pdb o/629036_HEM_Obtusifoliol.pdb_2063.pdb o/629036_HEM_Obtusifoliol.pdb_1922.pdb o/629036_HEM_Obtusifoliol.pdb_8412.pdb o/629036_HEM_Obtusifoliol.pdb_6195.pdb o/629036_HEM_Obtusifoliol.pdb_2260.pdb o/629036_HEM_Obtusifoliol.pdb_1466.pdb 
12 o/629036_HEM_Obtusifoliol.pdb_5014.pdb o/629036_HEM_Obtusifoliol.pdb_9498.pdb o/629036_HEM_Obtusifoliol.pdb_854.pdb o/629036_HEM_Obtusifoliol.pdb_183.pdb o/629036_HEM_Obtusifoliol.pdb_9727.pdb o/629036_HEM_Obtusifoliol.pdb_3858.pdb o/629036_HEM_Obtusifoliol.pdb_6744.pdb o/629036_HEM_Obtusifoliol.pdb_3291.pdb o/629036_HEM_Obtusifoliol.pdb_1530.pdb o/629036_HEM_Obtusifoliol.pdb_2491.pdb o/629036_HEM_Obtusifoliol.pdb_4464.pdb o/629036_HEM_Obtusifoliol.pdb_1036.pdb 
11 o/629036_HEM_Obtusifoliol.pdb_9166.pdb o/629036_HEM_Obtusifoliol.pdb_8272.pdb o/629036_HEM_Obtusifoliol.pdb_5732.pdb o/629036_HEM_Obtusifoliol.pdb_5266.pdb o/629036_HEM_Obtusifoliol.pdb_5445.pdb o/629036_HEM_Obtusifoliol.pdb_3435.pdb o/629036_HEM_Obtusifoliol.pdb_2682.pdb o/629036_HEM_Obtusifoliol.pdb_6833.pdb o/629036_HEM_Obtusifoliol.pdb_645.pdb o/629036_HEM_Obtusifoliol.pdb_5786.pdb o/629036_HEM_Obtusifoliol.pdb_1911.pdb 
11 o/629036_HEM_Obtusifoliol.pdb_6722.pdb o/629036_HEM_Obtusifoliol.pdb_5816.pdb o/629036_HEM_Obtusifoliol.pdb_3663.pdb o/629036_HEM_Obtusifoliol.pdb_8177.pdb o/629036_HEM_Obtusifoliol.pdb_1598.pdb o/629036_HEM_Obtusifoliol.pdb_367.pdb o/629036_HEM_Obtusifoliol.pdb_1887.pdb o/629036_HEM_Obtusifoliol.pdb_9806.pdb o/629036_HEM_Obtusifoliol.pdb_7262.pdb o/629036_HEM_Obtusifoliol.pdb_2574.pdb o/629036_HEM_Obtusifoliol.pdb_1028.pdb 
12 o/629036_HEM_Obtusifoliol.pdb_7716.pdb o/629036_HEM_Obtusifoliol.pdb_1974.pdb o/629036_HEM_Obtusifoliol.pdb_1820.pdb o/629036_HEM_Obtusifoliol.pdb_4460.pdb o/629036_HEM_Obtusifoliol.pdb_5702.pdb o/629036_HEM_Obtusifoliol.pdb_3193.pdb o/629036_HEM_Obtusifoliol.pdb_8662.pdb o/629036_HEM_Obtusifoliol.pdb_7366.pdb o/629036_HEM_Obtusifoliol.pdb_5581.pdb o/629036_HEM_Obtusifoliol.pdb_3096.pdb o/629036_HEM_Obtusifoliol.pdb_2518.pdb o/629036_HEM_Obtusifoliol.pdb_1098.pdb 
25 o/629036_HEM_Obtusifoliol.pdb_963.pdb o/629036_HEM_Obtusifoliol.pdb_9226.pdb o/629036_HEM_Obtusifoliol.pdb_9691.pdb o/629036_HEM_Obtusifoliol.pdb_7890.pdb o/629036_HEM_Obtusifoliol.pdb_6985.pdb o/629036_HEM_Obtusifoliol.pdb_3453.pdb o/629036_HEM_Obtusifoliol.pdb_9079.pdb o/629036_HEM_Obtusifoliol.pdb_2544.pdb o/629036_HEM_Obtusifoliol.pdb_8998.pdb o/629036_HEM_Obtusifoliol.pdb_6198.pdb o/629036_HEM_Obtusifoliol.pdb_7883.pdb o/629036_HEM_Obtusifoliol.pdb_8950.pdb o/629036_HEM_Obtusifoliol.pdb_5526.pdb o/629036_HEM_Obtusifoliol.pdb_8634.pdb o/629036_HEM_Obtusifoliol.pdb_41.pdb o/629036_HEM_Obtusifoliol.pdb_4950.pdb o/629036_HEM_Obtusifoliol.pdb_2107.pdb o/629036_HEM_Obtusifoliol.pdb_8604.pdb o/629036_HEM_Obtusifoliol.pdb_7131.pdb o/629036_HEM_Obtusifoliol.pdb_9850.pdb o/629036_HEM_Obtusifoliol.pdb_9135.pdb o/629036_HEM_Obtusifoliol.pdb_5060.pdb o/629036_HEM_Obtusifoliol.pdb_2721.pdb o/629036_HEM_Obtusifoliol.pdb_3204.pdb o/629036_HEM_Obtusifoliol.pdb_1829.pdb 
15 o/629036_HEM_Obtusifoliol.pdb_7269.pdb o/629036_HEM_Obtusifoliol.pdb_6907.pdb o/629036_HEM_Obtusifoliol.pdb_5718.pdb o/629036_HEM_Obtusifoliol.pdb_6208.pdb o/629036_HEM_Obtusifoliol.pdb_5051.pdb o/629036_HEM_Obtusifoliol.pdb_1898.pdb o/629036_HEM_Obtusifoliol.pdb_154.pdb o/629036_HEM_Obtusifoliol.pdb_6752.pdb o/629036_HEM_Obtusifoliol.pdb_8996.pdb o/629036_HEM_Obtusifoliol.pdb_5457.pdb o/629036_HEM_Obtusifoliol.pdb_345.pdb o/629036_HEM_Obtusifoliol.pdb_1573.pdb o/629036_HEM_Obtusifoliol.pdb_7136.pdb o/629036_HEM_Obtusifoliol.pdb_3709.pdb o/629036_HEM_Obtusifoliol.pdb_1287.pdb 
12 o/629036_HEM_Obtusifoliol.pdb_9048.pdb o/629036_HEM_Obtusifoliol.pdb_716.pdb o/629036_HEM_Obtusifoliol.pdb_5627.pdb o/629036_HEM_Obtusifoliol.pdb_4469.pdb o/629036_HEM_Obtusifoliol.pdb_9126.pdb o/629036_HEM_Obtusifoliol.pdb_3091.pdb o/629036_HEM_Obtusifoliol.pdb_3037.pdb o/629036_HEM_Obtusifoliol.pdb_7384.pdb o/629036_HEM_Obtusifoliol.pdb_6103.pdb o/629036_HEM_Obtusifoliol.pdb_5574.pdb o/629036_HEM_Obtusifoliol.pdb_9490.pdb o/629036_HEM_Obtusifoliol.pdb_1192.pdb 
15 o/629036_HEM_Obtusifoliol.pdb_4369.pdb o/629036_HEM_Obtusifoliol.pdb_4141.pdb o/629036_HEM_Obtusifoliol.pdb_9963.pdb o/629036_HEM_Obtusifoliol.pdb_2966.pdb o/629036_HEM_Obtusifoliol.pdb_87.pdb o/629036_HEM_Obtusifoliol.pdb_439.pdb o/629036_HEM_Obtusifoliol.pdb_7005.pdb o/629036_HEM_Obtusifoliol.pdb_2797.pdb o/629036_HEM_Obtusifoliol.pdb_1725.pdb o/629036_HEM_Obtusifoliol.pdb_7473.pdb o/629036_HEM_Obtusifoliol.pdb_7460.pdb o/629036_HEM_Obtusifoliol.pdb_6811.pdb o/629036_HEM_Obtusifoliol.pdb_7014.pdb o/629036_HEM_Obtusifoliol.pdb_3622.pdb o/629036_HEM_Obtusifoliol.pdb_1139.pdb 
12 o/629036_HEM_Obtusifoliol.pdb_9758.pdb o/629036_HEM_Obtusifoliol.pdb_5416.pdb o/629036_HEM_Obtusifoliol.pdb_8655.pdb o/629036_HEM_Obtusifoliol.pdb_2986.pdb o/629036_HEM_Obtusifoliol.pdb_7880.pdb o/629036_HEM_Obtusifoliol.pdb_4558.pdb o/629036_HEM_Obtusifoliol.pdb_2796.pdb o/629036_HEM_Obtusifoliol.pdb_9747.pdb o/629036_HEM_Obtusifoliol.pdb_7045.pdb o/629036_HEM_Obtusifoliol.pdb_8419.pdb o/629036_HEM_Obtusifoliol.pdb_2089.pdb o/629036_HEM_Obtusifoliol.pdb_1949.pdb 
12 o/629036_HEM_Obtusifoliol.pdb_9404.pdb o/629036_HEM_Obtusifoliol.pdb_8988.pdb o/629036_HEM_Obtusifoliol.pdb_5036.pdb o/629036_HEM_Obtusifoliol.pdb_3908.pdb o/629036_HEM_Obtusifoliol.pdb_1667.pdb o/629036_HEM_Obtusifoliol.pdb_8709.pdb o/629036_HEM_Obtusifoliol.pdb_8889.pdb o/629036_HEM_Obtusifoliol.pdb_6405.pdb o/629036_HEM_Obtusifoliol.pdb_9111.pdb o/629036_HEM_Obtusifoliol.pdb_4980.pdb o/629036_HEM_Obtusifoliol.pdb_4472.pdb o/629036_HEM_Obtusifoliol.pdb_1116.pdb 
13 o/629036_HEM_Obtusifoliol.pdb_7680.pdb o/629036_HEM_Obtusifoliol.pdb_5162.pdb o/629036_HEM_Obtusifoliol.pdb_4605.pdb o/629036_HEM_Obtusifoliol.pdb_2623.pdb o/629036_HEM_Obtusifoliol.pdb_6251.pdb o/629036_HEM_Obtusifoliol.pdb_302.pdb o/629036_HEM_Obtusifoliol.pdb_5438.pdb o/629036_HEM_Obtusifoliol.pdb_1724.pdb o/629036_HEM_Obtusifoliol.pdb_4906.pdb o/629036_HEM_Obtusifoliol.pdb_3315.pdb o/629036_HEM_Obtusifoliol.pdb_3051.pdb o/629036_HEM_Obtusifoliol.pdb_4310.pdb o/629036_HEM_Obtusifoliol.pdb_1001.pdb 
11 o/629036_HEM_Obtusifoliol.pdb_980.pdb o/629036_HEM_Obtusifoliol.pdb_7936.pdb o/629036_HEM_Obtusifoliol.pdb_9138.pdb o/629036_HEM_Obtusifoliol.pdb_277.pdb o/629036_HEM_Obtusifoliol.pdb_6097.pdb o/629036_HEM_Obtusifoliol.pdb_4689.pdb o/629036_HEM_Obtusifoliol.pdb_9452.pdb o/629036_HEM_Obtusifoliol.pdb_8753.pdb o/629036_HEM_Obtusifoliol.pdb_2672.pdb o/629036_HEM_Obtusifoliol.pdb_711.pdb o/629036_HEM_Obtusifoliol.pdb_2595.pdb 
12 o/629036_HEM_Obtusifoliol.pdb_658.pdb o/629036_HEM_Obtusifoliol.pdb_6881.pdb o/629036_HEM_Obtusifoliol.pdb_3043.pdb o/629036_HEM_Obtusifoliol.pdb_9937.pdb o/629036_HEM_Obtusifoliol.pdb_539.pdb o/629036_HEM_Obtusifoliol.pdb_6916.pdb o/629036_HEM_Obtusifoliol.pdb_3557.pdb o/629036_HEM_Obtusifoliol.pdb_9322.pdb o/629036_HEM_Obtusifoliol.pdb_6568.pdb o/629036_HEM_Obtusifoliol.pdb_3989.pdb o/629036_HEM_Obtusifoliol.pdb_3046.pdb o/629036_HEM_Obtusifoliol.pdb_1568.pdb 
10 o/629036_HEM_Obtusifoliol.pdb_6453.pdb o/629036_HEM_Obtusifoliol.pdb_7343.pdb o/629036_HEM_Obtusifoliol.pdb_5880.pdb o/629036_HEM_Obtusifoliol.pdb_8400.pdb o/629036_HEM_Obtusifoliol.pdb_4851.pdb o/629036_HEM_Obtusifoliol.pdb_3306.pdb o/629036_HEM_Obtusifoliol.pdb_2598.pdb o/629036_HEM_Obtusifoliol.pdb_8719.pdb o/629036_HEM_Obtusifoliol.pdb_7755.pdb o/629036_HEM_Obtusifoliol.pdb_2273.pdb 
