# Raw outputs from docking are located in:
/mnt/storage2/jmacnar/Akapo_docking

# Execute or source this file in bash to set up the location as environmental variable
export RESULTS_DIR='/mnt/storage2/jmacnar/Akapo_docking'
