10 o/523016_HEM_Obtusifoliol.pdb_9240.pdb o/523016_HEM_Obtusifoliol.pdb_7024.pdb o/523016_HEM_Obtusifoliol.pdb_7571.pdb o/523016_HEM_Obtusifoliol.pdb_2002.pdb o/523016_HEM_Obtusifoliol.pdb_293.pdb o/523016_HEM_Obtusifoliol.pdb_8015.pdb o/523016_HEM_Obtusifoliol.pdb_6262.pdb o/523016_HEM_Obtusifoliol.pdb_9363.pdb o/523016_HEM_Obtusifoliol.pdb_7203.pdb o/523016_HEM_Obtusifoliol.pdb_184.pdb 
10 o/523016_HEM_Obtusifoliol.pdb_5010.pdb o/523016_HEM_Obtusifoliol.pdb_9293.pdb o/523016_HEM_Obtusifoliol.pdb_2386.pdb o/523016_HEM_Obtusifoliol.pdb_4560.pdb o/523016_HEM_Obtusifoliol.pdb_4086.pdb o/523016_HEM_Obtusifoliol.pdb_2208.pdb o/523016_HEM_Obtusifoliol.pdb_8969.pdb o/523016_HEM_Obtusifoliol.pdb_7242.pdb o/523016_HEM_Obtusifoliol.pdb_4706.pdb o/523016_HEM_Obtusifoliol.pdb_192.pdb 
10 o/523016_HEM_Obtusifoliol.pdb_9243.pdb o/523016_HEM_Obtusifoliol.pdb_2967.pdb o/523016_HEM_Obtusifoliol.pdb_7833.pdb o/523016_HEM_Obtusifoliol.pdb_2066.pdb o/523016_HEM_Obtusifoliol.pdb_8978.pdb o/523016_HEM_Obtusifoliol.pdb_6729.pdb o/523016_HEM_Obtusifoliol.pdb_7005.pdb o/523016_HEM_Obtusifoliol.pdb_5797.pdb o/523016_HEM_Obtusifoliol.pdb_5358.pdb o/523016_HEM_Obtusifoliol.pdb_1808.pdb 
15 o/523016_HEM_Obtusifoliol.pdb_4935.pdb o/523016_HEM_Obtusifoliol.pdb_3979.pdb o/523016_HEM_Obtusifoliol.pdb_886.pdb o/523016_HEM_Obtusifoliol.pdb_8456.pdb o/523016_HEM_Obtusifoliol.pdb_6914.pdb o/523016_HEM_Obtusifoliol.pdb_4980.pdb o/523016_HEM_Obtusifoliol.pdb_7671.pdb o/523016_HEM_Obtusifoliol.pdb_3314.pdb o/523016_HEM_Obtusifoliol.pdb_6558.pdb o/523016_HEM_Obtusifoliol.pdb_5181.pdb o/523016_HEM_Obtusifoliol.pdb_8669.pdb o/523016_HEM_Obtusifoliol.pdb_4496.pdb o/523016_HEM_Obtusifoliol.pdb_9748.pdb o/523016_HEM_Obtusifoliol.pdb_753.pdb o/523016_HEM_Obtusifoliol.pdb_1866.pdb 
11 o/523016_HEM_Obtusifoliol.pdb_9768.pdb o/523016_HEM_Obtusifoliol.pdb_8985.pdb o/523016_HEM_Obtusifoliol.pdb_7101.pdb o/523016_HEM_Obtusifoliol.pdb_8502.pdb o/523016_HEM_Obtusifoliol.pdb_7962.pdb o/523016_HEM_Obtusifoliol.pdb_2061.pdb o/523016_HEM_Obtusifoliol.pdb_9644.pdb o/523016_HEM_Obtusifoliol.pdb_9409.pdb o/523016_HEM_Obtusifoliol.pdb_4277.pdb o/523016_HEM_Obtusifoliol.pdb_9935.pdb o/523016_HEM_Obtusifoliol.pdb_1551.pdb 
15 o/523016_HEM_Obtusifoliol.pdb_7547.pdb o/523016_HEM_Obtusifoliol.pdb_6985.pdb o/523016_HEM_Obtusifoliol.pdb_6412.pdb o/523016_HEM_Obtusifoliol.pdb_8397.pdb o/523016_HEM_Obtusifoliol.pdb_8251.pdb o/523016_HEM_Obtusifoliol.pdb_5584.pdb o/523016_HEM_Obtusifoliol.pdb_3069.pdb o/523016_HEM_Obtusifoliol.pdb_6773.pdb o/523016_HEM_Obtusifoliol.pdb_9588.pdb o/523016_HEM_Obtusifoliol.pdb_1904.pdb o/523016_HEM_Obtusifoliol.pdb_7644.pdb o/523016_HEM_Obtusifoliol.pdb_6678.pdb o/523016_HEM_Obtusifoliol.pdb_3033.pdb o/523016_HEM_Obtusifoliol.pdb_9116.pdb o/523016_HEM_Obtusifoliol.pdb_168.pdb 
10 o/523016_HEM_Obtusifoliol.pdb_5458.pdb o/523016_HEM_Obtusifoliol.pdb_9526.pdb o/523016_HEM_Obtusifoliol.pdb_3267.pdb o/523016_HEM_Obtusifoliol.pdb_2511.pdb o/523016_HEM_Obtusifoliol.pdb_2480.pdb o/523016_HEM_Obtusifoliol.pdb_6846.pdb o/523016_HEM_Obtusifoliol.pdb_2599.pdb o/523016_HEM_Obtusifoliol.pdb_1994.pdb o/523016_HEM_Obtusifoliol.pdb_3388.pdb o/523016_HEM_Obtusifoliol.pdb_1973.pdb 
10 o/523016_HEM_Obtusifoliol.pdb_7633.pdb o/523016_HEM_Obtusifoliol.pdb_8741.pdb o/523016_HEM_Obtusifoliol.pdb_3253.pdb o/523016_HEM_Obtusifoliol.pdb_719.pdb o/523016_HEM_Obtusifoliol.pdb_682.pdb o/523016_HEM_Obtusifoliol.pdb_2529.pdb o/523016_HEM_Obtusifoliol.pdb_2107.pdb o/523016_HEM_Obtusifoliol.pdb_8629.pdb o/523016_HEM_Obtusifoliol.pdb_7196.pdb o/523016_HEM_Obtusifoliol.pdb_1547.pdb 
15 o/523016_HEM_Obtusifoliol.pdb_9052.pdb o/523016_HEM_Obtusifoliol.pdb_5530.pdb o/523016_HEM_Obtusifoliol.pdb_3397.pdb o/523016_HEM_Obtusifoliol.pdb_6330.pdb o/523016_HEM_Obtusifoliol.pdb_8858.pdb o/523016_HEM_Obtusifoliol.pdb_600.pdb o/523016_HEM_Obtusifoliol.pdb_1445.pdb o/523016_HEM_Obtusifoliol.pdb_5264.pdb o/523016_HEM_Obtusifoliol.pdb_4228.pdb o/523016_HEM_Obtusifoliol.pdb_9135.pdb o/523016_HEM_Obtusifoliol.pdb_2915.pdb o/523016_HEM_Obtusifoliol.pdb_8474.pdb o/523016_HEM_Obtusifoliol.pdb_4146.pdb o/523016_HEM_Obtusifoliol.pdb_1619.pdb o/523016_HEM_Obtusifoliol.pdb_1283.pdb 
11 o/523016_HEM_Obtusifoliol.pdb_4804.pdb o/523016_HEM_Obtusifoliol.pdb_6378.pdb o/523016_HEM_Obtusifoliol.pdb_4733.pdb o/523016_HEM_Obtusifoliol.pdb_3427.pdb o/523016_HEM_Obtusifoliol.pdb_2142.pdb o/523016_HEM_Obtusifoliol.pdb_7443.pdb o/523016_HEM_Obtusifoliol.pdb_5979.pdb o/523016_HEM_Obtusifoliol.pdb_2861.pdb o/523016_HEM_Obtusifoliol.pdb_986.pdb o/523016_HEM_Obtusifoliol.pdb_4837.pdb o/523016_HEM_Obtusifoliol.pdb_1993.pdb 
11 o/523016_HEM_Obtusifoliol.pdb_8638.pdb o/523016_HEM_Obtusifoliol.pdb_9454.pdb o/523016_HEM_Obtusifoliol.pdb_955.pdb o/523016_HEM_Obtusifoliol.pdb_4932.pdb o/523016_HEM_Obtusifoliol.pdb_3173.pdb o/523016_HEM_Obtusifoliol.pdb_400.pdb o/523016_HEM_Obtusifoliol.pdb_9256.pdb o/523016_HEM_Obtusifoliol.pdb_5463.pdb o/523016_HEM_Obtusifoliol.pdb_4421.pdb o/523016_HEM_Obtusifoliol.pdb_5068.pdb o/523016_HEM_Obtusifoliol.pdb_2799.pdb 
11 o/523016_HEM_Obtusifoliol.pdb_5983.pdb o/523016_HEM_Obtusifoliol.pdb_4858.pdb o/523016_HEM_Obtusifoliol.pdb_5847.pdb o/523016_HEM_Obtusifoliol.pdb_1833.pdb o/523016_HEM_Obtusifoliol.pdb_5501.pdb o/523016_HEM_Obtusifoliol.pdb_472.pdb o/523016_HEM_Obtusifoliol.pdb_9455.pdb o/523016_HEM_Obtusifoliol.pdb_8024.pdb o/523016_HEM_Obtusifoliol.pdb_3510.pdb o/523016_HEM_Obtusifoliol.pdb_8018.pdb o/523016_HEM_Obtusifoliol.pdb_1816.pdb 
10 o/523016_HEM_Obtusifoliol.pdb_4538.pdb o/523016_HEM_Obtusifoliol.pdb_3983.pdb o/523016_HEM_Obtusifoliol.pdb_1249.pdb o/523016_HEM_Obtusifoliol.pdb_7830.pdb o/523016_HEM_Obtusifoliol.pdb_7760.pdb o/523016_HEM_Obtusifoliol.pdb_697.pdb o/523016_HEM_Obtusifoliol.pdb_4057.pdb o/523016_HEM_Obtusifoliol.pdb_6560.pdb o/523016_HEM_Obtusifoliol.pdb_1700.pdb o/523016_HEM_Obtusifoliol.pdb_1234.pdb 
10 o/523016_HEM_Obtusifoliol.pdb_7839.pdb o/523016_HEM_Obtusifoliol.pdb_7163.pdb o/523016_HEM_Obtusifoliol.pdb_872.pdb o/523016_HEM_Obtusifoliol.pdb_4923.pdb o/523016_HEM_Obtusifoliol.pdb_4887.pdb o/523016_HEM_Obtusifoliol.pdb_2989.pdb o/523016_HEM_Obtusifoliol.pdb_8003.pdb o/523016_HEM_Obtusifoliol.pdb_6094.pdb o/523016_HEM_Obtusifoliol.pdb_5789.pdb o/523016_HEM_Obtusifoliol.pdb_2375.pdb 
10 o/523016_HEM_Obtusifoliol.pdb_9646.pdb o/523016_HEM_Obtusifoliol.pdb_5491.pdb o/523016_HEM_Obtusifoliol.pdb_5216.pdb o/523016_HEM_Obtusifoliol.pdb_4625.pdb o/523016_HEM_Obtusifoliol.pdb_8603.pdb o/523016_HEM_Obtusifoliol.pdb_3930.pdb o/523016_HEM_Obtusifoliol.pdb_5996.pdb o/523016_HEM_Obtusifoliol.pdb_4905.pdb o/523016_HEM_Obtusifoliol.pdb_391.pdb o/523016_HEM_Obtusifoliol.pdb_1708.pdb 
10 o/523016_HEM_Obtusifoliol.pdb_6790.pdb o/523016_HEM_Obtusifoliol.pdb_411.pdb o/523016_HEM_Obtusifoliol.pdb_6334.pdb o/523016_HEM_Obtusifoliol.pdb_516.pdb o/523016_HEM_Obtusifoliol.pdb_373.pdb o/523016_HEM_Obtusifoliol.pdb_7373.pdb o/523016_HEM_Obtusifoliol.pdb_4261.pdb o/523016_HEM_Obtusifoliol.pdb_7843.pdb o/523016_HEM_Obtusifoliol.pdb_3436.pdb o/523016_HEM_Obtusifoliol.pdb_3017.pdb 
24 o/523016_HEM_Obtusifoliol.pdb_8880.pdb o/523016_HEM_Obtusifoliol.pdb_9443.pdb o/523016_HEM_Obtusifoliol.pdb_8212.pdb o/523016_HEM_Obtusifoliol.pdb_7946.pdb o/523016_HEM_Obtusifoliol.pdb_5160.pdb o/523016_HEM_Obtusifoliol.pdb_684.pdb o/523016_HEM_Obtusifoliol.pdb_9844.pdb o/523016_HEM_Obtusifoliol.pdb_9771.pdb o/523016_HEM_Obtusifoliol.pdb_9527.pdb o/523016_HEM_Obtusifoliol.pdb_6573.pdb o/523016_HEM_Obtusifoliol.pdb_6352.pdb o/523016_HEM_Obtusifoliol.pdb_7222.pdb o/523016_HEM_Obtusifoliol.pdb_3584.pdb o/523016_HEM_Obtusifoliol.pdb_8064.pdb o/523016_HEM_Obtusifoliol.pdb_4991.pdb o/523016_HEM_Obtusifoliol.pdb_138.pdb o/523016_HEM_Obtusifoliol.pdb_1320.pdb o/523016_HEM_Obtusifoliol.pdb_6839.pdb o/523016_HEM_Obtusifoliol.pdb_4234.pdb o/523016_HEM_Obtusifoliol.pdb_3735.pdb o/523016_HEM_Obtusifoliol.pdb_9055.pdb o/523016_HEM_Obtusifoliol.pdb_3277.pdb o/523016_HEM_Obtusifoliol.pdb_3011.pdb o/523016_HEM_Obtusifoliol.pdb_1207.pdb 
12 o/523016_HEM_Obtusifoliol.pdb_8393.pdb o/523016_HEM_Obtusifoliol.pdb_2826.pdb o/523016_HEM_Obtusifoliol.pdb_5606.pdb o/523016_HEM_Obtusifoliol.pdb_1515.pdb o/523016_HEM_Obtusifoliol.pdb_815.pdb o/523016_HEM_Obtusifoliol.pdb_4264.pdb o/523016_HEM_Obtusifoliol.pdb_6343.pdb o/523016_HEM_Obtusifoliol.pdb_6009.pdb o/523016_HEM_Obtusifoliol.pdb_8994.pdb o/523016_HEM_Obtusifoliol.pdb_5627.pdb o/523016_HEM_Obtusifoliol.pdb_9377.pdb o/523016_HEM_Obtusifoliol.pdb_1390.pdb 
10 o/523016_HEM_Obtusifoliol.pdb_4350.pdb o/523016_HEM_Obtusifoliol.pdb_5278.pdb o/523016_HEM_Obtusifoliol.pdb_325.pdb o/523016_HEM_Obtusifoliol.pdb_8307.pdb o/523016_HEM_Obtusifoliol.pdb_9042.pdb o/523016_HEM_Obtusifoliol.pdb_1972.pdb o/523016_HEM_Obtusifoliol.pdb_41.pdb o/523016_HEM_Obtusifoliol.pdb_1198.pdb o/523016_HEM_Obtusifoliol.pdb_4271.pdb o/523016_HEM_Obtusifoliol.pdb_1169.pdb 
11 o/523016_HEM_Obtusifoliol.pdb_8023.pdb o/523016_HEM_Obtusifoliol.pdb_6424.pdb o/523016_HEM_Obtusifoliol.pdb_4381.pdb o/523016_HEM_Obtusifoliol.pdb_8146.pdb o/523016_HEM_Obtusifoliol.pdb_8068.pdb o/523016_HEM_Obtusifoliol.pdb_9683.pdb o/523016_HEM_Obtusifoliol.pdb_2993.pdb o/523016_HEM_Obtusifoliol.pdb_8954.pdb o/523016_HEM_Obtusifoliol.pdb_1666.pdb o/523016_HEM_Obtusifoliol.pdb_9447.pdb o/523016_HEM_Obtusifoliol.pdb_1617.pdb 
11 o/523016_HEM_Obtusifoliol.pdb_781.pdb o/523016_HEM_Obtusifoliol.pdb_7274.pdb o/523016_HEM_Obtusifoliol.pdb_9323.pdb o/523016_HEM_Obtusifoliol.pdb_8883.pdb o/523016_HEM_Obtusifoliol.pdb_7273.pdb o/523016_HEM_Obtusifoliol.pdb_6804.pdb o/523016_HEM_Obtusifoliol.pdb_2894.pdb o/523016_HEM_Obtusifoliol.pdb_3520.pdb o/523016_HEM_Obtusifoliol.pdb_2163.pdb o/523016_HEM_Obtusifoliol.pdb_5712.pdb o/523016_HEM_Obtusifoliol.pdb_1145.pdb 
13 o/523016_HEM_Obtusifoliol.pdb_6126.pdb o/523016_HEM_Obtusifoliol.pdb_2346.pdb o/523016_HEM_Obtusifoliol.pdb_8738.pdb o/523016_HEM_Obtusifoliol.pdb_2948.pdb o/523016_HEM_Obtusifoliol.pdb_5417.pdb o/523016_HEM_Obtusifoliol.pdb_2554.pdb o/523016_HEM_Obtusifoliol.pdb_9824.pdb o/523016_HEM_Obtusifoliol.pdb_1301.pdb o/523016_HEM_Obtusifoliol.pdb_8885.pdb o/523016_HEM_Obtusifoliol.pdb_7478.pdb o/523016_HEM_Obtusifoliol.pdb_453.pdb o/523016_HEM_Obtusifoliol.pdb_2812.pdb o/523016_HEM_Obtusifoliol.pdb_1117.pdb 
15 o/523016_HEM_Obtusifoliol.pdb_7874.pdb o/523016_HEM_Obtusifoliol.pdb_9459.pdb o/523016_HEM_Obtusifoliol.pdb_8541.pdb o/523016_HEM_Obtusifoliol.pdb_7792.pdb o/523016_HEM_Obtusifoliol.pdb_418.pdb o/523016_HEM_Obtusifoliol.pdb_4031.pdb o/523016_HEM_Obtusifoliol.pdb_879.pdb o/523016_HEM_Obtusifoliol.pdb_7018.pdb o/523016_HEM_Obtusifoliol.pdb_6712.pdb o/523016_HEM_Obtusifoliol.pdb_4410.pdb o/523016_HEM_Obtusifoliol.pdb_1950.pdb o/523016_HEM_Obtusifoliol.pdb_6025.pdb o/523016_HEM_Obtusifoliol.pdb_9453.pdb o/523016_HEM_Obtusifoliol.pdb_3553.pdb o/523016_HEM_Obtusifoliol.pdb_1391.pdb 
11 o/523016_HEM_Obtusifoliol.pdb_4138.pdb o/523016_HEM_Obtusifoliol.pdb_7290.pdb o/523016_HEM_Obtusifoliol.pdb_5472.pdb o/523016_HEM_Obtusifoliol.pdb_2752.pdb o/523016_HEM_Obtusifoliol.pdb_9950.pdb o/523016_HEM_Obtusifoliol.pdb_2018.pdb o/523016_HEM_Obtusifoliol.pdb_6418.pdb o/523016_HEM_Obtusifoliol.pdb_5498.pdb o/523016_HEM_Obtusifoliol.pdb_5821.pdb o/523016_HEM_Obtusifoliol.pdb_4110.pdb o/523016_HEM_Obtusifoliol.pdb_1168.pdb 
10 o/523016_HEM_Obtusifoliol.pdb_8372.pdb o/523016_HEM_Obtusifoliol.pdb_8435.pdb o/523016_HEM_Obtusifoliol.pdb_6254.pdb o/523016_HEM_Obtusifoliol.pdb_5272.pdb o/523016_HEM_Obtusifoliol.pdb_5060.pdb o/523016_HEM_Obtusifoliol.pdb_1702.pdb o/523016_HEM_Obtusifoliol.pdb_8400.pdb o/523016_HEM_Obtusifoliol.pdb_8216.pdb o/523016_HEM_Obtusifoliol.pdb_7298.pdb o/523016_HEM_Obtusifoliol.pdb_1108.pdb 
13 o/523016_HEM_Obtusifoliol.pdb_712.pdb o/523016_HEM_Obtusifoliol.pdb_6888.pdb o/523016_HEM_Obtusifoliol.pdb_7426.pdb o/523016_HEM_Obtusifoliol.pdb_8601.pdb o/523016_HEM_Obtusifoliol.pdb_3889.pdb o/523016_HEM_Obtusifoliol.pdb_2165.pdb o/523016_HEM_Obtusifoliol.pdb_5805.pdb o/523016_HEM_Obtusifoliol.pdb_9598.pdb o/523016_HEM_Obtusifoliol.pdb_2446.pdb o/523016_HEM_Obtusifoliol.pdb_7250.pdb o/523016_HEM_Obtusifoliol.pdb_3899.pdb o/523016_HEM_Obtusifoliol.pdb_2045.pdb o/523016_HEM_Obtusifoliol.pdb_1620.pdb 
11 o/523016_HEM_Obtusifoliol.pdb_7950.pdb o/523016_HEM_Obtusifoliol.pdb_8304.pdb o/523016_HEM_Obtusifoliol.pdb_7255.pdb o/523016_HEM_Obtusifoliol.pdb_6519.pdb o/523016_HEM_Obtusifoliol.pdb_397.pdb o/523016_HEM_Obtusifoliol.pdb_9649.pdb o/523016_HEM_Obtusifoliol.pdb_6875.pdb o/523016_HEM_Obtusifoliol.pdb_3441.pdb o/523016_HEM_Obtusifoliol.pdb_5079.pdb o/523016_HEM_Obtusifoliol.pdb_2272.pdb o/523016_HEM_Obtusifoliol.pdb_1809.pdb 
11 o/523016_HEM_Obtusifoliol.pdb_8729.pdb o/523016_HEM_Obtusifoliol.pdb_7684.pdb o/523016_HEM_Obtusifoliol.pdb_7143.pdb o/523016_HEM_Obtusifoliol.pdb_1924.pdb o/523016_HEM_Obtusifoliol.pdb_9235.pdb o/523016_HEM_Obtusifoliol.pdb_7291.pdb o/523016_HEM_Obtusifoliol.pdb_3992.pdb o/523016_HEM_Obtusifoliol.pdb_7358.pdb o/523016_HEM_Obtusifoliol.pdb_2794.pdb o/523016_HEM_Obtusifoliol.pdb_4909.pdb o/523016_HEM_Obtusifoliol.pdb_1895.pdb 
10 o/523016_HEM_Obtusifoliol.pdb_9515.pdb o/523016_HEM_Obtusifoliol.pdb_725.pdb o/523016_HEM_Obtusifoliol.pdb_5093.pdb o/523016_HEM_Obtusifoliol.pdb_399.pdb o/523016_HEM_Obtusifoliol.pdb_7624.pdb o/523016_HEM_Obtusifoliol.pdb_2648.pdb o/523016_HEM_Obtusifoliol.pdb_7589.pdb o/523016_HEM_Obtusifoliol.pdb_3383.pdb o/523016_HEM_Obtusifoliol.pdb_3072.pdb o/523016_HEM_Obtusifoliol.pdb_1287.pdb 
12 o/523016_HEM_Obtusifoliol.pdb_8065.pdb o/523016_HEM_Obtusifoliol.pdb_588.pdb o/523016_HEM_Obtusifoliol.pdb_9375.pdb o/523016_HEM_Obtusifoliol.pdb_5186.pdb o/523016_HEM_Obtusifoliol.pdb_4808.pdb o/523016_HEM_Obtusifoliol.pdb_9215.pdb o/523016_HEM_Obtusifoliol.pdb_3168.pdb o/523016_HEM_Obtusifoliol.pdb_3562.pdb o/523016_HEM_Obtusifoliol.pdb_2536.pdb o/523016_HEM_Obtusifoliol.pdb_7092.pdb o/523016_HEM_Obtusifoliol.pdb_3911.pdb o/523016_HEM_Obtusifoliol.pdb_2315.pdb 
15 o/523016_HEM_Obtusifoliol.pdb_5716.pdb o/523016_HEM_Obtusifoliol.pdb_7428.pdb o/523016_HEM_Obtusifoliol.pdb_5666.pdb o/523016_HEM_Obtusifoliol.pdb_5462.pdb o/523016_HEM_Obtusifoliol.pdb_4195.pdb o/523016_HEM_Obtusifoliol.pdb_4161.pdb o/523016_HEM_Obtusifoliol.pdb_8749.pdb o/523016_HEM_Obtusifoliol.pdb_195.pdb o/523016_HEM_Obtusifoliol.pdb_6128.pdb o/523016_HEM_Obtusifoliol.pdb_2746.pdb o/523016_HEM_Obtusifoliol.pdb_617.pdb o/523016_HEM_Obtusifoliol.pdb_5436.pdb o/523016_HEM_Obtusifoliol.pdb_4665.pdb o/523016_HEM_Obtusifoliol.pdb_9013.pdb o/523016_HEM_Obtusifoliol.pdb_107.pdb 
10 o/523016_HEM_Obtusifoliol.pdb_8873.pdb o/523016_HEM_Obtusifoliol.pdb_5649.pdb o/523016_HEM_Obtusifoliol.pdb_5321.pdb o/523016_HEM_Obtusifoliol.pdb_5127.pdb o/523016_HEM_Obtusifoliol.pdb_4553.pdb o/523016_HEM_Obtusifoliol.pdb_9203.pdb o/523016_HEM_Obtusifoliol.pdb_2816.pdb o/523016_HEM_Obtusifoliol.pdb_9311.pdb o/523016_HEM_Obtusifoliol.pdb_4690.pdb o/523016_HEM_Obtusifoliol.pdb_2103.pdb 
10 o/523016_HEM_Obtusifoliol.pdb_8654.pdb o/523016_HEM_Obtusifoliol.pdb_8844.pdb o/523016_HEM_Obtusifoliol.pdb_5025.pdb o/523016_HEM_Obtusifoliol.pdb_4943.pdb o/523016_HEM_Obtusifoliol.pdb_5187.pdb o/523016_HEM_Obtusifoliol.pdb_7730.pdb o/523016_HEM_Obtusifoliol.pdb_201.pdb o/523016_HEM_Obtusifoliol.pdb_2724.pdb o/523016_HEM_Obtusifoliol.pdb_2426.pdb o/523016_HEM_Obtusifoliol.pdb_1147.pdb 
10 o/523016_HEM_Obtusifoliol.pdb_8815.pdb o/523016_HEM_Obtusifoliol.pdb_3794.pdb o/523016_HEM_Obtusifoliol.pdb_9945.pdb o/523016_HEM_Obtusifoliol.pdb_9498.pdb o/523016_HEM_Obtusifoliol.pdb_857.pdb o/523016_HEM_Obtusifoliol.pdb_9440.pdb o/523016_HEM_Obtusifoliol.pdb_5596.pdb o/523016_HEM_Obtusifoliol.pdb_2650.pdb o/523016_HEM_Obtusifoliol.pdb_7151.pdb o/523016_HEM_Obtusifoliol.pdb_1076.pdb 
13 o/523016_HEM_Obtusifoliol.pdb_9251.pdb o/523016_HEM_Obtusifoliol.pdb_6081.pdb o/523016_HEM_Obtusifoliol.pdb_7467.pdb o/523016_HEM_Obtusifoliol.pdb_816.pdb o/523016_HEM_Obtusifoliol.pdb_2176.pdb o/523016_HEM_Obtusifoliol.pdb_6817.pdb o/523016_HEM_Obtusifoliol.pdb_5252.pdb o/523016_HEM_Obtusifoliol.pdb_7122.pdb o/523016_HEM_Obtusifoliol.pdb_3386.pdb o/523016_HEM_Obtusifoliol.pdb_3814.pdb o/523016_HEM_Obtusifoliol.pdb_3449.pdb o/523016_HEM_Obtusifoliol.pdb_9779.pdb o/523016_HEM_Obtusifoliol.pdb_1900.pdb 
11 o/523016_HEM_Obtusifoliol.pdb_8811.pdb o/523016_HEM_Obtusifoliol.pdb_3757.pdb o/523016_HEM_Obtusifoliol.pdb_2008.pdb o/523016_HEM_Obtusifoliol.pdb_9884.pdb o/523016_HEM_Obtusifoliol.pdb_9514.pdb o/523016_HEM_Obtusifoliol.pdb_6180.pdb o/523016_HEM_Obtusifoliol.pdb_3140.pdb o/523016_HEM_Obtusifoliol.pdb_958.pdb o/523016_HEM_Obtusifoliol.pdb_5368.pdb o/523016_HEM_Obtusifoliol.pdb_2252.pdb o/523016_HEM_Obtusifoliol.pdb_1567.pdb 
11 o/523016_HEM_Obtusifoliol.pdb_9860.pdb o/523016_HEM_Obtusifoliol.pdb_7432.pdb o/523016_HEM_Obtusifoliol.pdb_603.pdb o/523016_HEM_Obtusifoliol.pdb_4628.pdb o/523016_HEM_Obtusifoliol.pdb_7173.pdb o/523016_HEM_Obtusifoliol.pdb_3675.pdb o/523016_HEM_Obtusifoliol.pdb_3390.pdb o/523016_HEM_Obtusifoliol.pdb_8175.pdb o/523016_HEM_Obtusifoliol.pdb_9214.pdb o/523016_HEM_Obtusifoliol.pdb_3385.pdb o/523016_HEM_Obtusifoliol.pdb_1161.pdb 
12 o/523016_HEM_Obtusifoliol.pdb_8768.pdb o/523016_HEM_Obtusifoliol.pdb_1690.pdb o/523016_HEM_Obtusifoliol.pdb_6200.pdb o/523016_HEM_Obtusifoliol.pdb_4266.pdb o/523016_HEM_Obtusifoliol.pdb_1679.pdb o/523016_HEM_Obtusifoliol.pdb_3907.pdb o/523016_HEM_Obtusifoliol.pdb_4556.pdb o/523016_HEM_Obtusifoliol.pdb_1384.pdb o/523016_HEM_Obtusifoliol.pdb_2743.pdb o/523016_HEM_Obtusifoliol.pdb_4399.pdb o/523016_HEM_Obtusifoliol.pdb_3065.pdb o/523016_HEM_Obtusifoliol.pdb_106.pdb 
14 o/523016_HEM_Obtusifoliol.pdb_7627.pdb o/523016_HEM_Obtusifoliol.pdb_6740.pdb o/523016_HEM_Obtusifoliol.pdb_7818.pdb o/523016_HEM_Obtusifoliol.pdb_9431.pdb o/523016_HEM_Obtusifoliol.pdb_6028.pdb o/523016_HEM_Obtusifoliol.pdb_2634.pdb o/523016_HEM_Obtusifoliol.pdb_1369.pdb o/523016_HEM_Obtusifoliol.pdb_6578.pdb o/523016_HEM_Obtusifoliol.pdb_9810.pdb o/523016_HEM_Obtusifoliol.pdb_6158.pdb o/523016_HEM_Obtusifoliol.pdb_5961.pdb o/523016_HEM_Obtusifoliol.pdb_898.pdb o/523016_HEM_Obtusifoliol.pdb_2887.pdb o/523016_HEM_Obtusifoliol.pdb_105.pdb 
11 o/523016_HEM_Obtusifoliol.pdb_849.pdb o/523016_HEM_Obtusifoliol.pdb_835.pdb o/523016_HEM_Obtusifoliol.pdb_6812.pdb o/523016_HEM_Obtusifoliol.pdb_5559.pdb o/523016_HEM_Obtusifoliol.pdb_7098.pdb o/523016_HEM_Obtusifoliol.pdb_4303.pdb o/523016_HEM_Obtusifoliol.pdb_8489.pdb o/523016_HEM_Obtusifoliol.pdb_2731.pdb o/523016_HEM_Obtusifoliol.pdb_7013.pdb o/523016_HEM_Obtusifoliol.pdb_3094.pdb o/523016_HEM_Obtusifoliol.pdb_1926.pdb 
10 o/523016_HEM_Obtusifoliol.pdb_8242.pdb o/523016_HEM_Obtusifoliol.pdb_6442.pdb o/523016_HEM_Obtusifoliol.pdb_4468.pdb o/523016_HEM_Obtusifoliol.pdb_2348.pdb o/523016_HEM_Obtusifoliol.pdb_1801.pdb o/523016_HEM_Obtusifoliol.pdb_1913.pdb o/523016_HEM_Obtusifoliol.pdb_4672.pdb o/523016_HEM_Obtusifoliol.pdb_1872.pdb o/523016_HEM_Obtusifoliol.pdb_2786.pdb o/523016_HEM_Obtusifoliol.pdb_1651.pdb 
14 o/523016_HEM_Obtusifoliol.pdb_4739.pdb o/523016_HEM_Obtusifoliol.pdb_9180.pdb o/523016_HEM_Obtusifoliol.pdb_2155.pdb o/523016_HEM_Obtusifoliol.pdb_1190.pdb o/523016_HEM_Obtusifoliol.pdb_8631.pdb o/523016_HEM_Obtusifoliol.pdb_8865.pdb o/523016_HEM_Obtusifoliol.pdb_8620.pdb o/523016_HEM_Obtusifoliol.pdb_5937.pdb o/523016_HEM_Obtusifoliol.pdb_339.pdb o/523016_HEM_Obtusifoliol.pdb_193.pdb o/523016_HEM_Obtusifoliol.pdb_5597.pdb o/523016_HEM_Obtusifoliol.pdb_5781.pdb o/523016_HEM_Obtusifoliol.pdb_7417.pdb o/523016_HEM_Obtusifoliol.pdb_1042.pdb 
10 o/523016_HEM_Obtusifoliol.pdb_6337.pdb o/523016_HEM_Obtusifoliol.pdb_8995.pdb o/523016_HEM_Obtusifoliol.pdb_4452.pdb o/523016_HEM_Obtusifoliol.pdb_5438.pdb o/523016_HEM_Obtusifoliol.pdb_9992.pdb o/523016_HEM_Obtusifoliol.pdb_3963.pdb o/523016_HEM_Obtusifoliol.pdb_2933.pdb o/523016_HEM_Obtusifoliol.pdb_9350.pdb o/523016_HEM_Obtusifoliol.pdb_2862.pdb o/523016_HEM_Obtusifoliol.pdb_104.pdb 
14 o/523016_HEM_Obtusifoliol.pdb_8287.pdb o/523016_HEM_Obtusifoliol.pdb_6768.pdb o/523016_HEM_Obtusifoliol.pdb_6250.pdb o/523016_HEM_Obtusifoliol.pdb_9461.pdb o/523016_HEM_Obtusifoliol.pdb_3474.pdb o/523016_HEM_Obtusifoliol.pdb_3265.pdb o/523016_HEM_Obtusifoliol.pdb_7955.pdb o/523016_HEM_Obtusifoliol.pdb_9550.pdb o/523016_HEM_Obtusifoliol.pdb_2578.pdb o/523016_HEM_Obtusifoliol.pdb_4050.pdb o/523016_HEM_Obtusifoliol.pdb_6780.pdb o/523016_HEM_Obtusifoliol.pdb_3076.pdb o/523016_HEM_Obtusifoliol.pdb_4449.pdb o/523016_HEM_Obtusifoliol.pdb_2068.pdb 
10 o/523016_HEM_Obtusifoliol.pdb_9282.pdb o/523016_HEM_Obtusifoliol.pdb_8019.pdb o/523016_HEM_Obtusifoliol.pdb_7074.pdb o/523016_HEM_Obtusifoliol.pdb_5836.pdb o/523016_HEM_Obtusifoliol.pdb_8911.pdb o/523016_HEM_Obtusifoliol.pdb_1586.pdb o/523016_HEM_Obtusifoliol.pdb_2116.pdb o/523016_HEM_Obtusifoliol.pdb_1498.pdb o/523016_HEM_Obtusifoliol.pdb_8895.pdb o/523016_HEM_Obtusifoliol.pdb_12.pdb 
12 o/523016_HEM_Obtusifoliol.pdb_9613.pdb o/523016_HEM_Obtusifoliol.pdb_5054.pdb o/523016_HEM_Obtusifoliol.pdb_3558.pdb o/523016_HEM_Obtusifoliol.pdb_2598.pdb o/523016_HEM_Obtusifoliol.pdb_7319.pdb o/523016_HEM_Obtusifoliol.pdb_9494.pdb o/523016_HEM_Obtusifoliol.pdb_8943.pdb o/523016_HEM_Obtusifoliol.pdb_3539.pdb o/523016_HEM_Obtusifoliol.pdb_9290.pdb o/523016_HEM_Obtusifoliol.pdb_377.pdb o/523016_HEM_Obtusifoliol.pdb_5493.pdb o/523016_HEM_Obtusifoliol.pdb_2152.pdb 
10 o/523016_HEM_Obtusifoliol.pdb_9986.pdb o/523016_HEM_Obtusifoliol.pdb_3786.pdb o/523016_HEM_Obtusifoliol.pdb_9855.pdb o/523016_HEM_Obtusifoliol.pdb_5560.pdb o/523016_HEM_Obtusifoliol.pdb_6203.pdb o/523016_HEM_Obtusifoliol.pdb_5170.pdb o/523016_HEM_Obtusifoliol.pdb_6998.pdb o/523016_HEM_Obtusifoliol.pdb_4292.pdb o/523016_HEM_Obtusifoliol.pdb_8938.pdb o/523016_HEM_Obtusifoliol.pdb_1518.pdb 
11 o/523016_HEM_Obtusifoliol.pdb_9245.pdb o/523016_HEM_Obtusifoliol.pdb_7529.pdb o/523016_HEM_Obtusifoliol.pdb_5973.pdb o/523016_HEM_Obtusifoliol.pdb_5868.pdb o/523016_HEM_Obtusifoliol.pdb_5327.pdb o/523016_HEM_Obtusifoliol.pdb_5935.pdb o/523016_HEM_Obtusifoliol.pdb_3244.pdb o/523016_HEM_Obtusifoliol.pdb_9630.pdb o/523016_HEM_Obtusifoliol.pdb_3831.pdb o/523016_HEM_Obtusifoliol.pdb_2323.pdb o/523016_HEM_Obtusifoliol.pdb_2193.pdb 
13 o/523016_HEM_Obtusifoliol.pdb_5616.pdb o/523016_HEM_Obtusifoliol.pdb_7369.pdb o/523016_HEM_Obtusifoliol.pdb_468.pdb o/523016_HEM_Obtusifoliol.pdb_1332.pdb o/523016_HEM_Obtusifoliol.pdb_1296.pdb o/523016_HEM_Obtusifoliol.pdb_9047.pdb o/523016_HEM_Obtusifoliol.pdb_5782.pdb o/523016_HEM_Obtusifoliol.pdb_3900.pdb o/523016_HEM_Obtusifoliol.pdb_5553.pdb o/523016_HEM_Obtusifoliol.pdb_3318.pdb o/523016_HEM_Obtusifoliol.pdb_6823.pdb o/523016_HEM_Obtusifoliol.pdb_3347.pdb o/523016_HEM_Obtusifoliol.pdb_1192.pdb 
10 o/523016_HEM_Obtusifoliol.pdb_48.pdb o/523016_HEM_Obtusifoliol.pdb_8356.pdb o/523016_HEM_Obtusifoliol.pdb_3154.pdb o/523016_HEM_Obtusifoliol.pdb_9.pdb o/523016_HEM_Obtusifoliol.pdb_5215.pdb o/523016_HEM_Obtusifoliol.pdb_5820.pdb o/523016_HEM_Obtusifoliol.pdb_3521.pdb o/523016_HEM_Obtusifoliol.pdb_4255.pdb o/523016_HEM_Obtusifoliol.pdb_3622.pdb o/523016_HEM_Obtusifoliol.pdb_1304.pdb 
13 o/523016_HEM_Obtusifoliol.pdb_6080.pdb o/523016_HEM_Obtusifoliol.pdb_4669.pdb o/523016_HEM_Obtusifoliol.pdb_4348.pdb o/523016_HEM_Obtusifoliol.pdb_3569.pdb o/523016_HEM_Obtusifoliol.pdb_2544.pdb o/523016_HEM_Obtusifoliol.pdb_4183.pdb o/523016_HEM_Obtusifoliol.pdb_3359.pdb o/523016_HEM_Obtusifoliol.pdb_1528.pdb o/523016_HEM_Obtusifoliol.pdb_4983.pdb o/523016_HEM_Obtusifoliol.pdb_9285.pdb o/523016_HEM_Obtusifoliol.pdb_1360.pdb o/523016_HEM_Obtusifoliol.pdb_7767.pdb o/523016_HEM_Obtusifoliol.pdb_1018.pdb 
15 o/523016_HEM_Obtusifoliol.pdb_8350.pdb o/523016_HEM_Obtusifoliol.pdb_7171.pdb o/523016_HEM_Obtusifoliol.pdb_8467.pdb o/523016_HEM_Obtusifoliol.pdb_593.pdb o/523016_HEM_Obtusifoliol.pdb_5195.pdb o/523016_HEM_Obtusifoliol.pdb_3524.pdb o/523016_HEM_Obtusifoliol.pdb_3765.pdb o/523016_HEM_Obtusifoliol.pdb_6331.pdb o/523016_HEM_Obtusifoliol.pdb_2700.pdb o/523016_HEM_Obtusifoliol.pdb_1772.pdb o/523016_HEM_Obtusifoliol.pdb_2926.pdb o/523016_HEM_Obtusifoliol.pdb_5091.pdb o/523016_HEM_Obtusifoliol.pdb_1277.pdb o/523016_HEM_Obtusifoliol.pdb_6548.pdb o/523016_HEM_Obtusifoliol.pdb_1231.pdb 
10 o/523016_HEM_Obtusifoliol.pdb_4675.pdb o/523016_HEM_Obtusifoliol.pdb_8614.pdb o/523016_HEM_Obtusifoliol.pdb_3697.pdb o/523016_HEM_Obtusifoliol.pdb_5558.pdb o/523016_HEM_Obtusifoliol.pdb_8944.pdb o/523016_HEM_Obtusifoliol.pdb_4507.pdb o/523016_HEM_Obtusifoliol.pdb_9317.pdb o/523016_HEM_Obtusifoliol.pdb_3231.pdb o/523016_HEM_Obtusifoliol.pdb_5977.pdb o/523016_HEM_Obtusifoliol.pdb_1016.pdb 
10 o/523016_HEM_Obtusifoliol.pdb_6961.pdb o/523016_HEM_Obtusifoliol.pdb_6568.pdb o/523016_HEM_Obtusifoliol.pdb_4134.pdb o/523016_HEM_Obtusifoliol.pdb_3519.pdb o/523016_HEM_Obtusifoliol.pdb_902.pdb o/523016_HEM_Obtusifoliol.pdb_2153.pdb o/523016_HEM_Obtusifoliol.pdb_1939.pdb o/523016_HEM_Obtusifoliol.pdb_7336.pdb o/523016_HEM_Obtusifoliol.pdb_3677.pdb o/523016_HEM_Obtusifoliol.pdb_1013.pdb 
11 o/523016_HEM_Obtusifoliol.pdb_845.pdb o/523016_HEM_Obtusifoliol.pdb_7989.pdb o/523016_HEM_Obtusifoliol.pdb_4407.pdb o/523016_HEM_Obtusifoliol.pdb_7216.pdb o/523016_HEM_Obtusifoliol.pdb_6908.pdb o/523016_HEM_Obtusifoliol.pdb_4411.pdb o/523016_HEM_Obtusifoliol.pdb_1557.pdb o/523016_HEM_Obtusifoliol.pdb_3022.pdb o/523016_HEM_Obtusifoliol.pdb_9146.pdb o/523016_HEM_Obtusifoliol.pdb_5061.pdb o/523016_HEM_Obtusifoliol.pdb_110.pdb 
13 o/523016_HEM_Obtusifoliol.pdb_2343.pdb o/523016_HEM_Obtusifoliol.pdb_9340.pdb o/523016_HEM_Obtusifoliol.pdb_4919.pdb o/523016_HEM_Obtusifoliol.pdb_2917.pdb o/523016_HEM_Obtusifoliol.pdb_9370.pdb o/523016_HEM_Obtusifoliol.pdb_950.pdb o/523016_HEM_Obtusifoliol.pdb_270.pdb o/523016_HEM_Obtusifoliol.pdb_5452.pdb o/523016_HEM_Obtusifoliol.pdb_2044.pdb o/523016_HEM_Obtusifoliol.pdb_8262.pdb o/523016_HEM_Obtusifoliol.pdb_1815.pdb o/523016_HEM_Obtusifoliol.pdb_6969.pdb o/523016_HEM_Obtusifoliol.pdb_1545.pdb 
14 o/523016_HEM_Obtusifoliol.pdb_5880.pdb o/523016_HEM_Obtusifoliol.pdb_4954.pdb o/523016_HEM_Obtusifoliol.pdb_344.pdb o/523016_HEM_Obtusifoliol.pdb_6841.pdb o/523016_HEM_Obtusifoliol.pdb_1600.pdb o/523016_HEM_Obtusifoliol.pdb_2140.pdb o/523016_HEM_Obtusifoliol.pdb_7991.pdb o/523016_HEM_Obtusifoliol.pdb_1566.pdb o/523016_HEM_Obtusifoliol.pdb_5733.pdb o/523016_HEM_Obtusifoliol.pdb_3080.pdb o/523016_HEM_Obtusifoliol.pdb_5888.pdb o/523016_HEM_Obtusifoliol.pdb_6506.pdb o/523016_HEM_Obtusifoliol.pdb_4523.pdb o/523016_HEM_Obtusifoliol.pdb_1154.pdb 
13 o/523016_HEM_Obtusifoliol.pdb_8980.pdb o/523016_HEM_Obtusifoliol.pdb_7008.pdb o/523016_HEM_Obtusifoliol.pdb_7796.pdb o/523016_HEM_Obtusifoliol.pdb_4447.pdb o/523016_HEM_Obtusifoliol.pdb_1134.pdb o/523016_HEM_Obtusifoliol.pdb_8730.pdb o/523016_HEM_Obtusifoliol.pdb_6620.pdb o/523016_HEM_Obtusifoliol.pdb_6623.pdb o/523016_HEM_Obtusifoliol.pdb_5112.pdb o/523016_HEM_Obtusifoliol.pdb_2651.pdb o/523016_HEM_Obtusifoliol.pdb_1119.pdb o/523016_HEM_Obtusifoliol.pdb_2372.pdb o/523016_HEM_Obtusifoliol.pdb_1.pdb 
