10 o/271374_HEM_Clotrimazole.pdb_6852.pdb o/271374_HEM_Clotrimazole.pdb_5058.pdb o/271374_HEM_Clotrimazole.pdb_9353.pdb o/271374_HEM_Clotrimazole.pdb_5244.pdb o/271374_HEM_Clotrimazole.pdb_8738.pdb o/271374_HEM_Clotrimazole.pdb_6394.pdb o/271374_HEM_Clotrimazole.pdb_3052.pdb o/271374_HEM_Clotrimazole.pdb_7218.pdb o/271374_HEM_Clotrimazole.pdb_8530.pdb o/271374_HEM_Clotrimazole.pdb_2106.pdb 
10 o/271374_HEM_Clotrimazole.pdb_9352.pdb o/271374_HEM_Clotrimazole.pdb_8879.pdb o/271374_HEM_Clotrimazole.pdb_9617.pdb o/271374_HEM_Clotrimazole.pdb_8753.pdb o/271374_HEM_Clotrimazole.pdb_8615.pdb o/271374_HEM_Clotrimazole.pdb_8003.pdb o/271374_HEM_Clotrimazole.pdb_5491.pdb o/271374_HEM_Clotrimazole.pdb_3802.pdb o/271374_HEM_Clotrimazole.pdb_2865.pdb o/271374_HEM_Clotrimazole.pdb_1554.pdb 
11 o/271374_HEM_Clotrimazole.pdb_9865.pdb o/271374_HEM_Clotrimazole.pdb_7192.pdb o/271374_HEM_Clotrimazole.pdb_8745.pdb o/271374_HEM_Clotrimazole.pdb_407.pdb o/271374_HEM_Clotrimazole.pdb_2959.pdb o/271374_HEM_Clotrimazole.pdb_8195.pdb o/271374_HEM_Clotrimazole.pdb_4742.pdb o/271374_HEM_Clotrimazole.pdb_2235.pdb o/271374_HEM_Clotrimazole.pdb_3149.pdb o/271374_HEM_Clotrimazole.pdb_7045.pdb o/271374_HEM_Clotrimazole.pdb_1442.pdb 
12 o/271374_HEM_Clotrimazole.pdb_7918.pdb o/271374_HEM_Clotrimazole.pdb_4067.pdb o/271374_HEM_Clotrimazole.pdb_2528.pdb o/271374_HEM_Clotrimazole.pdb_4503.pdb o/271374_HEM_Clotrimazole.pdb_4552.pdb o/271374_HEM_Clotrimazole.pdb_243.pdb o/271374_HEM_Clotrimazole.pdb_2354.pdb o/271374_HEM_Clotrimazole.pdb_7992.pdb o/271374_HEM_Clotrimazole.pdb_7744.pdb o/271374_HEM_Clotrimazole.pdb_7281.pdb o/271374_HEM_Clotrimazole.pdb_2291.pdb o/271374_HEM_Clotrimazole.pdb_1161.pdb 
11 o/271374_HEM_Clotrimazole.pdb_7591.pdb o/271374_HEM_Clotrimazole.pdb_7178.pdb o/271374_HEM_Clotrimazole.pdb_6434.pdb o/271374_HEM_Clotrimazole.pdb_9460.pdb o/271374_HEM_Clotrimazole.pdb_4262.pdb o/271374_HEM_Clotrimazole.pdb_9848.pdb o/271374_HEM_Clotrimazole.pdb_425.pdb o/271374_HEM_Clotrimazole.pdb_9961.pdb o/271374_HEM_Clotrimazole.pdb_2092.pdb o/271374_HEM_Clotrimazole.pdb_9936.pdb o/271374_HEM_Clotrimazole.pdb_1212.pdb 
11 o/271374_HEM_Clotrimazole.pdb_8286.pdb o/271374_HEM_Clotrimazole.pdb_8056.pdb o/271374_HEM_Clotrimazole.pdb_7392.pdb o/271374_HEM_Clotrimazole.pdb_343.pdb o/271374_HEM_Clotrimazole.pdb_894.pdb o/271374_HEM_Clotrimazole.pdb_562.pdb o/271374_HEM_Clotrimazole.pdb_4363.pdb o/271374_HEM_Clotrimazole.pdb_7944.pdb o/271374_HEM_Clotrimazole.pdb_1373.pdb o/271374_HEM_Clotrimazole.pdb_5624.pdb o/271374_HEM_Clotrimazole.pdb_1155.pdb 
10 o/271374_HEM_Clotrimazole.pdb_6512.pdb o/271374_HEM_Clotrimazole.pdb_6674.pdb o/271374_HEM_Clotrimazole.pdb_8469.pdb o/271374_HEM_Clotrimazole.pdb_3049.pdb o/271374_HEM_Clotrimazole.pdb_9555.pdb o/271374_HEM_Clotrimazole.pdb_6716.pdb o/271374_HEM_Clotrimazole.pdb_3852.pdb o/271374_HEM_Clotrimazole.pdb_3360.pdb o/271374_HEM_Clotrimazole.pdb_6897.pdb o/271374_HEM_Clotrimazole.pdb_2575.pdb 
10 o/271374_HEM_Clotrimazole.pdb_7084.pdb o/271374_HEM_Clotrimazole.pdb_865.pdb o/271374_HEM_Clotrimazole.pdb_556.pdb o/271374_HEM_Clotrimazole.pdb_9578.pdb o/271374_HEM_Clotrimazole.pdb_3859.pdb o/271374_HEM_Clotrimazole.pdb_2794.pdb o/271374_HEM_Clotrimazole.pdb_5738.pdb o/271374_HEM_Clotrimazole.pdb_5805.pdb o/271374_HEM_Clotrimazole.pdb_4407.pdb o/271374_HEM_Clotrimazole.pdb_2379.pdb 
14 o/271374_HEM_Clotrimazole.pdb_7597.pdb o/271374_HEM_Clotrimazole.pdb_6093.pdb o/271374_HEM_Clotrimazole.pdb_8997.pdb o/271374_HEM_Clotrimazole.pdb_7195.pdb o/271374_HEM_Clotrimazole.pdb_4939.pdb o/271374_HEM_Clotrimazole.pdb_2663.pdb o/271374_HEM_Clotrimazole.pdb_6176.pdb o/271374_HEM_Clotrimazole.pdb_6961.pdb o/271374_HEM_Clotrimazole.pdb_8162.pdb o/271374_HEM_Clotrimazole.pdb_1956.pdb o/271374_HEM_Clotrimazole.pdb_724.pdb o/271374_HEM_Clotrimazole.pdb_5741.pdb o/271374_HEM_Clotrimazole.pdb_5158.pdb o/271374_HEM_Clotrimazole.pdb_120.pdb 
14 o/271374_HEM_Clotrimazole.pdb_7148.pdb o/271374_HEM_Clotrimazole.pdb_6362.pdb o/271374_HEM_Clotrimazole.pdb_8906.pdb o/271374_HEM_Clotrimazole.pdb_2589.pdb o/271374_HEM_Clotrimazole.pdb_7378.pdb o/271374_HEM_Clotrimazole.pdb_4376.pdb o/271374_HEM_Clotrimazole.pdb_3398.pdb o/271374_HEM_Clotrimazole.pdb_8493.pdb o/271374_HEM_Clotrimazole.pdb_2896.pdb o/271374_HEM_Clotrimazole.pdb_7697.pdb o/271374_HEM_Clotrimazole.pdb_9900.pdb o/271374_HEM_Clotrimazole.pdb_7120.pdb o/271374_HEM_Clotrimazole.pdb_2205.pdb o/271374_HEM_Clotrimazole.pdb_1466.pdb 
11 o/271374_HEM_Clotrimazole.pdb_4185.pdb o/271374_HEM_Clotrimazole.pdb_8716.pdb o/271374_HEM_Clotrimazole.pdb_3463.pdb o/271374_HEM_Clotrimazole.pdb_692.pdb o/271374_HEM_Clotrimazole.pdb_4256.pdb o/271374_HEM_Clotrimazole.pdb_6208.pdb o/271374_HEM_Clotrimazole.pdb_4091.pdb o/271374_HEM_Clotrimazole.pdb_222.pdb o/271374_HEM_Clotrimazole.pdb_9112.pdb o/271374_HEM_Clotrimazole.pdb_5936.pdb o/271374_HEM_Clotrimazole.pdb_1755.pdb 
12 o/271374_HEM_Clotrimazole.pdb_6175.pdb o/271374_HEM_Clotrimazole.pdb_9492.pdb o/271374_HEM_Clotrimazole.pdb_5400.pdb o/271374_HEM_Clotrimazole.pdb_7970.pdb o/271374_HEM_Clotrimazole.pdb_6301.pdb o/271374_HEM_Clotrimazole.pdb_8022.pdb o/271374_HEM_Clotrimazole.pdb_6791.pdb o/271374_HEM_Clotrimazole.pdb_7380.pdb o/271374_HEM_Clotrimazole.pdb_7660.pdb o/271374_HEM_Clotrimazole.pdb_5051.pdb o/271374_HEM_Clotrimazole.pdb_7594.pdb o/271374_HEM_Clotrimazole.pdb_1557.pdb 
14 o/271374_HEM_Clotrimazole.pdb_9633.pdb o/271374_HEM_Clotrimazole.pdb_6269.pdb o/271374_HEM_Clotrimazole.pdb_8833.pdb o/271374_HEM_Clotrimazole.pdb_5824.pdb o/271374_HEM_Clotrimazole.pdb_5919.pdb o/271374_HEM_Clotrimazole.pdb_439.pdb o/271374_HEM_Clotrimazole.pdb_4544.pdb o/271374_HEM_Clotrimazole.pdb_3842.pdb o/271374_HEM_Clotrimazole.pdb_7234.pdb o/271374_HEM_Clotrimazole.pdb_5982.pdb o/271374_HEM_Clotrimazole.pdb_426.pdb o/271374_HEM_Clotrimazole.pdb_9607.pdb o/271374_HEM_Clotrimazole.pdb_3459.pdb o/271374_HEM_Clotrimazole.pdb_185.pdb 
12 o/271374_HEM_Clotrimazole.pdb_9081.pdb o/271374_HEM_Clotrimazole.pdb_6680.pdb o/271374_HEM_Clotrimazole.pdb_4837.pdb o/271374_HEM_Clotrimazole.pdb_388.pdb o/271374_HEM_Clotrimazole.pdb_3251.pdb o/271374_HEM_Clotrimazole.pdb_9295.pdb o/271374_HEM_Clotrimazole.pdb_4253.pdb o/271374_HEM_Clotrimazole.pdb_4135.pdb o/271374_HEM_Clotrimazole.pdb_9395.pdb o/271374_HEM_Clotrimazole.pdb_3133.pdb o/271374_HEM_Clotrimazole.pdb_2170.pdb o/271374_HEM_Clotrimazole.pdb_1660.pdb 
10 o/271374_HEM_Clotrimazole.pdb_8964.pdb o/271374_HEM_Clotrimazole.pdb_8725.pdb o/271374_HEM_Clotrimazole.pdb_5740.pdb o/271374_HEM_Clotrimazole.pdb_9606.pdb o/271374_HEM_Clotrimazole.pdb_6517.pdb o/271374_HEM_Clotrimazole.pdb_8095.pdb o/271374_HEM_Clotrimazole.pdb_5837.pdb o/271374_HEM_Clotrimazole.pdb_219.pdb o/271374_HEM_Clotrimazole.pdb_1900.pdb o/271374_HEM_Clotrimazole.pdb_1683.pdb 
10 o/271374_HEM_Clotrimazole.pdb_9447.pdb o/271374_HEM_Clotrimazole.pdb_5374.pdb o/271374_HEM_Clotrimazole.pdb_7052.pdb o/271374_HEM_Clotrimazole.pdb_1355.pdb o/271374_HEM_Clotrimazole.pdb_6282.pdb o/271374_HEM_Clotrimazole.pdb_4013.pdb o/271374_HEM_Clotrimazole.pdb_6952.pdb o/271374_HEM_Clotrimazole.pdb_2822.pdb o/271374_HEM_Clotrimazole.pdb_2040.pdb o/271374_HEM_Clotrimazole.pdb_13.pdb 
11 o/271374_HEM_Clotrimazole.pdb_9181.pdb o/271374_HEM_Clotrimazole.pdb_8098.pdb o/271374_HEM_Clotrimazole.pdb_7750.pdb o/271374_HEM_Clotrimazole.pdb_8106.pdb o/271374_HEM_Clotrimazole.pdb_8402.pdb o/271374_HEM_Clotrimazole.pdb_644.pdb o/271374_HEM_Clotrimazole.pdb_4217.pdb o/271374_HEM_Clotrimazole.pdb_3671.pdb o/271374_HEM_Clotrimazole.pdb_3200.pdb o/271374_HEM_Clotrimazole.pdb_7187.pdb o/271374_HEM_Clotrimazole.pdb_262.pdb 
11 o/271374_HEM_Clotrimazole.pdb_6033.pdb o/271374_HEM_Clotrimazole.pdb_2700.pdb o/271374_HEM_Clotrimazole.pdb_8759.pdb o/271374_HEM_Clotrimazole.pdb_2100.pdb o/271374_HEM_Clotrimazole.pdb_3213.pdb o/271374_HEM_Clotrimazole.pdb_9037.pdb o/271374_HEM_Clotrimazole.pdb_4265.pdb o/271374_HEM_Clotrimazole.pdb_5866.pdb o/271374_HEM_Clotrimazole.pdb_4740.pdb o/271374_HEM_Clotrimazole.pdb_885.pdb o/271374_HEM_Clotrimazole.pdb_1927.pdb 
10 o/271374_HEM_Clotrimazole.pdb_5811.pdb o/271374_HEM_Clotrimazole.pdb_9966.pdb o/271374_HEM_Clotrimazole.pdb_6585.pdb o/271374_HEM_Clotrimazole.pdb_5720.pdb o/271374_HEM_Clotrimazole.pdb_2879.pdb o/271374_HEM_Clotrimazole.pdb_9020.pdb o/271374_HEM_Clotrimazole.pdb_3713.pdb o/271374_HEM_Clotrimazole.pdb_5221.pdb o/271374_HEM_Clotrimazole.pdb_3385.pdb o/271374_HEM_Clotrimazole.pdb_1387.pdb 
10 o/271374_HEM_Clotrimazole.pdb_9084.pdb o/271374_HEM_Clotrimazole.pdb_3703.pdb o/271374_HEM_Clotrimazole.pdb_9824.pdb o/271374_HEM_Clotrimazole.pdb_5732.pdb o/271374_HEM_Clotrimazole.pdb_6724.pdb o/271374_HEM_Clotrimazole.pdb_3747.pdb o/271374_HEM_Clotrimazole.pdb_9050.pdb o/271374_HEM_Clotrimazole.pdb_3748.pdb o/271374_HEM_Clotrimazole.pdb_9066.pdb o/271374_HEM_Clotrimazole.pdb_2286.pdb 
